1.4543e-06 0.34125 3.9166e-05 -2.8235e-05 2.4589e-06 -1.4159e-06 1.0283e-05 0.44425 6.2011e-07 -1.5065e-06 -4.6154e-06 -9.1895e-07 2.6425e-06 0.27598 -1.4424e-06 1.2137e-06 1.7765e-06 3.2767e-06 -0.00013244 1.0289e-06 1.9195e-05 -1.0169e-06 -3.1106e-06 5.7629e-05 -5.2238e-06 3.046e-05 1.7467e-05 -2.4477e-05 4.775e-05 -7.7765e-06 -2.4271e-06 -9.4499e-06 1.173e-05 8.0131e-06 -1.3314e-06 2.0833e-05 -6.0465e-06 7.5752e-06 2.8884e-06 5.9481e-06 2.2358e-06 -1.2864e-06 2.3015e-05 -7.1577e-06 7.2249e-06 5.5255e-05 1.844e-06 1.6311e-06 1.0188e-05 6.6e-06 -1.7795e-05 -1.8986e-05 2.8508e-06 1.3256e-05 -7.8059e-05 1.1087e-05 1.8169e-05 -1.929e-05 5.5362e-05 -0.00043237 0.00058443 0.00014088 0.00010623 -2.7586e-06 3.5415e-07 -1.0785e-05 -1.4007e-05 3.4355e-06 -3.7895e-05 0.00013846 1.6827e-05 -3.0965e-05 2.898e-05 6.9515e-08 -6.4084e-06 -0.00011531 -1.6622e-05 -5.5505e-05 0.000603 3.9954e-05
-1.2597e-07 -1.6167e-07 4.5868e-07 1.8679e-06 -6.8658e-08 1.1556e-07 6.6717e-06 7.1859e-07 -7.588e-08 -2.5808e-05 -2.6581e-05 0.50693 -2.0792e-06 -9.3097e-07 2.0673e-06 8.6041e-05 7.0739e-06 -1.4384e-06 -1.9148e-05 3.5417e-06 -1.231e-06 1.1039e-05 3.9037e-06 9.334e-06 -0.00027639 3.0747e-06 -3.2487e-06 4.4088e-05 3.1413e-05 2.5385e-06 -1.0391e-05 -1.3752e-06 2.4821e-05 -7.2042e-07 -2.7053e-07 1.9613e-05 4.2029e-07 -2.1462e-05 4.1517e-06 -1.7282e-07 1.4119e-05 0.64642 4.8104e-06 -1.7423e-06 -2.2026e-05 3.709e-05 2.9752e-06 3.981e-06 -1.8612e-06 -9.5676e-05 9.0155e-06 3.0274e-06 0.5813 2.1833e-05 -0.00051702 -4.9605e-06 2.3837e-05 -7.1561e-06 4.5245e-05 9.5222e-07 -2.1531e-06 -9.996e-05 -2.1721e-05 4.0102e-06 0.63189 1.5252e-05 5.7124e-06 3.0859e-06 -4.3648e-06 -7.8939e-06 -6.8356e-06 -1.7274e-05 2.8696e-07 1.6651e-06 -1.6369e-06 -0.00088731 7.3333e-06 2.6048e-05 5.5481e-07 -1.385e-05
-1.8815e-07 -3.4056e-07 0.00028982 0.29021 -7.2123e-05 -2.5509e-07 0.26524 4.0572e-06 -1.6979e-06 8.6033e-05 3.7386e-06 1.8747e-05 -8.1712e-06 1.059e-05 -1.5384e-06 2.4497e-06 -2.1876e-05 -1.494e-05 2.6846e-05 2.1341e-05 -4.6154e-06 1.3751e-05 3.4454e-06 0.26567 0.00011279 -5.9415e-05 1.4951e-06 4.4738e-05 -4.1338e-05 0.28375 0.00016892 1.0686e-05 0.22775 1.9188e-06 -4.0421e-06 4.8686e-05 -7.4941e-06 -1.009e-05 2.5051e-06 -8.3642e-06 -5.2403e-05 2.007e-05 -4.3479e-05 -7.4988e-06 -1.4534e-07 1.2325e-05 3.7184e-06 -3.3635e-06 7.8386e-06 4.7694e-05 -8.4371e-06 3.5434e-06 2.7983e-05 0.00040853 9.165e-06 -0.00035372 5.24e-05 -3.1933e-06 -2.577e-05 -0.00037586 0.00036534 -9.4543e-05 0.265 -0.00013322 -8.8535e-06 1.2213e-05 -1.0051e-05 8.3e-07 0.12401 0.15839 -0.00013713 -1.1685e-05 2.8534e-05 -5.8777e-06 -4.3213e-06 0.00034288 6.8106e-05 -7.8647e-05 -4.3398e-05 4.0634e-05
-3.6474e-06 4.1963e-05 -9.6517e-06 -2.0233e-05 -7.1957e-06 1.5442e-06 -3.1323e-06 7.5485e-06 -1.0775e-05 2.0848e-05 0.00061754 -1.5141e-06 2.6809e-06 -2.5024e-05 -1.1134e-05 0.00029686 0.29627 1.0175e-05 1.6273e-05 0.0019039 6.8154e-05 -0.00017344 -6.0149e-06 9.8297e-05 -3.938e-06 -8.7574e-06 8.5255e-06 6.3322e-07 -5.0214e-05 -2.1419e-06 0.00014919 0.00060621 0.00015934 4.1508e-06 -2.2431e-05 -8.6464e-05 3.3381e-06 2.4593e-06 -3.5789e-05 -3.9136e-06 -8.4095e-06 3.2921e-06 0.0027842 0.47805 0.00034639 -8.9468e-07 -1.1739e-05 1.4222e-05 -8.6137e-07 -4.0554e-05 3.0015e-05 2.1785e-05 3.9515e-05 -2.7508e-05 -0.00033243 -1.312e-05 1.5013e-05 0.74721 1.9296e-05 6.7039e-05 0.0015566 0.00037861 0.00027121 -5.5933e-06 -1.2538e-05 -0.00032764 0.0044184 0.68605 4.0248e-05 4.1863e-05 0.00018343 3.6176e-06 7.8934e-06 -7.996e-09 -1.6416e-05 -0.00040079 0.0030208 -1.1605e-06 2.2467e-05 -0.00011628
-3.2632e-07 8.4759e-06 -4.9226e-05 -4.4737e-06 -4.7697e-06 -7.5745e-07 3.9671e-05 0.40559 9.8177e-07 -1.7115e-06 -4.4683e-07 -1.0949e-06 2.9318e-06 2.629e-06 -9.7851e-07 1.9849e-05 -2.0314e-06 0.44286 -6.4516e-05 -1.5513e-05 1.9671e-05 1.3693e-06 -3.452e-05 -4.4322e-06 -1.0675e-05 -3.1322e-06 6.0669e-06 -2.1936e-05 0.0001626 5.7219e-05 -3.006e-06 0.00070103 -1.0361e-05 -8.9471e-06 0.00025407 5.7441e-06 -4.3361e-05 2.4712e-06 1.0877e-05 7.6244e-08 1.3572e-05 -2.8177e-07 -1.6577e-05 7.0377e-06 1.0663e-05 1.4488e-05 -1.5069e-06 4.5321e-05 1.4158e-05 -1.0196e-05 0.00010164 3.0263e-06 -2.6757e-06 -2.2835e-05 2.7736e-05 6.2875e-06 -6.7347e-06 -1.8987e-05 0.0023525 9.1906e-05 -5.0122e-05 -1.8085e-07 4.0762e-05 -0.00015531 -8.8979e-08 1.9006e-05 -0.00044051 1.9743e-05 9.0961e-06 1.6771e-05 3.7236e-05 -3.1753e-05 5.3466e-08 -1.5927e-06 -3.6345e-06 -3.9932e-05 -7.4626e-05 3.7081e-06 0.9998 9.5642e-06
8.4351e-07 8.9478e-06 0.20316 1.1782e-05 -1.5967e-05 6.9527e-06 -0.00014332 -7.5445e-05 -2.8166e-06 1.0003e-05 0.013517 0.35634 0.00011821 -8.78e-05 -3.86e-05 2.6497e-05 5.8212e-06 -0.00033326 -0.16514 -0.00026401 8.7882e-05 -0.00035989 -5.107e-06 0.00013081 -0.00019538 0.00018445 4.0781e-05 0.40509 -3.414e-05 -4.2412e-06 -4.7587e-05 0.0029302 0.00015887 3.7437e-05 3.669e-05 -0.00074034 -0.00011192 6.7124e-05 -3.8135e-05 1.1559e-05 -3.5274e-05 6.2678e-05 8.1826e-07 -1.2989e-05 0.23256 0.014535 -8.3832e-05 4.9975e-06 5.9852e-05 0.0029567 1.8223e-05 3.8697e-05 -1.4781e-05 -0.00018238 0.32201 3.3657e-05 0.00024459 -0.00035011 0.0073195 0.17074 -0.00021198 -0.0001808 -8.3084e-05 5.3244e-06 2.7496e-05 -0.00013456 -0.0030832 4.167e-06 -1.8462e-05 -2.155e-05 0.433 -4.2041e-05 -3.8812e-07 3.9677e-06 6.4155e-05 -0.32571 -0.00020196 -2.6156e-07 3.8862e-05 0.0032274
-2.2975e-06 -4.0976e-07 -0.00012207 -7.2834e-07 4.6178e-05 -9.4059e-07 -1.0245e-05 3.0365e-05 1.1762e-06 1.1571e-05 -1.7543e-05 2.2449e-05 0.00047787 3.1265e-05 -7.8635e-05 -5.6058e-06 4.2856e-05 -1.8698e-05 -0.00055562 6.9814e-06 9.2298e-06 -1.1765e-05 -6.797e-06 -0.00022326 0.0057468 -2.2779e-05 -1.6938e-05 7.8953e-05 -3.4185e-05 2.9879e-06 1.722e-05 2.0465e-06 0.00066782 -1.3011e-05 -4.7319e-06 -6.7166e-06 0.46335 -4.2587e-05 3.309e-05 1.0527e-05 -0.0003182 2.5599e-06 -1.2655e-05 -2.9062e-06 8.735e-05 0.00061443 -4.091e-05 -1.5165e-05 0.76502 0.0022254 8.3358e-05 -1.07e-05 -3.5273e-05 -1.3842e-06 -0.00023094 2.8693e-06 0.0027098 -5.5197e-06 9.2627e-06 0.00010404 -3.1948e-05 -2.072e-06 9.5078e-06 -4.2917e-05 -8.9843e-06 0.00029574 -1.4804e-06 1.2569e-05 -1.6853e-05 -4.9295e-05 -7.5251e-05 7.0387e-06 3.655e-07 2.5701e-05 7.285e-06 -2.626e-05 0.00065508 -0.00016268 -3.7185e-06 -8.4446e-05
-4.2453e-07 8.3792e-06 1.968e-06 -7.9289e-05 2.8801e-06 -5.0024e-06 0.00046396 5.8667e-05 6.1217e-07 8.5062e-05 -1.6498e-05 -2.8527e-05 -5.8329e-06 -2.0983e-05 -1.1634e-05 -4.2327e-06 3.1133e-05 0.0010213 4.1629e-05 -4.6896e-06 4.5329e-06 -8.5682e-06 -1.1166e-06 1.0267e-05 -1.7163e-05 -4.5538e-05 6.5776e-06 -5.2583e-06 -3.9164e-05 0.51377 0.00021235 0.00019263 0.00024197 -3.7699e-07 -0.00013795 2.9729e-06 -2.3657e-05 0.0001647 -2.701e-06 1.006e-06 -5.8407e-05 0.00084177 -2.2367e-05 2.8693e-06 -8.4932e-06 -5.7979e-05 7.7458e-05 -8.7059e-06 9.2338e-06 -9.5823e-05 -0.00011779 -8.4549e-06 -0.00013702 0.00059284 0.00016347 -5.1173e-06 -1.2598e-05 -4.1405e-05 0.002399 7.4842e-05 -8.3457e-05 -0.00031995 0.0005366 -5.3549e-05 9.0793e-06 -1.8775e-05 -0.00040527 -2.4494e-06 0.00022577 0.00021264 -1.5671e-05 -1.7997e-05 1.3689e-06 -2.2857e-05 2.9724e-06 -0.0014674 -0.00011197 -0.00041143 0.0067629 2.8458e-05
-1.8993e-06 -4.4799e-07 7.4784e-05 1.9704e-05 -1.3906e-05 -8.5003e-06 -8.0117e-05 1.1034e-06 -1.4342e-06 -9.6519e-06 3.5417e-05 -4.2463e-06 0.00039447 0.19584 0.40468 1.815e-06 1.5347e-05 -7.7868e-07 1.3436e-05 0.36135 1.3794e-05 2.0433e-05 -5.0441e-06 5.976e-05 -3.5556e-06 -2.5762e-05 0.42197 1.1043e-05 3.1737e-05 1.4563e-05 8.1457e-06 -6.0921e-05 0.23778 4.6547e-05 3.5726e-05 -0.00015216 0.3255 1.7284e-05 -2.5869e-05 -3.8695e-06 -1.5109e-05 2.9308e-06 -7.1127e-06 6.5021e-05 0.0002983 9.7166e-05 -3.9023e-05 8.5733e-06 -2.1986e-05 -1.4374e-05 2.8853e-05 -2.9627e-06 4.2954e-05 -3.5571e-05 0.00015955 -1.4089e-05 3.9814e-05 0.0023034 -0.0002721 -0.00065063 -2.8222e-05 -0.00083706 0.00028331 -5.5862e-05 -4.9639e-06 -5.6492e-06 3.8593e-05 0.00047983 3.7413e-05 3.7329e-06 1.3148e-06 -4.099e-07 1.7584e-06 1.3241e-05 -4.9752e-06 0.00045272 0.00016196 6.1076e-05 2.3294e-06 0.00037951
-1.2624e-06 -8.2225e-07 0.17676 5.1456e-07 -9.5195e-06 -9.4858e-06 -2.4089e-05 -1.6491e-05 1.3377e-05 -5.9171e-06 -0.00019822 -2.0992e-06 -3.7732e-06 0.18714 7.7365e-06 7.6462e-06 1.3195e-05 1.1615e-05 -0.15141 0.34495 6.23e-05 3.6467e-05 -4.9253e-05 -0.00038731 -3.2832e-05 -0.00078925 -0.00010302 -9.7298e-05 -8.6211e-05 -8.7384e-06 -3.2534e-05 -1.982e-05 -0.00037841 -8.329e-05 -5.2017e-05 0.41252 7.3279e-05 -0.00019374 0.33904 -5.7319e-05 3.4238e-05 2.3263e-05 -2.3163e-05 -1.0053e-05 -2.0589e-05 0.006985 -2.2019e-05 -8.9767e-06 -0.0002259 5.4005e-05 0.00017199 0.47602 -3.5556e-05 2.2412e-05 0.00018954 -8.9537e-06 1.8383e-05 -4.3253e-05 -0.00012353 0.26087 0.00029597 8.7065e-05 0.00023896 0.00012235 -3.7779e-05 7.6032e-05 9.9527e-06 -3.6371e-05 -4.1385e-05 1.2452e-05 -5.6703e-05 3.4645e-06 1.5891e-05 -9.1048e-06 -0.00015922 0.0011708 -0.00014594 -2.9303e-05 1.1775e-05 -0.0061113
-9.2336e-07 3.8784e-07 -3.9563e-06 1.2535e-05 8.5071e-05 5.6e-06 -1.3436e-05 2.2797e-06 -8.0104e-08 -1.2707e-05 -1.2312e-05 5.7725e-07 -1.6901e-05 3.4074e-05 1.2474e-05 -6.8278e-06 2.0643e-05 -0.00097821 -0.00020324 3.0865e-05 4.4761e-05 -8.4152e-06 -1.514e-05 -6.0528e-05 -0.0001351 0.34711 -1.5744e-05 2.7589e-05 1.3103e-05 2.0464e-06 -0.00014068 0.00012981 -0.00038263 -8.3253e-06 0.49459 0.00015072 -0.00012881 -1.381e-05 2.059e-05 -3.6522e-05 1.7464e-05 7.567e-06 -7.1081e-06 -1.2206e-06 -1.7003e-05 0.00015073 -0.0003461 -1.6482e-05 -3.8637e-06 4.0833e-05 2.4169e-05 1.7152e-05 1.3487e-05 0.38758 2.5971e-05 -8.6016e-08 4.972e-06 -1.8564e-05 -0.00021281 -0.00050276 -0.00010312 9.318e-06 -5.4592e-05 3.2316e-06 -9.3739e-06 -0.00013469 8.1838e-06 2.1051e-05 -3.1155e-05 -4.7307e-05 -0.0001378 -0.00026482 1.1726e-06 6.8161e-06 -1.0175e-05 0.00054875 -2.2496e-05 -4.0218e-05 -2.8673e-05 -0.0079766
8.0618e-07 -6.3352e-07 0.28318 1.6642e-05 0.0012528 5.847e-05 4.213e-06 -2.1835e-05 -6.8098e-06 -1.0789e-05 0.00016388 4.4981e-06 0.0006103 -0.00017047 -1.8824e-05 -3.8313e-06 4.336e-05 -4.0565e-05 -0.23169 -0.00027089 0.00028559 3.365e-05 6.133e-07 9.8565e-05 -9.4736e-05 0.0026862 9.2601e-05 0.0020485 -8.6045e-05 -1.0943e-05 0.0010239 -7.6965e-05 5.2636e-05 -0.00015693 0.001045 -0.0015601 -7.9232e-05 -5.8106e-05 -0.00017735 2.6162e-06 -0.00017589 -7.8875e-05 -4.5638e-07 -4.5905e-06 7.2375e-05 0.017914 -0.00025648 0.00010212 6.6439e-05 0.0036266 -0.00024957 -0.00013877 8.8049e-05 0.0006235 0.45223 2.9623e-05 0.0004235 -5.3332e-05 -0.00018649 0.27117 -0.00021321 -0.00014307 -0.00013542 -5.6288e-05 -2.1378e-05 6.0941e-05 4.7713e-06 3.7701e-06 -4.5879e-05 -3.4324e-05 -0.0002399 -6.4387e-05 -2.3582e-06 -1.4159e-05 0.00014683 -0.46393 0.00054191 -8.1596e-05 -1.4094e-05 -0.0077515
5.9924e-08 1.071e-06 -3.7055e-05 3.976e-05 -9.9692e-06 -1.5722e-07 0.00011662 5.689e-06 -5.7625e-07 -7.5531e-06 4.4702e-05 -1.1544e-05 5.3881e-06 -5.2775e-06 2.9182e-06 0.00019191 6.8175e-07 -2.797e-05 7.9076e-06 7.4047e-07 7.8363e-06 0.61676 4.2736e-05 5.7308e-05 -2.0722e-05 1.7153e-05 -2.9897e-06 -6.6178e-05 5.6163e-06 -7.1432e-06 -2.4788e-05 1.0842e-05 0.00015869 2.527e-05 -1.6745e-06 -3.3588e-05 1.0849e-05 1.2617e-05 -5.9339e-05 5.8436e-07 1.7944e-06 1.3734e-06 -4.6963e-05 0.0011414 0.00038789 -9.5411e-06 -7.7858e-07 0.53562 -5.4727e-06 1.0705e-05 0.0002359 8.5622e-06 1.7575e-05 0.00059283 2.4718e-05 8.7831e-06 0.00017549 1.4067e-05 -5.4008e-05 1.2583e-05 0.42173 -7.2928e-05 -0.00011082 6.7288e-06 3.8004e-07 0.00011843 -3.1854e-05 8.8412e-05 -9.6894e-05 -0.00011671 0.54546 -0.00010465 -5.1519e-07 -4.4261e-06 1.0231e-06 4.2501e-05 -1.2436e-05 -5.844e-05 1.1652e-05 -1.4035e-05
0.2545 0.20401 0.00027602 2.7242e-06 -2.5814e-05 -5.9538e-06 0.0002164 -5.691e-07 0.00050426 0.00038334 -3.3869e-06 -4.1431e-06 0.00032652 0.16513 0.00043074 2.1591e-05 0.0006603 0.00092719 3.6045e-05 2.2595e-05 4.6884e-05 2.3919e-05 0.37692 -7.5472e-05 0.00079007 0.00084785 -6.5355e-05 0.00032277 0.29413 6.8914e-06 -2.3452e-05 0.000985 0.20115 -7.8023e-06 0.00023299 4.8279e-05 0.27536 -1.0106e-06 5.6309e-05 8.4622e-06 -0.00011073 2.2185e-05 0.0012231 -2.7877e-05 0.00039084 -7.8191e-05 0.001344 -1.9408e-05 -1.9459e-05 -0.00045258 0.00053889 -0.00011972 -2.0649e-05 0.27117 -0.0022533 -3.9237e-05 0.0001335 -0.00070254 0.0050284 -0.00057708 -0.00012879 -3.6067e-05 -8.2259e-05 0.0029162 -2.3287e-05 -0.00010941 0.00016209 0.00022303 -8.497e-05 -4.8876e-05 -0.00032266 8.4936e-06 5.7237e-06 1.5454e-05 -1.9746e-05 -0.0038863 -0.00019976 0.00033118 2.774e-05 0.00014628
1.2491e-06 -2.086e-06 0.0002712 2.668e-05 -5.8829e-05 1.5489e-06 1.9872e-05 1.3814e-05 -1.1509e-05 -1.3251e-05 0.21763 -2.2246e-05 -6.589e-06 -5.9459e-05 -2.14e-05 -6.632e-05 -2.3537e-05 7.3054e-06 -5.3111e-05 1.9882e-05 -5.018e-06 0.41933 0.39158 -0.00016352 0.2503 -0.00044507 7.3567e-06 -5.1051e-05 -5.5255e-05 -9.0771e-06 -9.2715e-05 -5.8828e-05 0.21131 -1.0334e-05 -2.2863e-05 5.3995e-05 -0.00010684 3.1206e-06 -1.7128e-06 -5.3454e-06 3.4033e-05 1.5161e-06 1.3362e-05 2.3237e-05 0.21178 5.609e-05 -9.5976e-05 0.00033132 -5.6829e-06 -0.00013495 0.38994 -2.2756e-06 -0.00021752 0.29541 -0.00060378 1.148e-05 -0.00036587 -1.2025e-05 -0.00020658 -0.00071859 0.0031198 9.7992e-06 -0.00010948 9.2331e-06 4.167e-07 0.38756 3.1924e-06 -0.00026045 -4.6715e-05 -7.8719e-05 0.37403 -3.4584e-05 8.6184e-07 -6.4536e-05 -6.3378e-06 -0.00075856 -0.00028937 -9.5841e-05 2.2397e-05 -6.9316e-05
0.35931 0.28847 -0.00033611 -2.3098e-05 1.4809e-05 -1.5233e-07 1.6561e-05 1.7668e-10 0.37159 -3.4627e-06 6.1967e-05 -5.139e-07 0.00016327 -6.2546e-05 8.9456e-06 5.7443e-09 -2.5545e-06 2.259e-06 -7.7424e-05 -0.0001402 7.744e-06 -4.7199e-06 1.1316e-05 4.2645e-05 2.9492e-06 0.00013354 2.4299e-05 5.7342e-05 1.4827e-05 1.7606e-06 6.2224e-06 4.8412e-06 8.9605e-05 -3.2676e-05 -3.1361e-05 0.49716 -6.0707e-06 7.9819e-05 -0.00018839 0.64524 -4.542e-05 -8.1297e-06 4.2568e-05 3.8442e-06 -5.2667e-07 0.00035851 -2.5561e-07 1.0257e-06 -1.6286e-05 -3.3563e-05 -3.8132e-05 0.00038056 4.8112e-05 -5.8479e-06 -7.9598e-05 0.00023112 1.0983e-05 -2.0236e-05 0.00012708 -0.0025204 -7.2282e-05 9.0137e-05 3.973e-05 -0.00017343 1.6916e-05 -2.64e-05 -1.7166e-05 5.0409e-06 -3.5561e-05 7.0932e-05 1.9338e-05 3.3783e-06 -3.3915e-06 -1.1119e-05 1 -0.00050135 -2.6902e-05 -4.8978e-05 -1.1615e-05 0.002072
0.33636 0.26984 5.923e-05 0.00038411 6.1233e-07 1.3602e-07 0.31236 5.0481e-06 0.3477 -5.4698e-06 -7.5962e-06 4.6603e-07 2.0723e-06 -1.9821e-06 9.0261e-06 3.357e-06 -1.799e-05 -3.303e-05 5.8418e-05 -5.5019e-05 -1.0211e-05 -1.1951e-05 -1.4069e-05 -0.00025177 1.1223e-05 -8.3475e-06 3.681e-05 -2.3266e-05 -7.4218e-05 1.939e-05 3.8341e-06 -3.3423e-06 -2.5447e-05 2.5638e-06 -1.1393e-05 6.8984e-06 -2.6601e-05 -5.2297e-06 -3.5732e-06 1.8921e-05 -3.9538e-06 2.2483e-05 0.48076 1.2995e-06 7.9888e-06 -5.3976e-05 -5.0385e-05 8.6777e-06 1.0346e-05 2.8687e-05 -1.1868e-05 2.8189e-05 -4.0194e-05 -1.3054e-06 3.2337e-05 0.079295 -5.8194e-06 -3.1038e-05 4.4497e-05 -7.9183e-05 -4.6245e-05 -0.00045336 0.00063827 -0.0056723 3.9133e-07 1.9562e-05 -0.00010209 -0.00062277 -0.001929 -0.001111 -3.8327e-05 9.862e-07 5.4907e-07 6.5994e-07 -1.5712e-05 0.0002534 -7.2136e-05 3.6676e-05 -2.4174e-05 -1.7255e-05
2.6995e-07 2.529e-07 0.00017052 0.24735 0.24028 -6.6717e-06 -2.5844e-05 -4.3486e-05 -8.7376e-07 -2.5476e-05 6.0845e-05 -1.3659e-06 -3.1449e-05 0.15952 2.6984e-05 -3.7906e-05 0.2279 -8.4303e-05 -6.6675e-05 2.7054e-07 1.85e-05 -4.4716e-05 -4.8533e-06 0.22869 -0.00059567 -3.5803e-06 -8.1594e-05 3.8966e-05 0.29242 -6.4286e-05 -2.2744e-05 2.773e-05 0.19439 -2.0928e-05 0.00022692 1.3129e-05 -2.253e-05 5.713e-05 7.7673e-06 2.7113e-05 0.00018876 3.3779e-05 -5.7649e-05 -7.1571e-05 3.3875e-05 2.4038e-05 -0.00011271 1.5779e-05 1.5633e-05 0.34272 3.0328e-05 3.9215e-06 -0.00018492 -3.7657e-05 0.11647 3.0301e-05 0.36033 -0.0001343 -0.00012865 -6.7295e-05 -3.4549e-05 6.0027e-05 0.23056 -9.2291e-05 -4.8044e-06 8.1861e-05 -0.00010809 -0.00013646 0.10768 0.13814 8.7859e-05 -3.2681e-05 3.5484e-06 0.69481 -1.9123e-05 0.17707 0.3168 -0.0099185 5.147e-05 0.002992
3.289e-07 -4.6982e-06 -4.3789e-06 -4.0076e-06 -1.04e-05 -6.6129e-07 -1.1624e-05 2.1602e-06 -2.2441e-05 8.6754e-05 0.22757 2.0876e-06 -4.9481e-06 -5.118e-05 0.37141 -7.754e-05 4.8457e-05 -2.765e-05 4.2563e-05 0.00035258 3.0641e-06 -4.9202e-05 -2.9024e-06 5.1652e-07 -2.2093e-05 0.00011373 -5.2556e-06 -4.5081e-06 -1.3307e-05 -1.8172e-06 6.7814e-06 0.00034165 -8.6814e-05 2.6027e-06 -2.2262e-05 -4.4709e-05 -5.7395e-05 -2.9928e-06 -5.5464e-06 1.3064e-06 -3.9534e-05 3.4917e-06 3.2856e-05 -4.3845e-05 0.22214 -5.1228e-05 5.4758e-05 2.6623e-05 1.8397e-08 9.2338e-06 -0.0002497 -2.1092e-06 -6.0842e-06 0.00025389 -3.9166e-05 -2.022e-06 3.1316e-05 -5.84e-05 0.01514 0.0001389 -0.00020653 -8.2444e-05 3.64e-06 -6.6118e-05 -8.9085e-07 -0.00033352 -0.00081807 -0.00046873 4.7207e-06 1.2416e-05 1.9978e-05 -8.2395e-06 1.758e-06 1.233e-06 1.383e-06 4.6754e-05 0.0012372 5.8435e-06 5.139e-06 9.5669e-06
-2.0825e-06 2.7576e-05 -0.039198 1.0824e-05 6.2166e-05 2.9246e-05 0.2074 2.1565e-05 1.1052e-06 0.00044333 0.18742 -5.2531e-05 0.00018389 -7.4807e-05 -1.8449e-05 -0.00010177 -2.688e-05 -4.9521e-05 -0.15088 0.26912 0.00043813 1.6935e-05 8.8018e-06 9.918e-05 -1.4128e-05 -0.00010986 0.0013421 -8.1438e-05 4.8763e-05 1.2082e-05 0.0015502 0.00054019 -5.9337e-05 -1.6262e-05 -0.00011331 -1.2057e-05 0.2518 3.6288e-05 6.0017e-05 -2.2626e-05 0.28423 -7.0747e-05 -8.4727e-05 -6.372e-05 0.18053 0.38224 0.00050419 -6.7151e-05 -0.00014045 0.0017787 -0.0016556 -2.2937e-05 9.6565e-05 5.1964e-05 0.23847 -0.0001944 0.00049765 8.6659e-05 -0.00044614 -0.026214 0.0012963 0.36544 -0.00016541 -0.00018756 -2.0912e-05 -0.00013138 -1.8396e-05 -0.00052341 -3.3878e-05 -3.4722e-05 -4.0551e-06 -2.6558e-06 4.2849e-06 1.2002e-05 3.6122e-06 -0.247 0.00096123 -5.6326e-06 2.3208e-07 0.000185
4.0052e-06 0.20404 5.0352e-05 1.1553e-05 0.00018711 -3.6462e-06 5.4186e-05 -1.6042e-06 -7.7016e-06 0.00015989 0.0033748 4.4029e-06 -4.7544e-06 0.00012447 0.00037395 0.454 2.6038e-05 -9.8094e-05 -2.7424e-05 -7.7937e-05 5.4985e-05 0.40733 -8.7707e-05 -6.9831e-05 0.0008651 -0.00010626 -1.5549e-05 0.00029388 0.00046451 1.3397e-06 -6.4536e-05 -0.00061444 0.00017576 3.1356e-06 1.6125e-05 1.8805e-05 -4.0059e-05 -1.6923e-05 -2.193e-05 8.6634e-06 -2.506e-05 -4.4479e-06 -0.00046179 -0.00019839 0.0011264 5.121e-05 0.00023847 -1.9457e-05 -3.0843e-06 0.0013655 -0.00088573 8.5492e-07 -0.00022282 7.3778e-05 0.0056394 4.0401e-05 -0.00013872 -0.0006669 0.38661 -0.00021671 0.00082957 -0.00032432 -4.5845e-05 2.774e-05 -3.3121e-06 0.0020518 0.43557 0.45251 -4.3853e-05 -3.3078e-05 -0.0001407 3.3584e-06 -4.3924e-06 1.9104e-06 -2.9733e-06 0.0084777 -0.0013047 -0.00025459 -8.398e-05 -0.00078442
1.3726e-06 9.617e-08 0.23956 1.2957e-05 1.2686e-05 -9.4529e-06 -1.8236e-06 -4.5094e-05 -5.6555e-06 -1.2727e-05 0.00013066 -1.1893e-06 5.0572e-05 0.23316 -3.0618e-05 2.5687e-05 1.5857e-05 1.681e-05 -0.19704 -0.00019167 0.00015544 3.7791e-05 -4.4383e-07 4.361e-05 -9.5376e-05 0.34538 6.6512e-05 0.47262 -3.9427e-05 -1.3278e-05 -5.4448e-05 -5.3894e-05 -7.7856e-06 -0.00010255 -4.2828e-05 -0.00099736 -5.7846e-05 -1.2632e-06 -0.00012509 5.9425e-06 1.1135e-05 -2.6166e-05 2.865e-05 1.8318e-05 -2.0221e-05 0.016219 -0.00033133 0.49562 6.1319e-06 -0.00030634 -0.00011454 -5.9116e-05 3.5382e-06 -0.00018788 0.0001843 1.8744e-05 0.00023563 -2.7564e-05 -0.00015731 0.22335 -0.00010817 -1.276e-05 -3.1708e-05 -3.2862e-05 -3.9811e-05 7.1711e-05 6.8584e-06 -3.884e-06 -5.7901e-05 -3.3171e-05 -0.00025288 6.1524e-07 -7.6042e-07 8.2045e-06 7.7184e-05 -0.004964 -9.6837e-07 7.1007e-05 2.0655e-06 0.0013761
0.42514 0.34125 -2.6665e-05 -0.00017186 -1.5758e-07 5.086e-07 -0.00024129 -9.4987e-07 0.43967 -3.7143e-06 1.2966e-06 -1.0003e-06 2.0942e-06 9.7706e-07 1.2938e-05 -2.2418e-07 -2.61e-06 5.9055e-06 -1.6993e-05 3.6819e-05 4.2565e-06 -5.9208e-07 5.1922e-06 -0.00011426 -5.184e-07 6.9688e-07 6.271e-06 9.8284e-06 -1.5194e-05 -1.3258e-07 2.7307e-07 -8.4461e-06 -8.4882e-07 3.3008e-07 -8.3279e-07 -1.8985e-05 1.9245e-06 9.1327e-08 -4.2443e-07 9.3376e-06 3.9004e-06 -2.6169e-06 -0.00027777 -3.4415e-08 -1.4605e-05 2.0365e-05 6.1625e-06 1.6715e-06 -1.8199e-06 -3.1765e-07 8.9226e-06 -6.6941e-06 1.9728e-06 1.9696e-06 -3.0763e-05 0.45104 -9.0895e-07 -1.8531e-05 6.7128e-05 2.5191e-05 1.4399e-06 0.00020294 0.00021107 0.00034919 7.2351e-08 4.462e-06 -6.4588e-06 2.9583e-05 0.00037532 0.00062864 1.5577e-05 2.1971e-07 3.8242e-07 -3.2567e-08 -1.352e-05 -8.3823e-05 8.372e-06 5.7974e-06 -9.4678e-06 2.0793e-06
1.1529e-06 4.3628e-05 -2.0124e-05 -0.0001567 2.086e-05 -1.3575e-08 1.3802e-05 1.3148e-05 -1.0717e-06 9.3979e-05 6.896e-06 2.5787e-07 1.8504e-06 -2.0002e-05 3.0572e-06 0.00010579 -2.4702e-05 -0.00013028 -2.8052e-05 4.0206e-06 4.3118e-06 -0.00031319 2.6428e-05 0.00026853 -8.8133e-06 9.0291e-07 2.2861e-06 -2.2355e-05 -8.362e-05 -2.3911e-05 -1.7326e-05 0.0019032 -4.814e-05 2.1814e-06 4.0242e-06 -1.7419e-05 3.44e-05 6.5996e-06 -5.2855e-06 1.6629e-06 8.7104e-05 2.4899e-06 3.8488e-06 0.0014776 0.0002023 2.2784e-05 0.00050071 1.9694e-06 1.5309e-06 1.3415e-05 0.4981 4.7424e-06 4.3227e-06 -2.9089e-05 0.00044371 -1.0984e-06 1.9319e-05 0.0008615 -0.00026077 -3.7569e-05 0.00023957 7.8375e-05 0.00013875 8.3893e-06 7.7695e-07 0.49505 -9.0296e-05 2.7912e-05 0.00045306 0.0004437 0.0043445 2.2577e-05 -5.727e-06 -7.2641e-06 2.2109e-06 0.00071369 -0.00014358 9.0582e-05 2.4542e-06 0.00014438
-1.1077e-06 1.039e-07 0.00030774 -0.050597 -4.4847e-05 -3.8223e-06 4.0463e-06 2.9175e-06 -2.0728e-06 0.40166 -1.5642e-05 -1.8785e-05 3.2893e-05 -2.8635e-06 3.3678e-05 -1.7117e-05 -5.3146e-05 -1.107e-05 3.0234e-06 1.9179e-05 1.3138e-05 8.3189e-06 1.7975e-06 0.33279 7.8355e-05 -4.2407e-05 1.2636e-07 -5.3824e-07 -9.6393e-05 8.3544e-05 -7.3115e-06 1.2299e-05 0.28424 -2.7855e-05 1.2865e-05 4.6624e-05 3.4547e-06 -8.8696e-06 -2.5282e-05 -7.566e-06 2.0142e-05 -1.6624e-05 -2.834e-05 0.54 -4.1471e-06 4.6082e-06 -4.0432e-05 1.6707e-05 1.2464e-05 0.00016704 1.3613e-05 -4.2567e-06 2.017e-05 -0.00010921 8.6989e-05 -4.1089e-05 0.00011822 -1.1693e-05 -5.7151e-06 -0.0003558 3.7269e-05 -1.4662e-05 0.3324 1.532e-05 -1.4166e-05 -3.6842e-05 -2.7941e-05 4.1194e-05 0.13407 0.23184 -5.763e-05 -3.2982e-05 2.7093e-06 1.5848e-05 9.2345e-08 0.00045146 -2.1969e-05 -0.00017212 1.4588e-05 -1.9185e-05
4.1568e-07 2.9617e-07 -0.001404 2.3582e-05 -0.00011652 9.4886e-05 7.3909e-05 7.0948e-06 1.0323e-06 0.53235 -1.6257e-05 -2.4359e-05 0.43092 -3.1807e-06 -4.7519e-06 -1.6182e-05 9.3142e-06 -1.9425e-05 -0.0052544 0.00011017 9.0726e-05 -4.7728e-06 2.9823e-07 2.6153e-05 2.1816e-06 8.399e-06 -0.00015313 -7.202e-06 -3.1612e-05 5.5583e-05 0.00015247 -1.6958e-05 -4.3763e-06 -4.7223e-05 0.00031953 1.3217e-06 0.00076505 2.2438e-06 -1.367e-05 0.00024956 0.58884 -1.3632e-05 -4.7655e-05 -1.4621e-05 2.9936e-05 0.0054787 -6.7153e-05 7.6461e-06 9.6643e-06 7.5753e-05 8.3602e-05 2.1895e-06 6.7221e-06 -1.4775e-05 0.00048508 4.1135e-06 -1.1316e-05 1.7106e-05 1.9751e-05 -0.00093545 3.2526e-06 0.0047307 -0.00016091 -8.42e-06 -6.7424e-06 1.8151e-05 5.616e-06 -1.8973e-06 -5.5156e-05 -8.0722e-05 -2.9036e-05 -4.2465e-05 1.7546e-06 5.7925e-06 -0.00010653 0.00061543 0.00057898 -4.9269e-05 1.2241e-05 0.0011738
-5.179e-07 -8.9722e-07 0.00019237 8.3793e-07 2.3336e-05 2.2709e-07 0.0003412 2.311e-05 -6.1822e-07 -9.4118e-06 4.5407e-05 5.1884e-05 -0.00029475 0.00028237 -5.17e-05 -2.4047e-05 7.271e-05 3.0359e-05 0.00022107 -3.0818e-05 -1.4679e-06 -0.00013295 -2.4122e-05 -0.00026816 0.0035476 -5.8365e-06 2.5417e-05 1.584e-05 -8.2188e-05 6.9127e-06 -4.2618e-06 -1.2421e-05 0.20968 1.2279e-06 1.4118e-06 8.2675e-06 -0.0002583 -1.2733e-05 0.00020106 -2.3255e-05 0.3343 1.137e-05 -3.2987e-05 0.0017753 0.00068819 -0.00015438 1.6025e-06 -1.4539e-05 0.0010842 0.0013634 -0.00064614 -4.8376e-05 -4.2367e-05 -0.00017184 -0.00035924 -1.1803e-06 0.0016939 -2.9074e-05 -0.00023525 -0.00021562 -4.467e-05 -0.00055885 0.00011178 -6.5358e-05 -4.9572e-06 0.39998 1.2187e-05 -0.00014231 -8.1006e-06 -4.6024e-06 -0.00033442 7.4349e-06 -3.3697e-06 1.1612e-05 9.0738e-06 -0.00038249 0.35108 -0.00020583 5.6646e-06 -0.0020217
8.7814e-06 7.9046e-05 0.00020843 3.8583e-06 -0.00010162 -5.9676e-06 7.1346e-05 -3.8223e-06 1.2686e-05 0.0002329 0.2025 -2.8186e-06 -3.7813e-06 0.0004201 0.00031294 -2.9394e-05 0.22779 -0.00011752 3.5511e-05 -1.7179e-05 5.1931e-05 -2.3525e-05 5.8331e-06 0.00062655 0.0008127 0.00091366 -2.3553e-05 0.00031727 0.00035609 1.4638e-05 2.566e-06 0.0010237 0.20375 -8.6578e-06 -9.7735e-05 3.4407e-05 2.3771e-05 -1.0546e-05 3.3642e-06 -3.542e-07 -8.2381e-05 1.555e-06 -3.0517e-05 -8.7926e-05 0.19777 -1.0551e-05 0.00071313 1.1723e-08 -2.6339e-06 -0.00033924 0.00052574 -9.4498e-06 -3.0863e-05 6.9013e-05 -0.0011865 0.00019336 8.2487e-05 -0.00068258 0.0048447 -0.00040575 -0.00073356 -9.0955e-05 -0.00044214 -2.0757e-05 -2.2932e-05 -0.00078473 0.00017307 -3.3802e-05 -0.00010265 -3.9802e-06 -0.00016969 -1.0255e-05 1.1963e-06 -9.7337e-05 -1.0225e-05 -0.0026946 -0.00075315 -0.00082898 3.214e-05 -0.001157
1.7602e-07 -2.9149e-07 0.00019466 -8.6435e-07 -1.864e-05 -4.0909e-07 -8.3797e-06 3.5895e-06 3.6707e-07 -2.8532e-05 -2.2211e-06 -1.4879e-06 -2.2879e-05 3.0855e-05 5.8729e-06 4.2295e-05 3.3238e-05 -5.1981e-06 2.3965e-05 1.1649e-05 -1.8123e-06 -9.4884e-06 -7.0564e-06 -1.9477e-05 -3.7324e-05 0.46354 1.2613e-05 9.7835e-06 -2.286e-05 4.5261e-07 0.66183 6.0213e-06 -3.9552e-05 -3.8518e-05 -4.8032e-05 0.00010436 -1.1957e-05 -3.0373e-05 2.6484e-05 -1.0465e-05 -1.3415e-05 3.6139e-08 -4.4707e-06 -3.3397e-06 5.5097e-05 -1.0242e-05 -0.00037826 -2.9011e-06 9.3643e-06 -3.2455e-05 -2.0619e-05 -1.4434e-05 -2.5494e-05 -0.00076439 5.251e-05 7.9942e-06 -3.7988e-05 -6.5001e-05 -5.2032e-05 -0.00059665 1.6313e-05 -0.00031214 1.8142e-05 1.7511e-05 -4.1056e-05 1.7398e-05 -3.2097e-05 -8.8186e-05 4.0554e-06 3.9935e-06 7.2563e-06 -2.0274e-05 1.5084e-06 -8.1498e-06 -1.3124e-05 0.00025117 -0.00011712 7.2771e-05 1.7226e-06 -9.126e-05
-4.7665e-07 1.0569e-05 0.18392 4.0563e-05 0.26799 2.317e-05 -1.9641e-05 -1.9167e-06 -3.6805e-06 -2.791e-06 8.6064e-05 1.0899e-05 0.25053 -0.00012131 -4.394e-05 -4.9164e-06 9.267e-05 -0.0004576 -0.15255 -0.00013944 0.51372 1.8096e-05 9.238e-05 0.00017661 -7.8639e-05 0.26375 3.5633e-05 -0.00019493 0.00027875 -7.4786e-06 0.000641 -2.9098e-06 0.00044346 -2.7523e-05 0.37352 -0.00089068 0.00020666 1.4861e-05 -7.3625e-05 0.00016469 0.0010312 -8.1901e-05 1.8972e-05 -3.2466e-07 2.6956e-05 0.012797 -0.00025702 -6.6407e-06 0.00011125 0.0024721 -0.00010572 -6.7864e-05 0.00010983 0.00030606 0.29351 2.3463e-05 0.00044161 -4.0526e-05 -0.00013426 0.16017 -6.7793e-05 -0.00016715 -0.00019432 -3.1723e-05 4.8022e-06 0.00028414 -1.0817e-07 1.5816e-05 -8.0844e-05 -8.4877e-05 -0.00019298 -3.5631e-05 -1.207e-06 0.00050574 2.0253e-05 -0.29956 0.00059246 0.00076636 -2.7457e-05 0.0047034
-1.8203e-06 -3.9619e-06 -0.04577 -2.415e-05 0.00031271 1.6365e-06 0.00017886 -5.4299e-05 7.294e-07 0.00030731 -8.2428e-05 1.4554e-05 0.00051118 -4.0663e-05 6.5273e-06 0.00029099 0.00079572 -7.0053e-05 -0.17882 4.5809e-05 0.00045138 -9.6602e-06 1.3208e-06 0.00059324 -0.00055214 0.0012332 0.00044977 -0.00019263 0.0062005 -7.5431e-06 -1.2367e-05 1.3795e-05 -9.1297e-05 0.0015701 -3.8292e-05 0.00015886 0.29835 -0.00018941 6.988e-05 2.7856e-06 -0.00022684 -5.5765e-05 -3.3037e-06 1.056e-05 -7.3229e-06 0.46631 0.0030869 0.38047 -0.00043448 0.3857 2.7819e-05 -2.7434e-05 -0.00016692 0.29317 0.4229 1.662e-05 -0.002098 0.00070734 -0.00015643 -0.030569 -0.0001309 -0.00039808 -0.00026438 -0.0001309 0.00015086 -4.7448e-05 -5.5884e-05 -6.6133e-05 2.9572e-05 6.5114e-05 -0.00011447 -0.00018121 3.3376e-06 -7.7483e-05 4.3729e-06 -0.097176 0.00017766 -0.0027784 5.3871e-05 -0.0012452
-4.7785e-07 1.3779e-05 -0.0001633 -4.4278e-06 4.7223e-06 -5.766e-07 9.1103e-06 -7.7547e-06 8.2354e-07 0.00053397 0.00010375 -1.8261e-06 3.3056e-06 -4.7465e-05 -4.8543e-06 -1.6021e-05 1.7053e-05 0.50494 9.4397e-05 -2.2442e-06 1.3483e-05 -0.00014266 -6.0992e-05 -8.0561e-05 0.00012805 -8.3517e-05 1.0068e-06 3.7181e-05 -0.0003858 -1.8216e-05 0.0005711 -0.00027753 0.00013495 3.1927e-06 -0.00082167 -3.5123e-05 -3.756e-05 5.2045e-06 -9.4004e-06 1.0035e-06 -2.5639e-07 -1.0917e-06 -2.4683e-05 6.6815e-05 0.00039416 -0.00010832 0.00045605 8.1022e-05 -3.2657e-06 -7.863e-06 0.00026617 -6.3621e-06 2.7466e-06 0.0010605 -4.9702e-05 -5.1432e-06 0.00028936 9.7998e-06 0.00036087 0.0010828 0.0003733 -3.6138e-07 9.9928e-05 -0.00015866 -2.471e-06 -3.105e-05 7.1146e-05 4.1784e-05 1.3765e-05 2.8463e-05 0.0015292 4.4041e-05 -5.3834e-06 -2.4228e-05 -7.3617e-07 -5.8655e-05 -5.5475e-05 0.00016832 -0.00010604 0.001671
3.5595e-09 -1.4471e-08 1.1067e-07 2.7803e-08 6.7457e-07 0.89422 -1.8329e-06 -8.9994e-07 -1.8345e-08 -7.9242e-06 -6.7348e-07 2.2155e-07 3.4142e-07 -4.638e-06 -6.4848e-07 -4.8593e-07 2.1576e-06 -5.388e-07 -5.8853e-07 -2.588e-05 -1.1573e-08 -4.2705e-08 2.4175e-07 -1.0967e-06 -8.779e-06 -2.4749e-06 -2.9105e-08 -1.9809e-07 2.2986e-06 1.597e-07 -2.3337e-06 3.5482e-07 -2.0256e-06 2.3015e-08 1.5933e-05 1.1348e-06 -1.5013e-06 3.8189e-06 -6.2637e-08 3.6645e-08 -1.2133e-05 2.35e-06 -2.8691e-09 2.8518e-07 -7.4799e-06 -2.0349e-06 6.6394e-07 4.5297e-07 -2.014e-07 -1.5987e-05 6.0842e-07 8.8697e-07 -3.9033e-06 1.692e-05 -0.00015433 3.4721e-06 3.6858e-06 -2.7102e-06 1.9745e-06 -7.494e-06 5.1012e-07 2.7552e-05 5.09e-07 -1.192e-06 2.346e-07 2.3498e-08 -1.7527e-06 6.3132e-07 2.0713e-06 1.2556e-07 9.2344e-07 -7.6596e-05 3.4153e-08 3.1212e-07 -6.8754e-09 -0.00035971 -9.79e-06 -3.1687e-06 -5.1181e-08 -3.5279e-06
-5.9189e-06 0.17072 0.14332 0.21476 -3.5702e-05 2.6204e-06 -5.4307e-05 -1.4209e-05 -2.9257e-06 -3.0076e-06 0.17562 3.9011e-07 2.5268e-06 -0.00011066 -1.8246e-06 -0.00013197 0.19702 1.8259e-05 -0.11835 0.0011168 0.39649 -3.948e-05 6.0684e-05 0.19815 4.009e-05 2.941e-05 0.29964 -8.7401e-05 -0.00012252 -3.877e-05 0.00015371 -0.00019598 0.16895 4.9919e-05 -4.5821e-05 -0.00071116 -4.3639e-05 7.6519e-05 -9.994e-05 8.1222e-06 -3.687e-05 1.168e-05 0.0022243 0.00022396 0.17186 0.010193 -5.5637e-05 2.9435e-05 5.4566e-05 -0.00018366 -0.00016951 2.0903e-05 -7.9994e-06 -0.00013684 -0.00088942 -9.4302e-05 8.6618e-05 0.0081555 0.00065698 0.11982 0.0012855 -0.0003248 0.19665 -0.00011689 -9.093e-06 -0.00067447 0.0040582 0.0088501 0.092343 0.11835 -5.1231e-05 -6.8418e-06 2.4007e-05 -6.2265e-05 5.0617e-05 -0.00098689 0.27749 -0.00029387 6.049e-06 0.00084941
-6.6588e-07 -7.3184e-07 0.18534 3.2352e-07 -6.0994e-06 -1.048e-05 1.019e-05 -9.3768e-06 1.4097e-05 -3.7694e-06 -0.00021318 -2.1694e-06 -4.0322e-06 0.19576 -3.4401e-05 9.1978e-06 7.0323e-06 -5.813e-05 -0.1588 0.36148 7.482e-05 3.7372e-05 -6.0682e-05 -0.0003549 -3.0672e-05 -0.0007924 -9.9306e-05 -8.975e-05 -0.0001419 -2.3188e-05 -3.4518e-05 -9.1597e-06 -0.00039513 -0.00010102 -5.2083e-05 0.43264 7.2315e-05 -9.2561e-05 0.35554 -5.7304e-05 3.507e-05 1.9209e-05 0.00072549 -1.5287e-05 -2.388e-05 0.0073236 -6.5561e-05 -9.1395e-06 -0.00014185 5.318e-05 0.00016578 0.49862 -2.947e-05 1.6007e-05 0.0002153 0.00033628 1.7552e-05 -4.1161e-05 -0.00013265 0.27323 0.00031284 5.2074e-05 0.00028983 0.55019 -3.1038e-05 7.9172e-05 1.9432e-05 -9.9561e-06 -3.0217e-05 4.6637e-06 -5.2664e-05 6.1274e-06 7.9799e-06 -2.4029e-06 -0.00016732 0.0011408 -0.00011354 7.1997e-05 1.9165e-05 -0.0061688
1.8661e-07 1.0003e-05 -0.00016956 8.5024e-06 -8.9788e-05 0.00025582 2.0058e-05 0.00017324 3.3024e-07 4.0699e-05 0.00036171 0.00018846 1.3024e-05 -0.00012154 -8.4952e-05 4.4409e-05 4.9757e-05 2.2744e-05 0.0013033 -2.4057e-05 -6.353e-05 -0.0001366 5.0369e-05 -0.0014993 0.29373 -0.00023683 7.2333e-05 -6.8575e-05 -0.00018112 -1.005e-05 0.00024997 4.7363e-06 -0.00079105 -3.2846e-05 5.0224e-05 -0.00021719 1.3237e-05 -0.00015523 -4.9458e-05 7.0755e-06 3.4712e-05 -0.00030325 -3.828e-06 -1.1626e-05 0.00036391 -0.0011339 -1.9153e-05 -0.00010561 -2.1401e-05 0.034304 -8.2849e-05 -7.3829e-05 0.41629 0.0002974 0.020721 -6.1759e-06 -0.00051909 -1.0673e-05 -7.5092e-05 0.00541 -6.1223e-05 0.00020717 0.00048435 -6.2444e-05 6.6672e-05 -8.8606e-05 -2.0487e-05 -1.7829e-05 -9.0791e-06 -0.00012665 -0.00024441 0.0047947 9.0597e-07 -0.0002933 8.3683e-06 0.033924 -5.4895e-05 -5.3337e-05 0.00011433 -0.00058752
7.0575e-07 1.8842e-06 0.28646 2.4241e-05 6.8434e-05 -2.4527e-06 2.0913e-05 -1.8806e-05 -5.9392e-06 -6.9123e-06 0.00017786 -3.3833e-06 6.2166e-05 0.27577 -1.9922e-06 3.4893e-05 1.0684e-05 -1.1136e-05 -0.235 -0.0001804 0.000249 -8.9015e-06 4.3157e-05 0.00017628 -1.9525e-05 0.0004346 6.7438e-05 5.8601e-06 -2.6051e-05 -1.577e-05 -4.1563e-05 -4.631e-06 0.00039139 8.2398e-05 0.00016611 -0.001305 -5.6003e-05 0.00017406 0.50039 1.9439e-05 -1.9512e-06 -3.9457e-06 3.4003e-05 -2.1582e-05 -1.543e-05 0.021451 -7.5479e-05 6.9651e-06 0.00015508 -7.2202e-05 -7.2399e-05 0.0001545 1.9536e-05 -5.5752e-05 -1.5397e-06 8.7994e-06 4.0741e-05 -1.9969e-05 -4.1096e-06 0.24075 -0.00018181 -4.9367e-06 -8.7779e-05 -1.6862e-05 2.4233e-05 -6.5332e-05 -1.1017e-05 -1.0804e-05 -9.1871e-05 -5.3694e-05 5.1857e-05 -1.0402e-05 2.2058e-06 -6.3567e-06 0.00012079 -0.00047669 0.00010123 2.8439e-05 4.6505e-06 0.0055239
3.9242e-07 9.0581e-06 0.00061999 4.2141e-06 -8.6367e-05 0.00024273 -2.2018e-05 0.0018144 6.9998e-07 3.7108e-05 0.00049019 -5.8159e-05 5.9354e-06 -0.00026453 -0.00013597 -4.7991e-05 5.345e-05 1.0939e-05 0.0023213 -3.487e-05 -0.00010051 -0.00016303 -1.2769e-05 -0.0024963 0.28461 -0.00041211 4.5417e-05 0.0012663 -1.1346e-05 -2.8748e-06 0.0004014 1.1686e-05 0.00029455 -3.218e-05 4.1632e-05 -0.00019109 0.00013401 -0.00023059 0.00054186 9.0288e-06 7.6088e-05 -0.00048709 9.2867e-06 -1.8258e-05 0.00059823 -0.0018478 -1.3739e-05 -7.6862e-05 0.0010198 0.040303 -6.2621e-05 -0.00011888 0.0052465 0.00027563 0.021288 -3.7699e-06 0.0070851 -1.3205e-05 -8.1282e-05 0.0050773 0.00012078 0.00025906 0.00068756 -6.6502e-05 1.7608e-06 8.534e-05 -1.1928e-05 -4.1081e-05 -7.6033e-05 -0.00024003 -0.00025531 0.0046143 9.777e-06 -0.00022372 1.5976e-05 0.03474 0.00041708 -0.00030081 0.00092206 -0.00082184
-4.2761e-07 -7.2686e-08 2.2085e-05 -5.4608e-06 7.2952e-07 -2.3192e-06 -6.0847e-06 -9.6292e-06 -1.471e-06 -6.06e-06 3.5121e-05 7.9748e-05 -2.565e-07 1.7512e-05 2.6112e-05 9.0652e-06 7.4944e-06 4.6701e-06 -9.6894e-06 -1.8151e-06 1.8212e-07 8.2765e-05 1.1385e-05 0.0001488 0.45061 -9.2055e-06 5.0932e-06 2.8122e-06 -9.0891e-06 -7.0291e-06 -2.5502e-05 1.7862e-06 0.00015072 -5.6447e-07 1.006e-05 6.2511e-06 -2.9089e-05 3.3486e-05 7.9174e-06 1.3555e-07 -3.8512e-06 2.4033e-05 -3.4185e-06 2.3258e-06 1.3457e-05 1.2865e-05 -1.5014e-05 8.3915e-05 6.9371e-08 -0.00021325 -1.9333e-05 4.0875e-06 -0.00045241 0.00015486 -0.00064667 2.2201e-06 -0.00055659 4.381e-06 0.00024459 -0.00015789 -4.6199e-05 1.5573e-05 -2.652e-05 3.6545e-06 -4.7704e-06 -2.4928e-05 0.0012102 4.9944e-05 6.2907e-06 3.4187e-05 1.9774e-05 -9.0312e-05 8.7037e-07 -2.0375e-05 -1.3139e-07 -0.0012543 -3.1971e-05 5.5187e-06 1.3797e-06 5.0954e-05
1.486e-06 3.7689e-05 -0.0010646 2.3929e-05 2.6034e-05 7.8913e-05 0.29266 2.7003e-05 3.2428e-07 0.0015918 0.0011492 -0.00010765 -3.241e-05 -5.2585e-05 -9.1496e-05 -3.6637e-05 3.3432e-05 -1.1501e-05 -0.0038328 0.0005403 4.0347e-05 7.2229e-07 1.2094e-07 -9.0096e-05 0.0043255 0.0016837 0.002228 3.4567e-05 0.00016675 3.6301e-05 0.0023041 -1.5829e-07 0.00048594 0.00079419 -9.6718e-05 -1.7922e-05 0.00020677 -2.9225e-06 -5.3865e-06 5.2569e-06 0.0011755 1.1159e-05 -1.7818e-05 -4.6738e-05 0.00030345 0.0040191 0.00063154 -1.0498e-05 0.0012792 0.0012152 -0.00026472 -5.6933e-05 -4.2797e-06 -0.00021569 -0.0011551 -0.00029807 0.0021881 -7.6253e-05 -7.8418e-05 -0.00074636 -6.8583e-05 0.51509 -0.00020992 -0.0002037 6.0637e-07 0.00013921 -3.9224e-05 -0.00023025 -7.8825e-05 -0.00011962 -3.6875e-05 2.5765e-05 4.2232e-06 2.6231e-05 1.7802e-07 -0.004801 0.0020195 -0.00012294 -1.2214e-05 -0.0001848
1.2094e-06 -2.1144e-06 0.14589 8.5387e-06 1.9199e-05 -2.3031e-06 0.26435 -1.5476e-05 -2.6989e-06 -6.0935e-06 0.23598 3.0072e-06 1.8955e-05 0.18596 -8.4682e-06 0.50747 -5.1306e-05 -1.6531e-05 -0.34365 -0.00012252 0.00063345 -6.6829e-05 2.4869e-05 7.9844e-05 -7.9036e-05 0.00019437 3.0169e-05 0.37561 -4.6077e-05 -3.3643e-06 -1.692e-05 -7.2179e-05 0.00021576 3.9484e-05 0.00017653 -0.00057885 -5.0915e-05 8.6791e-05 6.0377e-06 6.5895e-06 -5.2674e-05 0.00018647 -2.1919e-05 -5.038e-05 0.22983 0.49577 -3.5408e-05 4.6467e-05 2.5572e-05 -8.59e-05 0.00011126 3.6311e-05 0.39061 -1.9503e-05 -0.00049658 -0.00028084 6.2722e-05 -9.5044e-05 -0.00031331 0.12971 -7.3072e-05 -6.8313e-05 4.7855e-06 -4.8483e-05 4.6876e-05 -0.00030594 -4.7276e-05 -0.00045995 -3.4264e-05 -1.9595e-05 -4.9474e-05 -2.2651e-05 -2.4623e-06 -3.3342e-06 6.0778e-05 -0.00066185 0.36871 6.3379e-06 -5.8456e-06 0.0028883
-6.5437e-14 7.6616e-15 7.421e-13 8.2308e-15 -1.5726e-13 2.1843e-15 1.9695e-12 -8.9734e-14 1.1188e-14 1.6078e-15 -1.7191e-14 5.2346e-15 -4.0575e-15 2.3437e-13 3.8519e-13 1.5051e-14 4.0862e-15 1.6182e-13 6.9802e-13 3.181e-13 -1.2145e-13 3.6183e-15 8.637e-15 -6.6686e-13 -1.0469e-13 -1.637e-13 -2.5038e-14 -3.2605e-13 -1.9429e-12 -1.6789e-14 3.0514e-15 3.1498e-15 -4.1531e-13 -3.5723e-14 5.7312e-14 4.2168e-12 8.8681e-14 -1.5119e-12 -7.9457e-13 -7.7058e-14 4.8668e-15 6.0284e-14 3.5903e-11 -6.3774e-14 1.8309e-14 -9.4777e-13 9.345e-14 1.1658e-15 -1.6309e-13 1.0264e-13 -2.2396e-13 3.6149e-13 2.781e-14 1.0333e-13 3.3001e-13 -6.9017e-12 -9.4888e-15 -1.3167e-14 -3.4821e-14 1.9516e-12 9.1966e-14 -1.9812e-12 -6.1796e-13 -1.2211e-09 -2.8305e-14 2.0941e-13 -3.1287e-14 -2.8046e-13 -4.4072e-13 1.2204e-13 -2.5758e-13 -1.6744e-14 -1.3483e-14 2.3083e-14 -2.6163e-13 1.2087e-12 -2.5622e-13 4.2043e-11 -1.5683e-14 -8.0628e-12
-1.1988e-06 8.793e-06 0.00016862 0.39155 -0.00015459 -2.272e-07 7.3823e-06 3.1142e-06 1.9484e-06 2.4555e-07 6.5988e-05 -3.1786e-08 -1.0189e-05 -8.1472e-05 -7.6802e-05 -3.1342e-06 0.00022843 1.3055e-05 -0.00011373 1.2227e-05 0.00022117 -2.8077e-05 4.1232e-06 0.36095 2.1143e-05 -1.0423e-06 0.00012185 8.8061e-06 -0.00015677 -5.0597e-05 -1.1561e-05 1.4773e-05 0.31877 7.8047e-06 -4.6691e-05 6.8487e-05 -2.2348e-05 -9.2679e-06 1.4135e-05 -1.1247e-05 -1.7711e-05 -6.0369e-06 -8.345e-06 -2.1371e-06 0.00016483 0.00010019 -1.3665e-05 2.9341e-06 6.0702e-07 -0.00014163 -0.00013026 -1.0391e-05 3.332e-05 -0.00034319 -0.00055101 -5.2289e-05 0.00024234 4.3385e-05 5.2899e-05 -2.3354e-05 -0.0007854 5.81e-05 0.35765 2.0771e-05 -1.2109e-05 -0.00039526 5.6844e-05 7.3697e-07 0.16853 0.21668 -0.00010045 4.9227e-06 -1.1222e-05 -0.00010474 -1.4892e-07 -0.00048539 -0.00062868 -0.00054675 2.1024e-06 -0.0011134
-8.6523e-08 0.24135 6.904e-05 3.0144e-05 -9.3892e-05 -5.6179e-07 0.00022774 5.6211e-06 5.401e-07 4.3123e-06 0.24871 -5.2478e-05 -2.2904e-06 -3.3304e-05 -6.4789e-05 -9.2539e-05 0.27831 9.4634e-06 7.6086e-05 0.00019324 0.00016211 -0.00010119 -5.1171e-06 -0.00091476 0.0047749 -4.6514e-05 0.42419 2.8445e-06 6.5066e-05 -1.1525e-05 2.4011e-05 -1.6054e-05 -0.00028283 9.7019e-06 2.8939e-05 5.4913e-06 -1.3535e-06 -3.6925e-05 1.3979e-05 6.1206e-06 0.00055491 -0.00018531 -0.00010136 -1.9597e-05 0.24115 -3.1103e-05 -7.3127e-06 3.1811e-06 7.4695e-06 0.032804 -0.00022381 -1.8529e-05 0.0021676 1.3938e-05 0.016435 1.4002e-05 -0.00040379 -5.2596e-05 -4.4233e-05 0.0002187 -4.4994e-06 0.032507 0.00058094 -0.00013243 -4.8995e-06 -0.00017332 4.3587e-05 -0.00039063 -1.5921e-05 -1.1594e-05 -6.5815e-05 5.8084e-05 -6.5456e-06 -0.00022326 6.3869e-06 0.026455 -1.8332e-05 -0.00015499 8.4342e-06 0.00032344
-7.3417e-07 -8.8027e-07 -5.5773e-05 1.4367e-05 1.8157e-06 -8.1251e-06 0.22814 1.4898e-05 -9.8581e-07 -4.3522e-06 1.7894e-05 0.29295 -8.1355e-06 -4.1844e-05 -0.00019158 -1.5003e-05 9.0911e-05 -5.7765e-05 -0.00025739 1.7106e-05 1.8227e-06 -2.5625e-05 5.7805e-05 -0.00014469 0.0042879 1.8344e-06 -4.7868e-06 -4.5149e-05 -6.564e-06 5.4302e-05 0.00011189 -3.0549e-06 0.00036987 -9.2585e-06 -4.4619e-05 4.2926e-05 0.00015972 4.7367e-05 3.491e-06 4.7275e-07 2.0302e-05 0.001453 -6.174e-05 9.5579e-06 0.0002405 0.00040348 -2.2558e-05 -2.9666e-05 0.00097612 0.0012477 -0.00019475 5.6475e-06 0.00071909 -4.3624e-05 3.8643e-05 -0.00027563 0.0015672 -8.2712e-06 -2.2233e-05 -0.00013346 0.0031997 3.7775e-05 -5.1675e-06 -0.0003513 -3.3829e-05 0.00081028 -2.2261e-06 -3.8988e-05 -4.1483e-05 -5.3306e-05 -0.0002026 5.217e-06 8.863e-06 -2.1339e-06 -4.4114e-06 -0.003016 0.00043814 -7.5159e-05 -4.0525e-06 0.00014296
4.1178e-06 7.7924e-07 0.26163 1.8006e-05 6.4022e-05 -2.4097e-06 6.4734e-05 0.40552 -2.1601e-05 -1.0803e-06 0.00016393 0.00032381 5.0706e-05 0.25176 -1.0598e-05 2.5028e-05 5.677e-06 2.2378e-05 -0.21466 -0.00015174 0.00021526 -2.4159e-05 0.57573 0.00015156 0.0015758 0.00037218 5.8423e-05 -2.7812e-05 5.8544e-06 -1.5527e-05 0.00012965 -4.3696e-06 0.00032338 5.7113e-05 0.00014941 -0.0010312 -4.1607e-05 0.00014427 -1.776e-05 1.1806e-05 7.4092e-06 1.2791e-05 5.6372e-05 -1.6372e-06 1.3769e-05 0.019607 -7.5913e-05 -1.4745e-05 0.00014857 -7.0798e-06 -8.2218e-05 6.1807e-05 0.0015583 -5.6713e-05 0.00019188 4.2993e-06 -3.6675e-05 -1.9761e-05 1.7738e-05 0.21961 -0.00011612 -5.0433e-05 -5.2042e-05 -2.8397e-05 1.0031e-05 0.00014937 -8.901e-06 3.4387e-06 -5.9215e-05 -5.1427e-05 6.1331e-05 -4.674e-05 -4.82e-07 -1.0112e-05 8.6953e-05 0.0001042 4.7037e-05 3.18e-05 0.00055305 0.0048372
1.0116e-06 -1.1742e-05 -1.23e-06 1.1323e-05 -9.5347e-06 -5.5682e-07 -9.0118e-06 4.3214e-06 -8.6103e-06 4.9912e-06 0.0015809 2.6703e-06 -3.1547e-06 1.6527e-05 0.00097436 -4.8512e-05 0.39335 -2.1905e-06 -8.5936e-06 1.1347e-05 5.0224e-06 -8.3679e-07 -9.5734e-06 -3.5055e-05 -3.863e-05 -4.32e-07 4.9249e-06 -7.6759e-05 0.00013708 -7.0896e-06 -1.2211e-05 0.58763 -2.7857e-05 -3.3825e-07 -4.6687e-05 7.9539e-06 -1.9493e-05 3.9359e-06 1.7928e-06 -9.284e-07 -7.3793e-06 -2.888e-06 -0.00010153 -0.00011028 0.0002687 1.9178e-05 -0.00014446 1.2033e-05 2.4966e-06 6.4296e-05 -0.00061574 -3.9979e-07 5.4324e-06 -1.571e-05 0.00011202 1.1019e-05 -4.5884e-06 -0.0010363 0.00024339 -3.4634e-05 -0.00010479 -0.00010592 6.7153e-05 4.5868e-05 -1.7188e-06 -7.2913e-05 0.71646 -7.3363e-05 -9.3523e-05 2.857e-05 5.1036e-05 5.8761e-07 -1.9778e-06 -7.617e-06 -7.1601e-07 0.0003993 -0.00013267 -3.6933e-05 -9.9175e-05 5.0891e-05
-1.0734e-06 1.427e-07 -3.0702e-05 2.1444e-06 -1.3807e-06 0.00046003 -1.5935e-05 4.1705e-05 -7.1066e-07 4.0134e-05 5.0078e-05 5.3869e-07 -7.9659e-07 2.0418e-05 -1.2989e-05 -2.0273e-05 -3.7042e-06 1.7972e-06 3.4179e-05 -4.8413e-06 -4.9467e-06 3.0679e-05 -1.3297e-05 -2.8082e-05 0.00018999 1.2646e-05 -4.8055e-06 -1.5053e-05 -2.2284e-05 -5.8527e-07 0.00027379 -3.3841e-06 -0.00029856 1.6974e-06 -6.7713e-05 -7.453e-07 -5.1045e-05 7.5244e-05 1.7052e-07 4.1381e-07 -4.916e-06 -1.2276e-06 1.2841e-08 -3.4691e-07 0.00037923 -3.2086e-05 -7.4601e-05 -1.9878e-05 1.4382e-07 0.00017626 -7.6352e-05 1.2626e-05 5.8544e-05 0.5844 0.0010929 4.2947e-07 -1.9618e-05 4.5006e-06 2.7645e-05 0.00025522 -0.00018951 -1.4907e-07 3.4776e-05 -4.1017e-06 -3.6547e-06 -1.6609e-05 9.0347e-06 7.5931e-07 9.5968e-06 -3.4624e-08 -0.00019587 0.99994 4.9128e-07 1.573e-05 -5.1895e-07 0.0012936 5.9727e-05 5.412e-05 5.9108e-06 0.00015611
1.1325e-05 8.0616e-05 -0.00059734 -4.5341e-05 -1.2378e-05 -5.6776e-07 -1.8489e-05 9.308e-06 2.9329e-05 -0.00015669 1.7735e-06 -7.3555e-06 -3.0802e-05 0.00020443 -1.3822e-05 -1.0927e-05 0.001227 -9.8834e-05 0.00013084 1.4443e-05 -2.9101e-05 1.8892e-06 1.5082e-05 3.6054e-05 0.00038338 0.41583 1.1508e-05 2.1151e-05 -0.00014925 -7.6577e-06 0.00019787 0.0012541 0.00018737 -0.00012831 -0.00038573 9.3821e-05 -2.7207e-05 0.0011197 -9.6225e-06 -7.7708e-06 1.2403e-05 2.9671e-05 -1.9811e-05 -5.1309e-05 0.00018883 -0.0001882 0.47687 -7.5111e-06 -3.3e-05 -0.00018317 -2.5921e-05 -0.00015149 -1.5919e-05 0.00051083 -0.00062511 5.4982e-06 0.00010005 -0.00097772 0.00018575 0.0030387 3.1697e-05 -1.469e-05 1.3203e-05 -5.8327e-05 -5.3303e-05 -5.9255e-05 -0.0006575 4.5077e-06 3.9811e-05 6.0959e-05 1.3798e-05 -6.4224e-05 1.0762e-05 -1.4716e-05 -1.506e-05 -0.00067753 5.1321e-05 7.0382e-05 -1.9173e-05 7.8242e-05
1.3491e-06 -8.4366e-08 0.00025806 0.26605 0.25698 -7.7604e-06 -2.0131e-05 -4.2638e-05 -1.3927e-06 -2.4354e-05 2.1118e-05 -9.7804e-07 -3.3537e-05 0.17151 2.7336e-05 -3.7766e-05 0.24415 1.5277e-06 6.9651e-05 1.3189e-05 1.4271e-05 -4.6739e-05 1.5559e-06 0.24567 -0.00057463 1.3979e-05 -9.5311e-05 4.0531e-05 0.31051 -0.00012365 -2.281e-05 6.681e-05 0.2088 1.5699e-05 0.00028044 6.1771e-06 1.8471e-05 1.3566e-05 2.7233e-05 3.6448e-05 0.00020328 3.4489e-05 -2.6279e-05 -3.4311e-05 -6.4487e-06 -6.0826e-05 -9.2027e-05 5.0252e-06 6.3566e-07 0.36858 1.365e-05 -3.6188e-05 -0.00021573 -2.6701e-05 0.12721 1.2475e-05 0.38619 -6.0463e-05 -7.3489e-05 -9.7994e-05 2.2323e-05 9.6588e-05 0.24647 -0.00010512 -3.1542e-06 0.00023793 -5.132e-05 -3.631e-05 0.11467 0.14714 0.00011945 -3.2407e-05 -4.099e-06 0.00059789 -1.2242e-05 0.19406 0.00029811 0.50845 1.584e-05 0.0057504
1.9026e-06 1.7101e-05 0.00013059 8.6662e-06 -7.5596e-07 -8.1352e-07 -0.00021747 4.5654e-06 -1.8791e-06 -3.0022e-05 -0.00016057 0.39887 8.3632e-06 3.573e-06 3.6841e-06 1.4223e-05 8.0512e-06 7.4613e-07 0.0001531 -0.00018173 1.8046e-05 6.301e-06 8.9221e-07 -3.0021e-05 7.3105e-07 -0.00011666 0.47362 3.9553e-06 1.2269e-05 1.1873e-05 -0.00015109 3.0072e-06 -4.8465e-05 6.53e-08 1.7257e-05 4.3746e-05 -0.00010799 0.00010631 1.3424e-05 -1.2972e-08 -0.00063675 -0.0001068 -0.00019684 6.4769e-06 3.0742e-05 -0.00010418 -3.8792e-06 -9.0145e-06 -6.9799e-07 3.4493e-05 0.00023827 -2.3438e-06 -5.2511e-05 3.44e-05 4.9523e-05 6.5586e-05 3.478e-06 -0.00010013 3.2751e-05 -0.00017609 -7.9076e-05 0.58983 -2.2262e-05 0.00020331 1.5121e-06 4.9633e-05 -7.4504e-05 -0.00032572 -2.5042e-05 -3.7399e-05 7.0958e-05 1.9828e-06 -2.9001e-06 1.6469e-06 -4.2198e-06 0.00071763 -5.0052e-05 1.7489e-05 -1.2594e-07 -4.4343e-05
-1.0411e-06 0.0001181 0.00016532 2.4379e-06 -7.0949e-06 -2.6356e-06 0.00033241 -1.2179e-05 8.0411e-08 0.00036858 -3.4393e-05 0.00019738 -0.00012167 3.6944e-07 -4.1317e-05 -1.117e-05 0.26656 -8.9794e-05 -3.03e-05 -2.8165e-05 -3.6786e-05 -5.2972e-05 -3.5471e-05 6.1833e-06 -4.7792e-05 -4.7604e-05 1.5294e-05 0.0027516 5.3521e-05 -6.5093e-06 2.1203e-06 0.0006237 0.00020608 -2.5874e-06 -5.0317e-05 1.1404e-06 -5.924e-05 8.5641e-05 -3.1997e-05 3.1325e-07 0.0014033 3.8546e-05 -7.9579e-06 -8.6424e-05 0.0021517 0.002431 -6.6962e-05 7.0641e-05 -7.572e-05 -0.00016656 -2.82e-05 1.7309e-05 -0.00011255 0.00015631 -0.00035116 -2.7097e-06 -2.0515e-05 -0.0001701 0.00072179 -0.00028875 -0.00012773 -0.00010976 -6.3679e-06 -7.7007e-05 -9.4035e-07 0.00088566 -0.00016405 -6.3578e-05 -3.6295e-05 1.2005e-05 0.0053129 -4.7779e-05 9.7673e-07 -1.098e-05 -2.4748e-06 -0.0025581 0.0084823 -9.8509e-05 2.5678e-05 -0.00060441
-5.4781e-27 -5.2408e-27 -5.377e-24 6.9859e-24 1.4606e-23 -3.6812e-27 2.0664e-27 -2.0608e-27 -9.5362e-27 -1.7809e-27 -1.63e-25 1.1547e-26 -2.2573e-25 5.3792e-25 -1.1616e-26 1.0901e-26 4.8074e-25 -1.0585e-24 -3.379e-24 -1.957e-25 -3.886e-27 4.7269e-27 6.8386e-26 7.3556e-25 -3.2563e-26 6.6486e-25 -2.9277e-26 2.2227e-25 1.7197e-24 1.6855e-26 -5.6364e-26 9.872e-27 1.5294e-24 -3.3596e-27 -5.3475e-25 1.5774e-25 1.0766e-26 -2.9985e-25 1.8684e-25 -4.3137e-26 1.1802e-25 3.284e-23 -4.399e-26 3.0491e-26 -1.9769e-25 2.3648e-24 3.7141e-26 5.398e-26 -4.1323e-25 -7.7223e-25 -2.1433e-26 -7.0892e-26 -9.7856e-25 -3.3888e-25 -4.7853e-24 6.9732e-25 2.1318e-25 -5.6935e-26 -8.6942e-26 1.354e-23 4.1404e-26 4.4351e-27 -9.0127e-24 -3.0845e-25 -8.2752e-24 -3.4389e-25 -2.9777e-26 -5.7012e-27 -1.8773e-23 -2.0446e-23 2.0291e-26 1.3599e-25 -2.2095e-29 5.3453e-25 -5.4717e-26 -6.2976e-24 7.8703e-24 1.5908e-24 -2.4861e-24 -4.9288e-22
3.6832e-05 -6.581e-06 3.6153e-06 -2.2661e-05 6.1316e-05 4.6961e-06 0.00021467 0.00017434 -8.4556e-07 0.00044378 -9.4389e-06 -1.495e-06 8.7896e-05 -1.0344e-05 6.2312e-06 1.0464e-05 2.2062e-05 0.41291 -5.6187e-05 0.00042073 -2.4612e-06 -1.4043e-05 0.00011566 -8.5913e-05 -1.4161e-05 -0.00094863 1.0709e-05 3.4758e-05 0.00138 -1.5572e-05 -1.4835e-05 0.00081973 9.3369e-05 2.8935e-06 0.51966 -3.6726e-05 0.00056719 7.1054e-06 2.641e-05 -2.6744e-05 -0.0001174 8.8634e-06 0.0016721 1.3874e-05 -2.6821e-05 4.314e-05 0.0010159 1.0542e-06 -2.61e-05 -0.00017209 3.568e-05 -0.00015914 -8.2378e-06 0.00080732 -0.0012658 -0.00011828 6.5774e-05 -7.5874e-05 0.00058925 -0.00022097 -4.9868e-06 -0.00011116 9.1284e-05 0.0042197 3.9861e-06 -8.8072e-06 -0.00037713 -3.133e-05 2.2147e-05 5.7574e-05 -0.00018782 -6.3048e-05 -1.138e-06 3.3858e-06 -1.8537e-05 -0.0015796 0.00028584 -0.00068012 0.017621 -0.0076051
0.42514 0.34125 -2.6665e-05 -0.00017186 -1.5758e-07 5.086e-07 -0.00024129 -9.4987e-07 0.43967 -3.7143e-06 1.2966e-06 -1.0003e-06 2.0942e-06 9.7706e-07 1.2938e-05 -2.2418e-07 -2.61e-06 5.9055e-06 -1.6993e-05 3.6819e-05 4.2565e-06 -5.9208e-07 5.1922e-06 -0.00011426 -5.184e-07 6.9688e-07 6.271e-06 9.8284e-06 -1.5194e-05 -1.3258e-07 2.7307e-07 -8.4461e-06 -8.4882e-07 3.3008e-07 -8.3279e-07 -1.8985e-05 1.9245e-06 9.1327e-08 -4.2443e-07 9.3376e-06 3.9004e-06 -2.6169e-06 -0.00027777 -3.4415e-08 -1.4605e-05 2.0365e-05 6.1625e-06 1.6715e-06 -1.8199e-06 -3.1765e-07 8.9226e-06 -6.6941e-06 1.9728e-06 1.9696e-06 -3.0763e-05 0.45104 -9.0895e-07 -1.8531e-05 6.7128e-05 2.5191e-05 1.4399e-06 0.00020294 0.00021107 0.00034919 7.2351e-08 4.462e-06 -6.4588e-06 2.9583e-05 0.00037532 0.00062864 1.5577e-05 2.1971e-07 3.8242e-07 -3.2567e-08 -1.352e-05 -8.3823e-05 8.372e-06 5.7974e-06 -9.4678e-06 2.0793e-06
3.5106e-06 2.0803e-05 -6.1736e-05 -9.2277e-05 -1.7999e-06 0.00020791 -0.00020323 -3.1445e-07 1.118e-05 0.00010052 0.00020014 -3.2951e-06 1.3926e-06 0.21978 -2.4714e-05 -7.3212e-06 4.8702e-05 2.2115e-06 -4.6658e-05 0.41227 1.373e-05 1.4281e-05 -5.2753e-06 -0.00015303 -6.3908e-06 5.8644e-06 -3.7707e-06 3.3409e-05 2.026e-05 -4.2205e-06 0.00030312 -5.572e-05 -9.4163e-06 -4.9345e-06 9.6579e-06 -0.0024225 -0.00014581 2.5731e-05 -0.00027475 8.1405e-06 4.2431e-07 -1.1996e-05 -0.00024694 -4.8487e-05 0.000156 0.00014303 7.8402e-06 9.4108e-06 -8.8023e-06 -1.5622e-05 -3.2429e-05 -0.00022023 1.4925e-05 -3.3769e-05 3.4579e-05 0.35676 1.5292e-05 -2.7536e-05 -0.00050975 -0.0013716 -3.847e-05 8.2179e-05 9.8279e-05 0.00027322 -8.1687e-07 -5.0793e-05 5.7245e-05 -2.0295e-05 0.00026013 0.00037053 2.6596e-06 7.0093e-07 -2.9999e-06 -6.5141e-06 1.9795e-05 -0.00051416 0.00048132 -5.6781e-05 3.8481e-06 0.00074356
1.4632e-07 -5.7065e-07 9.55e-05 8.7903e-06 -4.7005e-05 -1.6495e-05 0.24388 6.5047e-06 -1.0472e-06 9.3775e-05 -3.5095e-05 -7.0525e-05 9.2217e-05 3.587e-06 -9.1062e-05 -7.6745e-06 2.7546e-06 -2.0032e-06 -8.2584e-06 -3.8209e-06 0.0001447 3.0522e-05 2.9223e-06 4.2925e-05 -6.3663e-05 -5.6312e-05 1.4419e-05 -7.0031e-05 2.1506e-05 0.00011401 -1.6843e-05 -5.3347e-05 3.2096e-05 4.0538e-06 -7.3593e-05 0.00012214 -0.00010758 0.00016513 3.5596e-05 -4.0509e-08 -0.00012491 0.40496 -3.2274e-05 3.8279e-06 -6.142e-05 3.69e-06 0.00045024 -2.135e-05 2.2838e-06 0.0025255 -0.00019166 5.7715e-06 -0.00018607 -3.4268e-05 0.28267 -0.00027952 0.00040995 -1.5227e-05 -5.8671e-05 -0.00034906 2.6051e-05 -0.00035055 -2.8181e-05 -4.4694e-05 0.0014933 5.753e-06 7.7994e-06 5.7183e-06 -1.1938e-05 -1.0636e-05 -0.0002412 -1.719e-05 -7.173e-07 5.7987e-06 -1.1566e-05 -0.28821 -3.908e-05 -2.3109e-05 3.1e-06 0.00028006
2.0475e-06 0.26978 -0.0012375 9.4638e-07 -2.8045e-05 3.3526e-07 -1.7638e-05 1.7405e-05 -1.3196e-05 -9.7906e-06 0.27666 2.5042e-06 -3.3279e-05 -5.9408e-06 -1.1754e-07 -4.4001e-05 -4.5613e-06 0.38034 -0.0025389 -1.4727e-05 0.62625 -1.1082e-05 0.49853 1.0012e-05 3.3308e-05 3.0002e-06 1.0155e-05 -1.0588e-05 0.00013418 -1.293e-05 -3.5761e-06 0.0003313 -8.9077e-06 5.005e-06 0.00011633 4.3075e-05 -5.3979e-05 -3.664e-06 1.3126e-05 2.2274e-06 -1.8405e-05 -1.1329e-06 4.3693e-05 6.6056e-05 0.26947 9.8969e-05 -2.7347e-05 0.46361 -4.1728e-07 3.3964e-06 0.0002586 -7.0185e-06 2.1966e-06 -1.55e-06 -5.2983e-06 1.9868e-05 0.00020116 -4.8644e-05 -0.00013453 -0.00088243 4.2934e-05 2.2861e-05 1.4762e-05 -0.00013722 -8.8472e-06 1.8558e-05 -4.0435e-05 -0.00030508 -7.2418e-06 7.42e-06 8.0425e-05 -2.0728e-07 4.4679e-07 2.4727e-06 -8.3252e-06 -0.00012533 2.6777e-05 -2.8843e-05 3.2478e-05 0.00023052
1.1571e-06 -2.269e-06 -0.00015098 3.9727e-05 0.46485 5.2641e-06 1.2261e-05 2.6688e-06 -7.9085e-06 -1.2823e-06 -8.911e-06 -3.6635e-07 0.52865 6.0547e-06 1.4973e-05 -1.4407e-05 5.5191e-05 2.5099e-05 -9.6294e-05 2.3044e-05 3.9286e-05 -2.099e-05 1.0874e-05 3.011e-05 -9.3912e-06 2.7304e-05 1.1393e-06 2.8645e-05 0.00050784 -5.8221e-06 -3.231e-05 2.2823e-05 0.00039618 -6.4535e-07 -0.00085739 8.9698e-05 -0.0019039 -2.4156e-06 8.0406e-06 0.00095666 7.0836e-05 2.629e-06 5.1831e-07 1.2635e-06 3.4549e-05 4.997e-05 1.6918e-05 2.5558e-05 6.4909e-05 -4.126e-05 1.6888e-05 -5.4942e-06 7.8415e-06 1.228e-05 -0.00084872 -3.5381e-06 -1.9547e-05 9.2371e-06 -2.0421e-05 0.00053285 -2.1525e-05 2.8423e-05 0.00017827 -1.081e-06 3.1017e-06 0.00035075 -1.4017e-05 -1.487e-05 1.4576e-05 5.462e-06 -8.1797e-07 -2.1102e-06 -7.0903e-06 0.00080963 0.00021617 0.00099609 0.00054091 0.0013075 -4.7722e-06 0.0015562
-3.199e-07 -2.3375e-06 -9.3e-05 -5.9037e-05 -1.0078e-05 0.00020983 7.7647e-05 2.2914e-05 1.6089e-07 0.27544 0.00012074 0.0012745 3.075e-05 -2.4223e-05 -9.8155e-06 0.00040529 0.0023526 0.0002458 7.6355e-05 -6.0909e-06 -8.0603e-06 3.8751e-05 5.4614e-05 -5.1391e-05 0.001343 -0.00010572 1.1951e-05 1.3709e-05 -0.00012077 3.5261e-05 0.34262 -1.0448e-05 0.0001801 -2.4812e-05 -9.6946e-06 -1.8061e-05 -1.3262e-05 4.1036e-06 -5.213e-06 -2.6689e-08 -4.814e-05 0.00021062 -2.2014e-05 0.0010804 0.00045251 -9.3093e-05 -0.00013912 -2.3845e-05 1.3153e-05 7.5189e-05 0.00035805 2.0051e-06 0.0011815 0.0014298 0.00060849 -8.5289e-07 0.00012335 0.00032811 -1.0941e-05 0.00066635 0.00024392 -0.00024156 0.00039494 -1.8514e-05 -1.2276e-05 -7.8314e-05 -1.8927e-05 0.0011388 0.00013804 0.00015951 0.00098687 0.0039002 4.0109e-06 -1.0469e-05 -1.0422e-06 0.0010007 -8.5308e-05 -0.00014318 1.2557e-05 5.6212e-05
4.8027e-06 1.3163e-05 0.15486 -1.5431e-05 2.0081e-05 -6.3727e-06 0.21361 -5.6905e-05 -1.0677e-05 0.00018527 9.2985e-05 1.1442e-06 1.3655e-05 -3.2755e-05 0.00034908 5.9386e-05 8.0106e-05 -9.8462e-05 -0.12833 -0.00011054 0.43208 3.4534e-05 -3.0781e-05 5.2514e-05 0.00081372 -4.885e-05 -2.6118e-05 0.30452 0.00028267 2.3751e-05 0.00012305 0.00024236 0.00049197 2.3231e-05 5.1336e-05 -0.00070799 2.2659e-05 1.9527e-05 -6.9139e-05 1.1794e-05 -4.9662e-05 0.00014152 -3.6164e-05 6.4049e-07 0.00023465 0.011077 0.00017167 -2.0879e-05 -6.5196e-05 -0.00011029 0.000465 -5.4609e-05 -5.4916e-05 0.00077686 -0.00042602 -0.0002764 1.8925e-05 -9.3913e-05 0.0043507 0.13156 -0.00018476 -0.00015239 0.00021214 -0.00074589 -1.9868e-05 -0.00016173 0.00055057 0.00026908 6.691e-05 8.8263e-05 -0.00025649 -3.2089e-05 -2.7237e-06 -1.5296e-05 5.7021e-05 -0.00086243 -0.00023905 -0.00036253 4.773e-05 0.001716
-2.0304e-06 -9.8665e-07 2.8304e-05 1.8401e-05 6.4019e-06 3.684e-07 -7.0167e-06 1.1633e-05 1.1884e-06 -6.3149e-06 0.23768 -2.7103e-06 0.00034304 0.18649 5.0111e-06 -8.8303e-05 -0.00010987 -1.2124e-05 3.6342e-05 -2.0592e-05 -1.4478e-06 -3.8574e-05 1.8311e-05 5.3653e-06 2.5069e-05 2.0748e-05 7.5159e-06 -9.4349e-06 -3.8331e-05 -1.0961e-05 8.4897e-06 -2.4916e-06 3.6867e-05 5.6619e-06 -3.854e-06 -0.0001208 0.31248 -1.2001e-06 0.33819 1.1073e-05 0.00030406 -1.0541e-06 7.9674e-06 0.43278 0.231 -0.0001019 -9.6368e-06 6.5804e-05 -7.2598e-06 -2.5535e-05 -0.00013319 -2.6377e-05 6.9969e-06 6.3787e-05 -0.00012731 -3.8015e-07 7.0675e-05 -2.6392e-05 -7.4312e-05 -0.00037826 -4.9117e-05 -0.00010919 -1.3722e-05 -3.8398e-05 -3.1238e-06 0.00047461 -9.1651e-06 -0.00023753 -4.542e-05 -4.7437e-05 -7.8044e-06 5.2847e-06 7.7876e-06 5.8723e-06 7.9791e-06 -0.0001783 4.0101e-05 -8.8038e-07 2.1306e-05 0.00014907
1.0222e-06 1.043e-07 2.5251e-05 3.2347e-05 3.8645e-06 -4.2071e-07 0.33235 1.1757e-06 -1.2684e-06 2.3285e-06 -1.7709e-05 0.00023172 5.3182e-06 -1.6823e-05 -3.3583e-05 3.124e-05 9.6931e-05 -2.4435e-05 0.00011968 -5.5158e-06 -1.6739e-05 -1.0699e-05 -2.4825e-06 1.2564e-05 1.2222e-05 1.4686e-05 -1.3648e-05 7.3328e-06 -1.9678e-05 9.0589e-05 -9.7661e-06 5.6912e-06 -6.9912e-05 -9.8792e-06 -2.8042e-05 -2.0625e-05 -1.5435e-05 -1.1504e-06 -3.9128e-05 -4.8529e-07 1.1489e-06 1.1694e-05 -0.0001099 -1.3576e-05 -7.9642e-06 -0.00013242 -3.0369e-05 -4.8612e-05 7.7363e-06 0.00012525 -0.00019995 2.0174e-05 2.8006e-06 -9.8065e-05 4.0182e-06 -0.00039424 4.6371e-06 -1.3504e-05 -5.3532e-05 -8.3489e-05 0.39442 -0.00015524 -1.7402e-05 -0.00031241 -6.8869e-07 0.00079431 -3.9293e-05 -1.0853e-05 -7.5487e-05 -8.2466e-05 -0.00015612 2.7591e-06 1.3982e-05 -1.5724e-05 -3.488e-06 1.6602e-05 8.8049e-05 5.1117e-06 -1.0015e-05 8.0595e-06
4.7524e-07 -4.2872e-07 0.17219 0.25634 0.24805 1.7867e-06 8.9155e-06 -9.5483e-06 -5.6799e-06 -2.1588e-06 0.00010878 -2.6343e-06 0.00025776 -4.5811e-05 1.895e-05 -1.5839e-05 0.23551 -0.00010728 -0.13975 -2.6452e-05 0.00013295 -3.5448e-06 2.1426e-05 0.23599 4.0013e-05 0.00011474 2.336e-05 -2.6058e-06 0.0005544 -7.0404e-05 -3.4728e-05 1.2146e-05 0.20149 3.0184e-05 0.34333 -0.00035766 -3.2622e-05 3.2725e-05 -9.8046e-06 -4.6806e-06 0.00012838 -1.4606e-06 -5.1875e-05 -6.3301e-05 1.6953e-05 0.012137 -3.4232e-05 5.3563e-06 5.1563e-05 0.00022058 -2.313e-05 2.5947e-05 1.1578e-05 -0.00012091 0.00088618 -2.8777e-05 0.00024875 -2.4587e-05 -4.0216e-05 0.14465 -6.566e-05 5.0296e-06 0.23499 1.6002e-05 0.00042654 0.00014745 -2.5244e-05 -9.3935e-05 0.11045 0.14183 -1.1939e-05 -1.6564e-05 -5.8055e-06 0.00042889 2.2477e-06 0.0016552 0.32865 0.00079137 -1.4822e-05 0.58358
2.6504e-06 1.5034e-05 0.13095 -8.4737e-06 0.00058593 1.9645e-05 5.8872e-05 2.7339e-05 -8.5594e-06 2.6196e-05 0.00024788 2.14e-05 0.0001915 -0.00026212 0.00025841 2.1709e-05 0.18002 -4.0386e-05 -0.10542 -0.00014553 0.00014329 -4.0194e-05 -1.5954e-06 -0.00065591 0.18899 0.0026874 1.3021e-05 0.00025847 0.0004721 -3.4463e-06 0.27628 0.00024225 0.15573 -5.2372e-05 0.00044692 -0.00096424 4.9307e-05 0.00052605 -0.00011357 5.1662e-06 -5.4482e-05 4.1144e-05 -2.2695e-05 -1.0061e-05 0.00050458 0.0082864 0.0048829 1.4604e-05 0.00082999 0.004292 0.00067977 -0.00012516 -0.00028789 0.21012 -0.00034241 8.8873e-06 0.29207 -0.00013715 0.0036478 0.11651 -0.00014447 -0.00019514 0.00041795 -0.00016395 2.5827e-05 -0.0001832 0.00042503 0.00016226 3.4301e-05 2.2867e-05 0.00044148 -0.00013916 6.4076e-06 -4.7671e-06 7.7197e-05 -0.0027906 0.00024447 -0.00052723 5.8402e-05 -0.0033032
-6.5054e-07 -1.1431e-06 0.26171 1.0982e-05 1.4142e-05 -1.3782e-06 2.1682e-05 0.40553 -5.8286e-06 -1.2274e-06 0.3196 1.8978e-06 6.0894e-05 -6.3617e-05 3.8048e-05 -5.187e-05 -8.3653e-06 -1.4076e-05 -0.21455 -0.00014175 0.00024599 -1.7002e-05 3.5401e-05 0.00011749 -9.9822e-06 0.00032511 7.0237e-05 -2.5211e-05 2.8811e-05 1.2677e-05 -3.9711e-05 -2.4365e-05 0.307 5.415e-05 0.00015652 -0.00098256 -7.5804e-05 0.00015086 -1.7472e-05 6.1347e-06 -4.8717e-05 -1.249e-06 -8.7175e-06 5.2706e-05 0.31114 0.019606 -7.5809e-05 5.5366e-05 0.00014906 1.6457e-05 3.7945e-05 6.0575e-05 2.1081e-05 -0.00013637 0.00031125 3.7905e-06 8.5386e-05 -5.4348e-05 -0.00011913 0.22012 -0.00014374 -9.3083e-05 -5.1379e-05 9.4528e-07 1.9036e-05 -0.00016671 -1.4893e-05 -0.00040494 -2.9298e-05 -2.0921e-05 4.368e-05 -4.1236e-05 -9.9418e-07 7.5394e-06 9.6539e-05 0.00040751 0.00011369 6.6422e-05 0.00054812 0.0047459
0.42514 5.7834e-07 -2.7026e-05 0.32634 -1.0698e-05 -9.6242e-08 1.0756e-05 -6.474e-07 0.43967 9.458e-07 -3.0604e-07 9.7098e-08 -3.6344e-06 -5.4626e-07 0.57213 3.1915e-06 1.5387e-05 2.5272e-05 1.4686e-05 4.1388e-06 1.9669e-06 -3.2809e-07 4.782e-06 0.014141 -1.4255e-05 6.2512e-06 1.0979e-05 -3.6205e-06 1.0756e-06 -6.5897e-05 9.194e-07 -4.1747e-05 2.9748e-05 -7.8959e-07 9.7327e-06 -2.2142e-05 1.0168e-05 1.7785e-06 -6.6794e-07 9.7513e-07 -5.1204e-06 1.094e-06 5.0922e-05 5.836e-06 -9.5735e-06 -3.0713e-07 1.9302e-07 4.8773e-07 6.8805e-06 7.4758e-07 3.3837e-06 1.0567e-05 3.5469e-06 -1.478e-05 1.8252e-05 0.00036077 4.0026e-06 -2.6964e-06 -0.00012456 3.9895e-05 1.0739e-05 -2.6148e-06 -0.029467 -9.8305e-05 6.2856e-06 1.6503e-06 -2.5903e-05 -1.877e-05 0.6363 0.52265 1.1098e-05 -1.1389e-06 4.3598e-06 -1.0146e-05 9.4476e-06 0.00011115 -2.5506e-06 -5.0222e-05 8.9195e-07 -4.6738e-06
1.3491e-06 -8.4366e-08 0.00025806 0.26605 0.25698 -7.7604e-06 -2.0131e-05 -4.2638e-05 -1.3927e-06 -2.4354e-05 2.1118e-05 -9.7804e-07 -3.3537e-05 0.17151 2.7336e-05 -3.7766e-05 0.24415 1.5277e-06 6.9651e-05 1.3189e-05 1.4271e-05 -4.6739e-05 1.5559e-06 0.24567 -0.00057463 1.3979e-05 -9.5311e-05 4.0531e-05 0.31051 -0.00012365 -2.281e-05 6.681e-05 0.2088 1.5699e-05 0.00028044 6.1771e-06 1.8471e-05 1.3566e-05 2.7233e-05 3.6448e-05 0.00020328 3.4489e-05 -2.6279e-05 -3.4311e-05 -6.4487e-06 -6.0826e-05 -9.2027e-05 5.0252e-06 6.3566e-07 0.36858 1.365e-05 -3.6188e-05 -0.00021573 -2.6701e-05 0.12721 1.2475e-05 0.38619 -6.0463e-05 -7.3489e-05 -9.7994e-05 2.2323e-05 9.6588e-05 0.24647 -0.00010512 -3.1542e-06 0.00023793 -5.132e-05 -3.631e-05 0.11467 0.14714 0.00011945 -3.2407e-05 -4.099e-06 0.00059789 -1.2242e-05 0.19406 0.00029811 0.50845 1.584e-05 0.0057504
-3.6179e-06 -2.522e-06 -0.00057646 -2.5015e-06 -9.5827e-06 0.00024821 1.5564e-06 1.34e-05 2.1424e-06 4.0867e-05 3.268e-05 -3.0735e-05 -5.4937e-06 -9.1274e-05 -5.7103e-05 2.0801e-05 2.9333e-06 4.3356e-05 0.00042607 -1.4282e-05 -4.3511e-05 2.1479e-05 -8.5002e-06 8.0792e-05 0.27384 0.00025678 0.00022182 -5.6158e-05 -2.9376e-05 8.0578e-06 0.00030467 -7.8857e-06 -0.0001983 2.6415e-06 -2.7466e-05 -0.00011357 -1.2279e-05 0.64885 -1.7473e-05 -1.6111e-06 -3.2266e-06 1.5193e-05 0.00033871 5.2833e-05 0.0015364 -0.00046985 -0.00010468 5.2355e-06 -3.0262e-05 -0.00011105 0.00070214 -4.7354e-05 -0.000389 0.00032634 -0.00025608 -7.856e-06 -0.00049408 1.383e-05 -4.1302e-05 0.0045249 0.00050345 0.00016279 -3.199e-05 5.1816e-05 -1.6686e-06 -0.00019888 -1.0261e-05 -4.2447e-06 7.2244e-07 1.6289e-05 0.0017204 0.0045669 1.665e-06 -9.5794e-06 -2.4464e-06 -0.00027883 -0.00013283 3.4598e-05 9.0428e-06 -0.00076939
5.4671e-07 -2.8435e-06 0.19277 3.1827e-06 3.5026e-05 -1.0699e-06 -9.3325e-07 -3.8465e-05 -4.0508e-06 0.00077405 6.2364e-05 -2.1155e-05 3.4548e-05 -0.00020889 -1.0143e-05 1.5411e-05 9.2073e-07 9.7314e-07 -0.15793 -9.2956e-05 8.9259e-05 -2.5237e-06 1.1329e-05 6.5171e-05 0.00010088 0.27721 0.40729 -0.00012631 5.4567e-05 -3.5041e-06 4.3014e-06 1.095e-06 0.0001068 0.46973 8.8139e-05 -0.00093089 0.00017034 9.3922e-05 -4.4649e-05 4.2326e-06 -1.5361e-05 7.9889e-06 -1.4973e-05 1.0803e-05 -1.6996e-05 0.013981 0.00037545 0.00087801 7.3671e-05 -1.7084e-05 -1.257e-05 -1.0799e-06 -8.1264e-06 -0.00021472 0.00020296 9.585e-06 -9.2515e-06 -9.8599e-06 2.2206e-05 0.16657 -9.8401e-05 -0.0010705 -4.2858e-05 -1.0188e-05 -1.5208e-05 -1.2415e-05 -1.1871e-05 -5.5258e-06 -2.7906e-05 -1.2685e-05 6.1859e-05 8.0781e-06 -1.9497e-07 -3.1242e-05 3.7719e-05 0.00020797 1.0966e-05 8.2593e-06 -3.5268e-06 0.0028788
7.9605e-06 3.1634e-05 -0.00011328 -2.0642e-05 9.9637e-06 -8.3022e-06 -2.5939e-05 5.0917e-06 1.7643e-05 0.29504 5.8873e-05 -3.8732e-06 1.3094e-05 7.1955e-05 9.058e-05 -2.0097e-05 0.0005431 0.00035498 9.3433e-05 0.3186 -2.3485e-06 -1.4094e-05 1.8567e-05 -1.5459e-05 -7.8149e-05 0.25444 6.7087e-06 -0.00011941 -6.3214e-05 3.0023e-05 -6.3493e-06 0.36856 -0.00011122 -3.974e-05 -0.00015324 -0.00038998 4.1977e-06 -7.7459e-06 -2.4011e-05 -1.095e-05 -7.6918e-05 -1.3721e-05 -4.3045e-05 -3.28e-05 0.00094321 -3.5212e-05 0.00019635 1.0818e-05 1.0923e-05 -9.9354e-05 -0.00010047 2.8235e-05 1.7964e-05 0.00011449 -0.00030639 -3.9561e-06 -2.3813e-05 -0.0013889 0.40589 -8.0259e-05 -0.00012446 -2.3682e-05 5.3753e-05 6.5977e-05 -5.6769e-05 -0.00025963 -0.0016116 -3.648e-05 3.5633e-05 2.9637e-05 -2.5376e-05 -4.8179e-05 6.8697e-06 -6.4778e-07 -5.786e-06 -4.3739e-05 0.34702 7.687e-06 -7.6301e-05 4.8465e-05
-3.9622e-07 2.1783e-07 0.18284 7.9285e-06 3.6242e-05 -2.791e-06 2.8402e-05 -2.2998e-05 -3.6226e-06 -4.7504e-06 0.00011784 1.5034e-05 2.5981e-05 0.23315 6.9799e-06 2.3354e-05 -4.8927e-05 1.5525e-06 -0.43106 -0.00014153 0.00080636 2.1681e-05 2.732e-05 0.00010997 -1.1431e-05 0.00026611 5.1325e-05 0.47088 -2.3121e-06 -1.9028e-05 -2.3493e-05 -4.8537e-05 0.00025808 5.0374e-05 0.00011525 -0.00076354 0.00042284 9.9287e-05 -1.649e-05 9.2669e-06 -5.3222e-05 -1.1077e-06 3.1847e-05 -1.1259e-05 -3.0007e-06 0.62165 -5.1033e-05 2.2639e-05 0.644 -9.1304e-06 -5.2318e-05 4.2166e-05 3.9326e-05 -9.0621e-06 -1.535e-05 2.728e-05 1.6684e-05 -1.4728e-05 -0.00011785 0.1624 -0.00010748 -1.7211e-05 -3.0484e-05 -1.4584e-05 -7.1793e-06 -1.1909e-05 2.8385e-06 -9.4542e-07 -4.2682e-05 -1.7651e-05 -0.00017808 -4.0661e-06 -3.5201e-06 -4.6284e-06 8.6306e-05 0.00019864 0.00013361 -1.1798e-05 -3.829e-06 0.003452
5.3062e-06 2.0349e-05 0.00015624 5.647e-06 -6.3126e-05 -9.667e-06 0.27763 2.8599e-06 -1.5135e-05 0.00017872 0.24754 5.5603e-06 0.00011282 9.6708e-05 0.40535 6.5239e-05 6.0893e-05 -6.5972e-05 0.00010811 -7.3603e-06 5.3991e-05 2.4173e-05 2.1262e-08 0.00011314 0.286 -0.00012255 -1.8154e-05 0.00019166 0.00048145 4.7636e-06 -4.3587e-05 0.00018981 0.0001868 -9.1135e-07 -5.3158e-05 8.478e-05 -6.3345e-05 -5.9534e-05 4.3414e-05 4.3584e-06 -0.00011332 -3.0712e-05 -4.2789e-05 9.1266e-05 0.2414 -7.2481e-05 0.00018337 7.6531e-06 -4.7911e-07 0.0027156 0.44227 3.739e-06 -0.00023961 0.00038758 0.32047 -0.00030702 8.6891e-05 -0.0001385 0.0054328 -0.00024219 -0.00011995 -0.00015325 -5.7638e-05 -0.00029206 -1.114e-05 0.00092157 0.00075271 7.8673e-05 7.1726e-06 1.0564e-05 -0.00057619 -6.0907e-05 -2.126e-07 -9.6048e-06 -2.095e-05 -0.32808 -0.00026238 -0.00029154 2.0655e-05 -0.00025024
6.7031e-07 -2.7271e-06 0.19267 -6.0995e-06 8.6081e-05 -2.5527e-06 0.00018358 -0.00011238 -3.852e-06 0.0011044 7.1075e-06 -2.2441e-05 3.7276e-05 -0.00022535 -1.7478e-05 7.2856e-06 -7.9985e-05 -6.0046e-05 -0.15783 -0.00010244 4.5528e-05 6.8007e-06 1.0346e-06 7.3859e-05 6.7317e-05 0.27827 0.40252 -0.00024128 0.006479 -2.5023e-06 9.6265e-07 2.7636e-05 0.00014002 0.46888 0.00010644 -0.00094609 0.00061858 -5.4875e-05 -5.3308e-05 5.3992e-06 -0.00018924 -4.1238e-05 -1.8528e-05 4.4135e-06 -3.1813e-05 0.014122 0.0037087 0.0010289 -0.00016974 0.0002078 -1.1254e-05 -6.0571e-05 -1.6075e-05 -0.00015571 0.001203 -4.7043e-07 3.0887e-05 0.00073812 9.4477e-06 0.16791 -8.6515e-05 -0.00034888 -0.00012528 -0.00017 0.00017352 -2.7439e-05 -1.3033e-05 -7.8104e-05 -3.869e-05 3.6393e-06 5.8362e-05 -3.5831e-05 2.6364e-06 -4.8602e-05 4.2414e-05 0.00093942 3.4673e-05 -0.0028353 3.9471e-05 0.0026471
1.1876e-06 -4.2573e-06 6.5645e-05 0.00032715 -3.4955e-06 -4.4607e-06 0.33177 2.4177e-05 7.8521e-07 0.40389 -1.6664e-05 1.178e-06 2.7626e-05 -2.9368e-05 -0.00010451 -2.6232e-06 1.0011e-05 -3.7486e-05 5.8202e-06 5.0743e-06 -1.1931e-05 -2.0384e-05 -1.0045e-06 -0.00017771 0.0049525 -3.0578e-05 -2.1269e-05 -1.3901e-06 -5.1324e-05 0.80964 3.8007e-07 -6.5081e-05 0.00066313 -3.8228e-05 -9.7045e-06 9.5996e-06 0.00019773 -8.9785e-06 -6.6274e-06 1.0421e-06 -0.00018597 5.0759e-06 -3.1781e-05 7.358e-06 7.3528e-05 4.7642e-05 -0.00038218 -9.6291e-06 0.0014639 0.0019802 -7.7341e-05 5.433e-06 -3.9421e-05 -2.7089e-06 0.00030576 -0.0003923 0.0022836 2.5235e-05 -2.5171e-05 -0.00017086 -2.0242e-05 -4.3445e-05 -0.00023163 -8.1078e-05 -7.4629e-06 0.0002319 1.3472e-05 2.3134e-06 -0.00028324 -0.00064182 -6.9826e-05 -3.4605e-05 1.2205e-07 1.6411e-05 -5.1165e-06 0.0005721 0.00062719 9.6266e-05 -4.5634e-06 7.3296e-05
-2.7149e-08 6.7845e-07 0.00019259 0.25603 0.24871 -7.0912e-06 -2.5892e-05 -4.5492e-05 -8.9519e-07 -2.6881e-05 2.9584e-05 -1.3237e-06 -2.841e-05 0.16512 2.8402e-05 -3.4629e-05 0.2359 -8.6951e-05 5.7618e-06 8.1723e-06 1.8452e-05 -4.496e-05 -5.7734e-06 0.23672 -0.00061109 5.4994e-07 -8.3508e-05 4.116e-05 0.30268 -6.4089e-05 -2.4165e-05 3.7851e-05 0.20122 -2.1011e-05 0.00015181 1.9413e-05 -2.4298e-05 5.9107e-05 5.3291e-06 2.8705e-05 0.00020313 3.5002e-05 -2.914e-05 -6.322e-05 -6.4945e-06 -1.3379e-05 -0.00011549 1.5047e-05 1.7167e-05 0.35475 2.899e-05 2.5096e-06 -0.00020012 -4.4264e-05 0.12054 2.7953e-05 0.37299 -0.00010554 -9.2192e-05 -5.2235e-05 -2.2004e-05 7.9914e-05 0.23862 -9.5097e-05 2.379e-06 0.00012729 -9.8441e-05 -4.8957e-05 0.11146 0.14298 9.2314e-05 -2.8833e-05 3.8447e-06 0.71919 -1.8409e-05 0.18325 0.0012552 -0.010252 4.6737e-05 0.0029991
1.4568e-06 5.8885e-06 0.14738 -7.6082e-06 0.00020782 0.00017739 -6.5723e-06 0.22928 -2.5833e-06 2.372e-05 0.18001 -4.4655e-05 6.2567e-05 -0.00024485 -9.6763e-05 -7.8208e-05 5.0526e-05 1.7225e-05 -0.11878 -0.00012545 5.8564e-05 -0.00017443 8.4681e-06 -0.0014026 0.21604 -0.00010961 4.8677e-05 0.00097557 3.8082e-05 -2.6706e-05 0.00028216 1.5568e-05 0.00039405 4.7618e-06 9.2058e-05 -0.00073797 9.665e-05 -8.3962e-05 0.00039617 1.4015e-05 4.177e-05 -0.0003531 8.1588e-06 1.4037e-05 0.17532 0.009583 -4.3892e-05 -3.481e-05 0.00085764 0.33467 1.1653e-05 -5.1771e-05 0.0038001 0.00022119 0.11781 -4.121e-06 0.32482 -4.8342e-05 -0.00012454 0.12787 -1.7636e-06 0.00018294 0.00042512 -4.4574e-05 1.165e-05 -4.4163e-05 -2.1435e-05 -0.00026222 -1.0887e-07 -0.0001319 -8.5148e-05 0.0034523 7.2536e-06 -0.00015837 7.2019e-05 0.17965 0.00039199 -0.00016631 0.0010202 0.0018219
5.3502e-07 5.4173e-07 0.16636 0.2477 0.23983 2.3161e-06 -1.5219e-05 -4.5118e-05 -5.2033e-06 -2.1576e-05 9.061e-05 -2.2938e-06 0.00025698 0.00030713 1.6347e-05 -2.2676e-05 0.22731 -9.3837e-05 -0.13503 -2.3128e-05 0.00013253 -9.1719e-06 2.1404e-05 0.22893 3.7117e-05 0.0001126 -5.3697e-05 1.2059e-05 0.28914 -0.00012164 -3.2881e-05 5.8096e-05 0.1948 3.3559e-05 0.33176 -0.00034006 -6.9761e-05 4.5066e-05 8.6422e-06 -6.0296e-06 0.00011391 1.4348e-05 -7.3176e-05 -3.9419e-05 8.6023e-06 0.011715 -0.00011378 8.1791e-06 5.6435e-05 0.00095887 -3.3981e-05 -1.767e-06 8.0035e-06 -0.00010394 0.0037546 2.1714e-05 0.0002288 -6.6056e-05 -7.0353e-05 0.13968 -9.461e-05 4.2289e-05 0.23005 -8.7867e-05 0.00041808 0.00013108 -4.522e-05 -9.2549e-05 0.10688 0.13697 5.8779e-05 -1.1205e-05 -5.9363e-06 0.00050179 3.6328e-06 0.0071392 0.3175 0.47346 -1.7084e-05 0.56382
2.8532e-08 2.2076e-07 0.22585 -1.1507e-05 4.2598e-05 -4.0669e-06 0.0003229 -1.9633e-05 -4.6355e-06 -0.00019892 0.0001272 -2.8715e-05 5.3101e-05 -0.00012765 -8.4205e-06 1.5937e-05 0.0002919 3.8487e-06 -0.18533 -0.00013042 0.00013781 -2.3521e-06 3.0774e-05 0.00015362 0.00038629 0.0044286 5.1038e-05 -1.2696e-05 -7.2989e-05 0.00011959 0.00016456 -1.5142e-06 0.00037965 -3.051e-05 -4.8544e-05 -0.00082979 -5.5426e-05 0.76092 -5.5513e-05 1.0142e-05 -9.0169e-06 0.00078695 5.1752e-06 1.3853e-06 -7.5116e-06 0.016481 0.0079023 -1.8686e-06 6.6918e-05 -9.9592e-05 -8.2042e-05 -0.0001246 -0.00012279 0.00063955 0.00019187 8.29e-07 8.8579e-05 -2.9023e-05 -1.3539e-05 0.19531 -0.00012598 -0.00025383 -4.8911e-05 2.4603e-05 5.6964e-05 -5.3805e-05 -6.5421e-06 8.7957e-06 1.7343e-06 1.8354e-05 4.0347e-05 4.7179e-05 1.5897e-06 -2.0424e-05 9.1641e-05 -0.0014228 6.9072e-05 1.9229e-05 7.8269e-06 0.0036033
1.4041e-05 7.3436e-05 5.6712e-05 -5.629e-06 -7.4525e-06 -1.6543e-06 -3.002e-06 1.6938e-06 8.7594e-06 -4.3476e-06 0.00044808 -4.9985e-05 9.6317e-06 -0.00011927 1.6247e-05 -0.00010184 0.00023202 5.6979e-05 0.0001635 -7.5025e-05 7.4357e-05 4.4098e-05 7.4123e-06 -1.1423e-05 0.00022645 -4.0844e-05 -0.0014248 7.2318e-07 -5.4466e-05 3.6693e-06 0.4693 -0.00019692 3.0286e-05 -2.4542e-05 -2.3277e-05 6.1161e-06 -6.3388e-06 1.4742e-05 -4.9585e-05 6.658e-06 -0.00029194 3.342e-05 0.48296 0.00036356 0.0016386 -0.00010239 -5.6991e-05 -1.9059e-05 2.3758e-06 1.6206e-05 0.00069859 4.0306e-05 -2.4761e-05 -0.00017522 -2.613e-05 7.052e-05 -4.8602e-05 0.010232 0.0013304 4.1208e-05 0.0028052 0.50206 7.6135e-05 5.8581e-06 -2.0795e-06 -0.00038654 0.0060637 0.012594 1.1193e-05 5.086e-05 0.0020724 -2.7023e-05 5.8333e-06 -1.4338e-05 7.6951e-06 0.0004644 0.0030926 -3.5984e-05 2.8945e-06 -0.00011489
2.5759e-05 2.3161e-05 -0.00045134 -2.5884e-05 2.6043e-05 -8.5459e-06 0.19218 -1.7948e-05 -6.9641e-06 0.23367 7.7062e-06 -1.9137e-05 6.1511e-06 -6.9132e-05 0.00041 2.6911e-05 8.6828e-06 0.0016188 0.00039979 0.00023481 2.0857e-05 -7.524e-05 5.3607e-05 -4.1267e-05 0.00085301 0.0018632 0.00064284 0.00024383 0.0056444 0.0001048 0.00041541 0.00051841 0.00042946 0.00073666 8.08e-05 -0.00021846 0.0006504 -7.1211e-05 -1.1161e-05 6.813e-06 -0.00029499 0.00013279 0.00091525 3.2503e-05 0.0011239 -0.00023017 0.23444 9.6428e-05 -0.00017974 -0.00011953 0.00072622 -0.00016089 -7.7456e-05 0.0018381 -0.00075653 -0.00030902 0.00022812 0.00040301 0.017206 0.0036855 -2.477e-05 8.3609e-05 0.00020246 0.0022679 0.00011537 -0.00026126 -0.00042558 4.4597e-05 7.5411e-05 0.00010346 0.0004957 -7.3321e-05 5.7849e-07 -1.6579e-05 -1.3004e-05 -0.0025348 0.00073133 -0.0027672 0.0038576 -0.00078934
-4.1164e-07 -1.0496e-07 7.8874e-06 -9.7811e-07 4.0331e-06 -1.4837e-06 -7.3444e-05 -2.8491e-05 1.75e-07 -6.2163e-06 1.4527e-05 -1.9632e-05 -8.0319e-07 1.2815e-05 -1.087e-05 5.9219e-06 -2.605e-06 -3.2208e-07 -3.7804e-05 4.1411e-06 4.6508e-07 -2.6616e-05 4.8163e-06 0.00018009 0.44957 2.7098e-06 1.5485e-05 9.2641e-06 1.6305e-05 -6.4988e-06 -4.7634e-05 -4.4127e-06 -8.0914e-05 8.9453e-08 9.5528e-06 5.5888e-06 -4.7846e-06 -3.7587e-05 7.8675e-06 4.4043e-08 -3.5926e-06 1.993e-05 -3.5298e-06 3.8656e-06 7.182e-06 3.3758e-05 -2.5811e-05 8.1028e-05 -8.7462e-07 -0.00026574 -4.2742e-05 4.0798e-06 -0.0004335 -0.00014107 -0.0011748 2.43e-06 -0.00057878 7.3391e-06 -0.00010966 -0.00014109 -4.7604e-05 8.8555e-06 -6.41e-05 1.538e-05 -4.7367e-06 3.4301e-05 -7.3769e-06 -5.1497e-06 4.1295e-06 1.1395e-05 -0.00016037 -7.164e-05 1.7048e-06 -2.6463e-05 -5.6907e-07 -0.0018391 -3.3396e-05 4.3199e-05 -1.8398e-06 3.9244e-05
1.1655e-06 -1.1042e-06 0.0002157 4.921e-05 -5.5577e-05 1.207e-06 6.0786e-05 1.1947e-05 -1.0549e-05 -1.3522e-05 0.19621 -2.1969e-05 -1.1989e-06 -5.6957e-05 -1.9751e-05 8.3257e-05 -1.9842e-05 -4.2176e-06 -3.6035e-05 1.2114e-05 -5.8709e-07 0.37809 0.35298 -0.00011535 0.22562 -0.00039787 4.7587e-06 -4.422e-05 -4.3147e-05 -1.058e-05 -9.2115e-05 -4.5164e-05 0.19057 6.3711e-06 -2.3312e-05 2.6686e-05 -9.5569e-05 6.6831e-06 -3.3354e-05 -4.4184e-06 3.3048e-05 5.8937e-06 -1.1998e-05 0.00072418 0.19114 3.7833e-05 -8.8556e-05 0.3283 -4.5393e-06 -0.00012292 0.35151 4.9889e-06 -0.00020334 0.26665 -0.00051717 1.1948e-05 -0.00022532 -1.2782e-05 -0.00020128 -0.00063586 0.26105 -3.6239e-05 -0.00015758 6.814e-06 -5.5756e-07 0.34938 -1.3421e-05 -0.00021436 -9.9798e-05 -0.00014543 0.33738 -7.9602e-05 5.591e-07 -6.3168e-05 -4.5224e-06 -0.00074116 -0.00026112 -0.0001272 2.6624e-05 -7.5699e-05
1.1662e-05 -5.8439e-06 6.9108e-07 -0.16684 4.8958e-06 6.1271e-07 -0.00024864 -1.0003e-06 -2.9042e-05 -6.7596e-07 -1.2712e-06 -5.6976e-07 1.8273e-07 6.4384e-07 -5.8293e-06 -3.6148e-07 -1.4821e-05 1.9475e-06 -2.3716e-05 2.0396e-05 6.8512e-06 1.1694e-06 -5.6034e-07 0.012062 9.2957e-07 -7.0512e-07 -8.342e-06 1.2962e-05 -4.3592e-06 3.364e-05 1.6164e-06 -7.9666e-06 1.1914e-05 -2.7481e-07 -1.8579e-06 -9.1919e-06 8.6523e-07 -9.5503e-08 -1.6502e-06 1.9597e-06 6.502e-07 -2.1407e-06 -0.0003408 4.867e-06 -1.5867e-06 1.7248e-05 4.9691e-06 9.1755e-07 -1.305e-06 -9.6905e-06 1.597e-05 -4.4084e-06 -4.8371e-07 -1.7536e-06 0.00012175 0.45477 -1.0306e-05 -5.6394e-06 7.4392e-07 -1.0141e-05 2.5781e-06 7.221e-05 -0.024111 0.00034539 5.4977e-06 -3.858e-06 1.2868e-05 1.6488e-05 0.62579 0.57523 1.7561e-05 -1.6393e-06 -2.9306e-05 2.3027e-06 -2.5506e-05 7.1558e-05 6.0607e-06 -8.4044e-05 3.1112e-06 -5.4204e-06
-1.9228e-06 -6.001e-06 -7.3596e-05 2.7315e-05 -1.6295e-05 2.8405e-07 0.21276 3.2287e-06 1.7305e-06 0.00022232 0.1901 -4.1104e-06 -2.238e-06 -4.0004e-05 -5.625e-06 0.41841 -5.7399e-05 0.26135 -6.8903e-05 4.7019e-06 2.3376e-06 0.36728 5.318e-05 3.4674e-05 0.00017316 1.3424e-05 -2.141e-05 -6.3242e-05 4.4755e-05 -3.414e-06 0.0001381 0.00016886 -3.9334e-06 8.0041e-06 8.3532e-05 4.6511e-06 -3.1538e-05 1.7432e-05 -3.8139e-05 -1.706e-06 -2.3589e-05 1.3377e-05 0.00020934 0.34843 0.18626 -1.0204e-05 -0.00013516 0.00023887 -6.1933e-06 -2.028e-06 0.34088 7.5791e-06 -0.00043451 0.00026116 -1.8157e-05 -0.00023767 2.4925e-05 -3.6443e-05 -0.0002973 0.00018211 0.25113 8.5928e-05 -5.7493e-05 -0.00012154 -3.5738e-06 0.0012743 -0.0002133 -0.00021902 -2.5041e-05 -9.411e-05 0.3292 -3.5387e-05 -9.9932e-07 -6.5397e-06 5.9732e-07 6.5666e-05 -0.00012746 -1.2173e-05 -3.1567e-05 0.00032636
-1.542e-08 -2.0942e-07 -8.2577e-05 2.8406e-06 1.136e-05 1.6826e-07 -5.7918e-05 6.6224e-07 6.0265e-08 -9.2899e-05 2.5815e-05 2.0647e-06 -8.4153e-06 2.4309e-05 4.1494e-07 8.3773e-08 -1.7836e-05 -2.7272e-05 -3.1443e-05 2.4894e-06 4.2122e-07 1.2881e-06 -3.3199e-06 -5.0561e-06 -2.95e-05 -0.00040803 -3.0921e-06 4.3198e-06 -0.00017211 -1.5682e-05 -4.7945e-05 -8.5163e-05 -2.6225e-05 -1.0386e-05 -4.7135e-06 8.8495e-06 -0.00013661 -0.00029923 -1.3195e-07 -1.8894e-07 4.002e-05 -8.3972e-06 -6.2243e-05 3.9214e-06 -2.1838e-06 4.6256e-05 0.78462 -4.0211e-06 1.0888e-05 -1.6631e-06 -8.5896e-05 1.2676e-05 5.0149e-06 -0.00012632 -4.3459e-05 1.147e-05 4.2824e-06 7.6702e-06 -2.7219e-05 -0.00011046 -2.8644e-07 -1.3735e-05 -3.0109e-06 -8.5716e-05 5.214e-06 3.4928e-07 5.0239e-06 -9.9855e-06 3.8636e-06 -1.7676e-05 7.6206e-06 1.1591e-05 -2.7972e-07 2.0523e-06 2.3918e-07 -1.1848e-05 1.5315e-05 0.0001198 -4.9392e-05 9.5122e-05
-3.3466e-06 -4.553e-06 -0.00029251 1.9345e-05 2.5762e-06 2.9928e-07 0.00018135 3.1986e-06 1.0416e-06 -7.6677e-06 0.22619 1.4535e-05 -7.1576e-06 -7.1794e-05 -2.1612e-06 6.6951e-05 -3.4814e-05 0.00014542 -0.00032221 2.5419e-05 1.056e-05 7.4272e-05 -4.5074e-06 -1.7999e-05 0.00023025 -3.0394e-05 -2.4166e-05 -7.5306e-05 -2.6618e-06 -1.5617e-05 0.00050245 -4.834e-05 -2.7067e-05 5.6546e-06 8.7171e-06 -3.1334e-05 0.00011045 3.1628e-05 -2.2504e-05 -9.9462e-07 1.6261e-05 -1.5661e-06 0.00026896 0.41371 0.22197 0.00043533 3.9669e-05 3.1071e-05 -9.985e-06 -1.7086e-05 0.40552 3.0292e-06 -1.6669e-05 0.00052281 -2.9084e-06 5.246e-06 0.00021998 -2.6689e-05 -0.00012024 0.00083939 0.30069 0.00032372 -5.1525e-05 4.2783e-07 -7.8516e-07 0.0011155 1.2729e-05 -0.00012756 -1.9324e-05 -8.2448e-05 0.39093 3.1444e-05 1.4914e-07 -1.1532e-05 2.4065e-06 0.00017324 -0.00026085 2.0338e-05 1.4359e-05 4.5624e-06
-6.363e-07 3.5252e-05 0.00025203 0.20932 0.20238 -3.9743e-06 -1.8432e-05 0.21696 -8.8228e-07 -1.7528e-05 0.17476 -4.2591e-07 -3.7877e-05 0.13504 2.2162e-05 0.00082185 0.19249 1.6476e-05 -3.4917e-05 -2.8467e-05 1.4378e-05 0.00049478 -0.00016733 0.19298 -0.00052865 2.3649e-06 -7.9631e-05 1.4376e-05 0.2405 -6.2026e-05 -1.4657e-05 -3.8493e-05 0.16432 1.3296e-05 0.0001566 3.4499e-05 -8.429e-05 1.6605e-05 -9.1171e-07 3.3066e-05 0.00017708 2.8692e-05 -3.3483e-05 -0.00016248 0.16795 3.1172e-05 -8.0374e-05 4.4829e-05 2.1577e-05 0.29053 -0.0025625 -4.6191e-06 -0.00025963 -0.00014105 0.10285 -4.1037e-05 0.30449 -0.00010518 0.001766 -0.00055516 -0.0001238 6.4962e-06 0.19112 -5.8772e-05 -5.1154e-06 0.31125 6.4844e-05 0.001152 0.090053 0.11571 -0.0001016 -2.9087e-05 1.192e-06 0.00037841 -1.2222e-05 0.15692 -0.00061231 0.00077697 0.00025082 0.0040352
-3.8061e-08 -7.4155e-05 -3.1194e-05 -5.7126e-07 -1.1279e-06 2.597e-06 -3.0791e-05 -7.4047e-07 -1.4371e-06 0.00011721 9.3155e-05 1.4866e-05 2.6957e-06 -1.1559e-05 0.00013564 -2.4275e-05 7.3147e-06 1.8594e-05 1.6027e-06 0.00045838 -3.1303e-06 -0.00023836 -7.4184e-07 2.1161e-05 -0.00019872 0.00016808 2.5637e-06 -0.00010844 -3.1159e-05 5.0833e-06 -2.7502e-05 -0.00073059 -0.00026029 1.0328e-06 -4.7972e-05 -4.2289e-05 -2.4074e-05 -1.0514e-06 -8.3676e-06 7.908e-07 7.0608e-06 -7.2409e-06 -1.15e-05 2.0054e-05 0.0011821 -3.7485e-06 1.3035e-05 2.5436e-05 3.7467e-07 7.0198e-06 -4.9397e-06 -3.1316e-06 1.0276e-05 0.38242 -7.9513e-05 2.9572e-05 2.8376e-06 2.119e-05 0.56885 2.8727e-05 -0.00016538 -3.0998e-05 -1.6117e-05 5.9033e-06 -1.1817e-06 -0.00020973 -0.0015409 -0.00055867 7.6368e-06 -2.2915e-06 -0.00022448 3.0768e-05 4.7137e-06 1.287e-05 2.9393e-06 0.0001781 0.0010964 4.0335e-05 -0.00019554 0.00026741
-2.2683e-06 -9.3054e-06 0.18652 6.8631e-06 -5.8895e-06 -2.3433e-06 -5.6873e-05 0.31586 4.0857e-06 -5.2866e-06 -0.00021363 5.0064e-06 -1.7968e-07 0.00074447 1.0625e-05 2.5582e-05 -3.2446e-06 1.4102e-05 -0.15836 0.0020275 3.5352e-05 7.1591e-05 -2.9899e-05 -0.0004232 -9.1672e-06 -0.0010847 -0.00018183 0.3962 -0.00018555 -7.0946e-06 -5.1788e-05 -4.16e-05 -0.00057405 -9.0386e-05 -0.00010229 0.01729 0.0001338 -0.00027075 0.3564 -4.5521e-05 6.2497e-05 4.2011e-05 -3.3954e-05 -1.2235e-05 0.00014508 0.0066301 -3.5538e-05 2.8286e-07 -0.0003014 0.00029896 0.00015103 8.9411e-06 -9.9308e-05 -5.7616e-05 0.00035963 -7.7508e-07 7.3093e-05 -1.3709e-05 -0.00025269 0.27437 0.32747 7.078e-05 0.00019552 0.00035528 -6.1722e-05 8.8208e-05 -3.9051e-05 -8.6187e-09 -7.5718e-05 -1.8092e-05 -0.00026238 -2.5634e-06 3.3353e-06 1.5464e-05 -0.00027175 0.0025351 -9.0898e-05 5.585e-05 0.00073843 -0.0086621
-6.6588e-07 -7.3184e-07 0.18534 3.2352e-07 -6.0994e-06 -1.048e-05 1.019e-05 -9.3768e-06 1.4097e-05 -3.7694e-06 -0.00021318 -2.1694e-06 -4.0322e-06 0.19576 -3.4401e-05 9.1978e-06 7.0323e-06 -5.813e-05 -0.1588 0.36148 7.482e-05 3.7372e-05 -6.0682e-05 -0.0003549 -3.0672e-05 -0.0007924 -9.9306e-05 -8.975e-05 -0.0001419 -2.3188e-05 -3.4518e-05 -9.1597e-06 -0.00039513 -0.00010102 -5.2083e-05 0.43264 7.2315e-05 -9.2561e-05 0.35554 -5.7304e-05 3.507e-05 1.9209e-05 0.00072549 -1.5287e-05 -2.388e-05 0.0073236 -6.5561e-05 -9.1395e-06 -0.00014185 5.318e-05 0.00016578 0.49862 -2.947e-05 1.6007e-05 0.0002153 0.00033628 1.7552e-05 -4.1161e-05 -0.00013265 0.27323 0.00031284 5.2074e-05 0.00028983 0.55019 -3.1038e-05 7.9172e-05 1.9432e-05 -9.9561e-06 -3.0217e-05 4.6637e-06 -5.2664e-05 6.1274e-06 7.9799e-06 -2.4029e-06 -0.00016732 0.0011408 -0.00011354 7.1997e-05 1.9165e-05 -0.0061688
6.708e-08 -1.0229e-05 -0.00014958 -4.9062e-05 -2.6192e-05 1.2849e-06 1.7778e-06 -1.1307e-06 5.2714e-07 -5.2744e-06 -0.00013378 2.7697e-06 -1.5119e-07 -9.1435e-06 -1.9087e-05 0.60107 0.0031534 -8.1927e-05 -0.00063301 1.2564e-05 3.1494e-06 -0.00015747 8.3996e-06 -1.601e-05 -1.0097e-05 7.4481e-05 7.4965e-06 -5.8126e-05 -0.00010997 1.4877e-07 0.00036541 2.2148e-05 -3.9363e-05 -7.2012e-06 1.1929e-05 1.4025e-05 0.0003947 1.5073e-06 2.6009e-05 2.7945e-07 -4.3162e-05 3.6053e-05 -2.9604e-06 0.0012759 2.7424e-05 0.0014704 -2.6851e-05 5.2968e-05 1.2201e-05 0.00020792 -9.1059e-05 1.9817e-05 -0.00029792 0.00089988 0.0010243 1.1929e-07 -8.6005e-05 0.00050879 -0.00030995 -0.00023891 -8.7179e-05 -1.1197e-06 1.2448e-05 3.3521e-06 6.3651e-06 -4.0404e-05 -0.00023195 0.0014616 1.1698e-05 5.701e-05 0.00014003 -3.307e-05 5.0628e-06 -4.3666e-05 2.4663e-07 0.0011528 2.1872e-05 -2.4046e-05 2.8689e-07 0.00013144
-1.2224e-06 -2.8633e-06 3.6114e-06 2.4084e-05 1.1246e-05 -5.4011e-07 -3.0326e-05 7.1205e-06 2.0843e-06 -6.1556e-05 -8.2425e-06 -2.4088e-06 -2.6375e-06 0.23316 -1.7207e-05 1.9838e-05 0.00012235 0.40675 -4.4764e-05 1.2248e-05 1.3902e-05 1.3517e-05 3.0987e-05 -7.3711e-05 -7.1912e-06 -1.6078e-05 -5.257e-05 -5.6729e-05 0.41437 -2.3848e-05 3.3588e-06 0.4963 9.8618e-05 0.58456 0.00014707 2.8821e-05 -8.6331e-05 2.1326e-05 2.6631e-05 1.2699e-06 -2.5637e-06 1.814e-05 -1.1918e-05 5.4434e-06 -6.4153e-05 -5.3697e-06 -0.00028276 4.401e-05 1.5916e-05 -0.00015034 3.9643e-05 2.9648e-07 1.6829e-05 3.7637e-06 -0.0009577 -3.3337e-06 8.961e-05 -0.00023927 3.4181e-06 -0.0002452 7.9984e-05 -2.2077e-06 -2.2927e-05 -0.00024648 1.031e-06 -7.6043e-05 0.00068583 -4.9327e-05 -8.6224e-05 -9.379e-05 3.6423e-05 1.2388e-05 1.0323e-06 2.117e-06 -3.3494e-05 -0.00092662 -2.2092e-05 0.0013085 -0.00012134 0.00095516
4.9241e-07 -5.5177e-07 0.17218 0.25633 0.24802 1.7276e-06 9.2238e-06 -1.3112e-05 -5.6368e-06 -1.9721e-06 0.00010646 -2.73e-06 0.00025892 -6.4711e-05 1.8859e-05 -1.5965e-05 0.23507 -0.00010769 -0.13976 -2.7135e-05 0.00013324 -4.0684e-06 2.1526e-05 0.23607 4.4247e-05 0.00011467 2.5122e-05 -3.1396e-06 0.00049234 -7.0277e-05 -3.4256e-05 1.2379e-05 0.20151 3.0032e-05 0.34332 -0.00035821 -3.2035e-05 3.1574e-05 -1.0371e-05 -4.3407e-06 0.00012828 -1.3286e-06 -5.1142e-05 -5.1384e-05 8.8938e-06 0.012147 -3.4094e-05 5.2591e-06 5.115e-05 0.0001996 -2.3549e-05 2.7144e-05 1.0926e-05 -0.00012209 0.00088942 -2.8613e-05 0.00013411 -1.8284e-05 -4.1417e-05 0.14466 -6.6983e-05 5.009e-06 0.23505 1.4668e-05 0.00042669 0.00013798 -2.5907e-05 -9.4575e-05 0.1105 0.14186 -1.1771e-05 -1.6801e-05 -2.8235e-06 0.00044719 2.2978e-06 0.0016617 0.32878 0.00099314 -1.401e-05 0.5831
3.6648e-07 -1.2449e-06 -0.00013846 3.5465e-05 0.41578 4.7175e-06 1.0885e-05 2.3754e-06 -8.591e-06 -1.1414e-06 -8.0656e-06 -3.0925e-07 0.4731 5.2863e-06 1.3669e-05 -1.2951e-05 4.8068e-05 2.1153e-05 -8.3396e-05 2.1584e-05 3.4729e-05 -1.882e-05 9.6363e-06 2.849e-05 -7.9652e-06 1.624e-05 1.0847e-06 2.5602e-05 0.00045811 -5.2947e-06 -2.8859e-05 2.0783e-05 0.0003439 -7.9298e-07 -0.00086357 0.00017412 -0.0016856 -2.0874e-06 1.0529e-05 0.76398 -1.7926e-05 2.4442e-06 -4.6967e-07 1.0996e-06 3.1065e-05 4.1338e-05 1.5036e-05 2.425e-05 5.7778e-05 -4.0388e-05 1.436e-05 -1.1403e-05 6.8879e-06 1.2714e-05 -0.00077898 1.7887e-06 -9.0024e-06 8.0848e-06 -1.7596e-05 0.00050935 -1.8611e-05 3.6114e-05 0.00015215 8.4912e-07 2.8057e-06 0.00031487 -1.2813e-05 -1.3219e-05 1.2337e-05 -1.4919e-07 -6.1089e-07 -2.3054e-06 -6.1162e-06 0.00071525 0.00023976 0.00086002 0.00048141 0.0011136 -4.5902e-06 0.001251
-1.5323e-06 -8.4062e-07 0.19548 -6.2687e-07 -7.0338e-06 -1.0654e-05 -2.5838e-05 -1.0431e-05 1.4846e-05 -6.3494e-06 -0.00022553 -2.5661e-06 -4.2186e-06 0.20634 8.3928e-06 9.4094e-06 7.6391e-06 1.1548e-05 -0.16743 0.38102 7.9463e-05 3.8104e-05 -5.9491e-05 -0.00037509 -3.6191e-05 -0.00084136 -0.00010795 -0.00010029 -8.3695e-05 -9.4937e-06 -3.6157e-05 -1.5412e-05 -0.00041628 -0.00010428 -5.6151e-05 0.45605 9.8434e-05 -0.00010621 0.37476 -6.3695e-05 3.7516e-05 1.9123e-05 -4.8777e-06 -1.5169e-05 -2.2706e-05 0.0077959 -2.6055e-05 -9.5155e-06 -0.00015454 5.424e-05 0.0001709 0.52551 -3.1371e-05 2.5841e-05 0.00018934 5.0699e-06 1.9137e-05 -4.9497e-05 -0.00014417 0.28783 0.00033007 8.8464e-05 0.00026841 0.00046054 -3.3276e-05 8.3474e-05 1.2123e-05 -4.812e-05 -3.6635e-05 1.1153e-05 -6.2795e-05 3.5337e-06 7.5643e-06 -2.6368e-06 -0.00017864 0.0011834 -0.00011852 2.6064e-05 9.2396e-06 -0.0065558
-1.9014e-07 -7.4374e-07 1.7837e-06 2.5468e-06 -2.6456e-06 -2.4485e-07 -7.3198e-06 4.6321e-06 -1.383e-05 1.5671e-06 0.0017264 2.6976e-07 -1.2602e-07 -9.9092e-06 0.0019458 -2.7955e-05 8.7847e-05 -6.0004e-05 -2.1961e-06 -3.8409e-06 9.2432e-07 6.2075e-07 -9.9194e-06 -4.7046e-06 -2.4798e-05 -2.0288e-07 -5.3086e-06 -5.2325e-07 4.7417e-06 -1.1857e-07 -8.7948e-07 0.00042353 -3.4635e-05 3.3976e-06 3.5199e-08 1.3338e-06 -1.819e-05 -1.3672e-06 -2.198e-06 5.4895e-07 6.2595e-07 1.8389e-06 1.4329e-06 -6.563e-05 0.00053361 -3.9241e-07 -6.5386e-06 2.0323e-06 -1.5732e-06 1.2552e-05 -0.00042008 3.3077e-06 -2.7979e-06 -5.874e-06 1.244e-05 -1.5924e-06 3.5669e-06 -2.148e-05 -0.00014317 -2.0121e-05 -3.2211e-05 -1.171e-06 -8.221e-06 1.638e-05 2.7152e-08 -0.00011174 0.00011326 -4.4581e-05 -3.608e-05 -8.5599e-06 -4.4667e-07 2.1639e-07 7.0693e-07 -3.8144e-06 1.384e-07 1.6527e-05 -7.9943e-05 -7.0412e-06 2.938e-06 4.6926e-05
-3.2188e-07 -1.9278e-07 1.8075e-06 -3.3238e-06 5.5101e-06 -2.516e-07 -2.1867e-07 -9.0309e-06 -4.6121e-07 0.0002985 -2.2239e-05 0.34072 -2.2485e-07 4.5476e-06 -1.7698e-05 1.2345e-06 1.6157e-05 -9.516e-07 9.5237e-06 1.0883e-06 1.1508e-05 2.3605e-05 1.1541e-06 0.00012794 0.2733 -6.0604e-06 1.0728e-05 9.7314e-06 -4.6617e-06 -4.9044e-06 5.776e-06 -3.4559e-06 6.9961e-05 -6.394e-07 6.9722e-06 -8.7592e-07 -4.9647e-06 8.7809e-05 4.0555e-06 3.9094e-08 -1.5665e-05 0.00023874 4.0163e-07 1.2678e-05 -2.3991e-06 9.0494e-07 -7.8529e-05 2.3367e-05 -2.6751e-06 -0.00019532 -2.5163e-05 1.4421e-06 -0.00021897 3.3445e-07 -0.00081163 9.2652e-07 -0.00041139 1.8189e-06 -4.0819e-05 2.9678e-05 -3.4727e-05 -2.4771e-05 -3.0286e-05 -7.0695e-07 2.3303e-05 -5.681e-05 2.2022e-07 6.1382e-07 6.496e-06 1.8842e-05 6.9496e-06 -3.7549e-05 1.3112e-06 -8.6878e-06 7.7188e-08 -0.0012266 -2.0108e-05 7.7661e-06 4.4108e-06 -1.8443e-06
6.575e-05 -1.1968e-06 2.5005e-05 4.9478e-06 -1.6858e-05 -1.6731e-06 0.31075 -4.4545e-06 -2.1006e-05 0.00032724 -2.0464e-05 1.0676e-06 -2.0248e-05 0.21822 0.45458 -3.4049e-06 -2.2714e-05 0.0012243 -2.4186e-05 -4.881e-05 4.2432e-06 -2.0705e-05 0.00012578 -2.8408e-05 -6.3023e-05 -5.3549e-05 -8.2446e-06 1.325e-05 0.0010476 -1.1495e-05 -4.9284e-07 -0.0002118 4.937e-05 8.7452e-06 0.00042071 -3.5438e-05 0.00041158 1.8647e-05 0.00010698 1.0564e-05 -0.00010595 9.9825e-06 0.47933 1.0515e-08 -8.8076e-07 -2.1389e-05 0.00093719 -1.0853e-05 -1.3222e-05 -0.00019075 -0.00012604 -0.00016649 1.3317e-06 0.00087976 -0.0015415 -5.7032e-05 6.9741e-05 4.7129e-05 -7.7291e-05 -0.00063255 -5.6393e-05 2.7676e-05 5.1032e-05 0.62808 3.0247e-06 -6.2516e-06 -6.3037e-05 -0.00058529 -9.121e-05 2.5837e-05 -0.00012932 -4.5009e-05 -5.2729e-06 8.8186e-06 -2.2588e-05 -0.0016371 -0.00018356 -0.00041489 3.1403e-05 0.00026781
2.9787e-06 0.23014 2.6506e-05 -0.042035 1.5834e-05 -8.8246e-07 -5.8212e-06 -4.4875e-07 -6.6983e-06 6.1406e-05 -2.1574e-05 -2.3135e-06 -1.3084e-05 0.18611 -1.3452e-06 1.755e-05 -1.8885e-05 -0.00019407 -1.3578e-05 -8.7081e-06 3.9343e-06 -0.00028108 1.9073e-05 0.26683 5.9604e-05 -2.0143e-05 5.4649e-05 2.0176e-06 -0.00010077 3.7007e-06 -1.3273e-05 0.0016591 9.9148e-05 0.46668 1.3766e-05 -2.1417e-06 -9.6524e-06 1.9042e-06 4.0744e-06 3.7316e-06 -3.0627e-06 -1.244e-06 -9.4312e-06 -1.3644e-05 3.4889e-05 -2.3407e-05 0.0004767 1.5137e-05 -6.5612e-06 1.5478e-05 0.0024251 1.0973e-05 1.0659e-05 -5.4441e-05 0.0001553 -3.0708e-05 9.8129e-05 0.00073266 -0.0001747 -0.00015033 0.31175 3.8917e-05 0.27068 2.0504e-06 -9.1363e-06 7.0028e-05 -0.00014307 7.7551e-05 0.10852 0.19187 3.9836e-05 3.4617e-06 -8.547e-06 1.3827e-05 -2.7264e-05 0.00049698 1.6226e-07 -0.00040471 5.7842e-06 9.7673e-05
-8.1026e-06 5.6501e-05 -8.2401e-05 2.0922e-05 -1.7518e-05 1.3908e-06 -4.8598e-05 9.2692e-06 -8.1597e-07 2.5591e-05 0.26175 1.0802e-05 -2.2329e-06 -0.00010681 -5.3493e-05 0.00011903 0.00021525 4.329e-05 -1.1038e-05 -5.1359e-05 7.4756e-05 2.7471e-05 -3.096e-06 4.7022e-05 -9.652e-05 -3.6072e-05 1.6784e-05 -9.3332e-05 -0.00011393 -2.9185e-06 0.00015242 -0.00078435 4.8389e-06 -6.8145e-06 4.3652e-06 1.2554e-05 -3.5379e-05 3.8159e-06 -5.5826e-05 -6.5694e-07 -5.7307e-05 -3.8209e-06 0.0027532 0.00028127 0.25408 1.0633e-05 2.8552e-06 3.2359e-05 1.1546e-06 1.5644e-05 -0.00023853 4.9482e-05 8.4377e-06 -0.00024048 -0.000191 -9.0131e-07 3.3326e-05 0.0090084 0.47089 0.00027318 0.34785 0.00041421 -9.1852e-05 -6.8318e-06 -1.224e-06 -0.00055693 0.54484 0.56949 -6.4511e-05 -7.7417e-05 -1.1149e-05 -8.5619e-06 4.9758e-06 -3.9292e-06 -1.1109e-05 -3.3362e-05 0.0026777 2.1418e-05 -0.00011086 -1.8098e-05
3.1124e-06 2.2878e-05 -0.00055534 -0.00011178 7.4038e-05 -2.8758e-06 0.00043278 -5.0724e-05 -9.3255e-06 0.32176 1.2415e-05 -1.8654e-05 4.5538e-05 -3.5524e-05 -1.2751e-05 -6.0207e-06 -0.00015756 -0.00037889 -0.00097786 -2.1942e-05 -8.4977e-06 -0.00025879 2.0213e-05 0.0002153 -5.3913e-05 0.00082456 0.0003599 -0.00013934 0.0061468 3.0273e-05 -5.2471e-05 0.40269 3.554e-06 0.00028868 5.1462e-05 3.9269e-06 0.00039323 -0.00021199 2.3555e-05 2.0061e-06 0.00018833 -6.5424e-05 -5.1006e-05 -2.4475e-05 -4.8098e-06 0.00084472 0.31918 0.00014234 -0.00022482 0.00031909 0.0022533 -3.2841e-05 -1.3114e-05 8.5288e-06 0.001511 1.2264e-05 3.772e-05 0.66438 -0.00091778 0.0013587 2.8963e-05 0.000706 -3.1802e-06 -0.00018542 0.0001784 0.00011735 -0.0011282 -3.1338e-05 0.00033601 0.00024772 -3.0133e-05 -7.1777e-05 -3.8377e-06 -7.635e-06 2.1735e-06 0.0017395 -0.00016325 -0.0026859 -2.8508e-05 6.385e-05
-1.1701e-06 -2.4586e-06 0.20337 3.0185e-05 -0.0002014 -2.3601e-06 0.00017614 -0.00014421 -3.3667e-06 0.00031637 6.8669e-05 9.4532e-06 5.7694e-05 -7.664e-05 -5.047e-06 -1.6257e-06 -0.00020226 -0.00029487 -0.16503 -0.00012958 4.4625e-05 -6.6157e-07 2.506e-05 0.00085073 -5.8025e-05 0.2895 0.00042092 -0.0001457 0.3658 -9.2936e-06 -3.5005e-05 -4.8844e-05 0.00028686 0.00036533 7.2282e-05 -0.00088118 0.00032763 -7.8918e-05 -3.9907e-05 1.1025e-05 -0.00014281 0.00077605 -6.3601e-06 -7.6028e-06 -7.855e-05 0.014551 0.0031739 0.00016988 -0.00018128 -0.00035569 -4.9166e-05 -3.1687e-05 1.6594e-05 -9.0829e-06 -0.0018539 -4.6199e-07 -0.00012061 0.00068491 -8.8231e-05 0.17219 -0.00011986 -0.0003758 -7.2624e-05 -0.00034211 0.44883 -0.00015634 -2.7246e-05 -8.9997e-05 1.0129e-05 -7.7661e-05 4.5821e-05 -4.1306e-05 3.0422e-06 -5.2933e-06 0.0001065 -0.0036932 0.00083175 -0.0049371 4.5629e-05 0.027276
1.3491e-06 -8.4366e-08 0.00025806 0.26605 0.25698 -7.7604e-06 -2.0131e-05 -4.2638e-05 -1.3927e-06 -2.4354e-05 2.1118e-05 -9.7804e-07 -3.3537e-05 0.17151 2.7336e-05 -3.7766e-05 0.24415 1.5277e-06 6.9651e-05 1.3189e-05 1.4271e-05 -4.6739e-05 1.5559e-06 0.24567 -0.00057463 1.3979e-05 -9.5311e-05 4.0531e-05 0.31051 -0.00012365 -2.281e-05 6.681e-05 0.2088 1.5699e-05 0.00028044 6.1771e-06 1.8471e-05 1.3566e-05 2.7233e-05 3.6448e-05 0.00020328 3.4489e-05 -2.6279e-05 -3.4311e-05 -6.4487e-06 -6.0826e-05 -9.2027e-05 5.0252e-06 6.3566e-07 0.36858 1.365e-05 -3.6188e-05 -0.00021573 -2.6701e-05 0.12721 1.2475e-05 0.38619 -6.0463e-05 -7.3489e-05 -9.7994e-05 2.2323e-05 9.6588e-05 0.24647 -0.00010512 -3.1542e-06 0.00023793 -5.132e-05 -3.631e-05 0.11467 0.14714 0.00011945 -3.2407e-05 -4.099e-06 0.00059789 -1.2242e-05 0.19406 0.00029811 0.50845 1.584e-05 0.0057504
4.1155e-06 0.19094 0.00025606 5.0066e-06 -5.1401e-06 -7.4383e-06 2.7594e-05 3.7931e-05 -5.0365e-06 0.26664 -2.574e-05 0.00016549 4.3787e-06 0.00029887 0.00044903 1.6962e-05 0.00014254 0.00083601 0.00047869 0.00016119 5.0625e-05 -0.00022402 -8.6589e-06 -2.4887e-05 0.00074011 -5.0531e-05 -1.3122e-05 0.0010867 0.00018124 0.00010583 5.2445e-06 0.33221 0.00017322 -2.3733e-05 -0.00017934 -7.2395e-05 7.5799e-06 -4.4602e-05 -2.2158e-05 7.0662e-06 -8.2317e-05 -1.5457e-05 -2.9367e-05 6.5132e-06 0.0015327 -0.00036216 0.00020834 1.7059e-05 -2.3343e-06 -0.0003386 0.00045605 -1.6198e-05 -4.403e-05 0.00053456 -0.00063101 0.00020975 1.2274e-05 -0.00082783 0.37381 0.00026594 -0.00023778 -3.5587e-06 9.9644e-06 -5.4866e-05 -2.6262e-06 -0.00030394 -0.0026887 0.00036958 -1.5667e-05 -6.9237e-06 0.0023659 -3.9319e-05 -5.9319e-06 -7.411e-06 -9.3769e-06 -0.0049746 0.00060128 -0.00022546 0.0041987 -0.00061107
0.38827 0.31153 4.8464e-06 0.00024719 3.878e-07 9.3643e-07 0.0018749 -7.648e-07 0.40138 -1.1911e-05 7.675e-06 -3.65e-08 2.1333e-06 1.2703e-05 9.0901e-06 3.3401e-07 -2.597e-05 -1.9233e-05 -2.2419e-06 -2.9277e-05 6.7221e-06 -1.2294e-05 -1.0045e-05 -0.00032257 -1.7198e-05 1.5424e-06 4.4328e-05 -8.2369e-05 -5.3894e-05 -8.8239e-06 1.1911e-06 7.186e-07 -1.9995e-05 7.665e-07 -7.5799e-06 -1.2354e-05 -1.8416e-05 2.7706e-06 2.2531e-06 3.3688e-05 1.1205e-05 8.1834e-06 0.55302 6.8829e-07 -3.6389e-06 -4.6555e-06 -3.5565e-05 5.146e-07 5.364e-06 1.5564e-05 -2.19e-05 1.7918e-05 -2.3237e-05 -1.3399e-07 5.8157e-06 0.50272 -2.5224e-06 -1.3064e-05 1.7385e-06 -1.4344e-05 -6.449e-05 -0.00036011 0.00087379 -0.0062244 1.6243e-07 2.2914e-05 -0.00010875 -0.00070068 -0.0015552 -0.00058912 -8.5353e-05 1.6063e-06 2.3699e-06 8.0896e-07 1.1311e-05 0.00019301 -9.7598e-05 2.6887e-05 -5.4002e-06 -1.2381e-05
-8.4799e-07 5.3408e-05 9.5026e-05 2.8264e-05 0.0005092 3.7101e-06 -8.8193e-06 0.3314 -1.6612e-07 1.7174e-06 0.26692 9.1416e-07 -1.0924e-05 0.00059358 1.9169e-06 0.0012964 0.00021531 -4.7111e-05 -0.00011395 -6.3462e-05 -4.9116e-07 0.00081292 -0.00025638 0.00077333 -0.00011398 1.1533e-06 -1.3931e-05 -1.1811e-05 0.0015086 -1.2941e-05 5.7006e-06 -0.00016888 0.0001612 8.6622e-06 8.7641e-06 3.8307e-05 -0.00018039 1.1747e-05 -1.667e-05 2.5125e-06 1.626e-05 3.536e-06 -2.7083e-05 -0.00017756 0.25655 9.4563e-05 1.6899e-05 6.3918e-05 2.5032e-05 0.001939 -0.0039308 -1.2481e-06 -0.00015179 -0.00016434 0.0088668 -5.8024e-06 0.00089719 -4.6676e-05 0.0028095 -0.00074622 -0.00027934 -6.8319e-05 -0.00024358 4.5336e-06 -2.0568e-07 0.47517 0.00019689 0.0018112 4.8164e-05 -6.2417e-05 -0.00020946 -9.1244e-06 5.58e-06 -2.8307e-05 -2.6039e-06 0.014612 -0.001311 -0.00083526 0.0003855 -0.0012679
-9.6012e-08 -3.3349e-07 -3.08e-06 1.8667e-06 6.0585e-08 1.4115e-07 7.5503e-06 -7.8614e-07 -1.162e-07 0.00043965 -3.1339e-05 0.50501 -1.627e-06 4.6423e-07 7.0661e-06 0.00011231 1.5143e-05 -1.1641e-06 -3.2631e-05 3.7513e-06 -1.472e-06 9.5525e-06 3.8869e-06 1.414e-05 -3.2786e-05 9.418e-07 -3.412e-06 3.1322e-05 3.0848e-05 1.8623e-06 2.8489e-05 -4.6486e-06 1.6498e-05 -9.1327e-07 -1.0932e-06 1.9568e-05 6.6355e-06 -2.477e-05 2.531e-06 -1.6751e-07 -1.8516e-05 0.64664 3.6749e-06 1.2434e-05 -3.3824e-05 3.9806e-05 -0.000105 -1.7378e-06 -2.8036e-06 -9.6842e-05 9.7007e-06 -3.3046e-07 0.57979 1.8442e-06 -0.00052621 -4.9063e-06 2.3698e-05 -7.6367e-06 4.134e-05 -4.2995e-07 -4.3814e-06 -5.5433e-05 -2.4565e-05 4.2679e-06 0.63188 4.3725e-06 5.4446e-06 7.6444e-06 -4.2891e-06 -6.9382e-06 -2.9964e-06 -2.5849e-06 4.343e-07 3.4876e-06 -1.6318e-06 -0.00088843 6.3697e-06 2.6975e-05 8.5073e-07 -1.2585e-05
-6.2612e-07 0.25439 0.00010648 -0.045024 -1.0573e-05 -8.9943e-07 7.1023e-06 4.789e-07 -1.979e-06 -9.7611e-06 -4.1297e-06 -2.614e-06 -1.2494e-05 0.20577 2.1114e-06 1.8428e-05 -5.6344e-05 1.2626e-05 -4.6427e-05 -8.7675e-06 7.3084e-06 6.2446e-06 5.3232e-06 0.29513 7.1689e-05 1.595e-05 8.7438e-06 6.3304e-06 -7.2962e-05 3.7021e-06 -1.2624e-05 1.1763e-05 2.7056e-05 1.5313e-05 5.6755e-06 -8.2562e-07 -4.7186e-09 7.6123e-06 -2.8409e-05 6.9389e-06 4.7564e-06 -2.7153e-06 -2.123e-05 -3.5475e-06 -1.3892e-05 2.4599e-05 3.8793e-06 -5.8874e-06 -3.3067e-06 -9.0194e-05 -3.6452e-05 -1.4419e-06 1.1273e-05 -6.4804e-05 -0.00027827 -1.6093e-05 9.0815e-05 -1.7784e-05 2.0174e-05 -0.00047764 0.34566 5.4195e-05 0.29274 4.1424e-06 -8.4324e-06 -6.494e-05 -5.8122e-05 2.9089e-05 0.11848 0.20603 -4.8268e-05 4.6104e-06 1 9.2466e-06 1.864e-06 -0.00037339 -2.6507e-05 -0.00034938 6.9755e-06 4.201e-05
-2.1038e-06 2.1427e-06 -4.4412e-05 1.9188e-05 -0.00010827 -3.8544e-06 -1.9092e-05 4.2745e-06 8.1854e-07 5.3031e-05 -7.4781e-05 3.1676e-06 0.49825 8.2874e-06 1.4304e-05 1.5449e-06 6.6419e-06 -3.038e-05 4.3742e-05 3.3715e-05 1.6752e-05 2.4821e-06 -1.2005e-06 3.6712e-05 4.0932e-06 -3.2957e-06 2.5393e-05 -6.1167e-07 -1.3425e-05 -9.1391e-07 -2.8953e-07 -1.2982e-05 2.0915e-05 -1.1077e-05 0.00037993 -2.3614e-05 0.59453 1.6695e-06 3.3922e-05 0.00029945 0.67876 4.3944e-06 -2.0256e-05 -7.1314e-06 4.348e-06 -4.4839e-05 -5.69e-05 3.4625e-05 1.2675e-05 7.0249e-05 0.0001239 2.2771e-06 2.1241e-07 7.4141e-05 0.00058266 3.6283e-06 -8.3862e-06 -9.5197e-06 2.1109e-05 0.00027202 -2.828e-06 -0.00049876 -0.00018255 -3.9669e-05 -8.2236e-06 1.5959e-05 7.4658e-07 2.3493e-05 -4.8718e-05 -6.4351e-05 -9.0974e-08 1.835e-06 1.3131e-07 2.244e-06 -0.00011723 0.00077351 -6.2653e-05 -9.7786e-05 -4.2547e-06 0.0013907
8.0964e-08 5.2334e-06 -3.6841e-05 -0.00092961 1.6106e-05 2.9068e-08 -5.6502e-06 2.1004e-06 -4.8134e-06 1.4249e-06 -1.1934e-05 -1.8965e-07 -1.5713e-06 8.3524e-05 1.9503e-06 1.8917e-06 -4.514e-06 3.1591e-06 -3.2715e-05 -1.1448e-06 -2.0353e-06 -1.4579e-05 -1.6639e-06 0.0010952 -2.0746e-05 5.0434e-07 1.1511e-06 -4.0823e-06 -1.7897e-05 7.4774e-07 4.3004e-07 3.0186e-05 -2.8107e-05 3.8761e-05 -7.7099e-06 -1.401e-06 -2.509e-06 2.8454e-06 1.63e-06 -8.6777e-08 6.3703e-06 -4.2421e-07 2.7515e-06 5.2322e-06 -3.15e-05 2.205e-05 6.9862e-07 -5.7094e-07 -7.2319e-07 -0.00010816 1.079e-05 1.7619e-06 2.2423e-06 -3.3655e-05 5.1821e-05 -1.4479e-06 -3.0302e-05 5.0138e-05 -3.1412e-07 9.4144e-05 0.00012372 1.9603e-06 0.0046475 2.2244e-06 -4.1397e-07 0.0022475 -2.2531e-06 7.5809e-06 0.00092772 0.004201 9.9401e-05 -1.7185e-06 -6.3206e-06 6.8652e-06 5.4398e-07 5.8182e-05 -3.1095e-05 -0.00029741 -1.3674e-06 8.4265e-06
9.2544e-07 -2.8404e-06 -0.0011113 1.9631e-05 0.00080069 0.44764 3.9436e-05 4.0582e-05 1.2942e-06 0.00064615 0.22625 -1.3459e-05 0.0003299 0.00042576 -1.5056e-05 -0.00010826 4.2947e-05 -3.9964e-05 -0.0025933 0.002866 0.00010753 1.9639e-06 3.1194e-06 2.6225e-05 0.0001785 0.00042997 -0.000119 -0.00011716 6.2559e-05 -9.6829e-06 0.38472 -7.2728e-05 -4.6062e-05 -2.4771e-05 0.00075916 -0.00035464 -2.5897e-05 -2.7828e-05 -6.3238e-05 -3.3416e-06 0.00051463 -7.4193e-05 -0.0001202 -6.2029e-05 0.22047 0.0026694 -4.633e-05 6.4483e-05 3.0199e-05 0.0022315 -9.3958e-05 -0.00019915 0.00013627 0.00098649 0.29143 7.1134e-05 0.00036078 -0.00010007 -0.00040907 0.0036741 -4.1822e-05 0.0092046 -0.00010301 -2.4727e-05 -9.2832e-06 -0.0002141 -1.992e-05 -0.00044468 -3.4238e-05 -4.0738e-05 -0.00011437 0.0041907 2.1999e-06 -3.6852e-06 2.6631e-05 -0.29899 0.35494 -0.00011357 1.3959e-05 -0.0061717
