-8.9671e-06 2.5713e-06 0.34003 1.6449e-06 -5.6447e-06 0.4665 8.0861e-07 -9.8085e-06 3.1953e-05 -2.7457e-06 5.789e-07 -5.5323e-06 -6.6276e-05 -4.5856e-06 -2.8533e-06 -1.2439e-05 -2.7292e-06 4.6807e-06 5.3773e-06 -5.5606e-05 7.1275e-05 7.6682e-06 -1.8811e-05 -5.2204e-05 -9.8958e-05 1.2047e-05 6.0609e-06 2.8482e-05 3.7013e-06 -7.9113e-05 6.5921e-06 -5.2787e-05 0.2913 -5.24e-05 -3.1197e-06 -1.2627e-05 1.1333e-05 -1.5622e-05 2.3368e-07 -3.3862e-05
4.3238e-07 1.2318e-05 -7.328e-06 -1.2128e-08 2.3946e-05 -7.2949e-07 2.8097e-06 -3.2984e-07 -1.7466e-06 -3.2762e-05 3.4756e-07 -1.025e-06 -0.00017796 -4.0148e-05 -1.6283e-06 -1.3722e-06 -1.5581e-06 0.50832 -6.2155e-05 1.5422e-05 5.1456e-06 -4.944e-05 4.1726e-06 1.3085e-05 1.4959e-05 -9.1442e-05 -1.1801e-05 -0.47239 6.0565e-05 1.6706e-05 -1.2755e-06 -1.6951e-05 -0.00011721 1.0237e-05 -2.9185e-05 -1.8422e-05 4.1354e-06 -2.114e-06 1.2457e-05 -4.593e-05
-6.3951e-07 -4.6617e-06 1.2998e-06 0.25127 0.17835 -5.3371e-06 -4.2087e-06 6.2708e-06 5.5313e-06 6.0987e-05 -3.3693e-06 -6.3584e-05 -5.6139e-05 -2.0503e-05 1.2718e-05 -2.1151e-06 0.52463 6.4631e-06 -2.3021e-05 5.471e-06 0.23749 0.00017489 2.8928e-05 1.2663e-05 -4.9838e-06 0.00022182 5.7626e-05 2.2145e-05 -6.432e-05 -2.0689e-05 -0.0001346 -2.4844e-05 5.2741e-05 -7.0739e-05 0.00012805 -7.7261e-05 -9.1692e-05 -2.4001e-06 4.799e-06 0.19701
-6.0234e-06 -1.6492e-06 3.6485e-05 -7.7491e-05 -1.9869e-07 -5.1629e-06 1.0163e-06 1.1393e-06 2.5841e-05 0.00023933 5.9014e-07 6.9012e-05 0.00056602 -1.7542e-06 -2.425e-07 5.5561e-06 1.9015e-06 6.3397e-07 -0.0012817 0.0099269 0.00018983 0.00012715 -3.1684e-06 0.0051201 -0.0002525 -8.1278e-05 -4.3129e-05 -1.3498e-05 -0.00050108 0.0028656 0.00019355 -7.1698e-06 0.00096617 0.26028 0.00028944 9.5104e-05 0.0021201 -7.9509e-05 -2.9097e-05 0.0009089
-2.8776e-07 -9.3616e-06 1.6474e-05 -2.0434e-06 1.9048e-05 0.31256 1.3329e-06 -1.105e-05 2.3639e-05 -4.4258e-06 4.3541e-06 0.00011288 -1.3403e-05 3.3791e-06 -3.3522e-06 -4.8693e-05 2.1232e-05 1.9196e-06 0.39599 0.00090182 -1.4256e-05 -9.6311e-06 -3.8473e-05 -2.8998e-07 1.8135e-06 -2.9538e-06 8.3971e-06 4.2952e-05 9.1064e-05 1.5045e-05 0.0014927 2.1997e-05 7.7014e-06 -8.6424e-06 -7.9826e-07 1.4436e-05 -1.1e-05 2.0791e-06 2.1362e-06 2.3743e-05
5.6566e-07 0.17349 7.8778e-05 5.6788e-06 0.00034942 -5.5606e-05 0.00071041 -1.2734e-05 4.0818e-05 -1.0855e-05 0.00019424 0.00033463 0.0082349 0.0047877 -0.00013824 4.1878e-05 -6.31e-07 0.40771 -0.0002082 0.0026259 -0.00011748 -4.7882e-05 0.4264 0.00079436 -0.00023117 0.00061076 0.00053648 0.00039715 -0.00027222 -0.00012949 0.0017453 0.0026371 9.3874e-05 0.00078085 6.5733e-05 0.00095635 -1.3512e-05 -4.469e-06 -8.8316e-05 -0.00036811
2.8387e-06 4.4303e-05 8.388e-06 1.4816e-06 0.00011521 -1.8557e-05 8.0553e-08 -6.1079e-06 -3.5908e-05 -0.00024418 0.0011692 -0.00010319 -1.0816e-05 0.00035889 -0.00044464 0.00012509 2.9819e-06 1.9143e-05 -0.00011522 -4.4723e-05 -0.00025185 0.00022029 0.0002585 0.00048314 -0.00030894 0.0011686 0.00043049 2.5754e-05 0.00085497 0.00019736 -3.3294e-05 0.00087859 0.00066112 -2.2082e-05 1.2478e-05 0.0073581 -3.0642e-05 -2.2536e-05 2.7633e-06 0.0014664
3.9616e-10 -1.3308e-06 1.5766e-05 -4.285e-06 0.00038898 4.893e-05 5.8666e-07 4.8085e-07 1.2417e-06 0.00022851 1.0964e-06 6.4724e-06 -7.0893e-06 -8.788e-06 -1.4528e-06 -1.5989e-06 0.1882 2.9086e-06 0.00090696 7.7318e-05 3.4335e-06 -4.6739e-06 5.3329e-06 3.1151e-06 -1.1154e-06 -7.0117e-06 3.0432e-06 3.5033e-06 -7.9317e-05 1.5955e-06 -0.00010634 1.4293e-06 -1.9203e-05 1.1164e-05 0.00017856 -2.0399e-05 -2.5592e-05 3.3008e-06 -2.8632e-05 0.00033549
2.3099e-06 7.5567e-07 9.9798e-06 8.0021e-05 -0.00018682 -9.6465e-06 -5.7286e-05 2.0302e-06 1.1755e-05 -0.00016738 0.00082013 -0.00011656 -0.00011999 0.37889 -0.00031145 7.5651e-05 -2.9703e-07 -4.6325e-05 -1.9795e-05 -0.00012393 3.3921e-05 0.37195 -9.2668e-05 0.3423 -0.00088145 5.8846e-06 7.8807e-05 2.4693e-05 0.00051891 -1.4554e-05 -0.00015814 0.00059984 0.15774 7.1052e-05 -9.0952e-05 0.0048296 -2.9604e-05 -0.0001072 3.0099e-05 0.20078
2.8247e-07 0.15774 -4.1915e-06 6.9111e-06 -2.8966e-05 6.8813e-06 -1.2966e-05 2.9815e-05 9.3295e-06 1.6042e-05 -2.5908e-05 -1.5127e-05 -5.4963e-05 -2.6209e-05 3.9549e-05 -9.5799e-06 -2.2706e-06 6.5513e-06 1.2046e-06 -5.8741e-05 -0.00025737 -6.2169e-06 0.0001682 0.34981 0.41577 -5.593e-05 -2.7658e-05 1.991e-05 -2.5874e-05 0.31554 1.8118e-05 -1.2561e-05 0.17125 -5.2197e-05 -1.4034e-05 -7.2376e-05 -9.3554e-05 -4.0055e-05 6.1947e-06 -0.00022248
3.3839e-06 -1.3439e-05 4.3821e-08 6.2801e-06 -1.2396e-05 -2.4693e-06 -2.6156e-06 1.0901e-06 3.1939e-05 4.6728e-06 -0.00013024 -0.0012293 0.0001787 -4.4107e-05 0.0001898 3.1329e-05 -9.6972e-07 -9.2039e-06 -0.00098419 0.00010898 -0.00039576 0.00012913 4.2786e-05 -8.7664e-06 -3.5341e-05 4.2636e-06 9.0413e-05 2.6016e-05 -4.6108e-05 -4.0674e-05 0.36738 0.00013148 0.0016616 9.4692e-05 0.0010178 -2.5636e-05 -1.485e-05 6.2351e-07 -7.2169e-07 0.0031319
4.8944e-07 0.44287 -8.7017e-07 -1.6465e-06 0.00042519 -4.3719e-05 0.00095705 -1.6101e-05 0.00031001 -1.1266e-05 0.00056385 0.001445 0.00017494 0.0061776 -0.00020971 -6.3851e-06 -1.3049e-06 0.00047528 -0.00025954 2.5919e-05 -0.00023618 -2.9835e-05 0.00867 0.0010652 -0.00020026 0.00067984 0.00066665 0.00026164 -0.00022866 -0.0001808 0.0038092 0.0028163 0.0016364 3.0438e-05 0.0017752 0.0011507 -4.4042e-05 7.9905e-06 -0.00011536 -0.0010618
-6.7943e-07 1.0068e-05 5.3172e-06 8.2117e-06 0.00017542 -2.9413e-05 -2.9635e-06 3.1321e-09 -1.6744e-05 1.4985e-07 1.6598e-05 -2.8628e-05 0.59772 -5.3381e-05 1.3614e-06 0.00012338 -6.4427e-07 0.00012184 0.00022643 -0.00017337 0.00090214 -2.4843e-05 0.00033516 -7.2226e-05 -3.1238e-06 0.0014551 0.0010259 0.00023511 -1.7655e-05 0.00049664 -1.6241e-05 0.54522 0.00037496 -3.6014e-05 -5.6188e-05 -6.5251e-05 -7.1363e-06 1.2881e-05 6.5716e-06 0.0025605
0.22356 -1.734e-07 0.31398 -3.492e-06 0.00027468 9.3941e-06 1.2906e-07 0.0013536 -1.8657e-06 4.9289e-05 0.00072288 -0.00043919 0.00025297 0.00064712 -0.00026131 0.32773 -3.2202e-06 1.0683e-06 0.00093493 0.0010564 -0.00022078 9.2679e-05 0.00018774 0.00027533 -0.00021634 7.5911e-05 0.00015474 5.2429e-05 0.24715 7.5628e-05 0.00025068 0.00069079 0.13609 0.0011667 0.00068553 0.0043372 0.0019554 -6.387e-05 -0.00013205 0.18129
5.3822e-06 3.197e-05 2.6526e-05 3.8125e-05 0.00053637 0.00026568 1.2704e-05 1.8648e-06 3.4192e-05 -1.0083e-05 -7.644e-06 -0.00029907 0.34355 0.0015351 3.5615e-06 0.32554 -1.0625e-06 0.00057225 0.0014718 -0.00017883 -0.0011822 6.2677e-05 0.00011929 -8.4912e-06 -3.2709e-05 0.0027828 0.00015999 -0.00084406 -3.3733e-05 0.00013345 -0.00021336 0.0029119 0.0023821 0.00081866 0.00054233 0.00019248 1.3055e-05 2.421e-05 -7.7055e-06 0.1941
0.31657 2.2324e-05 0.21965 -1.5204e-05 -1.6724e-05 9.3232e-06 2.9407e-06 0.32468 3.9938e-06 -4.6776e-06 0.00088643 0.00018541 -1.4454e-05 -1.5621e-05 0.00019836 -0.00017667 8.9094e-07 6.6532e-08 -1.3603e-06 5.1484e-06 3.7293e-05 3.0144e-05 -0.00013351 4.656e-05 0.45521 -8.8525e-06 2.5349e-06 -9.8306e-06 -2.0535e-05 -0.00061005 -0.00036402 -2.7302e-06 -0.00068555 -1.7919e-05 1.1292e-05 -0.00014456 0.00067224 0.00012622 7.3852e-05 -9.3254e-05
0.30319 -1.1366e-05 0.21077 -2.2671e-05 0.21165 -2.7996e-06 -3.3104e-06 0.31129 6.9997e-06 -3.6402e-06 6.6647e-06 -2.2386e-06 -3.8796e-05 3.3632e-06 -9.9231e-07 6.9472e-06 -1.0812e-06 -8.0128e-06 -2.4396e-05 -3.4326e-05 6.6954e-06 0.0001854 3.7838e-05 -2.006e-05 -3.5061e-05 -2.57e-06 -8.9017e-07 2.7964e-05 -6.4941e-05 2.8673e-05 -2.0452e-05 -1.3615e-05 -4.9933e-05 -2.8156e-05 -2.6857e-06 -4.7127e-05 0.49407 -0.00048389 0.63784 -2.4539e-05
1.6248e-06 0.00012063 2.0823e-05 0.2574 -1.5983e-05 -5.2438e-05 1.9338e-05 1.54e-05 4.679e-06 -2.77e-05 -5.8532e-06 0.25317 -0.0001179 -5.0437e-05 0.00059021 -2.3724e-05 -5.9748e-05 -4.4173e-06 5.0617e-05 0.00031243 0.24372 -5.2978e-05 2.464e-05 -8.1666e-06 -7.5558e-05 0.30525 0.30015 7.5959e-05 0.30947 -0.00011988 0.00030886 -0.000269 0.15637 0.24386 7.7404e-05 -5.2818e-05 -3.1272e-05 1.3642e-05 1.1844e-05 0.20555
-4.2822e-07 2.2825e-06 3.4858e-05 -1.5977e-06 7.3889e-05 0.00025819 -2.2464e-05 -1.8765e-05 4.0544e-05 4.0506e-05 -1.7022e-05 3.5538e-05 0.00050932 0.34645 4.2042e-06 0.00012429 1.109e-06 2.2186e-05 -4.1544e-05 0.00058722 1.1126e-05 0.00010312 -6.1367e-05 0.00063778 -0.00017343 0.000507 3.4214e-05 -0.00015211 8.3501e-05 0.00016362 -6.2635e-05 0.0020588 0.0020115 0.0009344 9.5829e-05 0.00023044 3.658e-05 -1.1065e-05 1.258e-05 3.0257e-05
-2.4221e-06 0.00019088 3.233e-05 1.713e-06 0.27541 0.00018167 0.00052546 -1.2262e-05 4.3108e-05 0.00014803 0.00072591 0.00021486 0.00045772 0.0033511 -0.00021887 0.00016289 6.681e-07 0.00059833 -0.00022981 0.00049837 -8.937e-05 0.015141 0.0018554 0.25226 -0.00090773 0.00084269 0.00047013 -1.7416e-05 0.00041789 3.881e-06 0.0012156 0.0039858 0.0026021 0.00062336 0.0038704 0.29336 8.6406e-05 2.1018e-05 -0.00027258 -6.8905e-05
-1.8259e-05 8.4897e-06 0.29801 -1.6813e-05 -5.983e-06 -6.158e-06 -2.4066e-07 3.3587e-07 9.6612e-07 0.00010475 1.7056e-06 0.00046164 0.42993 0.00024781 -5.485e-05 2.056e-05 1.74e-07 -6.0149e-05 -0.001717 0.019492 2.9901e-05 -7.5273e-05 2.2128e-05 0.0017286 -0.00027766 0.00027349 0.0012439 -0.0067003 -0.00096231 -3.5663e-05 0.00020467 1.6921e-05 0.00082532 0.0015528 3.9723e-06 -1.827e-05 1.4578e-05 -0.00014567 2.3935e-06 -0.00057536
2.663e-07 0.22109 -4.6905e-06 6.675e-07 -4.0447e-05 -3.8271e-05 -3.8958e-07 -6.7092e-06 0.00010378 2.6295e-05 4.6907e-05 9.655e-06 -0.0001035 -9.0233e-05 8.9196e-06 9.2095e-06 -2.7978e-06 2.7125e-05 -4.6989e-05 -4.2061e-05 -0.00021528 0.00020101 0.51619 1.746e-05 -0.00019876 0.0015673 0.0010851 4.7939e-05 1.2422e-05 -0.00016383 0.00409 0.52184 0.22968 -7.0829e-05 0.0011037 -0.00014212 -3.1071e-05 8.9778e-07 1.0339e-06 -0.00068065
0.47621 1.3254e-06 0.33085 -3.6283e-06 -8.112e-06 8.5825e-07 1.2204e-06 0.48842 -5.0002e-06 -3.9534e-06 9.4895e-06 -5.291e-06 -3.2488e-05 2.1326e-05 -3.9104e-06 -8.2361e-06 8.4559e-07 -9.6556e-07 2.2705e-06 -4.868e-05 -3.5764e-07 3.4033e-05 -7.0586e-06 7.5165e-05 9.5538e-06 2.8091e-06 -9.3225e-07 2.0161e-05 -5.364e-05 -6.0704e-06 -7.8852e-07 -2.2798e-06 -2.6385e-07 -1.8455e-05 7.7682e-06 8.3355e-06 0.0015839 0.52521 0.00046464 5.9337e-06
1.1854e-06 -2.5011e-06 2.6013e-05 3.6225e-06 0.00029412 1.4574e-05 -1.7456e-08 -7.2793e-07 3.4117e-06 6.738e-05 -6.8597e-07 -1.3101e-06 0.0038355 1.2495e-05 -4.7825e-06 0.00042279 -1.8463e-07 5.3213e-07 0.00128 0.0011216 0.00011444 -1.7138e-05 6.36e-07 -2.3817e-05 -1.3479e-06 3.206e-06 3.7835e-05 -5.7947e-07 -4.7102e-05 -2.4201e-06 -9.5023e-05 0.00013618 6.3526e-05 7.5863e-05 -3.0192e-06 3.6334e-05 -5.3134e-06 5.8983e-06 -1.0342e-05 0.0030638
9.0916e-08 -1.1121e-06 -2.6387e-06 -1.7948e-05 -1.5169e-06 1.6829e-06 -6.6255e-06 1.0371e-05 3.0061e-06 0.38999 -6.6012e-07 -8.585e-05 0.00024747 4.5154e-05 4.9387e-06 -4.113e-06 3.7756e-06 -3.6467e-05 -1.2786e-05 -7.4765e-06 0.33212 2.0471e-05 1.8243e-06 -5.3017e-05 -3.5454e-05 0.00047689 0.00014495 2.6212e-05 -0.00014172 0.0038211 -9.5413e-05 1.3217e-05 0.0011712 0.0051272 1.4815e-05 0.00019093 -1.3485e-05 -1.5325e-06 -1.0061e-06 0.27399
1.0437e-07 9.9501e-07 -2.3867e-06 7.126e-08 5.6279e-05 -1.8038e-06 0.00011508 1.6272e-06 -9.3946e-06 0.48867 0.41457 1.523e-05 -2.3915e-06 2.4512e-05 7.6136e-05 -1.3899e-05 -7.4565e-07 -6.467e-05 -4.2163e-06 -3.5369e-05 -2.2879e-06 -0.00031978 -2.898e-05 7.824e-05 1.0848e-05 -6.6635e-06 -3.2716e-05 2.6904e-06 -8.4859e-05 4.9775e-05 6.1068e-06 -3.9163e-05 -4.6958e-05 2.2833e-05 0.00023332 0.61738 -3.4845e-05 9.5856e-06 -9.5196e-06 -8.6217e-05
3.1278e-07 8.2938e-05 6.757e-06 4.3054e-06 0.00015631 6.0668e-06 3.1597e-06 5.1e-06 4.2372e-06 3.7391e-05 -0.00014698 -7.0055e-05 0.0003625 2.7313e-05 0.00013658 0.00018601 2.2648e-06 1.4036e-05 8.384e-06 4.4274e-05 0.00026169 -0.00028899 -4.0289e-06 -6.9123e-05 2.5793e-05 0.00062021 0.00015561 -8.2827e-06 -2.9411e-05 0.00012712 0.00040852 2.5112e-06 0.0004308 0.00025457 -1.581e-05 0.52054 -1.5211e-05 1.829e-06 -2.4299e-05 0.14388
6.497e-06 5.0673e-06 0.00016066 -9.7927e-06 0.00013905 0.00023247 1.5173e-05 1.0326e-05 5.143e-05 0.00011854 -5.4167e-06 -0.00018734 0.00042102 0.00037309 2.851e-06 0.00010775 8.5429e-07 4.5576e-05 -7.2556e-05 0.00091513 0.00046332 4.9935e-05 0.00019814 8.4444e-05 -8.4192e-05 0.00049353 5.2472e-07 -0.00013205 5.7829e-05 9.9749e-05 -0.00024298 0.0018743 0.0025664 0.20386 6.6401e-05 0.00014321 -1.6235e-05 0.00020255 -7.374e-06 0.19378
1.8852e-07 -1.9734e-06 4.1274e-07 -2.1214e-06 -1.4215e-05 -5.1586e-06 2.0247e-06 -1.6304e-07 6.1787e-07 -1.9438e-05 3.6054e-05 1.3704e-05 -1.1085e-05 -7.8674e-07 1.8097e-06 -4.7033e-06 -1.0531e-07 -1.964e-05 -2.7248e-05 1.2101e-06 -0.00021651 0.00018959 0.00014702 3.7229e-05 -4.9724e-05 6.2227e-06 5.0753e-05 5.6489e-06 7.5158e-06 -4.0012e-05 0.0042799 5.5828e-05 0.0016663 6.9047e-05 0.70129 -0.00013593 -2.8724e-05 9.5438e-06 8.2227e-07 -0.00072921
-6.2102e-07 0.2542 1.3585e-05 6.5144e-06 0.00022783 1.3874e-05 0.00054688 -1.3104e-06 0.69629 8.4607e-06 0.20371 0.21028 9.8382e-05 0.0035154 8.7116e-05 9.9414e-05 -8.2035e-06 0.00027249 -0.00026581 3.2733e-05 -0.0002476 0.00010992 0.0020748 0.00061076 -0.00015544 0.00041554 0.00045324 0.00014521 -0.00021664 -0.00012096 0.3238 0.0016517 0.000922 0.00017949 0.0015834 0.00049148 -4.469e-06 5.1693e-06 -6.6936e-05 -0.0012198
4.2228e-06 0.00022455 4.0336e-06 1.0966e-05 0.00058183 -6.3639e-05 0.00057218 -1.4693e-05 1.497e-05 4.6341e-05 0.00095247 0.00015594 0.00026207 0.0041554 -0.00039357 0.00012764 -3.2044e-07 0.00031223 -0.00029893 3.147e-05 -0.0001722 0.00044918 0.0023787 0.0010444 -0.00037225 0.040976 0.25695 0.0001357 0.0047135 -2.7215e-05 0.0015082 0.33776 0.0021453 0.001508 0.00039039 0.0055286 -5.2593e-05 2.6291e-06 -9.1119e-05 0.0043033
-5.6003e-07 6.0676e-06 5.3875e-05 -9.9236e-07 3.7954e-06 -8.7012e-06 1.0678e-06 -1.1486e-05 5.9908e-06 0.00065692 8.3051e-06 0.00023895 -4.8456e-05 7.961e-06 -1.1961e-05 -9.1876e-05 -3.1902e-06 5.7071e-06 0.46324 -0.00033985 -6.8525e-05 3.4677e-06 -8.6814e-07 1.2538e-05 -2.584e-06 0.00016045 2.4643e-05 5.5783e-05 -0.00067395 1.1554e-06 -6.465e-06 0.00011944 -1.8773e-05 3.2878e-05 0.00053855 5.5436e-06 -2.1031e-05 -2.8677e-05 -1.1987e-06 0.00043816
-1.6887e-08 3.7107e-07 1.511e-07 -4.3767e-07 -1.2669e-05 2.3484e-06 0.8573 5.7036e-07 -1.2077e-06 -1.1547e-05 2.386e-06 -7.3211e-07 -1.1625e-06 -0.00010593 1.8594e-06 -1.9605e-06 2.3115e-08 5.9962e-06 1.5221e-06 5.5399e-07 -4.3395e-06 4.2267e-06 3.8621e-06 -7.0337e-05 1.168e-05 5.7315e-07 1.322e-05 -2.1685e-06 5.9058e-06 5.6134e-06 -4.2539e-06 -8.6404e-06 -3.301e-06 1.9883e-05 -8.4304e-06 -3.7699e-05 -2.7731e-07 4.2197e-06 3.7472e-07 -1.4417e-05
-5.342e-06 0.10378 0.1241 0.17537 -0.00025044 0.00018242 2.328e-05 6.8261e-06 0.2832 -1.3725e-06 -6.9729e-06 -5.9781e-05 0.00032716 2.4031e-05 1.1457e-05 0.0001078 -2.9306e-05 1.1132e-05 2.9465e-05 -3.0453e-05 0.1664 0.50958 -2.196e-05 0.0070908 -0.00030772 0.00061642 -4.3796e-05 -0.00012839 -3.9761e-05 7.3614e-05 0.00033844 0.0015118 0.0017613 0.16566 0.00023964 -0.00026807 0.0012992 -0.00011791 1.7334e-05 0.13924
8.3105e-06 0.17526 -5.1866e-06 4.1283e-06 0.0021659 -1.2666e-05 -1.4716e-05 4.3613e-05 -3.6068e-05 1.7206e-05 -2.8751e-05 -1.4648e-05 -7.9854e-05 0.00029548 4.3931e-05 -1.3568e-05 6.8377e-07 7.4833e-06 -8.8136e-06 -5.6397e-05 -0.00026639 -4.6091e-05 9.449e-05 0.38783 0.46413 -6.2039e-05 -2.4792e-05 1.726e-05 2.1231e-05 0.35082 1.8906e-05 -1.3746e-05 0.18855 -7.6879e-05 -1.44e-05 -7.8383e-05 0.0069479 -0.00021947 -0.004056 -0.00028069
-1.247e-06 5.1365e-05 6.5048e-06 1.2548e-06 0.0001542 0.00015356 0.00024427 4.3754e-06 -2.1872e-05 0.00010923 2.3951e-07 -8.0684e-05 0.00047027 0.0018616 4.6435e-06 0.00010929 -1.6128e-06 0.00056436 -6.7289e-05 1.3428e-06 -0.0011637 7.7176e-05 6.8381e-06 1.3148e-06 5.4772e-06 0.0060091 0.010698 -0.33841 2.4117e-05 2.803e-05 6.5936e-05 0.00063653 -2.9451e-05 0.00015548 0.00056681 -1.338e-05 -2.9868e-06 1.0878e-06 -2.8857e-05 0.0014878
-1.2665e-06 0.30637 2.4702e-07 4.8687e-06 -1.9824e-05 1.188e-05 1.1278e-06 -6.2773e-06 0.00015269 2.889e-05 -4.9326e-06 -3.0849e-06 -3.5542e-05 -1.113e-05 2.3179e-06 -2.2362e-06 -3.2784e-06 1.2682e-05 1.2224e-05 -9.8364e-07 4.5752e-05 -8.3832e-06 -3.7685e-05 -9.7039e-05 -0.00047526 4.4219e-05 1.5925e-06 -1.7621e-06 -1.9353e-06 0.59624 5.5414e-06 -6.1737e-05 0.31351 -4.6764e-05 -2.1639e-05 -5.7152e-05 7.0074e-05 -6.0431e-07 3.0016e-06 -0.0001002
-1.323e-06 0.00015701 9.8837e-06 -7.1328e-06 8.5241e-05 0.0017192 0.00023277 4.1782e-06 -3.4509e-05 0.00010214 -2.5675e-06 -8.5479e-05 0.00057481 0.0017896 2.6079e-06 2.3157e-05 1.8464e-06 0.00049504 -3.0546e-05 -1.9068e-06 -0.0019157 7.0973e-05 0.00192 -3.8696e-06 1.0175e-05 0.010278 0.012281 -0.0048305 3.5688e-05 0.00080222 5.4961e-05 0.00063218 -0.00012845 0.00013891 0.00084354 2.5803e-05 5.2231e-06 -4.407e-07 -9.0306e-06 0.0031181
-1.8441e-06 1.1466e-06 1.782e-07 1.04e-05 0.00011058 2.0977e-05 -1.6927e-07 5.4134e-06 -1.3409e-07 -2.5221e-06 3.3956e-07 -2.6844e-05 0.0007206 0.0021108 -1.4492e-07 2.2614e-05 -2.1763e-07 0.00075355 -2.2694e-05 3.5315e-06 -0.00034298 -7.8209e-06 -7.1868e-06 -3.5561e-06 1.3734e-06 0.0034271 3.3451e-05 -0.0011407 -2.518e-07 1.4647e-05 -1.4779e-05 0.00068058 -4.437e-05 1.1908e-05 0.00027043 -6.802e-06 3.0745e-06 2.3962e-06 -1.0867e-05 0.0022943
-2.8747e-06 -9.0124e-06 2.172e-06 -3.6565e-06 0.31404 5.6784e-07 8.2665e-05 1.0518e-06 3.9992e-06 0.00094944 -2.9963e-05 1.0506e-05 -3.0536e-05 -9.5025e-05 2.2303e-05 -3.1623e-06 -1.5698e-06 0.00034577 -2.5324e-05 -1.9836e-06 -6.234e-05 0.017397 7.6042e-06 0.0011167 -0.00012084 0.00072312 0.00019028 1.0192e-05 5.7863e-05 -6.7592e-05 4.7202e-05 -1.2183e-05 -2.1645e-05 4.2119e-05 0.0076016 0.0054531 0.00021054 4.2653e-06 -0.00019321 0.00030603
1.7576e-06 0.14973 0.0002337 2.438e-06 0.17976 0.00024649 3.1712e-05 -3.8802e-06 0.00010964 -5.1945e-06 -4.8545e-06 6.1502e-05 0.001156 -7.1603e-05 5.7474e-06 0.00014764 -2.9942e-06 -0.00031535 0.00037546 4.346e-05 0.00040874 0.00026034 0.34603 0.00012631 -0.00016908 0.00051486 2.2474e-05 -0.6506 7.0574e-05 1.4573e-05 0.00072135 0.0027392 0.15779 0.00093676 0.00021595 0.00022928 -8.4225e-05 -1.5159e-05 5.2686e-05 0.0013077
-1.3246e-17 2.9002e-22 8.8085e-18 1.1306e-19 5.666e-17 1.5653e-18 5.5457e-20 -3.6218e-17 8.3179e-20 1.6223e-18 3.5502e-20 -1.3367e-18 1.0751e-18 1.1788e-18 -2.7917e-20 -1.7882e-19 5.1644e-19 -2.1407e-19 -8.5095e-19 2.8557e-18 -1.0993e-21 4.2155e-18 -3.734e-18 -4.1396e-17 3.2596e-17 2.7862e-20 -9.9601e-20 -6.4268e-20 3.2121e-17 2.8889e-18 3.2029e-20 3.0697e-19 5.421e-18 -1.65e-19 1.0243e-18 7.348e-20 -1.2499e-15 3.5022e-14 -2.6904e-14 3.2637e-18
6.0957e-07 -1.4573e-05 9.9546e-06 0.37631 -5.6146e-06 -7.9758e-08 -2.5029e-06 1.419e-05 0.00010351 9.7625e-06 -4.8645e-06 -0.0003214 -0.00013807 -9.6694e-05 6.062e-06 -4.0537e-06 -6.5178e-05 -1.6112e-06 3.0314e-05 2.1353e-05 0.35763 0.00023978 3.7152e-06 -3.9803e-06 3.4712e-05 0.00054602 -0.0001277 2.2674e-05 -0.00054454 -4.3927e-06 -0.00042488 -1.5882e-05 -9.8998e-05 0.0004954 -5.3733e-05 -3.8835e-05 1.1097e-06 -2.4611e-06 2.8232e-07 0.32816
-3.6537e-06 2.8733e-05 0.21478 5.274e-05 0.00027218 0.0003287 2.2892e-05 -9.6132e-07 0.00013124 1.3074e-05 -2.479e-05 -3.6702e-05 0.00065919 6.1694e-05 1.2578e-05 0.00014973 1.9505e-06 1.8961e-05 4.4607e-05 -6.0396e-05 -8.6599e-05 0.4456 6.2611e-06 0.00053085 -0.00013345 0.0035554 0.012028 -0.0018187 0.0002164 0.00017678 4.7654e-05 0.002685 0.0026076 0.28584 7.6998e-05 0.0011336 -6.8546e-05 1.0263e-05 -0.00011877 9.1484e-05
-2.5259e-06 -1.2013e-05 3.3077e-06 -1.6601e-06 0.48201 -1.0634e-05 -6.7433e-06 -1.6888e-06 9.189e-06 -8.0039e-06 -6.694e-07 2.3461e-06 -5.3537e-05 -0.00029065 1.9995e-06 6.2074e-05 9.123e-05 0.23678 -9.1511e-05 -4.3863e-06 6.6662e-06 0.0003925 -3.3116e-05 3.0591e-05 -6.5455e-05 0.00052433 0.00017418 -0.00025312 -3.3155e-05 -3.0332e-05 -6.1406e-05 -3.857e-05 -2.2653e-06 9.1372e-05 6.9212e-05 -9.0595e-05 -0.00021505 -1.0374e-06 3.7095e-05 0.00033077
2.5454e-06 0.26416 -1.2966e-07 1.9946e-06 5.8859e-05 0.43416 1.5438e-08 -2.7599e-05 0.0001181 7.7039e-06 -9.8912e-06 -5.8031e-06 -1.4644e-05 -3.1456e-05 5.3251e-06 0.6604 -3.9144e-06 0.00034776 5.8206e-05 -5.0817e-07 4.1158e-05 -4.1658e-05 -4.2609e-05 -6.4076e-06 -6.2479e-05 2.1934e-05 -1.1533e-06 -0.0010698 3.5967e-05 -2.0489e-05 2.7436e-06 -4.1147e-05 0.27069 -2.6384e-05 0.00018349 -3.7104e-05 2.9219e-05 2.8495e-06 -3.0426e-05 -6.047e-05
2.9535e-06 -8.6935e-07 -2.3407e-05 -1.789e-05 -9.8223e-06 -1.151e-05 2.9488e-06 -4.8795e-06 3.9607e-07 5.7265e-05 -6.983e-08 7.2692e-05 0.00059398 0.0011281 4.6925e-06 1.3532e-05 7.8978e-07 8.6238e-08 -0.00079313 0.63098 0.00015691 -4.3825e-05 -9.1339e-05 -0.00022171 4.1271e-05 1.4259e-05 -2.3382e-05 -1.2662e-05 -0.0010001 -5.7705e-05 -1.318e-05 -5.7425e-05 3.2972e-05 0.40733 6.9081e-06 -1.4138e-05 -1.6822e-05 -1.3681e-05 -2.977e-06 -0.00025797
6.945e-06 -1.1031e-07 -1.9166e-07 5.5277e-06 -2.3365e-06 3.1863e-05 0.0004462 1.853e-06 3.6676e-06 0.00018432 6.366e-08 -0.00023506 0.00033671 -2.9319e-05 7.1097e-06 6.5615e-05 -9.1989e-07 -1.9847e-08 -9.7399e-06 -2.1659e-06 -0.00022199 -1.1324e-05 -1.7684e-06 -1.6765e-05 -1.6926e-05 2.8749e-06 8.1513e-05 -4.8894e-05 2.3242e-05 -3.717e-05 0.00011404 0.00018723 0.0012877 5.0523e-05 0.0012138 -4.7211e-05 4.0456e-07 2.8093e-06 -2.1361e-06 0.0090249
1.467e-05 3.7398e-05 0.00022024 -4.0323e-05 1.8705e-05 8.8201e-06 3.8091e-07 6.9571e-06 -1.0064e-05 0.0018438 2.7263e-05 -1.1135e-05 3.1523e-06 -2.4702e-06 1.4985e-06 1.9941e-05 -1.0914e-06 -3.9955e-06 -0.00036123 0.0021904 -0.00018571 0.00018862 0.00010838 4.5296e-05 -5.8382e-05 -0.00010984 -5.5074e-05 1.8263e-05 1.0377e-06 -2.3695e-05 0.0032668 5.3528e-05 0.0018225 0.0025155 0.001219 -0.00030691 -4.3139e-06 2.6328e-06 2.7151e-06 3.9547e-06
1.0615e-06 1.9878e-05 1.0017e-05 0.2924 -2.4057e-05 -4.4672e-05 2.6394e-06 1.662e-05 -4.8811e-07 -8.0136e-06 -1.8946e-06 0.28874 -0.000127 -4.64e-05 0.00060687 -9.0237e-06 -5.3049e-05 -4.753e-06 6.454e-05 0.00013956 0.27697 -7.1913e-05 1.7128e-05 -9.1716e-06 -7.8081e-05 0.3475 0.33963 0.00012718 0.35786 -2.3199e-05 0.00017165 -0.00026834 0.17897 0.27514 -5.7601e-05 -9.5437e-05 -4.9909e-05 1.0633e-05 1.3526e-05 0.23185
-1.7218e-06 -4.7277e-06 -2.7835e-05 -1.4757e-06 0.00011496 -5.7222e-06 1.7009e-06 1.7552e-06 7.2466e-06 -3.0068e-05 1.5886e-06 5.6533e-06 1.543e-05 -7.9654e-05 3.4375e-07 -4.9251e-06 -1.3923e-06 0.40526 6.6784e-06 -7.5263e-06 8.0708e-06 0.44306 -2.8638e-05 4.6217e-05 -2.5058e-07 -1.0166e-05 3.7233e-06 0.00038384 -3.3372e-06 -4.3312e-06 -1.1017e-05 -1.9118e-05 2.3531e-05 1.0292e-05 0.00064604 0.0042092 0.00036828 -5.3727e-06 -0.00017867 -0.00037
-2.0876e-06 9.9521e-05 0.00024185 -3.8077e-06 0.00028809 -2.3003e-05 1.9456e-06 1.865e-07 -2.8032e-05 0.00024942 -0.00015049 3.6954e-06 -7.416e-06 -9.3121e-06 3.0275e-05 -2.0466e-05 -9.5293e-08 0.00035277 -3.9206e-05 0.00042969 3.018e-05 1.4992e-06 0.0048928 -1.2681e-05 -3.9494e-06 2.9562e-05 5.6799e-06 0.00013346 6.9533e-05 -8.3977e-05 2.5086e-05 4.746e-05 -2.1136e-05 0.2412 2.9507e-06 0.002283 -6.9931e-06 5.3289e-06 -4.0272e-05 0.00030118
-7.2814e-34 1.1145e-34 2.8193e-32 -6.184e-34 -1.062e-32 -4.2159e-35 -3.0749e-35 2.5931e-31 -7.1543e-34 2.1232e-35 -1.7279e-35 1.7976e-32 1.617e-34 -1.0642e-33 -2.2272e-34 3.9755e-33 1.3088e-35 2.9069e-35 -1.032e-34 -2.3106e-33 -6.4438e-35 -8.6947e-34 -4.2861e-34 5.1474e-32 8.7686e-33 -2.6474e-34 -3.9164e-35 -3.3393e-34 -1.5793e-32 1.8535e-33 6.8058e-35 -4.2332e-34 2.0892e-33 4.1346e-34 -4.3809e-34 -3.2277e-34 -3.403e-31 -1.3407e-29 2.8228e-30 -2.2154e-33
2.3946e-05 -1.1572e-05 -4.4401e-06 -1.7586e-05 0.00020622 0.00018188 -4.4488e-06 -9.2733e-06 1.1075e-06 0.00029404 -4.1502e-05 -0.00096002 -1.3786e-05 -3.3419e-05 0.00017788 6.2844e-05 -2.6422e-06 -7.2095e-06 0.3646 0.0010439 -0.00015711 1.9915e-07 -8.1921e-05 0.00059045 -0.00010892 -8.5938e-06 0.00011278 5.4526e-05 0.0011094 -7.4397e-06 0.48099 1.3861e-05 -5.1842e-06 0.00014131 -0.00014571 -2.5778e-05 0.0017719 -6.048e-05 -0.00016699 -0.00063759
0.47621 1.3254e-06 0.33085 -3.6283e-06 -8.112e-06 8.5825e-07 1.2204e-06 0.48842 -5.0002e-06 -3.9534e-06 9.4895e-06 -5.291e-06 -3.2488e-05 2.1326e-05 -3.9104e-06 -8.2361e-06 8.4559e-07 -9.6556e-07 2.2705e-06 -4.868e-05 -3.5764e-07 3.4033e-05 -7.0586e-06 7.5165e-05 9.5538e-06 2.8091e-06 -9.3225e-07 2.0161e-05 -5.364e-05 -6.0704e-06 -7.8852e-07 -2.2798e-06 -2.6385e-07 -1.8455e-05 7.7682e-06 8.3355e-06 0.0015839 0.52521 0.00046464 5.9337e-06
-1.5459e-05 -3.5618e-06 4.1593e-05 6.1909e-07 -1.1694e-05 4.7437e-07 0.00032628 -4.6006e-05 1.8756e-06 6.2127e-05 -1.0212e-05 -2.199e-06 -5.6314e-05 -1.9608e-05 -5.8244e-08 -4.9136e-06 -2.193e-06 4.8139e-06 1.2094e-05 -0.00012372 -7.2644e-05 -2.1405e-05 -1.0993e-05 0.41676 -0.0050102 -3.4507e-06 -8.725e-06 1.1434e-05 1.3973e-05 -0.00061823 1.1404e-05 1.8774e-05 0.18887 6.8813e-05 0.00067644 -4.4262e-05 9.8759e-05 0.34417 0.00027289 -0.00022631
-1.9451e-06 0.0001734 2.1e-06 -2.3103e-06 0.27294 -3.3606e-05 0.00045732 -9.1021e-06 7.3463e-05 5.8765e-05 0.00013195 0.00020994 5.139e-05 0.0031091 -9.145e-05 -1.7794e-06 1.6576e-05 0.0046116 -0.00013354 1.1312e-05 -4.8388e-05 0.00022745 0.0018399 0.00055363 -0.00015167 0.00034505 0.0003487 -0.01212 -7.5926e-05 -8.0447e-05 0.0011782 0.0014013 -6.1072e-05 9.5568e-06 1.4515e-05 0.0005557 -9.3927e-05 4.587e-06 -2.3251e-06 -0.00051578
-4.4197e-06 0.00015171 0.26018 1.7342e-06 0.00016097 0.00042959 2.0934e-05 -2.2849e-05 0.59382 -1.4958e-05 3.0297e-06 0.00016738 0.00080961 7.2813e-05 -2.308e-06 0.54296 -1.4198e-06 7.7157e-05 0.44797 0.0010005 1.1512e-05 0.00016841 8.0203e-06 0.00016364 -6.1647e-05 0.0024249 0.001168 -0.00017692 0.00037717 0.00020884 0.0012911 0.51567 0.003183 0.0012109 0.00013458 0.00026054 3.0705e-05 -1.4279e-05 1.2313e-05 0.00018409
3.7494e-06 2.5784e-06 4.9581e-07 3.1405e-05 1.6445e-06 1.6181e-07 2.3474e-06 -1.0332e-05 -1.9715e-06 6.0901e-08 0.43258 0.4476 -1.2607e-05 -1.6063e-05 0.76095 -4.8496e-07 -1.3588e-05 -2.5003e-06 0.00019796 -2.967e-05 5.9989e-05 7.3393e-07 3.5946e-06 -2.3606e-05 9.2212e-05 4.1185e-05 7.4073e-05 -8.221e-07 0.00021782 -2.011e-06 -0.00048941 2.8574e-05 2.3361e-05 4.7014e-06 -2.1895e-05 -6.8117e-07 3.7303e-06 -1.0876e-06 -2.2485e-07 0.00013114
7.757e-08 -1.5704e-06 -3.0782e-06 -1.9961e-05 5.6535e-05 2.1591e-05 0.00029817 2.4011e-07 -4.2888e-06 0.55102 5.1185e-06 -5.2073e-06 8.6733e-05 -3.4947e-06 -7.0314e-07 5.836e-05 -7.7757e-07 0.0012186 0.00020757 -7.1119e-05 -2.9984e-05 -2.0236e-05 -1.3386e-05 -1.024e-05 4.0729e-07 0.00011378 4.6728e-05 -0.00053908 -9.3572e-05 0.00010217 -6.1134e-05 -9.9015e-06 1.1866e-05 0.0028504 0.28785 0.00012135 -2.7589e-05 5.421e-06 -1.8822e-05 0.00031147
1.6143e-06 0.1047 1.6215e-05 1.2881e-06 0.25203 -2.2267e-05 -3.2662e-06 1.1201e-06 0.28699 8.9538e-05 -3.9479e-06 -1.8111e-05 -5.8094e-05 0.00021622 3.2215e-06 -3.4291e-05 4.188e-07 1.7511e-05 -8.233e-05 0.00014987 -3.913e-05 0.00019599 0.24397 -1.71e-05 -5.1966e-05 9.4577e-07 -8.1203e-07 1.5253e-05 0.00018384 -3.6326e-05 -6.4996e-05 -2.0685e-05 0.0001076 6.9103e-05 0.00010243 -0.00010867 -0.00013796 6.0058e-05 -0.00021585 0.00049365
9.841e-07 2.0828e-05 3.515e-05 -2.1523e-05 0.0001803 0.00025276 1.5171e-05 -7.3238e-06 4.2663e-05 3.2543e-05 0.00071855 -2.9541e-05 0.0008922 0.00028322 -0.00027818 0.00019933 2.2358e-06 5.2454e-05 -3.6438e-05 1.4514e-05 0.00014022 0.00023126 3.5036e-06 0.00023367 -0.00061526 0.00049272 0.00020841 -0.00015923 0.00052451 0.26779 -1.4788e-05 0.0025819 0.14224 0.0074306 0.00012496 0.005453 2.1774e-05 -1.6517e-05 6.3299e-06 0.0011717
-1.145e-06 3.771e-07 1.4625e-05 9.2942e-06 0.22018 -4.762e-06 -3.6298e-06 -8.9254e-07 -5.1731e-06 1.6802e-06 3.2411e-06 -1.8523e-05 7.8377e-05 -7.6312e-05 6.7937e-07 2.2683e-05 0.00016176 0.00022632 7.5618e-06 -2.4432e-06 0.00085412 0.00018292 9.2334e-05 -1.6838e-05 -3.3663e-05 -9.7741e-05 3.559e-06 1.1123e-06 -4.0966e-05 0.00039742 -7.4268e-05 0.00022681 0.00034555 0.00013733 -6.78e-06 -3.5e-05 -0.00013467 7.7463e-06 -2.9111e-05 0.0019013
1.3206e-06 0.15955 4.7087e-06 0.26965 -1.8357e-05 -1.7559e-05 1.4255e-05 4.045e-06 6.1494e-05 -1.2484e-06 -9.2061e-05 0.28009 -8.3569e-05 -8.2149e-05 1.5625e-05 -1.1342e-05 -5.4864e-05 -8.4094e-06 -0.0018729 8.2388e-05 0.25575 -2.0497e-05 -7.7672e-05 -1.4401e-05 6.9786e-05 0.00019941 -0.00022738 -6.3792e-06 0.0015183 -5.013e-05 0.42959 -4.5469e-05 0.00012913 0.25478 -4.829e-05 5.1524e-07 -2.8658e-05 -2.9345e-06 3.242e-07 0.21576
5.3183e-06 0.089165 1.5441e-05 3.113e-05 7.4138e-05 3.7636e-05 2.6646e-05 7.4534e-06 6.6688e-05 5.657e-05 0.00012337 0.00021289 0.00052529 0.0012778 -2.4182e-06 3.5976e-05 -5.897e-07 0.00034734 -1.8086e-05 0.00015118 -0.0011597 -4.4169e-05 0.00011949 -3.8669e-05 1.8901e-06 0.15885 0.014198 -0.00054355 0.00025358 -3.9712e-05 0.00052849 -0.00039009 0.00077781 0.14226 0.27325 -7.8755e-05 -1.9705e-05 7.0874e-06 -7.4489e-06 0.131
3.7105e-06 0.31276 7.0071e-05 9.6052e-06 0.00022063 0.51455 3.45e-05 1.6234e-05 0.00027571 4.7087e-06 -1.2433e-05 1.8076e-05 0.0010752 0.00014657 3.0106e-06 0.00025913 1.0472e-06 0.00011688 7.8561e-05 1.1985e-05 0.00019119 0.00021827 -3.1419e-05 0.0002727 -7.8528e-05 0.0014594 0.0001957 -0.00032539 0.00016265 0.00035552 -0.00011509 0.0046129 0.0046097 0.0017966 0.00013826 0.00038738 -2.4903e-05 -7.5215e-06 1.6146e-05 0.41051
0.40938 -1.7755e-05 1.3618e-05 0.4015 -5.7848e-05 -1.4297e-06 -6.4355e-05 0.41999 4.7095e-06 -1.5067e-06 -1.8376e-05 8.2288e-06 -2.4748e-05 0.59158 1.3627e-05 -1.3066e-05 -6.7852e-05 -4.8798e-05 6.2479e-05 -4.7375e-05 3.6769e-06 2.577e-05 -0.00011742 -2.6722e-05 -3.1177e-05 -0.00011786 -1.85e-05 2.2706e-05 6.0408e-06 3.2183e-05 -8.2249e-05 -2.5264e-05 -4.2487e-06 0.00011512 -5.3733e-06 6.3812e-05 0.001266 0.0064803 -0.0011344 -2.1361e-05
1.0615e-06 1.9878e-05 1.0017e-05 0.2924 -2.4057e-05 -4.4672e-05 2.6394e-06 1.662e-05 -4.8811e-07 -8.0136e-06 -1.8946e-06 0.28874 -0.000127 -4.64e-05 0.00060687 -9.0237e-06 -5.3049e-05 -4.753e-06 6.454e-05 0.00013956 0.27697 -7.1913e-05 1.7128e-05 -9.1716e-06 -7.8081e-05 0.3475 0.33963 0.00012718 0.35786 -2.3199e-05 0.00017165 -0.00026834 0.17897 0.27514 -5.7601e-05 -9.5437e-05 -4.9909e-05 1.0633e-05 1.3526e-05 0.23185
-2.1494e-06 0.00012558 -1.4033e-06 7.1108e-06 9.8793e-05 2.7713e-06 0.0001893 1.722e-06 -4.4556e-05 8.4538e-05 3.4926e-08 -2.026e-05 0.00057998 0.0014578 -2.0489e-07 2.1205e-05 -1.6691e-08 0.00042481 2.3165e-05 -7.5589e-06 -0.00024499 0.00013686 -4.311e-05 -1.9161e-05 -1.1418e-05 0.0023399 3.0177e-05 -0.00083649 -1.9656e-05 1.4741e-05 -1.9589e-05 0.00046458 -2.4074e-05 -2.764e-06 0.00048947 -2.1927e-05 0.00020437 0.00046899 -0.0044892 0.0012553
6.4106e-07 0.12768 1.4679e-05 -1.0485e-06 -0.00018936 -6.9745e-06 1.3535e-06 1.0147e-07 1.5075e-05 0.00042708 2.0279e-05 1.2215e-05 1.0616e-06 -4.7086e-06 2.1179e-06 -6.8029e-05 3.6325e-07 -2.7612e-05 1.8043e-05 0.00033147 -4.942e-05 0.3238 0.00011732 6.1289e-05 -1.2332e-05 -5.5321e-05 1.3387e-05 7.9257e-06 0.00071776 -4.2842e-05 0.0023569 0.00065385 0.0015412 5.9107e-05 0.00062146 -0.00033571 -6.9959e-05 2.7011e-05 3.2624e-05 -0.00034854
6.1114e-07 0.00011871 0.00029821 -1.5378e-05 -7.4558e-06 -1.6476e-05 -1.1957e-06 2.5125e-06 9.8545e-07 0.25078 1.3992e-05 1.1263e-05 0.00081449 9.588e-05 4.1738e-06 -2.2822e-06 1.4976e-07 -2.6906e-05 -3.5606e-05 0.33091 0.00022023 9.6576e-05 2.4195e-05 0.29849 -0.00096642 -5.469e-05 -2.8945e-05 -4.2966e-05 -0.00020998 -7.841e-05 0.0034707 7.1652e-05 0.0008833 0.00092178 0.00079795 -3.4621e-05 -3.3835e-06 -8.1425e-05 -6.2551e-06 0.00090303
4.04e-07 0.19563 -4.1395e-06 3.4248e-06 0.00020103 -3.437e-05 8.2208e-07 -4.4915e-06 5.6761e-05 -3.4575e-06 1.0715e-06 -6.6765e-06 -9.1565e-05 -8.7437e-05 4.2681e-06 5.6477e-08 -1.4391e-06 5.994e-05 9.5081e-06 -3.4944e-05 4.2575e-05 -6.9161e-06 0.45232 1.8131e-05 -0.00011069 1.7193e-05 -5.2066e-07 -4.9885e-05 2.3921e-05 -0.00013688 -5.2476e-05 0.00067441 0.20223 -9.4462e-05 -2.3536e-05 0.00014428 -5.3768e-05 5.4704e-06 -2.124e-06 -5.8119e-05
-3.0835e-07 0.00027901 6.6608e-05 1.8433e-05 0.21085 0.00029792 0.00067826 -2.8007e-05 8.5979e-05 7.4235e-05 0.0001768 0.00028432 0.0057517 0.44327 -0.00013327 0.00039291 1.2539e-06 0.0010173 0.0017713 0.00014413 -0.00052219 0.00026569 0.0029995 0.00095253 -0.00030019 0.004506 0.00061288 -0.0011725 0.00018239 0.00010549 0.0016387 0.0055323 0.0026571 0.0011063 0.00038248 0.0011779 -6.9712e-05 2.115e-05 -0.00015029 0.0024726
1.1011e-06 0.13024 1.28e-05 -9.5507e-07 -0.00012339 -3.9854e-05 1.3776e-06 1.478e-07 -1.0337e-05 0.00063693 2.054e-05 5.2998e-05 2.1669e-06 -9.2418e-06 4.8547e-06 -7.629e-05 2.5631e-07 -2.2977e-05 -3.2544e-05 0.00037032 -5.4595e-05 0.31878 5.9415e-05 4.1598e-05 -1.4968e-05 -3.2634e-05 3.5281e-05 1.2343e-05 0.0046473 -5.5364e-05 0.002399 0.00077679 0.0015586 -3.9795e-05 0.00068026 -0.0003705 -7.251e-05 1.0908e-05 9.8667e-06 -0.00031509
-1.3588e-07 -6.237e-06 -2.8012e-06 4.3999e-05 0.21727 2.6688e-06 -7.6361e-06 -1.9681e-07 6.9152e-06 0.34238 1.7615e-06 4.2268e-06 -3.3065e-05 -6.1379e-05 -7.0937e-07 6.4529e-08 0.83027 -2.0942e-05 -2.6816e-05 -7.4642e-05 -9.0273e-05 0.00018805 -4.1034e-06 3.1127e-06 -2.8369e-05 0.00098145 0.0002396 1.8742e-05 -2.6047e-05 4.7004e-05 -1.9862e-05 -1.1421e-05 -3.1631e-05 1.4086e-05 -1.5492e-05 -0.00014047 -8.6488e-05 7.0002e-07 3.2917e-05 0.0005781
1.8584e-06 -6.6807e-06 1.3524e-05 0.26612 -1.7652e-05 -3.6823e-05 2.5057e-06 1.5857e-05 6.2912e-06 -2.8681e-05 -3.6826e-06 0.26175 -0.00012417 -4.6056e-05 0.00060908 -1.6534e-05 -6.2006e-05 -4.1518e-06 4.9415e-05 0.00028777 0.25158 -5.7414e-05 2.101e-05 -3.3649e-05 -8.4606e-05 0.3156 0.31034 0.00011232 0.31982 -0.00010695 -0.00049631 -0.00028209 0.16161 0.252 -5.3507e-05 -7.0654e-05 -3.0247e-05 1.7561e-05 1.1861e-05 0.21115
7.5723e-07 0.10469 5.464e-05 7.334e-07 0.00021293 0.17347 0.00018827 2.5627e-06 9.0777e-05 6.6202e-05 -1.1113e-05 4.0675e-05 0.0011632 0.0012785 6.4043e-06 0.00019275 -1.5247e-06 0.0004213 3.0367e-05 7.2399e-06 -0.0012932 0.00018008 0.0013406 0.0001477 -7.2594e-05 0.21789 0.21462 -0.0035705 0.0002115 0.0008078 3.0517e-05 0.0034321 0.0029689 0.0013522 0.00072324 0.00030189 -5.6574e-06 -4.5619e-06 3.578e-06 0.0023673
1.9866e-06 0.15023 1.5631e-05 0.25402 -3.1038e-05 -5.4342e-05 1.419e-05 1.8332e-05 5.557e-05 -1.3411e-05 -8.4685e-05 0.26648 -9.8592e-05 -8.208e-05 -4.0988e-06 -6.4831e-06 -3.9716e-05 -8.6395e-06 -0.0018203 0.00022971 0.24113 -9.1666e-05 -6.2973e-05 -1.6487e-05 4.8679e-05 0.00051341 -0.00020291 -4.323e-07 0.31183 -1.6548e-05 0.40485 -4.0582e-05 0.0016877 0.2395 -4.0264e-05 -5.0171e-05 -6.9965e-05 5.2837e-06 1.186e-05 0.20739
1.6914e-06 0.17205 -1.0139e-06 -5.2324e-06 0.00028031 -3.9749e-06 6.0557e-07 -1.4848e-06 4.002e-05 6.4371e-06 3.798e-07 -3.147e-06 1.435e-05 -1.6726e-05 7.0837e-07 2.6288e-06 2.6879e-05 1.1449e-05 4.8875e-06 -1.1832e-06 -1.6021e-06 6.0935e-06 -4.2168e-05 1.8754e-06 1.7026e-05 1.2921e-05 -2.2725e-06 -1.0409e-05 -6.9218e-05 1.149e-05 1.9718e-06 -7.181e-06 -1.6076e-05 0.00035833 0.00035951 -1.8742e-05 1.0286e-05 0.00049446 -0.0043273 0.00027215
-0.00022165 -1.4693e-05 2.092e-05 2.5271e-06 0.00029849 2.6048e-06 -2.4882e-06 9.2509e-05 2.5786e-05 -1.2534e-05 1.5574e-06 -4.0764e-06 9.6725e-05 -1.0755e-05 2.8005e-07 2.4237e-05 -3.3981e-06 0.00035602 2.2004e-05 4.3615e-06 1.9483e-05 0.011078 -1.8672e-05 9.7965e-05 -5.0939e-05 -5.4958e-06 2.6578e-05 1.4352e-05 -3.0837e-05 4.1561e-05 -8.5801e-05 -1.3692e-05 -0.00016311 0.00039152 0.4074 0.0036431 0.39345 2.1038e-05 0.00025411 -5.4691e-06
1.1451e-05 4.1765e-06 7.7019e-05 -5.3786e-08 0.10342 3.1697e-05 -2.9059e-06 -1.3897e-06 5.8546e-06 0.16321 2.7782e-06 7.3895e-06 -1.0426e-05 0.00032395 1.9305e-06 3.0875e-05 2.11e-05 -1.7432e-05 0.0018568 0.0008208 -4.7188e-05 0.00045913 0.00014432 0.00033334 -8.3736e-05 8.1902e-05 2.0875e-05 1.1491e-05 0.0031995 1.7086e-05 4.1738e-05 7.3383e-05 5.7569e-05 2.1712e-05 0.0003164 -0.00015821 0.00084363 -4.6412e-05 -8.4105e-05 0.00073724
-2.3037e-06 8.858e-07 -2.6963e-07 1.2866e-05 0.0001546 2.7924e-05 -3.2121e-07 6.4165e-06 -1.1533e-08 -3.2668e-06 1.9874e-09 -3.1904e-05 0.00084705 0.0026292 -5.1113e-07 2.8667e-05 -2.683e-07 0.00076864 -2.5691e-05 1.4418e-07 -0.00042718 -1.1474e-05 -8.3393e-06 -4.7073e-06 2.1922e-06 0.0041728 3.5746e-05 -0.0014224 1.2224e-05 1.8441e-05 -1.9999e-05 0.0008417 -6.1791e-05 -1.1829e-05 0.00027149 -7.2968e-06 3.7094e-06 3.7017e-06 -1.4064e-05 0.0023257
3.6217e-06 2.8518e-05 2.2823e-05 3.1595e-05 0.00053641 0.00017738 8.0102e-06 1.3747e-06 1.5053e-05 -6.8811e-06 1.4393e-06 -0.00022466 0.49663 0.0010875 3.2739e-06 0.23595 -1.111e-06 0.00050741 0.0012958 -0.0002072 -0.00050112 3.5311e-05 0.00040765 -3.8772e-05 -2.4827e-05 0.0025995 0.00053655 -0.00051164 -3.823e-05 0.00030367 -0.00016686 0.22411 0.001878 0.00057976 0.00036952 0.00011472 6.1267e-06 2.6518e-05 -1.0016e-05 0.14193
-7.5087e-06 -2.9133e-07 9.3328e-06 7.0368e-06 -1.9284e-05 2.7045e-07 7.171e-07 -0.00010005 6.6851e-07 -5.7682e-07 1.2698e-08 -1.6458e-06 3.6287e-06 0.00024572 -9.4428e-07 -4.4359e-06 -3.657e-07 -3.8167e-07 2.0658e-07 2.7393e-06 -3.5708e-06 -5.6912e-06 1.0076e-06 1.5679e-05 -6.0516e-06 -2.9199e-06 2.308e-06 -1.6539e-06 2.0441e-06 -1.5715e-06 2.1566e-06 6.06e-08 -2.4621e-06 -5.9235e-06 5.3884e-06 2.2373e-07 0.0001032 0.40349 -0.0010143 3.6166e-06
-1.5185e-06 2.1267e-05 0.00018113 -6.7857e-06 0.13926 0.00020178 1.0251e-05 -6.109e-06 1.9334e-05 0.00053251 -1.8588e-06 7.8847e-05 0.30494 1.138e-05 -1.5928e-06 0.00034689 -9.2405e-07 6.6171e-06 0.24091 0.00037692 0.00049417 0.00019166 0.00029865 -2.8391e-05 -0.0001069 0.00034082 2.4586e-05 -0.0096609 -6.3613e-05 0.0024585 0.00062693 0.0021406 0.003334 0.003574 0.00025294 8.9707e-05 9.8485e-05 1.5056e-06 3.4818e-05 0.0021131
4.928e-08 4.7017e-08 1.398e-07 2.3415e-08 4.2144e-05 8.2987e-07 -2.6676e-08 -1.2942e-08 -1.3856e-07 0.003305 6.4023e-07 2.0251e-06 -1.059e-07 3.4018e-07 -1.5649e-07 -1.0063e-06 -1.9776e-06 -5.756e-07 -0.00016593 0.00056272 -1.2465e-06 2.5064e-07 -7.4062e-07 -3.5283e-06 9.4678e-07 -4.8229e-07 -9.8357e-07 1.196e-06 -2.5358e-05 7.2805e-07 2.0838e-05 5.7493e-07 1.4318e-05 2.7854e-06 -6.6464e-05 -0.00049466 7.4844e-07 3.0705e-06 -1.5203e-06 -5.2752e-05
-1.7039e-06 1.6119e-05 3.1342e-05 -7.4708e-06 0.00063609 0.00022473 1.3626e-05 -3.4611e-07 2.0799e-05 8.0998e-05 -5.0148e-06 -4.0574e-06 0.0094012 4.2224e-05 -5.5549e-07 0.00028927 2.2066e-06 0.00011896 0.0016098 -6.158e-05 0.00050664 7.9428e-05 0.00031019 7.2026e-05 -0.00010201 0.00047895 4.4979e-05 -0.00014519 -8.5549e-05 0.0026251 -5.2414e-05 0.0020449 0.0026311 0.0037583 0.00055962 0.00018825 0.00014722 9.6107e-06 -3.9146e-05 0.0026444
-3.4033e-07 8.3164e-06 0.00013523 0.18529 6.3677e-05 0.18043 1.5743e-05 9.3164e-06 5.5053e-05 -5.327e-06 -1.2221e-05 0.18153 0.0016907 -3.4452e-05 0.00034601 0.00027012 -4.6194e-05 3.2962e-05 0.00022176 0.00024932 0.17571 8.161e-06 -1.1276e-06 4.4166e-05 -0.00010955 0.44113 0.43165 -1.7297e-05 0.20736 8.6631e-05 -0.00039149 0.0013978 0.11504 0.17603 2.6857e-05 0.00014406 -3.4237e-05 -1.0213e-05 7.0314e-06 0.14613
-3.6263e-06 -2.7766e-06 0.00032051 3.9691e-06 -5.5001e-06 -1.7871e-06 1.7408e-07 1.5418e-06 4.3083e-06 7.7896e-05 -4.1139e-07 -0.00012952 0.001414 0.00013338 2.9641e-06 3.224e-05 4.1231e-07 1.9425e-07 -0.0007448 0.0073708 -0.00012389 -6.6165e-05 4.8457e-07 0.0025849 -0.00044266 -1.2208e-05 3.5448e-05 -2.5186e-05 -0.0004259 -2.3642e-05 0.00021061 0.00011826 0.00072878 2.6698e-05 0.00045965 -3.4407e-05 1.7128e-05 -8.5336e-05 -8.6401e-06 0.0054223
-3.9208e-06 0.17506 -1.3272e-06 6.3559e-06 -6.729e-05 0.28948 2.7579e-06 1.239e-05 7.7547e-05 1.8291e-05 -4.404e-06 -2.7756e-05 1.2178e-05 -7.0044e-05 5.8168e-06 1.9347e-05 2.431e-07 2.7316e-05 2.2736e-05 -5.3017e-05 0.00046684 -4.5009e-05 0.40958 0.0036279 0.024656 -7.3348e-05 3.5572e-05 4.1202e-05 -9.5308e-05 0.3441 -4.1806e-05 0.0001819 0.0057924 -4.7313e-05 -1.7366e-05 -6.0041e-05 1.0037e-05 -2.9431e-05 1.3325e-05 0.0015115
7.8216e-06 0.16495 -4.8815e-06 3.8854e-06 0.0020385 -1.1921e-05 -1.385e-05 4.1047e-05 -3.3945e-05 1.6194e-05 -2.7059e-05 -1.3787e-05 -7.5156e-05 0.0002781 4.1347e-05 -1.277e-05 6.4354e-07 7.043e-06 -8.295e-06 -5.3079e-05 -0.00025072 -4.3379e-05 8.893e-05 0.36501 0.43682 -5.8389e-05 -2.3333e-05 1.6245e-05 1.9982e-05 0.33018 1.7794e-05 -1.2938e-05 0.17746 -7.2356e-05 -1.3553e-05 -7.3772e-05 0.0065391 -0.00020656 -0.0038174 -0.00026417
6.3922e-07 1.0628e-05 0.00020616 -3.0826e-05 5.4939e-06 -6.1358e-07 3.6725e-07 3.1558e-07 -4.1628e-06 -8.2218e-06 2.102e-07 2.1729e-05 0.00095656 9.189e-06 1.7082e-07 2.5911e-05 6.4074e-08 -0.00013277 0.00045327 1.9038e-05 -2.089e-05 -3.3508e-08 0.0002014 -1.8022e-05 -1.5342e-05 9.7999e-05 8.6336e-05 -0.012679 -0.00020963 -3.7683e-05 -7.5613e-06 5.4934e-05 0.00112 0.0043987 0.00074809 7.8447e-06 -1.7658e-06 -1.5951e-05 4.6433e-06 -8.2406e-05
-3.4535e-07 4.6355e-05 -2.4621e-05 2.8592e-06 -2.6609e-05 5.195e-05 1.3795e-06 2.8421e-06 -1.551e-05 -1.0893e-05 -4.6543e-08 -2.3425e-05 -0.00017176 -2.4089e-05 1.5832e-06 -7.5809e-05 -9.2422e-06 1.0408e-05 0.48674 0.56607 0.00017007 0.00056546 -5.0501e-05 -9.7533e-05 -7.4965e-05 -2.3472e-05 3.47e-05 2.7152e-05 0.44299 -7.2086e-05 0.0011435 3.8845e-05 0.24228 0.000518 -2.5733e-06 -6.6846e-05 -4.443e-05 1.6735e-05 8.4851e-06 7.6802e-06
1.334e-06 0.15768 4.39e-06 0.26648 -1.8118e-05 -2.1721e-05 1.408e-05 4.0395e-06 6.0904e-05 -9.19e-07 -9.0958e-05 0.27672 -8.3938e-05 -8.1315e-05 2.0002e-05 -1.136e-05 -5.3618e-05 -8.2441e-06 -0.001849 8.2346e-05 0.25276 -1.7032e-05 -7.7e-05 -1.507e-05 6.9143e-05 6.9139e-05 -0.00028121 -6.3795e-06 0.0014127 -4.8606e-05 0.42456 -4.3747e-05 9.6488e-05 0.25053 -4.6985e-05 7.6017e-07 -2.7753e-05 -2.9308e-06 2.8475e-07 0.21334
3.585e-05 1.5589e-06 8.8922e-05 1.3227e-05 1.5398e-06 -1.3493e-08 1.9726e-06 0.00066959 -3.8461e-06 3.283e-08 0.36984 0.38176 -1.1333e-05 -4.3237e-05 0.64881 -3.7823e-06 -1.1282e-05 -2.1844e-06 0.00015502 -1.4074e-05 3.6619e-05 6.098e-06 2.8372e-06 0.00017948 0.0014902 1.3218e-05 6.5299e-05 -2.1615e-06 0.00019681 -8.1228e-05 -0.00086554 2.7771e-05 3.2151e-05 -1.7013e-05 -1.8402e-05 -0.00022893 8.6336e-05 5.0378e-05 6.4905e-05 -7.0868e-05
-5.6872e-07 0.17517 -4.637e-06 5.159e-06 -3.2036e-05 1.4949e-05 -1.4689e-05 2.7647e-05 2.006e-05 1.7985e-05 -3.0477e-05 -1.6341e-05 -7.1483e-05 -2.8739e-05 4.3624e-05 -1.3774e-05 -3.955e-06 1.1234e-05 5.1979e-06 -5.1878e-05 -0.00023784 -7.4657e-06 0.00019883 0.38763 0.46156 -4.7924e-05 -2.1564e-05 5.9912e-06 -4.6658e-06 0.35026 2.5735e-05 -2.5292e-05 0.36763 -7.1974e-05 -1.7424e-05 -9.3581e-05 -3.8977e-05 -1.2255e-05 -1.1336e-06 -0.00023139
3.4586e-07 7.6698e-08 -9.2562e-07 -5.7285e-06 -6.0995e-06 -2.9875e-07 -1.6417e-07 -1.4302e-05 3.7006e-07 1.3143e-06 -6.2356e-08 7.8558e-07 2.4314e-07 0.0019242 1.0889e-07 3.4634e-06 8.5171e-09 -1.7165e-07 -0.00012103 0.00055016 -1.5018e-06 -2.6094e-06 -3.6393e-07 -7.0562e-06 9.1482e-07 1.5069e-06 4.807e-06 -4.5692e-07 1.2491e-05 6.8997e-07 -5.3518e-07 7.481e-07 9.7288e-06 0.00015739 -2.9114e-07 1.8092e-07 1.8478e-06 -1.3335e-06 -2.4376e-07 -5.1708e-05
-1.1932e-06 1.8884e-06 -5.2531e-07 7.4764e-06 7.7141e-05 1.3765e-05 2.1024e-06 3.4839e-06 2.9315e-06 0.0004342 -3.044e-07 -1.949e-05 0.0004762 0.0014349 2.2462e-08 1.5808e-05 -2.7404e-07 0.28717 -1.2862e-05 2.5562e-07 -0.00022955 -1.5852e-05 1.904e-05 -3.0388e-06 1.6685e-06 0.0023724 3.2442e-05 -0.00070558 2.5142e-06 9.8933e-06 -1.7892e-05 0.00047309 -2.5664e-05 9.5839e-06 0.00017856 -4.2433e-05 -1.6433e-06 1.6869e-06 -8.0914e-06 0.0014295
-0.00023343 2.9014e-05 2.2776e-06 -3.1974e-06 0.41953 -4.6053e-05 -5.4937e-05 7.4512e-05 -3.8391e-05 0.0001933 -1.9721e-05 -5.322e-05 -0.00012601 0.43565 8.362e-06 0.0001027 3.4802e-06 -4.1788e-05 0.0011541 -0.00022279 4.2299e-05 0.00030099 -0.0001969 5.3888e-05 0.0022477 -7.857e-05 -3.4141e-05 5.3281e-05 0.0010713 0.00048339 0.00027924 -7.2477e-05 0.1781 -3.3344e-05 -2.2458e-05 -8.7848e-05 0.49211 -0.00028041 -0.0038953 -0.00010156
-3.7032e-06 3.8737e-05 0.17685 1.2256e-05 7.8472e-07 1.5599e-05 -8.8976e-07 -4.5347e-06 -1.7974e-05 7.8725e-05 -1.0188e-06 -2.6e-05 8.473e-05 -4.3484e-06 4.9489e-07 -5.9183e-05 -9.3451e-07 3.8508e-06 -0.00014008 0.00169 0.23684 0.00044098 8.6007e-05 -4.7909e-05 -5.5133e-05 0.00020627 -1.7581e-05 7.9165e-06 0.0006856 0.00028002 -3.907e-06 0.00019432 0.15251 -2.043e-05 4.2016e-07 -1.5361e-05 -9.6275e-06 -1.0946e-05 -2.306e-06 0.0019014
-1.4582e-05 2.6234e-05 0.00052283 -1.6405e-05 0.00012884 0.00034069 1.93e-05 3.3417e-06 7.3033e-05 7.0354e-05 -5.6909e-06 9.088e-05 0.0029912 5.9824e-05 -7.1772e-06 0.00018058 2.0666e-06 6.5002e-05 -0.0017586 0.021203 0.0008229 0.00016865 0.00010073 0.0021126 -0.00040961 0.0006333 -2.5447e-05 -0.00026162 -0.0014563 0.00063592 0.00024259 0.0029494 0.0029159 0.0032696 0.00043053 0.00023275 0.0024086 -0.00015247 -3.9933e-05 0.0020421
2.3747e-06 2.3914e-06 -2.8435e-05 -5.8905e-05 0.0004353 -1.4616e-05 -2.7855e-06 2.1686e-06 -5.2803e-06 0.25926 1.4124e-05 0.00012202 -7.8002e-05 -1.6142e-05 1.7039e-06 6.6829e-06 -1.3727e-06 -2.5936e-05 -0.0011264 0.34215 0.00021015 0.00034295 -5.7985e-05 -9.3378e-05 2.9973e-05 -8.3255e-06 -6.8809e-06 4.5593e-06 0.0034935 5.6967e-05 9.0037e-05 0.00011827 1.7753e-05 0.0020428 -4.952e-06 0.0003652 -2.2061e-05 2.7535e-05 -4.6084e-05 0.00016613
2.5488e-07 0.13255 7.1381e-06 1.4881e-05 4.2674e-05 -3.9556e-05 1.2359e-06 1.2359e-05 1.9684e-05 0.00021444 1.0662e-05 -0.00026348 7.9306e-08 -1.517e-05 2.528e-05 1.5197e-06 -3.1329e-06 -3.652e-07 -0.00013742 0.00025314 5.644e-05 0.0003662 4.3377e-05 3.6812e-05 -1.8428e-05 2.6455e-07 -5.8734e-05 -3.6551e-05 0.26322 -2.1642e-05 0.0031118 0.00015318 0.00091121 -5.1675e-05 0.0006782 -9.0347e-05 -2.8048e-05 5.3948e-06 -7.5271e-06 0.00011149
8.164e-07 1.3572e-05 7.8025e-06 0.22943 -2.1871e-05 -3.5637e-05 3.9024e-06 1.3066e-05 -1.1031e-06 -7.387e-06 -5.3093e-06 0.22661 -0.00013128 -8.9322e-05 0.00048102 -1.5219e-05 -4.6257e-05 -8.1408e-06 6.0149e-05 0.00011105 0.21754 -6.2459e-05 1.4303e-05 -1.2178e-05 -5.9217e-05 0.54449 0.53279 0.00018439 0.28087 -1.2777e-05 0.00013272 -0.00037847 0.14044 0.21594 -6.113e-05 -8.6472e-05 -3.9517e-05 8.8242e-06 1.0961e-05 0.18189
-1.0708e-05 1.4964e-05 0.33852 2.068e-06 3.5462e-05 3.3332e-05 -1.603e-06 -1.1253e-06 9.5155e-06 0.17747 6.4249e-06 1.4207e-05 0.0005898 0.00037408 -3.277e-06 -1.1518e-05 1.17e-05 0.00025399 0.00094379 0.23206 -4.4144e-05 -1.8118e-05 0.0013336 0.0013703 -0.00021753 -6.5956e-06 1.3535e-06 2.7385e-05 -0.00024513 2.2601e-05 -7.8806e-05 3.0129e-05 0.00040039 0.00013018 1.7613e-05 3.9926e-05 2.4406e-07 8.3874e-05 -1.9247e-05 0.00035415
0.36979 -7.9087e-06 0.25714 -2.3961e-06 0.00015207 1.4379e-06 9.0894e-07 0.3797 3.1926e-06 -9.1595e-06 8.0709e-06 -2.6446e-06 -1.9021e-05 2.761e-05 -3.2102e-06 1.4189e-05 -2.4875e-06 -5.2309e-06 -1.0738e-05 -3.6834e-05 1.485e-06 -2.2858e-06 -6.4269e-06 4.2939e-05 -3.3053e-05 2.3952e-06 -3.8279e-07 1.4163e-05 -6.8259e-05 4.7023e-05 -8.0734e-06 -2.9907e-06 1.319e-06 -4.2984e-05 7.31e-06 -2.1278e-06 0.599 0.40867 0.77012 -1.2081e-05
-1.224e-07 2.3443e-05 0.00020573 2.9156e-05 0.0001301 0.29152 2.0375e-05 -6.4709e-07 8.386e-05 -4.5493e-06 -9.3992e-06 0.00083524 0.0028747 5.6834e-05 -8.8888e-05 0.00046028 3.1061e-06 6.3927e-05 -0.00013172 -1.3054e-05 0.00031915 9.3526e-05 -1.2738e-05 7.7679e-05 -0.00012634 0.0022427 0.0018785 -0.00025901 0.0026082 0.0001848 -0.00020783 0.0027517 0.0043687 0.0016634 0.0001274 0.00032277 -4.4421e-05 -1.4443e-05 7.6568e-06 0.0036857
4.4221e-07 1.2773e-05 -7.8911e-06 1.1763e-07 2.6692e-05 -9.9475e-07 2.9416e-06 -3.2499e-07 -1.9343e-06 0.00077821 1.3342e-07 -9.9572e-07 -0.00018316 -4.0503e-05 -1.7323e-06 -1.4263e-06 -1.7941e-06 0.5221 -6.4201e-05 1.309e-05 8.8671e-06 -5.1071e-05 -1.5371e-05 1.3777e-05 1.5255e-05 -9.4457e-05 -1.2421e-05 -0.48841 6.3234e-05 1.4426e-05 -1.0333e-06 -1.6748e-05 -0.00011668 2.4056e-05 5.7487e-06 -6.537e-05 2.8844e-06 -1.9368e-06 1.3248e-05 -5.8492e-05
-6.3604e-06 4.7004e-06 0.21019 1.0044e-05 1.0675e-06 3.6545e-06 -1.076e-06 -4.8491e-06 -4.5727e-06 -8.807e-06 -1.0219e-06 -4.8872e-05 7.5418e-05 -3.3177e-06 3.8209e-07 2.7653e-05 -1.5184e-06 4.2886e-06 3.4237e-05 -1.3651e-05 0.28256 2.3358e-05 0.00010208 -7.8626e-05 -7.3134e-05 0.0003028 -0.00026279 1.5574e-05 -7.496e-05 0.00028597 -3.2132e-05 0.00022475 0.18093 -0.00053344 7.5952e-06 -3.4612e-06 -1.0745e-05 -3.5949e-07 6.4829e-06 0.0018796
3.2792e-06 -7.516e-07 1.0976e-05 2.3088e-06 8.7603e-05 -8.628e-06 -6.2089e-06 -2.7365e-06 -3.0739e-06 -0.00017297 0.68024 -8.4902e-05 -9.9303e-06 0.00036217 -0.00035381 0.0001103 6.1271e-07 -1.7107e-05 -0.00010011 -3.2175e-05 -0.000139 -5.7536e-05 -2.2669e-05 0.00041606 -0.00033985 1.3835e-05 0.0001105 8.3718e-06 0.00076328 0.00018331 9.8265e-07 0.00086449 0.00043451 -4.3173e-05 -8.1137e-05 0.51146 -3.2464e-05 -1.9688e-05 -1.3216e-06 0.00071008
3.3498e-08 7.8478e-07 4.1165e-06 -5.1816e-07 3.8362e-08 2.055e-07 1.5365e-09 1.3898e-07 -3.7182e-07 7.6546e-08 3.7063e-08 -2.3867e-06 1.8025e-06 -6.8361e-08 -5.8194e-08 2.2551e-06 3.5624e-09 -1.5303e-09 5.1141e-06 1.6195e-05 2.8717e-05 1.8333e-07 -8.9489e-07 -3.6788e-06 -1.1115e-05 -1.074e-05 -1.5303e-05 5.3451e-07 -1.7948e-06 1.6911e-05 -1.6354e-06 -7.3532e-07 0.00016159 -1.6164e-07 1.1609e-07 1.3035e-07 2.5693e-06 -2.6018e-06 -7.9815e-07 -2.4017e-05
-8.3089e-07 0.00052227 4.7658e-05 -2.113e-06 0.00044708 0.00022569 0.51481 -9.1102e-06 0.0001009 0.0006784 0.00035167 0.00098192 0.00065421 0.0040247 -0.00012097 0.00010862 5.3965e-07 0.00036619 -0.00014011 7.1197e-05 0.00063156 7.208e-05 0.0023408 0.0060571 -0.00061627 0.0010545 0.00052419 -0.0001377 0.00020102 -9.1576e-05 0.0039286 0.0039498 0.0033649 0.0011514 0.42966 0.0019009 -8.0377e-06 7.5413e-05 -6.994e-05 0.0019334
