1.5697e-06 0.33982 3.0229e-06 -2.7039e-05 1.3583e-05 3.1564e-05 0.46643 -3.2431e-06 1.6745e-06 -4.153e-06 -8.4048e-06 -2.7991e-06 -6.3576e-05 8.4422e-05 -9.2181e-06 -0.0003603 -5.8313e-06 4.535e-05 0.28751 -6.8946e-05
7.1652e-05 6.7922e-07 8.5584e-07 4.0466e-07 0.00013481 7.9644e-08 -1.3735e-06 -2.6951e-08 2.4859e-05 7.16e-06 -1.054e-05 8.4823e-07 8.7396e-06 -1.6722e-05 0.0019119 -0.00013683 0.00017127 3.8946e-05 0.0004822 -1.8644e-05
0.00010502 1.4385e-06 0.25093 3.857e-05 0.17838 -3.1807e-06 -3.0585e-05 -1.8277e-06 2.3495e-06 9.6717e-05 0.00055125 0.00071628 -5.5489e-05 0.21463 1.1499e-05 8.0716e-05 2.8255e-05 0.00056958 0.00039849 -2.5295e-06
8.7768e-08 8.0311e-05 0.00082659 -1.0089e-05 -2.4951e-06 4.7582e-06 9.0996e-06 -5.2138e-06 2.6955e-05 0.00021769 1.6857e-05 3.9402e-06 0.00070253 0.00075353 -5.7064e-06 0.0035381 6.9514e-05 0.0024994 0.003201 5.9827e-05
-1.6615e-05 -1.5339e-05 -2.5036e-07 -2.8802e-05 3.03e-05 1.1282e-05 0.31251 3.4564e-06 2.9866e-06 -5.5927e-05 -9.1668e-05 -1.173e-05 0.38601 1.1527e-05 -4.6113e-05 -0.00010861 -2.72e-06 -0.00086234 7.2777e-06 -3.0731e-06
0.1734 7.654e-05 8.7523e-06 -1.918e-05 0.0003444 1.8877e-06 -5.0529e-05 -1.894e-05 -0.00010221 1.9309e-05 0.00045132 0.0048716 0.00063232 -3.5499e-05 0.42632 0.00068339 0.0013054 -0.00010024 0.00016981 -0.00010815
4.456e-05 8.8091e-06 1.8462e-06 0.00010325 0.00012467 -7.3548e-06 -1.5853e-05 8.2732e-07 -3.6997e-05 2.9498e-05 -6.0508e-05 0.00037995 -7.0155e-05 8.6659e-05 0.0002591 0.0010277 9.6093e-05 0.00083927 0.00080072 -7.0126e-05
-5.861e-07 1.5677e-05 2.8174e-06 -5.8455e-07 0.00037328 -3.7264e-07 4.8561e-05 1.0403e-07 6.406e-07 0.00025877 3.3148e-06 -7.1645e-06 0.00093061 3.7418e-06 5.3794e-06 -1.8465e-06 -2.4664e-06 -7.3836e-05 -4.6454e-06 -4.597e-05
0.00013833 0.00032073 0.00016557 2.3119e-05 -7.5149e-06 -8.9096e-05 -4.0356e-05 -4.5704e-06 2.2851e-05 8.6297e-05 0.00075596 0.37963 -0.00013812 0.0056469 -0.00016721 0.28955 2.7825e-05 0.0013661 0.15552 -3.2051e-05
0.15772 4.4218e-05 2.023e-05 -6.0263e-05 -1.2181e-05 0.00013509 1.3881e-05 8.813e-05 -6.7034e-05 8.5981e-06 -4.737e-05 -7.2807e-05 -0.00010287 -0.00078564 0.00039422 0.38329 -3.7624e-05 -0.00013928 0.17505 0.00013883
1.5027e-05 -9.5833e-07 2.9249e-05 -9.9388e-06 -3.9682e-06 4.1891e-05 -7.1259e-06 -6.55e-07 0.00019835 2.0926e-05 0.0020104 2.5942e-05 0.0036361 0.00071248 8.7429e-05 5.2442e-05 3.6237e-05 -8.1803e-05 0.0017865 -5.5194e-06
0.44262 -1.334e-05 8.1741e-06 -3.0582e-05 0.0003958 6.0157e-07 -4.2453e-05 -2.5161e-05 -6.2833e-05 2.3785e-07 0.001739 0.0062317 0.00011234 -0.0002252 0.008777 0.00091115 0.0029469 -0.00031953 0.0016913 -0.00012068
3.5205e-05 0.00018049 5.1656e-06 -2.2853e-05 0.00038164 1.333e-05 -9.4379e-06 1.0202e-06 5.1092e-06 -2.6473e-06 -8.4801e-06 2.0209e-06 0.0020229 0.0012314 0.00063485 7.2552e-05 2.3926e-05 -0.00021781 0.00080311 -0.00011542
0.00051353 0.31419 4.794e-05 0.21903 0.00034574 0.20066 0.00013041 0.006418 0.0015888 0.00024727 0.00055976 0.0013738 0.0025869 0.004822 0.00018088 0.00027983 2.7175e-05 0.24513 0.1357 0.0017296
0.0005408 0.00051149 5.571e-05 0.00068945 0.00065969 0.00068056 0.00040049 2.3685e-06 0.001636 3.0673e-05 0.00083504 0.0023555 0.0038511 0.0049301 0.00026921 0.00013678 0.0001378 0.00067175 0.0042962 -9.734e-05
9.3495e-05 0.21959 -8.8224e-06 0.3037 9.5391e-05 0.29889 -1.3629e-05 0.32291 -5.1916e-05 -1.227e-05 0.00022148 -1.4241e-06 -0.00010472 -0.00013769 -6.2589e-05 0.082402 2.2397e-05 0.001433 0.00072165 0.002849
-2.2213e-05 0.21066 -2.4499e-05 0.28992 0.21151 0.29219 -3.31e-05 0.31033 -6.1195e-05 1.9747e-06 -2.5669e-05 7.3316e-05 -0.00010054 -4.5191e-05 4.2989e-05 -0.00035281 3.8131e-05 0.0013167 0.00142 0.63535
0.00020823 3.2097e-05 0.25768 0.00047448 -2.6442e-06 -0.00019026 2.9839e-06 -8.1789e-05 1.502e-05 6.3159e-06 0.24991 0.00076852 -0.00031824 0.26955 1.4005e-06 -0.00011912 0.00021795 0.30878 0.15782 0.00031978
-1.1913e-06 3.7542e-05 1.3749e-05 -6.688e-07 5.1185e-05 -3.3665e-06 0.00025954 -1.9253e-05 3.6574e-05 4.5389e-05 2.0888e-05 0.34628 0.00018224 -8.474e-05 -6.1607e-05 0.00070458 0.00012241 7.483e-05 0.0023573 2.3817e-05
0.00016711 3.3757e-05 6.526e-06 5.3094e-05 0.27546 -4.6507e-05 0.00016079 -1.1023e-05 3.9576e-05 0.0021085 0.00032754 0.0034028 -1.6309e-05 5.833e-05 0.0018723 0.21518 0.35912 0.00045201 0.0025429 0.0002769
1.5915e-07 0.29798 4.8018e-06 -0.00011507 0.00011368 4.8582e-05 -4.6158e-06 -4.9689e-07 -1.3248e-05 8.1356e-05 0.00049439 0.00027364 0.0014243 5.8279e-05 0.00027208 0.0018241 0.0001232 0.00042429 0.0010312 -6.7733e-05
0.22099 5.5379e-06 3.7201e-06 -4.4437e-06 -4.0726e-05 3.8747e-06 -2.7355e-05 -2.2067e-06 -5.4902e-05 2.9109e-05 7.0363e-05 -8.0065e-05 0.00063541 -0.00014412 0.51571 -0.00021883 5.3585e-05 3.382e-05 0.22687 -5.461e-05
-2.9097e-05 0.3307 -4.6551e-06 0.48865 -6.8611e-05 0.49068 -2.0906e-05 0.48958 -0.00010354 -4.6202e-06 2.3245e-05 2.6598e-05 -8.6662e-05 -1.6999e-05 -3.6758e-06 -8.2843e-05 2.4213e-06 -0.0011694 9.6911e-05 -0.00027365
1.2049e-08 3.2314e-05 1.1143e-06 4.0854e-08 0.00029766 5.7606e-08 1.5267e-05 -9.5437e-07 1.5449e-07 7.3825e-05 6.503e-05 1.772e-05 0.0016358 3.7023e-05 1.9566e-06 -1.8216e-05 1.7219e-06 8.5837e-05 0.00016417 -1.5324e-05
0.0001587 2.0903e-07 2.5738e-05 2.7194e-05 1.4973e-05 -1.0465e-05 -1.7195e-05 -2.6773e-06 -3.7883e-07 0.3893 0.00076174 0.0010612 -8.1146e-05 0.29927 -1.9736e-05 0.00010875 -6.2086e-05 0.00082231 0.0021643 -2.2909e-05
1.2449e-06 -7.3626e-06 -1.1119e-05 -9.1748e-07 0.00019544 9.6602e-07 -4.7718e-06 -6.1014e-08 9.2522e-05 0.49111 0.0017798 2.6826e-05 2.4518e-06 5.0626e-05 -5.3446e-06 0.00033561 0.0057895 -0.00014592 -2.4987e-05 -1.0478e-05
0.00018501 1.5243e-06 4.2869e-05 1.2309e-05 0.00031637 -4.4465e-06 5.405e-06 -1.568e-06 -1.5781e-05 0.0027254 0.00071057 0.00057355 -6.3205e-05 0.0042893 -8.0481e-07 0.00020313 0.00044666 0.0007237 0.00091711 -4.0223e-05
0.00012855 0.00018475 0.00068394 4.1276e-05 0.0001407 6.1566e-06 0.00024581 1.0304e-05 3.552e-05 0.00014265 0.00073363 0.0011655 9.7295e-06 0.0065656 0.00018567 0.00023093 0.0001361 0.0028399 0.0048968 -2.0917e-05
2.4553e-05 -6.2359e-07 3.6809e-07 -7.2456e-07 -1.5266e-05 -4.719e-07 -6.2896e-06 -4.1786e-08 -6.6056e-06 0.00041886 9.3784e-05 4.5255e-06 2.9331e-06 -0.0001479 0.00016228 0.00010181 0.0041688 1.5013e-05 0.0016624 6.9632e-06
0.25425 -1.2699e-05 2.6441e-05 -7.04e-05 0.00021942 2.4801e-06 -9.1142e-05 -1.2397e-05 0.69518 3.0324e-05 0.20991 0.0035875 0.0032136 0.00038191 0.002167 0.00060387 0.001729 5.1977e-05 0.0010885 -6.9099e-05
0.00022596 1.588e-05 8.6626e-06 5.2625e-05 0.00058264 3.0402e-05 -1.7533e-05 -1.6902e-05 2.1105e-05 0.00023252 0.00095562 0.0042558 0.00038849 0.042599 0.002438 0.0013013 0.0011384 0.0045499 0.0029807 -0.00013861
-4.8636e-06 1.9131e-05 -1.5697e-07 -4.4508e-05 -1.0048e-06 1.4605e-05 -1.1074e-05 4.9704e-06 1.6154e-06 0.00056167 -4.3629e-05 -6.6182e-06 0.45027 2.0204e-05 -1.1118e-05 -0.00013067 1.5737e-05 -0.0019162 -1.1414e-05 -5.219e-06
8.3641e-09 -3.7316e-09 3.1336e-07 3.0562e-08 -1.6743e-06 1.2583e-08 1.2279e-07 -4.6442e-07 -1.525e-08 1.6231e-06 2.3236e-07 9.717e-05 3.1484e-07 1.3882e-06 2.6583e-08 4.5326e-05 -2.0593e-05 8.4161e-07 5.1925e-06 -5.9759e-07
0.10394 0.12448 0.17554 -0.00010442 2.1917e-05 1.5012e-05 9.8342e-05 -8.2669e-06 0.28268 2.705e-05 0.00043121 0.00072365 -0.00010389 0.151 -5.9288e-05 0.0050855 0.00025229 0.0024123 0.003506 2.0266e-05
0.17524 4.8966e-05 1.9894e-05 -0.00050598 0.0021125 -0.00049445 -3.1567e-06 6.0232e-05 -0.00012092 9.4973e-06 -5.101e-05 0.00024455 -0.00012664 -0.00084304 0.00033973 0.42555 -4.7289e-05 -5.5571e-05 0.19275 0.028736
8.9115e-05 1.1724e-05 3.4852e-06 -2.5135e-06 0.00023421 6.6252e-07 0.00015548 4.9048e-06 8.8692e-07 0.00011705 -2.0391e-05 0.0019122 1.5985e-05 0.00073198 0.0011311 -0.00011262 0.0001654 -8.1622e-06 0.00038237 -6.7402e-05
0.30628 -9.5832e-06 2.8534e-05 -7.5858e-06 -7.4907e-06 1.0799e-05 3.5941e-05 -3.1238e-06 -2.6221e-05 -7.149e-06 -4.866e-05 -5.458e-05 -8.9214e-06 -0.00051128 0.00030202 0.0034488 -5.7484e-05 -3.7927e-05 0.31586 -5.5223e-05
0.0001598 9.5148e-06 3.1623e-06 -2.1829e-06 8.8312e-05 7.8855e-08 0.00172 4.5934e-06 -3.759e-05 0.00010988 -1.3432e-05 0.0018405 5.2767e-06 0.0011327 0.0019867 -1.6642e-05 0.00026716 -1.708e-05 5.7738e-05 -1.2279e-05
8.0007e-07 4.2964e-07 2.7138e-06 -2.2812e-06 0.0001137 5.8816e-08 2.1469e-05 5.6732e-06 -1.5092e-07 4.8715e-07 -1.4576e-06 0.0021622 2.0812e-05 0.00012798 -8.3135e-07 -3.5039e-06 7.4535e-06 1.2223e-06 9.7307e-06 -1.4664e-05
-1.6913e-05 2.0787e-05 -5.4788e-08 3.1714e-05 0.31407 2.2085e-05 -2.9996e-05 4.7304e-06 2.2003e-06 0.00089684 -5.5619e-05 -8.6827e-05 -3.0231e-05 -3.2405e-05 9.1706e-06 0.00055156 0.81756 3.3205e-05 -8.9003e-06 0.00048025
0.14973 0.00024522 6.2033e-06 1.6526e-05 0.1799 2.2834e-05 0.00023529 2.0547e-06 2.4232e-05 7.7446e-07 6.1829e-05 -5.0654e-05 0.00041438 0.00045898 0.34779 -0.0003306 0.00051536 7.6172e-05 0.15716 -8.0294e-06
1.2777e-14 -4.0226e-14 -1.4371e-14 4.6208e-11 3.2434e-12 3.5437e-11 -4.3632e-13 1.0077e-12 -2.615e-14 -6.5682e-12 -1.5343e-12 -1.4823e-13 -1.1652e-12 2.5577e-15 -2.2176e-13 -2.7278e-13 2.1591e-11 4.1285e-11 4.4983e-13 -1.6357e-09
0.00016911 1.2105e-05 0.37554 1.7746e-05 1.2845e-05 -2.5608e-05 -2.0764e-05 -5.5494e-06 9.5736e-05 6.1281e-05 0.00078142 0.0011222 -6.0903e-05 0.32418 -2.1353e-05 0.00014344 6.3095e-06 0.00091842 0.00040453 -2.1559e-05
7.0278e-05 0.21504 0.0009582 -7.5384e-05 0.00048852 3.0365e-05 0.00031083 -5.8967e-06 0.00013762 -3.1141e-06 6.8989e-05 0.00020015 -6.5797e-05 0.0017042 -1.4087e-05 0.00076756 0.00022531 0.002975 0.0050415 -0.00017966
-6.9101e-06 2.8749e-06 1.4083e-06 6.4663e-05 0.482 5.1071e-05 -3.9754e-05 8.5184e-06 9.2816e-06 7.7147e-06 -6.5436e-07 -0.00024002 -9.5032e-05 4.1286e-05 0.00011906 2.5621e-05 0.00020596 -3.5047e-05 9.0458e-06 6.2905e-05
0.26485 0.00079825 2.8851e-06 0.0014091 7.4558e-05 0.0013067 0.43437 -1.2334e-06 0.0032259 2.1068e-06 5.343e-06 -3.4297e-05 0.0034223 -7.3344e-05 -7.7174e-06 -0.00027271 -2.3231e-05 0.00025055 0.2684 -0.00010311
-4.0345e-06 0.00054982 0.0012583 -9.5976e-05 -3.3276e-05 2.9716e-05 -2.1996e-06 -1.256e-05 3.0423e-06 0.00024847 -0.00062027 0.0011641 0.045279 0.0010658 1.4122e-05 0.0015727 1.2483e-05 0.013342 0.0029276 2.5173e-05
4.267e-06 -1.2058e-07 5.0425e-07 -1.9909e-05 -9.1536e-07 8.8625e-05 3.1679e-05 -4.3995e-07 -2.7803e-06 0.0002114 -2.6414e-05 8.9906e-06 -1.6896e-06 2.3803e-05 1.3411e-06 -2.8609e-05 0.00013742 8.716e-05 0.0015142 -1.2777e-05
3.6582e-05 0.00022627 -2.3156e-07 4.468e-05 1.8018e-05 1.6204e-05 8.193e-06 4.7467e-05 -5.138e-06 0.0018734 3.0794e-05 2.5646e-05 0.0002576 -8.51e-05 0.00011329 0.00010876 5.6347e-05 0.00014503 0.0019005 -2.1475e-05
0.00013022 2.1625e-05 0.29276 0.00059082 -8.32e-06 -0.00017679 1.7108e-05 -9.6333e-05 1.0168e-05 5.5516e-06 0.28522 0.00083697 -0.00032617 0.30687 -9.399e-06 -0.00010896 3.6231e-05 0.35863 0.18036 0.00018379
5.4678e-05 0.00037756 1.4936e-05 -8.2985e-05 0.00032872 2.8927e-06 -4.0554e-05 -2.9269e-06 3.0769e-05 8.5709e-07 -4.5216e-06 0.00012968 -2.2873e-05 9.2322e-06 0.00028282 0.00036511 0.0035571 0.00023445 2.9536e-05 0.00067631
0.00010081 0.00026495 0.00074473 -6.7718e-06 0.00028358 5.6906e-06 -6.1998e-06 -2.941e-06 -2.6247e-05 0.00025309 4.0804e-05 1.4502e-06 -2.7422e-05 0.00063458 0.0049612 6.2425e-06 5.5368e-06 0.0022633 0.0017347 -4.5404e-05
1.2582e-22 1.4904e-22 -2.423e-22 -2.1228e-21 2.8299e-22 4.2155e-21 2.2996e-23 2.5661e-21 1.3056e-22 -1.4832e-24 1.6768e-19 -4.7371e-23 8.6252e-21 -4.2767e-21 -3.7519e-23 2.3242e-23 2.4956e-22 -8.5004e-20 2.6351e-22 -6.8573e-20
1.4478e-06 -3.4379e-05 3.389e-05 0.00022892 0.00020748 -6.1396e-05 0.00017191 3.1172e-06 0.00023925 0.00025395 0.0022977 1.6401e-05 0.36114 0.0010119 -3.8826e-05 0.00059007 3.6207e-05 4.341e-05 8.2127e-05 0.00036896
-2.9097e-05 0.3307 -4.6551e-06 0.48865 -6.8611e-05 0.49068 -2.0906e-05 0.48958 -0.00010354 -4.6202e-06 2.3245e-05 2.6598e-05 -8.6662e-05 -1.6999e-05 -3.6758e-06 -8.2843e-05 2.4213e-06 -0.0011694 9.6911e-05 -0.00027365
-4.6308e-05 4.1301e-05 -8.3312e-07 0.02207 -0.00015324 0.026298 2.0587e-06 0.0024139 5.8697e-06 9.3255e-05 2.6917e-05 -2.6646e-05 -3.6076e-05 -4.4955e-05 -5.8061e-05 0.35958 6.0429e-05 -0.0022664 0.1854 -0.0026009
0.00017292 2.4329e-06 3.2243e-06 3.1866e-05 0.27292 3.093e-05 -5.1809e-05 -7.6139e-06 7.4838e-05 6.4829e-05 0.00029873 0.0031602 2.8204e-05 1.8409e-05 0.0019449 0.00050998 0.00095171 -0.00010773 -2.3008e-06 1.9013e-05
0.0010076 0.26065 3.515e-06 0.0010809 0.00016356 0.0010903 0.00057342 5.9834e-06 0.59561 -7.1937e-05 -4.588e-05 6.3056e-05 0.44014 7.4558e-05 2.2549e-05 -5.5237e-05 0.00020577 -0.00053728 0.0051634 2.052e-05
-3.2833e-05 9.6693e-06 2.2e-05 -3.783e-06 -1.7766e-06 -9.4839e-07 -1.8989e-06 1.5827e-06 0.00010141 2.4018e-05 0.45185 -4.2175e-05 9.3126e-05 -0.00030658 -1.8798e-06 3.6457e-05 -3.6706e-05 0.00049088 8.2583e-05 9.1188e-07
9.6054e-06 -4.0157e-06 2.4812e-06 -1.8504e-07 5.698e-05 -4.1234e-07 2.1663e-05 -2.647e-08 -5.2153e-06 0.55014 -1.6312e-05 8.8242e-06 0.00018537 3.6927e-05 8.8633e-06 3.3357e-05 0.001651 -7.6405e-05 2.0365e-05 -2.3443e-05
0.10471 4.0255e-06 2.1697e-06 1.4285e-05 0.25202 2.9863e-05 -8.1014e-05 2.5475e-06 0.28645 9.307e-05 -1.8869e-05 0.00023555 -6.1432e-05 -2.0769e-05 0.24372 -7.0314e-05 3.2661e-05 0.00022953 0.00017171 -0.0002599
6.1393e-05 3.9745e-05 1.3677e-05 6.7129e-05 0.00019124 9.4511e-07 0.00026447 -5.0903e-07 7.1796e-05 0.00019002 -1.0981e-05 0.00027617 4.5875e-07 -7.7673e-05 0.00013859 0.0021777 0.00014819 0.00059873 0.14446 -5.6396e-05
2.9467e-06 1.508e-05 1.1953e-05 2.8079e-05 0.22017 2.3967e-05 -1.9109e-05 3.882e-06 -4.7756e-06 2.0343e-06 -2.2742e-05 -5.9327e-05 1.2866e-05 0.00092457 9.3803e-05 -1.5441e-05 3.4001e-05 -2.9804e-05 0.00043002 -4.7512e-05
0.15961 2.219e-05 0.26988 -1.8241e-05 -2.1898e-06 -1.4383e-05 -1.8569e-05 -8.9783e-06 0.00015743 3.187e-05 0.28163 0.00078498 0.0040127 0.23292 -4.655e-05 0.00011774 0.00017903 0.0050627 0.0024021 -5.8365e-06
0.089207 2.4249e-05 0.00055081 -7.3202e-06 7.8285e-05 5.6048e-05 5.0472e-05 -3.4454e-06 -2.3655e-05 0.00025169 0.000981 0.001892 6.4669e-05 0.0059472 0.00011579 -5.226e-06 0.0021935 0.0038622 0.0030164 -2.6455e-05
0.31284 6.6561e-05 0.0001304 2.5966e-05 0.0002534 -1.4241e-05 0.51448 -5.6966e-06 -4.9907e-05 7.3928e-05 0.0018673 0.0017413 -4.7311e-05 0.011364 -3.857e-05 0.00037424 0.0002747 0.0015917 0.0064251 -2.2719e-06
-4.3478e-05 3.3353e-05 0.40067 0.39153 2.5957e-05 0.38905 -2.0136e-05 0.41767 -5.6467e-05 4.4613e-06 -4.1552e-05 0.59132 -6.1503e-06 0.00040041 -0.00012757 -0.00032476 -4.7786e-05 0.0019169 9.6543e-05 0.00089274
0.00013022 2.1625e-05 0.29276 0.00059082 -8.32e-06 -0.00017679 1.7108e-05 -9.6333e-05 1.0168e-05 5.5516e-06 0.28522 0.00083697 -0.00032617 0.30687 -9.399e-06 -0.00010896 3.6231e-05 0.35863 0.18036 0.00018379
0.00012507 1.9275e-07 1.9857e-06 2.0558e-05 9.6569e-05 4.8524e-05 2.8886e-06 8.5203e-06 -4.4896e-05 8.9075e-05 -4.1499e-06 0.0014961 5.2749e-05 0.00010038 -3.8127e-05 -2.4615e-05 6.6722e-05 -5.7515e-06 2.556e-05 -0.0027881
0.12764 0.00028376 1.1081e-05 -4.1235e-05 -2.5535e-05 1.6128e-06 -3.5432e-05 -2.19e-06 -7.0492e-05 0.00041868 4.64e-05 9.5958e-05 2.9125e-06 -6.109e-05 9.8373e-05 0.00015723 0.001538 0.00099187 0.0016767 -1.6636e-05
9.7943e-05 0.00057177 -2.7527e-06 -8.5315e-05 -1.5869e-05 -5.2701e-05 -2.896e-05 1.4547e-05 -4.4668e-07 0.2505 -0.00029513 0.00014783 0.024596 0.00042088 4.6717e-05 0.25448 0.00016456 0.0050366 0.00032448 5.1003e-05
0.19552 -9.4583e-06 4.2552e-06 -4.0181e-06 0.00018925 4.0218e-06 -3.3467e-05 -1.6712e-06 -9.6886e-05 -1.9787e-07 -1.6908e-05 -9.0872e-05 1.3038e-06 1.3701e-07 0.45186 -0.00025171 -5.3128e-06 1.0247e-05 0.19983 -8.2136e-05
0.00028056 7.6908e-05 3.3615e-05 2.0473e-05 0.21081 2.7284e-05 0.00028872 -3.28e-05 8.5546e-05 9.791e-05 0.00048625 0.44321 0.0021768 5.1369e-05 0.003066 0.00091741 0.0014317 0.0001948 0.0032434 -0.00015742
0.1302 0.00028909 1.0242e-05 -4.1673e-05 3.5817e-05 -7.7324e-06 -6.9205e-05 -3.7338e-06 -9.4869e-05 0.00063125 8.7512e-05 9.764e-05 -2.7907e-05 -6.6399e-05 4.3462e-05 0.00015306 0.0015759 0.0047586 0.0016951 -2.3133e-06
-5.0382e-06 -3.6073e-06 0.00027013 3.0173e-05 0.21729 2.1378e-05 -1.1036e-05 3.0058e-06 3.991e-06 0.34176 -2.9326e-05 -3.8291e-05 -4.3919e-05 6.6054e-05 -8.9215e-06 6.5156e-06 3.3625e-05 -5.8918e-05 2.4561e-05 7.7742e-05
7.56e-05 2.4503e-05 0.26641 0.00049279 -4.1076e-06 -0.00019672 2.1187e-05 -8.4516e-05 2.1501e-05 6.0547e-06 0.25835 0.00079298 -0.0003288 0.27815 -2.7374e-06 -0.00013359 3.2791e-05 0.31908 0.16309 0.00032893
0.10462 5.2939e-05 9.0107e-05 -8.3329e-06 0.0002249 -1.5677e-06 0.17349 1.8238e-06 -9.6651e-06 7.5842e-05 0.0005344 0.0013566 0.00013932 0.03478 0.0013889 0.00011217 0.00042806 0.0022786 0.0045695 3.5019e-06
0.15028 2.2917e-05 0.25423 0.00050217 -1.5011e-05 -0.00016367 -5.4333e-05 -8.3147e-05 0.00014894 9.8619e-06 0.26804 0.00072497 0.0035163 0.22012 -3.554e-05 6.6151e-05 0.00017891 0.30969 0.0037341 0.00020978
0.17195 -5.955e-06 -5.5934e-07 1.6468e-05 0.00027392 4.8271e-05 -3.8006e-06 3.8188e-06 -0.00010271 1.4993e-05 -5.5526e-07 -1.697e-05 -8.8197e-06 -4.9657e-05 -3.4803e-05 -2.0455e-05 -3.2892e-07 -4.9876e-06 1.067e-05 -0.0027151
1.1607e-05 6.0189e-05 3.076e-06 0.00060377 0.00034678 0.0013913 -1.7096e-06 0.00044393 1.1323e-05 0.00021797 -2.196e-06 2.0418e-05 3.8536e-05 -1.8433e-05 -1.0744e-05 0.00015755 0.0052444 2.5191e-05 0.0012396 0.038886
4.1529e-06 7.9768e-05 -1.2532e-06 0.00012978 0.10341 -2.2565e-05 2.1756e-05 -2.6778e-07 5.1928e-06 0.16292 8.4996e-06 0.0003433 0.0021366 9.906e-06 0.0001437 0.00036377 0.0010078 0.0030799 5.8879e-05 0.00019616
3.3806e-07 -4.6354e-08 3.0196e-06 -2.605e-06 0.00015525 2.3062e-09 2.8627e-05 6.947e-06 -2.3429e-08 5.7701e-07 -1.8084e-06 0.0026946 2.481e-05 0.00015889 -1.7799e-06 -5.3103e-06 1.123e-05 -6.7754e-07 6.6336e-06 -1.8365e-05
0.00040798 0.00044421 4.2427e-05 0.00049047 0.00072072 0.0004991 0.00028394 2.1303e-06 0.0011856 2.1246e-05 0.00060166 0.0017087 0.0037872 0.0040775 0.00064059 0.00012736 0.0001101 0.00039345 0.0034415 -0.00012991
-2.329e-06 4.3199e-05 4.4268e-06 0.025751 -0.00018547 0.03188 2.0725e-06 0.0028015 -2.9697e-06 -5.9468e-07 4.3168e-05 0.00022535 3.6643e-05 -4.1494e-06 8.5966e-06 0.00030294 1.6799e-08 -0.0025907 5.9978e-06 -0.0050205
2.0256e-05 0.00025367 3.8564e-06 -1.273e-05 0.13936 2.9416e-05 0.00019783 4.3379e-06 2.1352e-05 0.00050366 -1.1336e-05 3.241e-05 0.23546 0.00060682 0.00049218 -3.6628e-05 0.00028345 -0.00074015 0.0041869 -9.1687e-06
-3.6062e-08 9.092e-08 1.4444e-08 2.6248e-07 4.0843e-05 9.8302e-08 -7.0212e-07 2.0062e-08 -1.3356e-06 0.0033319 -2.4757e-06 5.1998e-07 0.0002261 9.886e-07 -6.4809e-07 -1.2351e-06 -1.183e-06 1.3888e-05 1.2435e-05 -1.0282e-05
2.1704e-05 3.8278e-05 4.274e-06 -1.6848e-06 0.00064951 2.1103e-06 0.00022706 -9.5578e-07 2.1064e-05 8.0165e-05 3.9019e-05 5.338e-05 0.0016817 0.00065241 0.00031596 9.0434e-05 0.000242 -1.8566e-05 0.0033652 -5.8288e-05
6.3547e-05 0.00014446 0.1856 0.00036787 8.6022e-05 -7.0755e-05 0.18048 -5.5829e-05 5.0379e-05 2.8559e-06 0.1798 0.00057612 0.00012901 0.22984 -1.6577e-05 -3.5254e-05 0.00016728 0.211 0.11737 -7.6546e-05
-1.2008e-06 0.000338 4.6902e-07 -5.5734e-05 -1.1707e-06 6.4891e-05 -2.6939e-06 1.0221e-06 1.1814e-06 9.6646e-05 -1.5493e-05 0.00015647 0.0003028 1.18e-06 4.3317e-06 0.0026087 3.9208e-06 7.2902e-05 0.00082621 -1.7105e-05
0.17501 -3.3253e-06 1.8989e-05 -6.3667e-06 -5.5164e-05 -1.3582e-05 0.28945 -3.4943e-07 -4.1552e-05 -5.2259e-06 -4.8609e-05 -9.9934e-05 -4.3823e-06 0.00018208 0.4094 0.01535 -6.5648e-05 -8.0483e-05 0.010664 2.4014e-05
0.16493 4.6085e-05 1.8723e-05 -0.00047621 0.0019882 -0.00046535 -2.9709e-06 5.6688e-05 -0.0001138 8.9385e-06 -4.8009e-05 0.00023016 -0.00011919 -0.00079344 0.00031974 0.40052 -4.4506e-05 -5.2302e-05 0.18141 0.027045
8.4875e-06 0.00020959 1.4249e-06 -2.7135e-06 5.8028e-06 7.1487e-07 -3.0836e-07 5.3154e-08 -1.7484e-06 2.4992e-05 8.1664e-06 1.0244e-05 0.00040042 -1.3469e-05 0.0002856 -5.0603e-05 0.00020056 -0.0001486 0.0012647 4.9577e-06
3.211e-05 0.00039982 -1.1323e-05 0.00072432 -4.8176e-05 -0.00012021 3.5962e-05 -0.00010162 4.6746e-06 0.00012829 -0.0008593 -2.0044e-05 0.51471 0.00014641 3.9378e-05 0.0010123 3.5072e-05 0.44353 0.23926 -0.00013397
0.15774 2.1826e-05 0.2667 -1.7988e-05 -2.1499e-06 -1.4379e-05 -2.2762e-05 -8.8035e-06 0.00015581 3.1739e-05 0.27824 0.0007756 0.0039698 0.23021 -4.6297e-05 0.00011553 0.0001771 0.0048771 0.0023222 -6.1974e-06
-2.8156e-05 8.8978e-05 6.3026e-06 -0.00011087 -1.3468e-06 0.00053385 -1.7582e-06 0.00051196 8.5353e-05 2.0503e-05 0.38545 -6.277e-05 7.0847e-05 -0.00033643 -1.5784e-06 5.6198e-05 -3.0761e-05 0.00043641 7.0255e-05 0.00088394
0.17516 4.9473e-05 2.2659e-05 -6.4026e-05 -1.3632e-05 0.00015752 2.3124e-05 9.6403e-05 -5.7001e-05 8.8171e-06 -5.7835e-05 -7.8013e-05 -0.00010447 -0.00080217 0.00045499 0.42454 -4.8191e-05 -0.00010895 0.3694 0.00011236
-5.1594e-08 -6.9211e-08 -2.9376e-06 9.8749e-07 -6.3032e-06 -3.3534e-07 1.4651e-07 -1.4516e-05 -1.9379e-07 1.126e-07 1.1952e-07 0.0019215 0.00013227 -2.4025e-06 -3.7408e-07 1.8993e-06 1.1378e-06 8.0135e-06 8.7504e-06 -1.5796e-07
8.1642e-06 -1.3669e-07 1.5162e-06 -1.7532e-06 8.5636e-05 9.8247e-08 1.5557e-05 3.8366e-06 8.4617e-07 0.00045381 -7.765e-07 0.0014907 1.403e-05 9.3368e-05 0.00021303 -2.8698e-06 2.0249e-05 8.3599e-07 1.7485e-05 -1.0248e-05
3.683e-05 1.6342e-05 1.1957e-05 0.00065141 0.4195 0.0011151 -7.6922e-05 0.00050315 -4.1627e-05 0.00020251 -9.1292e-05 0.43553 0.0011432 -0.00013211 -0.00020866 0.00058939 3.6008e-05 0.001043 0.17722 0.076996
2.6094e-05 0.17674 -3.1104e-05 -3.4758e-06 3.7879e-06 4.0573e-06 3.2115e-06 -1.0627e-06 -5.5183e-06 8.4494e-05 -0.00029402 -3.9194e-05 0.00018859 0.20821 9.4897e-05 -0.0002062 1.8644e-05 0.00087294 0.15049 -4.2124e-05
2.8444e-05 0.00056567 1.5127e-05 -6.4908e-05 0.00013395 1.6787e-05 0.00034193 1.5572e-06 6.7271e-05 5.0007e-05 2.8182e-05 6.248e-05 0.00079818 0.0008914 0.00011757 0.0021891 0.00021451 0.00036649 0.0035711 6.9494e-05
1.2368e-06 0.00027107 8.5825e-07 -4.6284e-05 0.00042154 2.1993e-06 -3.2277e-05 -2.8368e-06 -4.2093e-06 0.25894 -0.00033521 1.0834e-05 0.024836 3.5264e-05 -1.3046e-07 0.00087467 9.7382e-06 0.0089684 1.9977e-06 -2.4474e-05
0.13247 -4.9204e-06 -5.6837e-06 0.00045256 4.0863e-05 -0.00011478 -4.1581e-05 -6.2405e-05 -8.4262e-05 0.00020769 -0.00017282 -2.3883e-05 -0.00028089 0.000131 0.00010649 2.9654e-05 3.6614e-05 0.25908 0.00092328 -1.5732e-05
8.5689e-05 1.4973e-05 0.22981 0.00046115 -4.936e-06 -0.00013934 5.7345e-05 -7.6655e-05 9.7753e-06 1.9053e-06 0.22439 0.00066412 -0.00014625 0.28476 -1.3957e-05 -0.00010006 6.5431e-05 0.28414 0.14273 0.00014289
6.4026e-06 0.33851 -1.1231e-06 -7.9808e-05 2.3405e-05 3.7095e-05 1.9696e-05 -1.9972e-06 -1.1318e-05 0.17724 -0.00025402 0.00039596 0.018051 -5.4154e-06 0.0013773 0.0019808 -3.1087e-05 0.0035027 0.00040074 2.2016e-06
-2.2656e-05 0.25704 -9.9967e-06 0.37911 -0.00017853 0.38783 -1.7256e-05 0.38149 -8.3561e-05 -2.0876e-06 1.6652e-05 7.2959e-05 -6.8321e-05 -5.8105e-05 1.1313e-05 -8.9245e-05 1.3508e-05 -0.001022 0.0017302 0.76633
2.6787e-05 0.00021095 2.4332e-05 -1.3508e-05 0.00014575 -1.3483e-07 0.29148 -1.7095e-06 5.8008e-05 2.1088e-06 0.0010333 6.0692e-05 -7.8246e-05 0.00058601 -4.8657e-06 3.8689e-05 0.00018521 0.002941 0.0050247 1.9791e-05
7.4245e-05 3.9127e-07 9.1471e-07 4.9225e-07 0.00013978 7.1564e-08 -1.3319e-06 -2.6528e-08 2.58e-05 0.0008144 -1.0995e-05 1.8781e-06 8.6144e-06 -1.5723e-05 0.0019831 -0.00014186 0.00018001 3.9618e-05 0.00050009 -1.9435e-05
-9.0979e-06 0.21006 -3.9261e-05 -1.2972e-05 4.7469e-06 1.671e-05 -1.3737e-05 -4.9791e-07 8.0321e-06 1.5592e-06 -0.00035827 -4.7847e-05 1.9608e-05 0.24856 0.00011091 -0.00028601 4.9241e-06 -8.3375e-05 0.17863 -4.884e-05
-7.1115e-07 8.8726e-06 -1.8447e-05 0.00010155 0.00022234 -5.1397e-06 -1.1329e-05 7.6429e-07 0.00015982 0.0028111 0.0028339 0.00038803 -1.3284e-05 0.00010469 -2.3832e-06 0.0012398 0.00029407 0.00065948 0.00053266 -5.5875e-05
2.6582e-07 4.0795e-06 -1.1018e-06 -6.0573e-07 3.9968e-08 2.2683e-07 2.5979e-07 5.2884e-07 -3.5543e-07 6.2911e-08 -6.9128e-06 6.3064e-08 1.0385e-05 6.3873e-05 -6.5521e-07 -7.9441e-06 6.137e-07 -1.7932e-06 0.00012863 -1.4636e-06
0.00055059 5.0596e-05 7.2208e-06 -1.0013e-05 0.00045366 1.9667e-06 0.00021963 -1.4873e-05 8.241e-05 0.00093047 0.0012016 0.0041852 0.00012467 0.00094329 0.0023966 0.0047297 0.45001 0.00023816 0.0037156 -8.4799e-05
