-2.6816e-05 3.5811e-06 0.34005 4.5862e-07 1.2844e-05 0.46673 -3.9929e-05 -1.3398e-06 5.5236e-07 -3.772e-06 -4.265e-06 -7.8431e-06 -3.0542e-05 -1.1572e-06 9.3444e-07 1.0466e-07 -1.9418e-05 -1.7744e-06 6.8611e-06 4.0371e-06 -3.5728e-05 5.6943e-05 -4.6976e-05 -6.8641e-06 2.037e-06 -2.0369e-05 -4.6159e-06 -3.5355e-05 2.3605e-06 -6.3138e-05 -5.0136e-06 -1.498e-05 5.8711e-05 -2.2496e-08 -1.0473e-05 -2.0028e-05 2.97e-06 -1.1356e-05 0.29269 -8.9214e-07 -5.6396e-07 -9.8741e-06 -8.4752e-05 4.3735e-05 -5.7068e-06 -1.7017e-05 -1.9751e-06 -6.2001e-05 -7.7926e-06 -4.9724e-05
2.6499e-07 9.8427e-06 -6.2373e-06 -4.2656e-07 2.5813e-05 4.7002e-06 1.3576e-07 -3.7589e-06 2.1997e-07 -3.4695e-05 -6.0256e-07 1.3383e-07 -0.00014917 -2.7177e-05 -1.6049e-06 -2.0522e-06 2.0213e-07 -1.6435e-06 0.5084 -5.6337e-05 2.6948e-05 6.5167e-06 4.7306e-05 -1.2461e-05 -4.6769e-07 -2.5999e-05 -3.8612e-05 1.2157e-05 -4.9808e-05 1.0954e-05 -5.7799e-05 0.4725 6.6233e-05 -3.6189e-08 -9.4692e-05 2.17e-05 -1.1118e-05 0.00023298 -9.1524e-05 2.8579e-05 -5.3478e-06 1.0126e-05 -4.5071e-05 3.3885e-06 -4.6775e-07 -3.108e-06 1.2284e-05 0.00051675 -1.0939e-06 4.0527e-05
3.8848e-06 9.5901e-05 1.294e-06 0.25144 0.17843 3.7159e-06 7.3032e-07 -6.619e-07 -1.1499e-05 9.6714e-05 -1.1172e-05 0.00071206 0.00017517 0.00071386 1.681e-05 9.9999e-06 8.7914e-08 0.52 8.3242e-06 -0.00015319 -2.5279e-05 0.23808 -0.00030199 -8.8623e-06 -9.1038e-06 3.6777e-05 1.3529e-05 7.7459e-05 -1.2423e-05 -3.4362e-05 0.0020917 -1.8142e-05 0.00064479 -2.8006e-08 2.262e-05 -5.1668e-05 0.00045097 -0.00015752 0.00021292 0.0010676 3.249e-05 1.5402e-05 -3.9187e-05 -9.2218e-05 0.00057641 -5.4356e-06 1.0118e-05 1.1578e-05 3.462e-06 3.6815e-05
-6.3906e-06 -1.4002e-06 3.2648e-05 -6.845e-05 -1.2378e-05 -3.5504e-05 -2.0263e-06 4.725e-06 3.0466e-05 0.00024153 5.3305e-07 6.6784e-05 0.0004532 4.046e-06 1.2585e-06 1.0528e-06 1.1427e-06 1.6399e-06 9.387e-07 -0.0012454 0.0092159 0.00028355 -0.00010701 1.0489e-06 -4.7955e-06 -4.0733e-06 -8.9377e-05 0.0051198 -4.3846e-05 -0.00022727 -8.8423e-05 -7.6888e-06 -0.00051112 -3.756e-08 0.011969 0.0028605 0.00021002 -0.00010663 0.00076481 0.25969 6.1202e-05 -0.00010305 0.0019171 0.0021732 -1.263e-05 -7.8599e-05 -3.9053e-05 -3.7308e-06 -1.3841e-05 0.0034871
-2.995e-06 -1.1226e-05 1.6082e-05 -2.5246e-06 3.2458e-05 0.31271 -2.2314e-05 -3.8794e-07 1.5616e-06 -4.7707e-06 4.2003e-06 0.00012289 -3.3166e-06 4.7239e-06 -3.7358e-06 -2.6474e-05 4.7307e-06 2.2159e-05 1.7261e-06 0.39598 0.0007365 -8.3908e-06 -1.978e-05 -4.3126e-06 1.54e-06 -3.282e-05 -9.5682e-06 6.7656e-07 2.4589e-06 1.2302e-06 1.9703e-05 -3.7216e-05 0.00023909 -1.1699e-08 -2.7427e-06 1.7053e-05 0.0015385 -9.9162e-05 1.0022e-05 6.2981e-06 2.0564e-05 1.3545e-06 -4.3859e-05 -1.2696e-05 2.5719e-06 1.6666e-06 2.4426e-06 -1.212e-05 -1.9258e-05 7.5207e-05
1.4202e-06 0.17321 2.9003e-05 -2.8136e-07 -9.3069e-05 -0.00010393 1.0895e-05 9.3261e-06 -1.9795e-05 -9.014e-06 -6.5132e-05 2.8689e-05 0.0073456 -0.00032246 3.1518e-05 8.1827e-06 4.8317e-07 -7.0964e-07 0.40742 -0.00011966 0.0023088 -1.7649e-05 6.6292e-05 -6.8435e-05 1.3844e-06 0.42317 -0.0002837 -0.00016557 5.3022e-05 -2.2037e-05 -0.00023457 -0.00054849 -0.00021536 3.1776e-06 0.00069459 -4.9309e-05 9.4608e-05 0.39993 -6.433e-05 4.6184e-06 -0.00019476 1.4665e-05 -0.0007508 -1.1565e-05 1.3513e-05 3.1917e-06 3.4507e-05 -0.0002838 3.4703e-06 0.24099
1.2485e-05 4.4626e-05 8.3141e-06 1.1342e-06 0.00010064 -2.3289e-05 2.5167e-05 2.5778e-06 -3.7148e-05 -0.00023562 0.0011686 -9.0163e-05 -2.3061e-05 0.00031442 -0.00044493 0.00011519 1.3559e-08 2.881e-06 2.1943e-06 -9.5658e-05 -5.1146e-05 -0.0001488 -0.00021995 -8.6253e-06 1.7486e-05 0.00023216 0.00074892 0.00046631 8.3462e-05 -0.0002673 0.00086541 -3.0386e-05 0.00090752 -9.4328e-08 0.00035078 0.00020485 -3.5605e-05 0.0023238 0.00064526 -1.5228e-06 0.0072842 -5.4956e-05 -1.074e-06 -4.578e-05 6.6562e-06 -3.4658e-05 3.7451e-06 -3.8393e-05 8.4323e-06 0.00033563
5.2224e-08 -1.3333e-06 1.5803e-05 -4.8914e-06 0.00038005 4.9715e-05 3.7899e-07 -4.3773e-06 9.6634e-07 0.00022697 5.92e-07 1.3725e-05 -7.7688e-06 -1.1001e-05 -1.2453e-06 -1.8179e-06 -2.5016e-09 0.19541 -1.9175e-06 0.00090745 6.0297e-05 5.1739e-06 3.9651e-06 0.00042972 8.0041e-07 -8.2075e-06 -1.6603e-06 4.1434e-06 -2.8533e-06 -6.524e-07 -5.0378e-06 -2.5285e-06 -7.3265e-05 -1.6759e-08 -3.1533e-05 2.529e-06 -0.00010978 0.00067519 -1.6121e-05 2.5265e-05 -7.9511e-05 1.649e-06 6.4726e-06 -2.9167e-05 -6.0431e-06 1.7703e-06 -2.407e-05 9.6033e-05 5.802e-07 -1.2306e-05
9.193e-06 0.00012639 1.079e-05 0.00014329 -0.00016825 -1.1902e-05 -6.4667e-06 -7.1904e-06 -5.757e-06 -0.00013576 0.00082205 0.00072747 0.0001401 0.38046 -0.00029994 8.7615e-05 -1.3189e-06 -4.4524e-07 -3.1895e-05 -0.00012904 -0.00014658 0.0056388 -0.37212 -9.9281e-06 -5.2164e-06 -9.8259e-06 5.4831e-05 0.34312 -2.5425e-05 -0.00063342 0.0022265 -8.6827e-06 0.0012144 -6.6474e-08 0.00087645 7.8028e-05 0.00055727 0.0011795 0.15882 0.00095435 0.0048789 3.5163e-06 -0.00017229 -4.1819e-05 0.00056076 -0.00011981 3.0365e-05 -0.0001562 -1.8927e-05 0.002832
-9.8985e-06 0.15764 2.9696e-07 3.1248e-06 -1.1495e-05 -6.8482e-07 8.051e-06 -1.0306e-05 8.2617e-06 1.2452e-05 -6.4614e-06 -1.9063e-05 -2.9182e-05 -3.2749e-05 3.1239e-06 -1.1892e-06 8.197e-08 -1.4039e-06 5.8426e-06 3.6606e-06 -5.6032e-05 -0.00026996 3.1938e-06 1.0184e-05 -4.0588e-05 0.00018405 -1.9954e-05 0.34939 -1.2828e-05 0.41541 9.0876e-06 -5.1242e-06 -4.9192e-05 -1.1231e-07 -0.00026006 0.31166 6.6586e-06 -5.9963e-05 0.16838 9.9865e-07 -1.7363e-05 0.46805 -0.00011842 -0.00018928 -4.1006e-06 -2.8311e-05 2.0913e-05 -0.00015095 -0.0001739 -0.00010871
5.9857e-06 -1.855e-05 4.0147e-07 5.4599e-06 -6.6314e-06 1.056e-07 3.9076e-06 6.1893e-06 3.2599e-05 -1.4463e-05 -0.00016204 -0.0011985 0.00017038 -2.7347e-06 0.00019526 2.6152e-05 4.9507e-06 1.0084e-06 8.2195e-07 -0.00093314 0.00011419 -0.00027878 1.7937e-05 -1.8882e-05 2.7888e-05 -3.7014e-05 0.00010495 -3.8049e-05 -0.0001141 1.7374e-05 1.0653e-05 -9.027e-06 -7.9288e-05 1.1056e-08 0.00022068 -1.0237e-05 0.36454 -8.0465e-05 0.00052235 0.0001836 2.3905e-05 -1.688e-05 -1.1579e-05 -5.2327e-06 -4.5821e-06 3.78e-06 -9.0057e-07 0.28666 -7.1738e-06 8.8584e-05
2.4608e-06 0.44264 -4.5835e-06 -1.0072e-05 -1.6922e-05 1.0709e-05 1.5642e-05 7.2768e-05 0.00016193 -1.2721e-05 0.0002638 0.0010505 -0.00080863 -0.00023685 -1.3894e-05 -3.2728e-06 8.0982e-07 -5.9187e-07 -2.244e-05 -0.00017067 -5.9212e-05 -0.00019849 7.1045e-05 -5.0898e-05 -9.0821e-06 0.0043797 -0.00028958 -5.5868e-05 0.0011991 4.529e-05 -0.00027934 -0.00020502 -0.0001808 3.8336e-06 -1.1441e-05 -2.794e-05 0.001307 0.49906 0.0014825 3.5312e-05 -0.00039597 -2.0271e-05 2.6824e-05 -4.1095e-05 2.6679e-05 1.4174e-05 5.4854e-06 0.01084 -1.2955e-06 0.00019491
-1.1425e-06 2.4104e-05 2.805e-05 4.1338e-06 0.00016199 -1.2802e-05 5.9962e-07 -1.0872e-05 1.3414e-05 -7.6723e-06 1.3964e-06 -6.4295e-05 0.59851 -0.00010313 1.9571e-06 0.00053751 -3.1967e-05 5.8364e-07 0.00013829 0.00098806 -9.5183e-05 0.0013382 1.5136e-05 -3.6908e-05 1.1766e-06 0.00035567 -0.00020386 -4.6265e-05 4.9325e-05 3.7918e-06 -0.00019276 -0.00019496 -0.00011673 -4.7333e-08 0.0030265 0.00048238 -3.7271e-05 0.0075483 0.00049896 -0.00010949 -3.2117e-07 -4.0089e-05 -0.00029033 -3.2103e-06 -4.8296e-05 1.5883e-05 1.2426e-06 0.00015701 -6.4382e-07 0.0054039
0.21322 0.00010264 0.314 3.5608e-05 0.00026234 9.5899e-06 0.043457 -4.2067e-06 -2.3553e-05 9.0118e-05 0.00071113 0.00042096 0.00045069 0.0012615 -0.00025524 0.32828 -1.149e-05 5.3623e-07 -1.4254e-05 0.00086218 0.00078643 0.0049135 -0.00020122 -7.6162e-07 1.6657e-06 0.00014632 6.6717e-05 0.00033799 -1.7578e-05 -0.00022886 0.0021473 -5.3231e-05 0.24747 -2.3764e-08 0.00065141 8.928e-05 0.00074111 0.0022218 0.13692 0.0019662 0.004386 -5.7125e-05 8.3502e-05 0.0012852 0.00051077 -6.9966e-05 -0.00022131 0.00949 -5.3769e-05 0.00081612
-0.00020922 0.00010908 1.537e-07 5.9526e-05 0.00033493 3.6717e-05 -0.00045798 -9.2713e-06 -1.2848e-05 3.3356e-05 -1.2606e-05 0.00063632 0.34321 0.0020565 6.8091e-06 0.32528 -1.2791e-05 -4.4375e-07 0.00050411 0.0012258 -0.00011453 0.0048976 -3.9329e-05 0.00018237 -8.023e-06 6.449e-05 6.5668e-05 -6.2679e-05 -4.237e-05 1.8572e-05 0.0044178 0.0006727 0.00062181 -4.4014e-08 0.19666 -0.00015432 0.00048072 0.010453 0.00043342 0.00086009 -5.6381e-05 -6.9638e-06 -0.0005888 1.8639e-05 0.00047576 2.2045e-05 -1.0483e-05 0.0033297 1.2961e-06 0.17877
0.31668 9.3053e-06 0.21958 -4.2747e-06 -7.9119e-06 3.1778e-06 0.32386 1.8253e-06 -6.5322e-07 -4.1937e-06 4.2428e-07 1.812e-05 -1.6034e-05 8.1381e-06 -9.6975e-06 1.5316e-05 -1.0534e-05 7.0305e-07 -5.3997e-07 3.8021e-06 -3.0897e-06 5.2167e-05 -1.8458e-05 -1.8867e-06 0.62201 -0.00012419 -2.9388e-07 9.5034e-05 7.8065e-07 0.4574 6.1301e-06 1.0354e-06 -4.2376e-05 1.0375e-07 4.0761e-05 -0.00022681 -1.5674e-05 2.751e-05 -0.00053855 -2.6417e-06 2.5419e-05 0.0011409 -3.4685e-05 -0.00011592 -1.294e-06 0.00011682 -4.6477e-06 1.5954e-05 1 6.7637e-06
0.30421 -1.0782e-05 0.21078 -2.2859e-05 0.21172 9.2685e-06 0.3111 -2.7143e-07 1.499e-06 -2.8026e-06 1.3533e-06 7.7332e-07 -2.732e-05 1.6431e-05 1.0493e-06 1.2439e-05 -1.0792e-05 -2.0075e-06 -7.7242e-06 -2.4671e-05 -2.3459e-05 7.783e-06 -0.00019575 -7.3975e-06 -2.5909e-06 5.4957e-05 -2.9365e-07 -1.3973e-05 -1.7474e-05 -5.4303e-05 -7.2431e-07 -2.516e-05 -8.5079e-05 1.1809e-08 -5.4668e-05 4.0659e-05 -1.1894e-05 -3.9102e-05 -4.1056e-05 -1.5819e-05 -3.5259e-05 -0.00013407 -9.069e-05 0.49376 1.9256e-06 -0.0002109 0.6379 -1.8811e-06 -1.9777e-05 -1.4681e-06
2.6652e-05 0.00021274 1.8909e-05 0.25637 -8.2001e-06 -5.3822e-05 6.0738e-05 1.7224e-05 -4.8872e-06 -3.552e-06 -1.0024e-05 0.25315 8.0773e-05 0.00062979 0.00061213 -1.3425e-05 2.6638e-06 -5.4561e-05 1.6115e-06 -6.7988e-05 0.00011575 0.24419 -4.8248e-05 4.0738e-06 5.9504e-06 4.6883e-06 0.29686 6.9595e-05 0.00012466 -5.7864e-05 0.30511 -5.5382e-05 0.30941 -6.9718e-07 0.00011958 -6.2379e-05 0.00083995 -0.00010367 0.15692 0.24421 3.6112e-06 3.8089e-05 -0.00016793 -1.8709e-05 0.69524 1.6276e-05 9.7484e-06 2.4892e-06 -2.203e-05 0.0040992
-2.7592e-06 -7.506e-06 -1.1923e-06 2.6907e-06 -3.3432e-05 6.9304e-06 -3.2702e-05 3.3709e-07 3.2265e-06 5.0006e-05 -5.7291e-06 -2.77e-05 -0.0002354 0.34719 3.7613e-06 -1.7039e-05 4.0952e-06 -7.688e-07 -1.4985e-06 -8.5865e-05 0.00053695 -6.1657e-05 5.5204e-06 -1.1067e-05 2.6885e-06 1.0054e-05 8.3141e-06 0.00050804 -1.6109e-05 -8.3252e-05 -0.00010075 -3.5109e-05 -5.6516e-05 -4.0134e-08 0.18985 -6.8211e-05 -5.8344e-05 -0.00023067 -0.00021096 2.4459e-05 -3.0273e-05 -3.563e-05 6.9816e-05 3.6096e-05 -2.4593e-05 -7.5761e-06 4.7774e-06 0.00027808 2.8326e-06 0.19103
3.0213e-06 -6.1358e-06 1.1378e-06 -6.6348e-07 0.27513 -2.4492e-06 1.488e-05 1.7764e-05 -7.4488e-06 0.00015181 0.00057137 -6.1581e-05 -0.00070028 -1.3496e-05 -0.00011577 5.8904e-05 1.9202e-06 -1.4159e-06 0.00028455 -0.00024032 0.00045883 -3.8454e-05 -0.014972 -6.2237e-05 1.9325e-06 -0.00022792 -1.1619e-05 0.25168 0.35711 -0.00045067 -0.00014349 -0.00010498 0.00034994 1.3621e-06 0.16197 -1.2871e-05 -3.3493e-05 0.26056 0.00076691 -0.00020689 0.29185 5.1908e-05 -0.00010882 0.00015979 1.4156e-05 1.9501e-05 -0.0002531 -0.00035237 7.2717e-06 0.15556
-2.2974e-05 8.1272e-06 0.29794 6.3622e-06 -1.0414e-05 -3.6174e-06 -1.8675e-05 -4.1544e-06 -7.346e-06 9.1111e-05 1.9017e-06 0.00033952 0.42956 0.00023943 -4.6731e-05 -2.0871e-05 0.00039806 2.4715e-08 -5.4705e-05 -0.00039189 0.003996 -8.5895e-05 8.1194e-05 -2.4127e-05 7.1714e-06 4.6997e-05 0.0014343 0.0016609 -6.9875e-05 -0.00026062 2.1097e-05 0.0065674 7.5212e-05 6.3681e-08 0.018155 -5.8493e-05 -5.0192e-05 -0.00094893 0.0005739 6.3368e-05 -9.2869e-05 -8.1484e-05 0.47921 -2.9753e-05 -1.9936e-05 -0.00010316 1.889e-06 0.00034291 2.1436e-05 0.0045349
-6.3941e-06 0.22117 1.3976e-05 -1.5347e-07 -1.171e-05 -3.4429e-05 -9.8548e-06 -1.7525e-05 5.9034e-05 -2.9301e-05 5.4436e-06 -6.6785e-06 -8.9101e-05 -7.968e-05 4.6677e-06 0.00040833 4.5074e-06 -1.289e-06 1.5544e-05 0.00072754 -0.00010004 -0.00010881 -1.386e-05 -1.7366e-05 -1.4068e-06 0.51679 1.1472e-05 -1.5017e-05 -0.00018471 -9.413e-05 -9.0562e-05 -1.8914e-05 -7.9105e-06 -1.2351e-07 0.003395 -9.1956e-05 -0.00018091 0.0076597 0.22918 -0.0001448 -7.0516e-05 7.9245e-06 -2.4822e-05 1.7011e-05 1.0536e-05 7.7307e-06 -5.6497e-06 0.44524 -4.5016e-07 0.0037272
0.47733 1.0849e-06 0.33087 -4.3769e-06 -7.938e-06 1.9971e-06 0.48803 8.6742e-07 -4.7483e-06 -4.2194e-06 -2.5745e-07 -1.9612e-06 -2.8004e-05 1.7003e-05 1.5585e-06 -4.1617e-06 -1.7398e-05 1.011e-06 -1.5063e-06 -1.5343e-06 -3.376e-05 1.244e-06 -3.5071e-05 3.7359e-07 4.4055e-06 -4.1072e-06 -4.5754e-07 6.4612e-05 2.0991e-06 -3.0472e-05 1.3811e-06 -1.8188e-05 -6.7357e-05 5.509e-08 -1.0442e-05 -1.1159e-05 -7.2202e-08 7.0795e-06 1.4374e-06 -9.8237e-06 1.2902e-05 -4.0652e-06 -7.2589e-05 -6.8092e-05 1.5098e-06 0.52514 2.2881e-05 -7.2602e-06 1.7089e-06 -4.3851e-05
1.3671e-07 -3.0031e-06 2.9594e-05 1.6035e-06 0.00023899 -1.4281e-06 1.3087e-07 -1.0209e-06 6.7232e-06 7.5082e-05 2.6564e-07 2.8035e-05 0.0035859 1.0173e-05 -8.8295e-06 0.00038376 -1.3642e-07 -4.352e-08 -4.2511e-06 0.0011792 0.0011855 0.00010416 7.6305e-05 -1.0811e-06 5.9385e-07 -1.3581e-05 1.4355e-05 -5.7205e-05 -2.5008e-05 1.7196e-05 2.7671e-06 -2.7609e-05 1.1132e-05 1.1064e-07 0.015379 -3.5284e-05 -4.7579e-05 0.0022892 -0.00012352 9.3409e-05 -8.489e-05 3.9742e-06 -0.00016509 -4.0506e-06 7.3223e-08 4.64e-06 -8.1238e-06 -1.1774e-06 2.1198e-07 0.0036192
6.1575e-06 0.00013993 -5.6531e-06 9.1913e-05 5.5674e-06 -3.1902e-05 4.7317e-06 -1.9867e-06 -7.4604e-06 0.39 -1.0939e-05 0.00095678 0.00046884 0.0010515 1.3663e-05 1.2077e-05 5.7871e-07 2.3034e-06 -4.3779e-05 -0.00018975 -4.5109e-06 0.33265 -0.00018505 -1.6814e-06 -1.1796e-05 -1.0348e-05 0.00019161 3.6238e-05 -0.00014147 -5.8289e-05 0.0029141 -4.4134e-05 0.00083999 -1.1936e-07 0.01169 0.0037998 0.00066678 -0.00024864 0.0012068 0.0063331 0.0003017 -7.8413e-05 -5.3175e-05 -2.8538e-05 0.00075538 -6.0475e-06 -2.9753e-07 -0.00012487 -6.6783e-07 0.0025912
-9.9779e-07 2.9189e-06 -3.4959e-06 8.1438e-07 6.4267e-05 -1.2967e-06 1.3097e-06 0.00012104 -8.9023e-06 0.48863 0.41481 6.8161e-06 2.053e-06 1.605e-05 7.3236e-05 -1.2002e-05 2.6678e-07 -6.1403e-07 -5.7149e-05 1.6296e-06 -1.4515e-05 -2.6423e-05 0.00031302 1.2583e-06 1.6169e-06 8.6387e-06 -2.7539e-05 0.00010157 0.0038792 3.0068e-05 -2.0843e-05 1.7041e-06 -0.0001219 -2.351e-06 -5.5287e-05 5.0175e-05 2.6324e-05 -0.00039273 -3.7867e-05 8.6494e-06 0.61765 4.6121e-05 8.7456e-05 -4.237e-05 -1.9566e-05 1.0187e-05 -9.7851e-06 -2.9414e-05 -1.4716e-07 -8.6542e-06
2.448e-06 0.00017913 5.8505e-06 4.5009e-05 0.00016868 3.3414e-06 6.7455e-07 9.7622e-06 -1.1031e-05 6.2949e-05 -0.00017246 0.00061731 0.00055417 0.00056517 0.00013308 0.00019015 2.5432e-07 2.5908e-06 1.5302e-05 -0.00010117 9.685e-06 0.0043269 0.00018154 1.0204e-06 1.0892e-06 2.2512e-05 0.0001796 1.1126e-06 3.7542e-05 -8.5281e-06 0.0021421 -1.5209e-05 0.0006735 -4.8321e-07 0.0011206 7.0272e-05 0.0010309 -0.00056307 0.00061185 0.00088469 0.52089 -1.0304e-08 -6.234e-05 -2.3531e-05 0.00041801 -5.8352e-07 -2.3021e-05 -2.5303e-05 -6.0773e-06 0.005931
4.2953e-06 0.00010637 0.00012726 4.1891e-05 3.116e-05 -2.2025e-07 0.0001381 -6.8902e-06 9.1759e-07 0.00014453 -8.3812e-06 0.00064437 1.0027e-05 0.0010704 1.4558e-05 5.2877e-06 5.454e-06 -1.1126e-06 6.421e-06 -0.00023333 0.0007761 0.0067297 -0.00011215 -2.7146e-06 -6.8752e-06 0.0001482 -0.00024896 5.7701e-05 -9.515e-06 -4.0718e-05 0.0020205 -3.6144e-05 0.00087728 -1.8597e-07 0.17347 -0.00012491 0.00043701 0.00037213 0.00079396 0.20368 1.6313e-05 -4.593e-06 0.00016434 -2.796e-05 0.00046768 0.00020159 -1.3922e-05 0.0030198 -8.2397e-07 0.17374
4.4826e-08 1.9378e-05 -4.5566e-08 -5.6886e-06 -5.8013e-06 1.8107e-06 -5.8627e-07 2.4138e-05 -5.4545e-06 0.0003477 6.5954e-07 3.6906e-05 -8.1584e-06 8.6488e-06 -1.8856e-06 -9.5161e-06 4.6571e-06 6.3024e-07 6.2732e-06 -2.6435e-06 -1.5831e-05 3.926e-06 -1.2809e-05 -3.5368e-05 -1.8497e-06 7.1197e-06 -5.6228e-06 2.3167e-05 0.0036127 1.3174e-05 0.00012268 3.7217e-05 1.4068e-05 -2.9522e-07 0.00026057 8.0926e-06 -0.00017459 -9.2191e-05 -0.00017308 0.00015646 -9.2199e-05 5.0242e-06 1.4471e-06 6.8296e-06 5.2829e-07 -7.4324e-07 -1.4782e-06 0.49687 -1.3644e-06 0.0010396
3.8917e-06 0.25398 9.5616e-06 6.3356e-06 -3.2408e-05 -1.4235e-06 4.2856e-05 2.6883e-05 0.69627 -1.788e-05 0.20363 0.20967 -0.00049558 -0.00018702 0.00021033 9.5941e-05 2.2202e-06 2.0601e-06 1.2589e-05 -0.00018895 1.6906e-05 -0.00015072 4.0911e-05 -5.5621e-05 2.1528e-05 -0.00029735 -0.00010472 -5.3398e-05 0.00055412 3.7967e-05 -0.00016707 -8.9454e-05 -0.00029293 2.0876e-06 -4.9101e-05 -4.4235e-06 0.32028 0.28743 -2.7773e-05 0.00020001 -0.00039603 5.9747e-05 1.817e-05 4.4175e-06 0.00018645 9.6237e-06 5.0533e-06 0.25324 -9.5728e-07 2.7121e-05
1.4711e-05 2.1485e-05 1.1488e-05 -6.6409e-08 0.00028982 -3.4642e-05 2.0555e-05 1.7901e-05 1.1031e-05 5.9129e-05 0.00076023 5.4012e-05 -0.00036381 7.8626e-05 -0.0002745 0.00037776 2.9228e-06 1.1059e-07 -1.676e-06 0.00023073 -5.8213e-05 0.00016853 -0.00041203 -5.536e-05 1.2523e-05 -0.00029611 0.27598 0.00036916 0.0001178 -0.00017446 0.0030589 -0.0001193 0.0047614 2.8827e-06 0.0027098 6.7324e-05 0.00025884 0.31839 0.0021682 0.0013961 0.0046114 -4.0085e-05 -3.5036e-06 -6.2306e-05 -6.6894e-06 4.0961e-06 -1.1162e-05 0.0059178 -4.7876e-07 0.0035747
-2.5712e-06 6.0713e-06 5.1785e-05 -1.9282e-06 4.7965e-06 -7.0441e-06 -2.515e-05 -4.7662e-07 6.5111e-06 0.00065917 7.2688e-06 0.00026001 -5.3867e-05 8.2413e-06 -1.2978e-05 -7.1992e-05 6.6285e-06 -3.9595e-06 4.4365e-06 0.46318 -0.00051204 -1.4671e-05 -9.3334e-06 1.0072e-06 4.5964e-06 9.5683e-06 -2.018e-05 1.3479e-05 7.3173e-06 -1.7181e-06 0.00014507 -5.1217e-05 -0.0005591 -4.6887e-10 9.413e-05 1.6884e-06 3.9345e-05 -7.8835e-05 -1.8589e-05 3.0711e-05 1.3063e-05 7.8793e-07 0.00017726 -2.4269e-05 -4.9028e-06 -2.7741e-05 3.5781e-08 8.6512e-05 -2.0315e-05 0.00046355
1.111e-08 -1.1648e-07 1.4961e-08 -2.708e-07 -1.9871e-06 -7.4119e-07 -1.8491e-07 0.85756 -1.194e-07 -1.3328e-05 -1.9069e-06 6.3276e-07 -5.8031e-06 1.8358e-06 -2.1728e-06 1.0294e-08 4.1069e-08 1.4685e-07 4.0839e-07 -4.9587e-07 8.4415e-07 -3.1574e-06 -1.4273e-06 4.5861e-06 1.718e-07 -4.8563e-07 -8.9092e-07 -5.264e-05 -7.9264e-06 7.4589e-06 -3.824e-09 -9.8651e-07 3.3522e-06 1 -7.9674e-06 8.2025e-07 3.7931e-05 2.5162e-05 -7.1718e-06 8.6497e-06 -1.5674e-05 3.1019e-06 -2.6188e-06 2.195e-07 -2.2815e-07 4.2362e-06 -1.2211e-06 -1.9423e-07 3.227e-07 -2.5412e-05
-4.0789e-06 0.10383 0.12408 0.17548 -0.00033259 -2.2597e-05 8.5628e-06 1.3915e-05 0.28317 2.5696e-05 -1.2336e-05 0.00045809 -3.6852e-05 0.00050683 1.6852e-05 1.8241e-05 -3.6143e-06 -3.5068e-05 -1.862e-05 -8.5068e-05 -0.00011266 0.16693 -0.50968 2.9674e-05 -8.6071e-06 -1.9096e-05 -0.00012292 0.0070652 6.1725e-05 -0.00027546 0.0014897 -1.5588e-05 0.00042178 -6.0675e-07 0.14193 -0.00011929 0.00080854 -0.00035541 0.00022105 0.16558 -0.00037879 -5.7758e-05 0.0028917 0.0013098 0.00037127 -0.00011444 1.229e-05 -0.00017003 -1.5774e-05 0.1467
-5.4497e-06 0.17516 -1.3187e-07 -4.2926e-07 0.0021765 -2.29e-05 3.6805e-05 -9.3368e-06 -4.3185e-05 1.3467e-05 -6.8709e-06 -1.8741e-05 -4.875e-05 0.00028464 3.1533e-06 -3.9992e-06 1.842e-07 1.36e-06 5.8114e-06 -5.2487e-06 -5.2845e-05 -0.00028072 4.2701e-05 -1.6018e-05 -7.9249e-05 0.00012297 -1.3656e-05 0.38738 -1.8111e-05 0.46331 7.3117e-06 -1.7848e-06 -1.4842e-05 -1.2209e-07 -0.00030771 0.34677 6.1589e-06 -0.00033478 0.18547 -1.6812e-05 -1.7537e-05 0.52122 -0.00013179 0.0093127 3.1853e-06 -2.1567e-05 -0.0072816 -0.00014275 -0.00021745 -0.00012945
-2.5057e-06 5.0631e-05 6.8072e-06 -2.5163e-06 0.00012367 0.00015068 7.2657e-06 0.0002349 -1.7615e-05 0.00011338 -1.6538e-06 -7.4652e-05 0.00045769 0.001676 5.1727e-06 0.00011044 1.7887e-07 -1.6289e-06 0.00051638 -6.6375e-05 1.0802e-05 -0.0010611 -7.1126e-05 0.0002705 2.5797e-06 -3.4019e-05 0.012966 -5.315e-06 2.6571e-05 6.9473e-06 0.0038492 0.33847 4.0226e-05 3.2334e-06 0.0014879 2.0374e-05 4.3629e-05 0.0070687 -8.2264e-05 0.00016153 -6.1092e-05 1.05e-05 -5.5726e-05 -3.2767e-06 -7.146e-05 5.7777e-07 -2.4142e-05 -2.7389e-06 5.8142e-07 0.00071116
-1.2078e-05 0.30644 6.94e-07 9.9878e-09 -1.6655e-05 9.1535e-06 -1.399e-05 -8.8018e-07 5.7058e-05 2.7722e-05 -5.802e-06 -1.2396e-05 -1.47e-05 3.5577e-06 3.2388e-06 5.4092e-06 8.0335e-08 -1.8765e-06 9.0833e-06 1.233e-05 -4.1539e-07 -0.00010098 7.7868e-06 2.3524e-05 3.5489e-06 -7.7866e-06 6.1919e-06 -1.5189e-05 1.4206e-07 -0.00028064 3.3045e-05 1.4156e-05 -3.2497e-05 -7.2349e-08 -0.00020492 0.60214 2.2207e-07 1.3507e-07 0.31528 -4.6297e-05 -4.2702e-05 0.00013412 4.8378e-07 0.00012376 2.0975e-05 -5.6159e-07 6.8919e-06 -2.7683e-05 -1.1363e-06 -0.0001613
-2.4766e-06 0.00016016 9.9914e-06 -8.3621e-06 5.7184e-05 0.001723 7.0972e-06 0.00022398 -3.1681e-05 0.00010756 -4.4189e-06 -7.8729e-05 0.00055827 0.001616 4.397e-06 2.1316e-05 5.9996e-08 1.757e-06 0.00045934 -3.2719e-05 -9.0626e-07 -0.0016736 -6.6663e-05 0.00026448 3.442e-06 0.0019064 0.015337 -1.1617e-05 9.5451e-05 1.4913e-05 0.0069807 0.0048228 7.907e-05 3.0732e-06 0.0018766 0.0007668 4.0109e-05 0.0068593 -0.00015747 0.00014622 -2.4965e-05 -2.3417e-05 -1.8294e-05 5.1669e-06 -8.4234e-05 -6.6649e-07 -5.1042e-06 -3.6236e-05 2.8392e-06 0.0011654
-3.142e-06 2.6248e-06 9.4504e-08 6.0853e-06 8.3181e-05 1.8913e-05 8.7579e-06 -8.1508e-06 -7.2866e-08 4.7725e-07 -1.5747e-06 -1.4982e-05 0.00069357 0.0019079 -4.3971e-07 1.9724e-05 3.8852e-07 -1.8476e-07 0.00070937 -2.177e-05 1.8776e-06 -0.00014078 7.237e-06 0.00028522 1.0635e-06 -2.5869e-05 0.00022792 -1.1555e-05 -3.886e-05 2.5741e-06 0.0033095 0.0011392 3.1214e-05 6.8366e-08 0.00065221 7.8232e-06 -4.3228e-05 0.0078927 -5.5222e-05 2.1888e-05 -4.7276e-05 4.6473e-06 0.00053079 2.8143e-06 -6.5228e-06 1.9937e-06 -6.3304e-06 5.5233e-06 -2.0172e-07 -2.2297e-05
-2.0919e-06 -6.7591e-06 2.7083e-06 -1.4074e-06 0.31414 1.235e-05 2.0253e-06 7.154e-05 -7.8386e-06 0.00089952 -7.408e-06 -2.2049e-05 -9.3875e-06 -8.0617e-05 1.0467e-05 -9.0015e-07 2.4814e-07 -1.7967e-06 0.00030554 -2.1164e-05 -4.5694e-07 -9.0596e-05 -0.017288 -1.6414e-05 7.6926e-07 3.441e-05 0.00033517 0.00043665 0.8188 -8.1624e-05 0.00052716 -1.1553e-05 1.5529e-05 -1.2814e-06 0.0018211 -1.6314e-05 -9.1797e-05 0.00046656 -4.0618e-05 4.292e-05 0.0047042 -2.4498e-05 2.2229e-05 0.00028503 8.5592e-06 8.7529e-06 -0.00023418 0.0016247 9.494e-06 0.00068101
-4.0187e-06 0.14976 0.00019165 1.7291e-06 0.17971 -3.2546e-05 -8.5212e-06 1.1569e-05 6.4895e-06 3.1751e-06 7.4893e-07 -1.6182e-05 0.00029916 -4.7272e-05 3.2863e-07 4.2386e-05 4.5242e-06 -4.5659e-06 -0.00036986 0.00032601 7.1261e-05 0.00049645 -0.00014839 -1.6305e-05 -3.3301e-06 0.34671 -7.2161e-05 5.9189e-06 9.4236e-05 -5.5386e-05 1.9447e-05 0.65042 -5.2116e-05 -9.2379e-07 0.21934 -0.00022308 0.00080666 -0.00081823 0.15598 -0.00023523 -3.2072e-05 -7.5994e-06 0.00079816 -5.244e-05 2.9251e-05 -1.1744e-05 4.1796e-05 -9.2017e-05 -9.0681e-07 0.20636
-1.0625e-19 -1.1107e-21 2.2901e-20 4.1294e-22 2.3167e-19 3.985e-21 -5.0906e-20 3.5784e-22 9.1779e-23 8.87e-21 1.1866e-22 -1.2661e-20 1.6995e-21 8.6462e-21 5.2691e-22 5.7622e-22 6.1866e-23 2.0725e-21 -1.0447e-21 -1.0127e-20 5.6582e-21 7.1538e-21 -7.422e-21 6.3311e-21 1.5244e-20 -1.493e-20 -6.3096e-23 -1.3197e-19 1.8189e-21 7.9313e-20 1.0525e-21 1.1409e-21 3.6799e-19 1.13e-24 -3.3723e-21 1.9781e-20 -1.4186e-22 -1.2886e-20 -1.3397e-19 -1.4449e-21 -2.4611e-22 -9.6451e-21 1.1573e-21 2.0807e-17 3.8681e-22 1.1582e-16 -1.3439e-16 5.4874e-21 1.3909e-19 8.9593e-21
7.7747e-06 0.00015086 9.5638e-06 0.37656 5.8002e-06 -1.6984e-06 1.7506e-06 -9.2688e-07 8.2542e-05 5.3451e-05 -1.663e-05 0.0009956 0.00027427 0.0011093 2.109e-05 1.5805e-05 4.7343e-08 -7.3823e-05 -4.5642e-07 -0.00020499 -3.5876e-05 0.36007 -0.00046325 -1.4802e-06 -1.4805e-05 -1.6124e-05 -0.00019756 0.0001242 -2.0355e-05 -2.1435e-05 0.0032032 -2.0346e-05 0.00094547 -1.3355e-08 0.0002287 -4.7306e-05 0.00062053 -0.00019994 0.00013894 0.0022475 0.00011226 1.5359e-06 -3.0626e-05 -1.2649e-05 0.00087383 -8.4258e-06 1.4024e-06 -7.1361e-05 9.9912e-07 0.00045939
-1.2808e-05 5.5343e-06 0.21475 5.7477e-05 0.00010755 2.2223e-05 -1.4658e-05 9.483e-07 7.9008e-05 1.9778e-05 -2.501e-05 -0.00010342 -0.00024441 -1.2882e-05 1.9331e-05 -4.4215e-06 -6.2392e-06 -1.7302e-06 -3.4242e-05 -7.0406e-06 -4.7293e-05 -0.00015212 -0.44547 -2.046e-06 2.5038e-06 4.5349e-06 0.014258 0.00032688 5.7895e-05 -2.9239e-05 0.0005169 0.0015944 -2.8002e-05 -2.644e-07 0.24611 -9.4612e-05 5.9305e-05 0.00023031 -0.00022829 0.28451 0.00079494 -2.4125e-05 -2.8985e-05 -8.0372e-05 -8.8368e-05 1.6465e-05 -0.0001166 -0.00015203 -1.5443e-06 0.24186
-2.1412e-06 -8.1376e-06 3.127e-06 -1.4913e-07 0.48218 1.114e-05 3.4945e-07 -6.3645e-06 -5.8085e-06 -8.2241e-06 2.1085e-07 -2.9141e-06 -2.6974e-05 -0.00026927 8.7025e-07 6.6065e-05 1.7932e-07 8.8809e-05 0.23683 -8.2089e-05 -4.6802e-06 4.4182e-05 -0.00042182 3.1186e-06 1.2851e-06 1.1798e-05 0.00027848 1.9383e-05 9.9763e-05 -4.8252e-05 0.00040186 0.00025436 -3.4517e-05 -2.6536e-08 -2.5974e-05 -4.0217e-05 -4.26e-05 0.00096919 -2.0578e-06 0.00011514 -7.1199e-05 3.8846e-05 1.3947e-05 -0.00018833 -3.1876e-06 -1.1055e-06 4.9258e-05 6.0397e-06 7.0332e-06 0.00043107
-0.00044917 0.26423 5.3004e-06 -1.8027e-06 8.3303e-05 0.43438 -0.00095809 -1.3573e-06 9.6463e-06 6.3377e-06 -9.232e-06 -1.3859e-05 1.0586e-05 -1.236e-05 6.3167e-06 0.66022 -1.0001e-06 -1.7792e-06 0.00034594 9.928e-05 1.0655e-06 -5.8451e-05 3.614e-06 1.4685e-05 -1.426e-06 -1.4949e-05 -3.8289e-06 3.7389e-06 -4.1305e-06 -2.5297e-05 -1.9072e-06 0.0010795 6.598e-05 -9.3569e-08 -1.8278e-05 2.8856e-05 -2.698e-07 5.3722e-06 0.27201 8.9002e-06 -2.1233e-05 2.7825e-05 7.9098e-06 8.4462e-05 1.2009e-05 6.8309e-07 -2.6821e-05 -4.4027e-05 -5.6612e-06 2.665e-05
-5.9788e-06 7.1754e-07 -7.4811e-05 1.9639e-05 -5.6944e-06 6.1083e-06 -1.5137e-05 -3.5131e-07 2.39e-06 1.7489e-05 4.1411e-07 1.7422e-05 -4.7923e-05 0.0011492 9.5113e-06 -2.0749e-06 -7.6407e-05 -9.1369e-07 6.0015e-06 0.00021575 0.6209 8.4844e-05 2.5431e-05 3.1463e-06 -2.4756e-06 -8.3039e-05 1.3842e-05 -0.00031019 -1.9829e-06 4.6488e-05 -3.7254e-05 -1.6414e-05 0.00019292 -1.4034e-08 0.0027173 -4.838e-05 -9.2109e-05 -0.00011107 4.0492e-05 0.40489 -1.1981e-05 1.153e-05 0.70261 -8.2286e-05 -1.8814e-05 3.761e-05 6.1099e-06 -6.9232e-05 -2.796e-06 0.0009931
1.2399e-05 2.6527e-06 9.5616e-08 -8.448e-07 -1.3456e-05 3.0607e-05 7.9006e-06 0.00044444 7.0331e-06 0.00020276 -3.4942e-07 -6.3972e-05 0.00034996 -1.0582e-05 3.6382e-06 6.7946e-05 5.05e-06 -7.8792e-07 -4.8499e-06 -1.4214e-05 -7.0146e-06 -4.7141e-05 1.1791e-05 5.0194e-05 1.1893e-06 -7.9635e-06 7.2101e-05 -1.4345e-05 8.8177e-05 -1.4798e-05 8.8753e-06 4.7406e-05 7.0225e-05 5.8151e-06 0.00064846 -3.4622e-05 0.00010646 0.00086295 0.0012709 0.00018078 -5.025e-05 -4.5093e-05 -4.5962e-06 8.5497e-07 -1.7906e-06 5.9764e-06 -1.1677e-06 0.0070805 -5.6098e-06 0.00080091
3.2044e-06 3.4671e-05 0.0002159 -4.526e-05 2.1247e-05 1.4613e-05 0.00036521 -4.8809e-07 -1.209e-05 0.0017991 -8.7969e-06 1.6496e-05 -1.396e-06 1.0524e-05 2.3088e-06 1.1777e-05 5.9501e-06 -1.0412e-06 1.0698e-06 -0.00031326 0.0020876 0.00016383 -5.3512e-05 0.0011626 -1.7282e-06 -1.1737e-05 -0.00014715 -3.4167e-06 -0.00010733 1.1866e-05 -2.3946e-05 -6.266e-07 2.9347e-07 2.1195e-08 -2.0369e-05 1.7909e-05 -0.00033364 -0.00021797 0.00025189 0.0025083 -0.00025149 -4.2973e-05 -0.00034609 -1.0172e-06 -8.7783e-08 4.6146e-06 -4.7047e-07 0.35878 -3.8017e-06 0.00051227
3.2713e-05 0.00013358 1.1178e-05 0.29261 -1.0239e-05 -3.3361e-05 6.3262e-05 7.6089e-07 -1.5018e-05 1.6584e-05 -6.8284e-06 0.2892 0.00011403 0.00074002 0.0006221 1.1699e-05 2.9362e-06 -3.9583e-05 3.8958e-06 -6.1361e-05 -6.0681e-05 0.27762 -2.861e-05 -3.5377e-06 2.9293e-06 1.2526e-07 0.33811 7.1152e-05 -4.2819e-05 -6.7254e-05 0.3473 -9.7886e-05 0.35828 -6.3726e-08 -3.6298e-05 -7.1003e-06 0.00078057 -0.00017058 0.17993 0.2761 -1.4185e-05 -4.5577e-05 -5.9029e-05 -4.5518e-05 0.00089787 1.141e-05 1.4306e-05 -0.0001253 -1.8027e-05 -3.3183e-05
-1.9541e-06 -1.0082e-05 -2.8715e-05 -4.7021e-07 0.00011813 5.8226e-06 2.4144e-06 -2.4043e-06 7.8076e-06 -3.0503e-05 2.9355e-06 -4.5028e-06 1.8547e-05 -8.7286e-05 7.3354e-07 -8.1734e-07 2.4774e-07 -2.2432e-06 0.40532 1.1817e-05 -5.1084e-06 -4.8135e-05 -0.44309 5.3364e-05 6.8909e-07 -1.7462e-05 4.8256e-06 1.3124e-05 0.0024371 8.4516e-06 -1.5581e-05 -0.00038274 -6.661e-05 -4.6244e-08 -0.00016189 1.4963e-06 -4.8668e-06 0.00066355 3.5088e-05 2.6703e-06 0.0040929 -2.1184e-05 9.5301e-06 0.00049222 -8.5373e-06 -9.7114e-06 -0.00024631 -0.00038008 2.8653e-06 0.00046022
-5.2451e-06 8.4005e-05 0.00024102 3.8727e-06 0.00027237 -2.1271e-05 3.0519e-06 -9.4353e-06 -2.4248e-05 0.00024618 -0.00015909 1.0147e-05 -4.0548e-06 -6.8868e-05 4.235e-05 -2.4819e-05 1.1369e-06 -3.6291e-07 0.00033228 -3.6994e-05 0.00044861 6.517e-05 -2.3681e-06 4.5652e-05 1.5732e-06 0.0046477 -8.7198e-06 -1.4005e-05 -2.0923e-05 -3.0068e-06 -2.0223e-06 -0.000156 5.1944e-05 5.538e-08 -0.00026059 -8.1839e-05 6.2189e-06 0.0025677 -1.6278e-05 0.24098 0.0022387 7.8194e-06 -7.287e-05 -5.0559e-06 -2.3466e-05 5.4515e-06 -3.7073e-05 3.4227e-05 -2.7345e-06 0.0070215
-1.056e-28 6.3074e-27 -5.0469e-27 7.7543e-28 3.2512e-27 -3.984e-27 -1.7274e-28 4.833e-28 1.4256e-27 -2.9642e-28 -5.5377e-29 2.9495e-27 6.0464e-27 -2.5484e-27 -3.2826e-29 9.4831e-27 -2.1009e-25 1.9323e-29 5.8696e-27 1.9647e-27 2.6794e-28 5.7629e-28 -1.6588e-28 3.3339e-28 -6.8828e-28 6.7036e-28 1.0098e-27 -1.1408e-27 -4.7943e-27 -4.6765e-28 -9.5221e-27 -1.9726e-26 -5.9051e-27 -1.42e-25 -1.6607e-24 1.8058e-27 -2.1593e-27 -4.317e-26 -1.5502e-28 -7.2913e-26 -3.0575e-27 -1.2765e-27 -1.7208e-26 1.2098e-28 -1.1848e-27 5.1908e-27 -1.9748e-27 -1.0362e-28 -9.4679e-29 1.1039e-23
2.3458e-05 -1.286e-05 -5.0706e-06 -1.6246e-05 0.00021282 0.00018236 -2.9336e-05 8.4416e-06 2.0072e-06 0.00029451 -3.561e-05 -0.0010197 -2.6075e-05 -6.0126e-06 0.00018282 7.8424e-05 4.3714e-06 -9.3687e-07 1.6879e-06 0.36457 0.00087832 -0.00030035 -8.6246e-06 2.9979e-06 4.274e-05 3.1812e-05 0.00012483 0.00060288 -3.4698e-05 -0.00010956 4.1342e-05 -5.1731e-05 0.0011826 -1.0045e-08 -3.7279e-05 -3.9272e-06 0.48163 -0.00023616 -1.4958e-05 0.00016961 -1.2673e-05 -6.6404e-06 -7.1644e-05 0.0019371 -1.5553e-06 -6.3563e-05 -0.00026438 -0.0010064 -3.0427e-05 -5.408e-05
0.47733 1.0849e-06 0.33087 -4.3769e-06 -7.938e-06 1.9971e-06 0.48803 8.6742e-07 -4.7483e-06 -4.2194e-06 -2.5745e-07 -1.9612e-06 -2.8004e-05 1.7003e-05 1.5585e-06 -4.1617e-06 -1.7398e-05 1.011e-06 -1.5063e-06 -1.5343e-06 -3.376e-05 1.244e-06 -3.5071e-05 3.7359e-07 4.4055e-06 -4.1072e-06 -4.5754e-07 6.4612e-05 2.0991e-06 -3.0472e-05 1.3811e-06 -1.8188e-05 -6.7357e-05 5.509e-08 -1.0442e-05 -1.1159e-05 -7.2202e-08 7.0795e-06 1.4374e-06 -9.8237e-06 1.2902e-05 -4.0652e-06 -7.2589e-05 -6.8092e-05 1.5098e-06 0.52514 2.2881e-05 -7.2602e-06 1.7089e-06 -4.3851e-05
-7.0823e-06 -1.2422e-05 4.1399e-05 2.0461e-06 -1.0065e-05 -1.2205e-06 -4.0447e-05 0.00032612 3.9022e-06 6.0786e-05 -1.154e-05 -1.648e-05 -5.9116e-05 -5.3472e-05 3.3119e-06 -3.3677e-06 -1.3087e-06 -1.2561e-06 -2.3035e-06 1.1013e-05 -0.00012992 -0.0001433 1.984e-05 8.8452e-07 1.9738e-05 6.8161e-06 2.3515e-07 0.4175 2.3206e-05 -0.0045062 -1.1204e-05 -5.8822e-06 -1.9147e-06 -3.9073e-06 0.00034848 -0.00042692 -2.766e-06 0.00028637 0.18987 7.7509e-05 -3.3885e-05 -0.00022636 -0.00015508 6.4376e-05 -5.3488e-06 0.34412 -1.8686e-05 -0.00023408 4.4158e-05 0.00028858
-2.5265e-07 -2.7054e-06 4.8552e-08 -4.2293e-06 0.27279 1.0123e-05 -9.3684e-07 -1.2235e-05 5.0293e-05 6.4254e-05 -2.6232e-05 1.7001e-05 -0.00044219 -0.00020411 8.5957e-06 -1.7222e-06 1.9573e-07 1.7029e-05 0.0043558 -9.0841e-05 -3.0882e-05 2.9164e-05 -0.00022348 0.0003011 6.1427e-07 -0.00024577 -0.00012139 -2.541e-05 1.3394e-05 6.9198e-07 -0.00014571 0.01216 -2.0971e-05 2.5458e-06 -9.9705e-05 -6.0355e-06 8.8924e-05 0.25727 -6.8855e-05 1.8186e-05 -0.00022426 3.0567e-05 1.3696e-05 -7.4909e-05 2.2504e-06 6.0107e-06 7.0021e-05 -0.00010496 2.7925e-06 -0.00017058
-0.00037298 7.6878e-05 0.26015 -1.0764e-06 -4.3547e-05 -1.0022e-06 -0.0007904 -2.5802e-06 0.59385 -5.8833e-06 -8.6154e-06 0.0001013 -0.00031371 4.6868e-06 1.4412e-06 0.54302 -4.8803e-06 -3.7277e-06 1.466e-05 0.44862 0.00077659 -1.0792e-05 -2.4963e-05 -1.0792e-05 2.1945e-06 2.1635e-05 2.2746e-05 -1.6719e-05 2.6894e-05 4.1739e-05 2.6492e-05 -8.685e-05 0.00035112 -2.7271e-07 0.29791 -0.00013171 0.0013253 0.0028607 -5.4633e-05 -0.00022478 -7.0212e-05 9.2714e-06 -0.0001786 4.8583e-05 1.0691e-06 -2.852e-06 2.7323e-06 0.00014226 -1.4878e-05 0.29649
-2.6829e-06 -3.8136e-06 -2.2974e-07 3.4511e-05 5.7641e-07 -1.9725e-06 -9.1422e-06 -1.6331e-06 -1.9786e-06 -8.4785e-06 0.43267 0.44677 -4.5167e-05 -2.6796e-05 0.76105 -6.9988e-07 -3.8875e-08 1.6181e-06 2.7272e-07 0.00022189 2.8983e-06 2.1422e-05 6.8734e-06 1.1952e-06 5.3548e-05 -3.4892e-06 9.3582e-05 -3.0516e-05 -2.2646e-05 1.0556e-05 -1.4414e-05 5.1641e-06 7.0138e-05 -4.1701e-08 -1.76e-05 2.6938e-06 -0.0005828 0.00014596 1.0628e-05 2.9657e-05 -5.1831e-05 3.9877e-06 5.0758e-06 4.1625e-06 0.00036058 -1.58e-07 -4.2907e-07 0.00014607 -1.3803e-05 5.7156e-06
1.7365e-08 8.8861e-06 -2.7373e-06 -2.0645e-05 5.3611e-05 1.7888e-05 3.9984e-07 0.00030478 -5.2493e-06 0.55112 4.9368e-06 -1.2046e-05 8.1711e-05 1.6281e-06 -5.3169e-08 6.2649e-05 2.0335e-07 -4.0551e-08 0.0012235 0.00020509 -3.5936e-05 -1.1738e-05 6.8939e-06 3.5048e-05 -3.4477e-08 -2.2344e-05 1.5064e-05 -1.6187e-06 0.0015058 -7.2055e-07 0.00011298 0.00054355 -0.00010406 3.7035e-06 0.00041886 9.7528e-05 -7.245e-05 0.00022973 7.5527e-07 0.0028807 9.3119e-05 -5.1043e-06 0.00010349 -2.8987e-05 -1.9674e-05 3.2848e-07 -1.8573e-05 0.0013414 -1.1979e-07 0.0010122
5.7421e-06 0.1047 1.6402e-05 4.3612e-07 0.25212 -3.1365e-05 1.9993e-05 -6.3681e-06 0.28699 9.1958e-05 -2.8548e-06 -1.4426e-05 -3.2044e-05 0.00026503 -3.7102e-07 -3.2758e-05 1.7337e-07 6.257e-07 2.2288e-05 -6.6348e-05 0.00010796 -8.7461e-06 -0.00021774 5.2697e-05 1.3076e-06 0.24444 -2.5084e-06 -8.1608e-06 -3.8911e-06 -6.1079e-05 -4.2172e-06 -1.3649e-05 0.00019209 -1.3358e-07 -2.3498e-05 -4.53e-05 -1.8507e-05 -0.00016788 0.0001132 7.5157e-05 -7.5695e-05 1.9181e-05 0.00030452 -0.00013507 4.7353e-06 5.9056e-05 -0.00020248 2.7665e-05 5.9928e-06 0.00019446
1.1666e-06 -5.0277e-07 -3.5248e-06 -2.4524e-05 4.8485e-05 -3.346e-05 3.3898e-06 8.1935e-06 7.866e-06 4.2655e-05 0.00072177 -6.5096e-05 4.5322e-05 0.00021335 -0.00027751 6.8979e-05 4.2208e-06 8.772e-07 -9.0968e-06 -6.6865e-05 1.3293e-05 0.00020797 -0.00013818 -2.353e-06 1.2354e-05 -2.6377e-05 0.00020513 0.00013775 -6.9539e-05 -0.0003784 -7.5553e-05 -4.1797e-05 0.00044751 -2.2055e-07 0.20068 0.27015 -2.8048e-05 0.0012909 0.14063 0.0062016 0.0051507 -0.00012031 -9.4799e-05 3.6745e-05 7.1272e-06 -2.0762e-05 1.7204e-06 -4.2282e-05 3.9423e-06 0.18743
-1.2084e-06 4.5653e-06 1.4111e-05 1.0931e-05 0.22026 4.9592e-06 4.9108e-07 -5.0331e-07 -1.1625e-05 2.4979e-06 3.472e-06 -1.4926e-05 8.6409e-05 -5.4265e-05 -1.831e-07 1.8593e-05 3.4524e-07 0.00015899 0.00022714 1.5793e-05 -1.6974e-05 0.001242 -0.00019643 -1.2736e-05 6.6647e-07 0.00011203 -5.6016e-05 -1.2129e-05 3.158e-06 -2.8082e-05 -5.443e-05 -1.2039e-05 -3.4097e-05 -2.4433e-08 0.0001853 0.00037503 -4.0091e-05 -6.3394e-05 0.00032547 0.00015641 -2.4821e-05 -1.5964e-05 0.00019557 -0.00012844 -2.3935e-05 7.8426e-06 -2.1927e-05 -5.585e-06 3.5852e-06 0.00057551
6.36e-07 0.1597 4.9472e-06 0.26983 5.3297e-06 -2.4273e-05 1.0916e-06 2.3627e-05 4.4037e-06 3.3199e-05 -9.3059e-05 0.28068 0.00018412 0.0007721 2.2335e-05 -8.723e-07 1.0447e-06 -4.7586e-05 4.2708e-06 -0.0020617 0.00011982 0.25657 -0.00011996 1.384e-05 -2.2488e-06 2.2422e-05 -0.00039868 9.8391e-05 0.00010538 1.3301e-05 0.0023679 7.9968e-06 0.0022734 -7.3965e-07 6.6338e-05 -8.3175e-05 0.43114 -0.00070317 0.00027493 0.25585 0.0001105 1.1242e-05 -6.642e-05 -3.3778e-05 0.00079831 -5.675e-06 8.7155e-07 -0.00059836 2.461e-05 0.0043453
1.058e-05 0.089277 1.6529e-05 5.0719e-05 6.1723e-05 4.1171e-05 1.2995e-05 2.6626e-05 3.044e-05 0.00022771 0.00011433 0.00083621 0.00067433 0.0016673 -2.2661e-06 5.1794e-05 4.1527e-06 1.9992e-06 0.00032629 -8.4927e-05 9.3229e-05 0.0028414 -5.4874e-05 0.00079635 -6.0103e-06 9.3977e-05 0.00081716 2.2944e-05 0.0019139 -5.0632e-05 0.18189 0.00056742 0.00074711 -4.3105e-07 0.0010172 -4.8424e-05 0.00083692 0.0050649 0.00096694 0.14271 -7.1214e-05 -2.2453e-05 0.00022728 -1.8262e-05 0.00032018 1.0491e-06 -5.2766e-06 0.0099703 -3.5298e-06 0.0011531
7.5883e-06 0.31305 -6.2252e-06 0.00012724 -1.3724e-05 0.51423 8.1432e-06 -1.303e-06 3.1293e-05 7.6682e-05 -1.9496e-05 0.001657 -3.6026e-06 0.0016471 2.6602e-05 8.9847e-06 7.8704e-06 -1.734e-06 1.998e-05 -0.00026279 -6.5216e-05 0.01172 -0.00029736 1.5553e-06 -2.0838e-05 -4.7516e-05 -0.00015884 0.00016028 -1.3052e-06 3.8748e-06 0.0050098 -5.5023e-05 0.001452 -4.8064e-07 0.42428 -0.00018523 0.0012549 -0.00036151 0.00037468 0.0016805 8.0966e-05 8.1006e-06 -9.1748e-05 -3.8647e-05 0.0012144 -1.0425e-05 -1.8405e-07 -0.00019452 -8.0759e-06 0.4215
0.41035 -6.2987e-06 1.3334e-05 0.40166 -3.2965e-05 -3.0379e-07 0.41958 1.3815e-06 3.0768e-06 2.6459e-06 -8.1005e-06 1.0322e-05 -2.6138e-05 0.59288 1.2841e-05 -1.4594e-05 5.2696e-07 -7.4316e-05 -1.447e-05 5.1802e-05 -4.1235e-05 -8.6706e-05 -2.105e-05 -1.3495e-05 3.8324e-06 1.8851e-05 5.2194e-06 -2.1159e-05 1.2831e-06 -4.3185e-05 -0.00027985 -2.4927e-05 -4.4475e-05 2.5225e-07 1.5694e-05 1.4108e-05 -1.5323e-05 -0.00021294 -1.398e-05 0.00020292 3.3438e-05 -4.8465e-05 -3.186e-05 -9.0449e-05 3.0077e-05 0.0064892 -0.0011478 1.9565e-05 6.4693e-06 -2.7188e-06
3.2713e-05 0.00013358 1.1178e-05 0.29261 -1.0239e-05 -3.3361e-05 6.3262e-05 7.6089e-07 -1.5018e-05 1.6584e-05 -6.8284e-06 0.2892 0.00011403 0.00074002 0.0006221 1.1699e-05 2.9362e-06 -3.9583e-05 3.8958e-06 -6.1361e-05 -6.0681e-05 0.27762 -2.861e-05 -3.5377e-06 2.9293e-06 1.2526e-07 0.33811 7.1152e-05 -4.2819e-05 -6.7254e-05 0.3473 -9.7886e-05 0.35828 -6.3726e-08 -3.6298e-05 -7.1003e-06 0.00078057 -0.00017058 0.17993 0.2761 -1.4185e-05 -4.5577e-05 -5.9029e-05 -4.5518e-05 0.00089787 1.141e-05 1.4306e-05 -0.0001253 -1.8027e-05 -3.3183e-05
-3.7881e-06 8.7819e-05 -1.6875e-06 5.1777e-06 5.1702e-05 1.5799e-05 6.7094e-06 0.00018452 -2.5755e-05 8.8365e-05 -2.2087e-06 -7.9505e-06 0.00052454 0.0013002 3.4096e-07 1.708e-05 1.9346e-08 3.1628e-06 0.0003917 1.8601e-05 -7.9736e-06 -0.00010227 -0.0001362 0.70316 4.7574e-07 -3.0884e-05 0.00016779 -1.7208e-05 1.6862e-05 -1.2603e-06 0.0022592 0.00081091 1.3491e-05 2.5362e-06 0.00052192 7.7526e-06 -5.5828e-05 0.0056087 -6.0192e-05 -1.2341e-06 -5.3841e-05 -1.6055e-06 -5.6391e-06 0.00017463 -4.4386e-06 -8.9471e-07 -1.5005e-06 0.00039595 9.0669e-07 0.0016354
1.1583e-06 0.12772 1.4763e-05 -3.8402e-07 -0.00017791 8.0402e-06 3.5517e-06 1.8851e-06 -2.337e-05 0.00039099 5.1907e-07 1.4627e-05 -5.1395e-08 -7.0882e-06 1.7316e-06 -6.3833e-05 2.909e-06 4.5357e-09 -2.5967e-05 4.3856e-05 0.00026296 3.9122e-05 -0.3237 -9.8639e-06 1.6859e-07 -2.8205e-05 7.1555e-06 3.8521e-05 0.001317 2.236e-05 -5.9914e-05 6.8477e-06 0.00064374 -1.7212e-08 3.2474e-05 -2.6784e-06 -3.1093e-05 -0.00012646 0.00047509 5.3256e-05 -0.00030358 -9.7442e-05 -0.00013877 -6.7459e-05 -7.6195e-06 2.8747e-05 3.842e-05 0.25734 -0.0005441 -2.0133e-05
-7.9791e-06 0.0001111 0.00030473 -1.5239e-05 -8.9224e-06 -2.5508e-05 0.00014446 9.9635e-07 1.0177e-07 0.25073 -8.8421e-06 2.8398e-05 0.0007753 0.00011824 4.6586e-06 -2.1959e-05 0.00036286 8.9141e-07 -2.2675e-05 -8.2078e-05 0.33332 0.00053638 3.6279e-05 -1.8257e-05 1.7229e-06 -5.6564e-05 -6.3948e-05 0.29913 -5.5934e-06 -0.00072187 -7.0682e-06 5.609e-05 -0.0001434 -7.2492e-07 0.00042029 6.1467e-06 0.0005204 -0.00025841 -0.00014629 0.00092217 1.9906e-08 0.00014351 0.013362 1.8711e-06 1.0408e-05 -8.1555e-05 -1.1515e-05 0.26995 2.6908e-05 0.0052007
-5.1632e-06 0.19569 -3.6313e-06 1.4352e-06 0.00022483 -4.1449e-05 -8.5537e-06 -1.6885e-06 -5.1758e-06 -3.4699e-06 2.6364e-06 -1.0008e-05 -6.2802e-05 -1.5602e-05 -1.103e-06 2.8056e-06 1.4466e-07 -4.6706e-07 5.5527e-05 2.5029e-05 -2.9188e-05 -3.5167e-05 1.091e-06 7.3149e-06 -1.5561e-07 0.45326 4.4525e-06 4.2909e-05 7.1264e-06 -8.276e-05 -1.8706e-05 5.4403e-05 6.6041e-07 -1.7779e-07 0.00013936 -0.00010328 2.5353e-05 -0.00061385 0.20321 -0.00029232 0.00018885 2.0038e-05 -5.1715e-06 -3.1997e-05 1.2125e-05 4.2748e-06 -5.8256e-06 -7.8048e-05 6.5957e-07 0.0010294
-9.2009e-07 -1.4815e-05 2.1515e-05 1.6221e-05 0.2103 2.854e-06 -1.8756e-05 -2.6489e-05 2.2003e-05 0.00010141 -3.5949e-05 -8.2586e-05 0.003743 0.43879 1.4693e-05 0.0001973 4.9545e-06 -2.0298e-06 0.00059201 0.0016774 1.1665e-05 -0.00015705 -4.3042e-05 0.00018887 5.3733e-06 -0.00034669 -2.5677e-06 -0.00010851 2.6807e-05 2.6853e-05 0.0028972 0.00098676 0.00017481 3.3733e-06 0.25579 -7.4991e-05 -1.1067e-05 0.41022 -0.00029176 1.4018e-06 -0.00050266 9.3432e-07 0.00043496 -6.1604e-05 -3.3299e-05 2.6555e-05 -3.6006e-05 -0.00014103 -2.2015e-06 0.23772
1.9123e-06 0.13027 1.293e-05 4.5845e-07 -0.00011866 -2.3021e-05 4.0769e-06 3.6219e-07 -4.8236e-05 0.00059523 1.7727e-06 5.4675e-05 -3.7093e-06 -1.6757e-05 5.7185e-06 -7.1613e-05 2.719e-06 -5.0259e-08 -2.5567e-05 7.94e-07 0.00029655 4.183e-05 -0.31868 -2.061e-05 5.8247e-07 -9.5032e-05 1.4597e-05 1.8402e-05 0.0013336 2.3309e-05 -4.0363e-05 3.1435e-06 0.004527 -3.0948e-08 -5.0439e-05 -1.2494e-05 -2.4312e-05 0.0003421 0.00052057 -5.061e-05 -0.00034802 -7.665e-05 -0.00014683 -6.9192e-05 -1.0201e-05 1.3248e-05 1.5121e-05 0.26496 -0.00055186 -3.5854e-05
3.4369e-07 -2.2667e-06 -2.6256e-06 5.1076e-05 0.21735 1.2677e-05 3.272e-07 -4.9637e-06 -3.262e-07 0.34235 2.0768e-06 1.5466e-05 -2.178e-05 -3.6338e-05 -1.0951e-06 4.5475e-07 9.8605e-08 0.83151 -2.0999e-05 -2.2325e-05 -5.644e-05 -4.9809e-05 -0.00020062 -3.691e-06 5.5968e-07 1.799e-05 0.00042816 8.8785e-06 1.1944e-05 -2.5494e-05 0.00073166 -1.7125e-05 -3.0609e-05 -1.0336e-07 -3.1397e-05 3.934e-05 -6.8561e-06 -8.0482e-05 -2.3444e-05 2.0272e-05 -0.00013544 1.7237e-05 6.9703e-05 -7.4174e-05 -1.9443e-05 8.6047e-07 3.7757e-05 -8.2282e-05 2.9974e-06 0.0001614
2.7572e-05 8.7122e-05 1.4454e-05 0.26506 -9.7664e-06 -2.6728e-05 6.2767e-05 6.4509e-07 -3.8539e-06 -3.9801e-06 -7.7969e-06 0.26171 8.0198e-05 0.00065523 0.0006328 -3.2773e-06 2.7297e-06 -5.6707e-05 3.4073e-06 -7.3341e-05 8.7614e-05 0.2519 -4.6419e-05 3.1451e-06 6.081e-06 -6.3808e-07 0.30695 5.2055e-05 -3.8989e-05 -6.8727e-05 0.31542 -8.6849e-05 0.31973 -7.2227e-08 -4.2764e-06 -4.3666e-05 2.6698e-05 -0.00016363 0.16219 0.25235 -1.1322e-05 2.7002e-05 -0.0001563 -1.826e-05 0.71877 1.9426e-05 9.563e-06 -2.3993e-06 -2.3623e-05 -6.0879e-05
-2.9664e-06 0.1047 2.2892e-06 -9.5749e-06 2.1434e-05 0.17318 6.1792e-06 0.00015688 -5.7263e-06 7.5463e-05 -7.384e-06 -3.6037e-05 8.0607e-05 0.0010901 9.1855e-06 2.5333e-06 5.3587e-06 -1.1884e-06 0.00033345 -2.6352e-05 -1.1961e-05 -0.0012071 -3.856e-05 0.00018338 3.0149e-06 0.0013174 0.21573 -3.4648e-05 6.5446e-05 4.2751e-05 0.21335 0.0033152 0.00011162 1.838e-06 0.28496 0.00045849 1.3597e-05 0.0046923 -0.0003061 2.6068e-06 -9.2076e-05 -6.7813e-06 -2.9627e-05 -3.4268e-06 -8.5015e-05 -7.5379e-07 -5.2502e-06 -4.7553e-05 -1.7669e-06 0.28265
3.3618e-05 0.15037 1.5227e-05 0.25421 -7.3639e-06 -5.391e-05 7.0492e-05 2.2894e-05 -2.2551e-07 2.1338e-05 -8.5212e-05 0.26711 0.00014877 0.0007114 1.795e-06 6.5217e-06 2.2889e-06 -2.8816e-05 2.7554e-06 -0.0019929 8.9317e-05 0.24216 -2.1508e-05 9.0636e-06 -1.3019e-05 3.4045e-05 -0.00023899 8.3075e-05 9.7128e-05 -1.7344e-07 0.0025672 4.2247e-06 0.31232 -6.8231e-07 1.641e-05 -4.7811e-05 0.40633 -0.00070752 0.0018061 0.24046 5.2075e-05 -4.8267e-05 -6.2637e-05 -8.315e-05 0.00076133 7.0451e-06 1.241e-05 -0.00067103 2.0296e-05 0.0040776
6.856e-07 0.17208 -6.0213e-07 -8.886e-06 0.0002548 1.4414e-05 5.8407e-06 -2.1085e-06 4.3435e-07 3.674e-06 -6.9372e-08 2.3658e-06 -1.649e-05 -1.7971e-05 3.37e-07 9.7977e-08 1.5392e-07 3.1999e-05 5.7538e-07 7.093e-06 -5.3229e-07 -3.4931e-05 -1.0551e-05 0.71103 -1.445e-07 3.2241e-06 1.8448e-06 1.0439e-05 -5.1005e-06 1.3407e-05 1.423e-05 -4.2024e-06 -5.6165e-05 -1.8228e-08 -6.361e-06 1.3304e-05 -0.00010999 0.00069017 -4.0577e-05 0.00039057 -7.1489e-05 -2.2776e-05 6.0723e-06 -1.8248e-05 6.0905e-06 1.5556e-06 -6.8683e-06 0.0061384 -2.3813e-06 1.2967e-06
-3.5111e-08 -3.6612e-06 1.4456e-05 -8.0004e-07 0.00029135 3.2542e-06 0.00018589 1.3242e-05 2.205e-05 0.00020489 1.9944e-06 -2.5975e-06 8.9508e-05 -2.1821e-05 1.8737e-07 1.9757e-05 -4.7873e-08 -3.2364e-06 0.00035929 3.8712e-05 -8.1028e-05 -1.0185e-07 -0.011086 5.797e-06 4.0883e-06 -3.7183e-05 -5.1184e-06 7.5444e-05 0.0041456 -4.3433e-05 5.9949e-05 -1.5328e-05 -2.5534e-05 -1.8254e-07 0.0010467 4.3112e-05 -0.00010255 0.0006604 -0.00020827 0.00038865 0.003518 -0.00016868 0.0038264 0.39226 -5.9049e-06 1.1211e-05 0.00065993 0.0018651 4.1597e-05 0.0027558
1.2101e-05 3.1369e-06 7.6694e-05 -7.6709e-07 0.10345 3.7551e-05 2.5636e-07 -7.9107e-06 3.0334e-06 0.16319 -1.505e-06 1.4831e-05 -1.0162e-05 0.00031127 2.3288e-06 2.5914e-05 7.1344e-07 2.2469e-05 -2.0815e-05 0.0018578 0.00080559 1.2634e-05 -0.00045272 2.0146e-05 5.5933e-06 0.00012374 -3.5494e-06 0.00032829 0.00091029 -7.1647e-05 6.7552e-05 -1.4066e-05 0.0031922 -6.0835e-08 1.7666e-05 1.735e-05 -2.1146e-05 0.00070804 3.8538e-06 2.5295e-05 -0.00017201 9.7591e-06 0.0003022 0.00093139 -3.8947e-06 -4.8327e-05 -0.00012906 0.003453 -1.4345e-07 0.001318
-3.9017e-06 1.5362e-06 -2.6082e-07 9.109e-06 0.00010911 2.5628e-05 1.0613e-05 -1.0751e-05 6.6579e-07 6.7148e-07 -1.8614e-06 -1.9113e-05 0.00081276 0.0023738 -3.83e-07 2.4549e-05 2.5663e-08 -1.5609e-07 0.00071325 -3.1286e-05 1.9265e-07 -0.00017614 1.1475e-05 0.00035394 1.261e-06 -3.786e-05 0.00028022 -1.6905e-05 -5.0886e-05 4.3577e-06 0.0040723 0.0014204 4.3211e-05 8.3567e-08 0.00081191 9.4441e-06 -5.4041e-05 0.0099181 -7.1284e-05 -7.7157e-06 -6.0675e-05 5.5605e-06 -8.2943e-06 3.3588e-06 -7.7773e-06 3.1556e-06 -8.0126e-06 -4.2139e-06 -2.8053e-07 -4.0901e-05
-0.00015207 8.8702e-05 1.2951e-05 4.4767e-05 0.0003702 1.8722e-05 -0.00033166 -1.3075e-05 -5.2201e-06 2.0836e-05 -1.0925e-05 0.00043738 0.49669 0.0014205 6.1412e-06 0.23594 -2.2213e-05 -1.5848e-07 0.00046994 0.0014267 -0.00012453 0.0040981 -2.213e-05 0.00011612 -5.3524e-06 0.00034416 -5.373e-05 -8.0413e-05 -4.9051e-06 1.6545e-05 0.0031236 0.0004042 0.00039944 -7.8348e-08 0.14374 8.8597e-05 0.00032446 0.012858 0.00051698 0.00057848 -3.3792e-05 -2.0736e-05 -0.00068379 1.1645e-05 0.00032478 2.5984e-05 -1.2455e-05 0.0024722 5.5782e-07 0.13175
6.5338e-06 8.4444e-09 8.8044e-06 6.9798e-06 -1.8079e-05 -2.1176e-07 -7.9039e-05 -5.2508e-08 4.1419e-07 -4.7227e-07 4.2829e-08 -1.1245e-06 2.8001e-06 0.0002446 -1.5722e-07 -4.8326e-06 8.5531e-07 -3.6154e-07 -2.0976e-07 4.7564e-07 2.1577e-06 -1.3605e-06 6.0438e-06 -2.8723e-07 3.4517e-06 1.5166e-06 4.078e-06 5.631e-06 -1.279e-06 -6.1168e-06 -6.604e-06 1.4901e-06 3.3514e-06 1.5571e-08 2.1596e-06 -1.2818e-06 2.3571e-06 -2.1034e-05 -3.8526e-06 -5.1802e-06 4.8739e-07 -4.0443e-06 1.0775e-05 3.0026e-05 -3.7536e-07 0.40343 -0.0013508 2.7076e-06 4.1024e-06 -8.1254e-07
-3.3475e-06 6.1047e-06 0.00015081 -8.0335e-06 0.13915 -3.5506e-05 -1.5062e-05 -4.9686e-06 -1.4606e-05 0.0005379 2.0232e-06 -1.9147e-06 0.30432 -4.5795e-05 -5.2251e-07 0.0002536 -9.6364e-06 -2.6701e-06 -2.0055e-05 0.24079 0.00037779 0.00080225 -4.642e-05 -2.4441e-05 -1.7924e-06 0.00028298 -0.00011929 -0.00017396 -9.1565e-05 -5.6583e-06 -6.035e-05 0.0094004 -0.00014799 -9.7205e-08 0.18921 0.0022543 0.00063733 0.0039203 0.0010584 0.0026177 -0.00024419 -8.8755e-05 0.00036035 0.00010887 -2.5368e-05 2.1541e-06 2.9482e-05 -5.989e-05 -1.2224e-05 0.16054
3.2192e-08 -1.668e-06 1.3185e-07 1.2412e-08 4.2006e-05 1.3856e-06 7.0729e-08 -2.7615e-08 3.2152e-07 0.0032949 -8.031e-07 8.6475e-07 3.6338e-07 4.1742e-07 6.7584e-08 -1.3031e-06 1.8313e-08 -2.228e-06 -4.3683e-07 -0.00017131 0.00063195 2.2732e-07 3.2551e-07 3.6294e-06 -6.2949e-08 -4.7055e-06 -1.23e-06 -5.1547e-06 -9.8174e-07 3.2231e-06 -7.9288e-07 -5.2752e-07 -3.2583e-05 -1.2395e-09 -1.1083e-06 4.4578e-07 -7.3814e-05 -9.6435e-06 -5.1206e-05 4.6395e-06 -0.00049011 3.0028e-06 6.1214e-05 2.0544e-06 -1.9386e-07 3.0572e-06 -1.4793e-06 0.0023616 2.5827e-08 3.1776e-06
-2.9759e-06 -8.5299e-07 -7.8661e-07 -9.4077e-06 0.00046026 -4.1284e-05 -1.9994e-06 -1.5554e-06 9.7644e-07 8.784e-05 -4.3107e-06 -3.9625e-05 0.0084724 -2.4645e-05 7.131e-07 0.00015145 3.7931e-06 6.3681e-07 8.3588e-05 0.0015043 -5.6245e-05 0.00088048 6.1587e-05 -1.4385e-07 -6.6185e-08 0.00024635 -0.00011381 -8.2596e-05 4.9861e-05 -1.9939e-06 8.3258e-06 -3.5729e-05 -0.0001582 -7.2879e-08 0.18508 0.0024219 -7.2561e-05 0.0048519 0.00045166 0.0028246 -0.00013124 -5.238e-05 -0.00015608 0.0001468 -1.5833e-05 1.0518e-05 -4.0722e-05 1.5181e-05 -3.9536e-07 0.17001
1.5352e-05 6.1039e-05 0.00010466 0.1854 -2.6089e-05 0.18032 3.7366e-05 3.2422e-06 -4.6204e-06 1.1143e-05 -1.1166e-05 0.18169 0.0011161 0.00042546 0.00035396 0.00011115 5.1351e-06 -3.7001e-05 6.2507e-07 8.5349e-05 4.7608e-05 0.17588 1.888e-05 -6.4342e-06 1.0926e-05 -3.3053e-05 0.42952 -7.6032e-06 -6.3926e-05 -2.2688e-05 0.43923 -0.00014857 0.20733 -1.7816e-07 0.15886 -0.00011271 1.3626e-05 -0.00042191 0.11369 0.17581 -4.5884e-05 7.5245e-06 0.00018076 -2.0378e-05 0.00054595 -9.4232e-06 1.4709e-06 -9.921e-06 -1.2365e-05 0.15443
-1.1712e-06 -1.6597e-06 0.00029175 7.8757e-07 -1.4122e-05 -5.5193e-06 7.2902e-06 1.3535e-06 4.7044e-06 9.0157e-05 -8.6983e-07 -3.1715e-05 0.0012181 0.00015151 1.4559e-06 1.7207e-05 1 6.1591e-07 -1.1117e-06 -0.00048915 0.0047922 -1.7674e-05 7.791e-05 -6.2049e-07 5.6669e-06 -2.6158e-06 2.5178e-05 0.0025536 -2.0117e-05 -0.00040446 2.0197e-06 1.188e-05 -0.00021005 -1.9556e-09 0.00075681 -2.0053e-05 4.1158e-05 0.0002689 0.00069015 8.8484e-05 -3.445e-05 -8.4119e-05 0.017096 1.6453e-05 7.204e-07 -7.398e-05 -5.8745e-06 0.0049914 2.1574e-05 0.0019747
-8.2394e-06 0.17511 9.3471e-07 5.3525e-06 -3.1053e-05 0.28962 1.7385e-05 -4.1834e-07 -1.302e-06 1.8232e-05 4.6402e-07 -2.5826e-05 4.8636e-05 2.0502e-05 -1.102e-06 2.2805e-05 4.4051e-07 6.0509e-07 3.7112e-05 4.4224e-05 -6.0568e-05 0.00073398 1.1923e-05 2.7614e-06 -7.0008e-05 0.41037 -4.6727e-05 0.0037334 -7.2518e-06 0.025119 -2.9482e-05 -4.4261e-05 -7.2336e-05 -1.5256e-07 4.8665e-05 0.34751 3.655e-05 -0.00091093 0.0060213 -3.6836e-05 -1.3658e-05 -5.3401e-05 0.00017464 2.1017e-05 -2.0596e-06 -3.1232e-05 9.2832e-06 -0.00029469 -0.00030074 0.00090591
-5.1291e-06 0.16485 -1.2411e-07 -4.04e-07 0.0020484 -2.1553e-05 3.4639e-05 -8.7874e-06 -4.0644e-05 1.2675e-05 -6.4666e-06 -1.7639e-05 -4.5882e-05 0.0002679 2.9677e-06 -3.7639e-06 1.7336e-07 1.28e-06 5.4695e-06 -4.9399e-06 -4.9736e-05 -0.0002642 4.0188e-05 -1.5076e-05 -7.4586e-05 0.00011573 -1.2853e-05 0.36459 -1.7046e-05 0.43605 6.8815e-06 -1.6798e-06 -1.3969e-05 -1.1491e-07 -0.00028961 0.32637 5.7966e-06 -0.00031508 0.17456 -1.5823e-05 -1.6505e-05 0.49056 -0.00012403 0.0087648 2.9979e-06 -2.0298e-05 -0.0068532 -0.00013435 -0.00020466 -0.00012183
3.4326e-07 1.1185e-05 0.00020366 -2.7678e-05 -1.2259e-06 -2.2786e-06 5.0272e-07 -9.6097e-07 -1.7831e-05 2.1488e-05 1.9537e-06 -1.934e-05 0.00079702 -2.5188e-05 6.6648e-07 5.721e-05 3.783e-07 -1.03e-07 -0.00012485 0.00043174 4.3417e-05 -1.9061e-05 2.3776e-05 -5.0752e-07 -2.5387e-06 0.00010983 1.4178e-05 -3.1676e-05 -7.1733e-05 -3.2133e-06 6.904e-05 0.012549 -0.00023687 2.5234e-08 0.016851 -6.1744e-05 -4.157e-06 0.00031566 0.00083652 0.0042965 -5.4623e-05 -6.8513e-05 0.00094586 1.7392e-06 3.0675e-06 -1.5945e-05 2.574e-06 0.00030595 -2.9544e-06 -0.00055244
3.1037e-05 4.1708e-05 6.6446e-06 7.0632e-07 -2.5203e-05 6.1218e-05 6.0773e-05 2.1409e-07 -1.3373e-05 -2.5392e-05 1.7001e-07 -8.2107e-05 -0.00010533 -3.4586e-05 -1.5654e-06 -3.9366e-05 -3.1213e-05 -5.0137e-06 1.1343e-05 0.48629 0.57329 0.00012584 -0.0005437 3.1301e-06 2.1227e-06 -3.2824e-05 4.742e-06 -8.3501e-05 8.8984e-06 -2.2254e-05 0.00010001 -1.4e-06 0.44203 2.2399e-08 -3.18e-05 -1.0229e-05 0.0011407 -0.00028062 0.2433 0.0003876 -7.673e-05 -0.00013774 0.00061153 -2.3298e-05 -1.3876e-05 1.2589e-05 7.744e-06 0.0007847 -0.0010242 -0.0002268
6.9621e-07 0.15783 4.6484e-06 0.26666 5.2708e-06 -2.8421e-05 1.046e-06 2.3351e-05 4.5005e-06 3.3e-05 -9.205e-05 0.27729 0.00018195 0.00076295 2.6457e-05 -8.0872e-07 1.0181e-06 -4.6428e-05 4.0194e-06 -0.002035 0.00011896 0.25359 -0.00012155 1.3494e-05 -1.5402e-06 2.1919e-05 -0.00041458 9.7301e-05 0.00010417 1.3126e-05 0.0021715 7.6269e-06 0.0021577 -7.3198e-07 6.0385e-05 -8.1704e-05 0.42609 -0.00069508 0.00024421 0.25158 0.00010909 1.207e-05 -6.6194e-05 -3.2867e-05 0.00080736 -5.6692e-06 8.2575e-07 -0.00059289 2.4621e-05 0.0042953
-3.3529e-06 -3.2709e-06 7.1843e-07 2.8346e-05 9.3624e-07 -1.6828e-06 -1.838e-05 -1.3206e-06 -1.6769e-06 -7.2333e-06 0.36878 0.38083 -3.8473e-05 -2.2343e-05 0.64869 -1.2867e-06 1.6006e-08 1.3354e-06 2.2845e-07 0.00019019 2.5423e-06 1.4846e-05 5.4376e-06 1.0376e-06 0.78301 -2.7226e-06 7.9209e-05 -2.0438e-05 -1.9505e-05 0.0001737 -1.0686e-05 3.6e-06 6.019e-05 -3.5377e-08 -1.5453e-05 6.0993e-06 -0.00051807 0.0001245 7.5252e-06 2.4494e-05 -4.3396e-05 -1.5806e-05 3.0031e-06 4.255e-06 0.00030373 3.8219e-06 -1.7912e-06 0.00012139 -1.3553e-05 4.8278e-06
-1.6857e-05 0.17507 3.8555e-07 1.2284e-07 -1.2484e-05 6.6764e-06 -3.8709e-06 -1.203e-05 1.9e-05 1.396e-05 -8.6728e-06 -2.1172e-05 -3.6238e-05 -3.6707e-05 3.0158e-06 -3.1226e-06 1.5026e-07 -2.4428e-06 1.148e-05 7.1415e-06 -5.0434e-05 -0.00027477 3.5095e-06 1.4827e-05 -4.3588e-05 0.00021563 -1.3445e-05 0.38724 -1.712e-05 0.46126 1.3128e-05 1.2985e-05 -3.0603e-05 -1.3061e-07 -0.00031549 0.34605 9.7542e-06 -5.5237e-05 0.3655 -1.0159e-05 -2.9141e-05 0.51826 -0.00013206 -0.00011884 2.1255e-06 -3.5426e-06 1.0738e-05 -0.00016263 -0.00020096 -0.00017439
8.2875e-07 -4.111e-07 -1.375e-06 -6.2841e-06 -6.7803e-06 4.3931e-06 -1.492e-05 -1.5966e-07 5.5126e-07 1.4224e-06 -2.4131e-08 -1.5036e-06 -4.5745e-06 0.001957 7.5106e-08 -6.0865e-06 1.4053e-07 -2.8881e-09 -6.1065e-07 -0.00011574 0.00051503 -6.6018e-06 5.4577e-06 -4.3465e-08 3.9628e-07 8.8648e-08 9.3618e-06 -7.5731e-06 -3.624e-06 1.1155e-06 2.0126e-06 3.1917e-06 8.5737e-06 3.9413e-08 0.0024481 -2.6388e-06 3.7848e-07 -1.0414e-06 -1.7433e-05 0.00015977 7.2226e-07 1.0787e-06 0.00012569 1.5351e-06 -3.945e-06 -1.2525e-06 -5.6947e-07 8.5802e-07 7.357e-08 0.0013776
-2.114e-06 1.6426e-06 -5.8425e-07 5.0369e-06 5.886e-05 1.2829e-05 5.9232e-06 -5.2066e-06 3.6573e-06 0.00043665 -1.1059e-06 -1.0838e-05 0.00045994 0.0013038 -2.0502e-07 1.3976e-05 4.5711e-08 -2.4845e-07 0.28719 -1.6536e-05 -8.5805e-07 -9.0432e-05 1.6042e-05 0.00023069 7.0224e-07 1.1503e-05 0.00015632 -8.7655e-06 -4.2688e-05 2.4473e-06 0.0022996 0.00070257 1.8495e-05 3.9518e-08 0.00045846 4.826e-06 -3.2359e-05 0.0055032 -2.8803e-05 1.8038e-05 -6.6371e-05 3.4047e-06 -3.4931e-06 -2.2526e-06 -5.8592e-06 1.2207e-06 -4.858e-06 7.4663e-06 -1.3084e-07 -1.85e-05
3.8294e-05 5.2783e-05 2.9714e-06 2.814e-06 0.41968 -2.5371e-05 0.00016813 2.9761e-06 -5.6859e-05 0.00019902 -6.612e-06 -7.0787e-05 -8.8942e-05 0.4366 3.9196e-06 0.00010644 4.308e-07 1.866e-06 -1.4133e-05 0.0011575 -0.00021205 -8.602e-05 -0.00031645 -6.0984e-05 -3.2073e-05 -3.3505e-05 3.5473e-06 2.9852e-05 -1.3239e-05 0.0018091 -0.00017617 -4.5114e-05 0.0010382 9.6837e-08 -9.2137e-05 0.00070262 0.0003365 -0.0015165 0.17889 -2.5635e-05 -8.3226e-05 0.0027376 -2.6283e-05 0.4935 -1.6948e-05 -8.9485e-05 -0.0068192 -3.3081e-05 -1.9271e-05 -4.2997e-05
-1.2737e-05 2.0744e-05 0.17686 2.7705e-05 2.8364e-06 1.8139e-05 -1.5133e-05 -1.085e-06 -1.2008e-05 8.218e-05 -4.7881e-06 -0.00011106 8.0668e-05 -3.4059e-05 -1.6135e-06 -5.3917e-05 -1.0403e-05 -2.0774e-06 4.0888e-06 -0.00015858 0.0016637 0.23194 -0.0004401 1.2486e-06 4.3417e-06 8.2344e-05 7.4786e-05 -5.0387e-05 -4.5536e-06 -2.2749e-05 -0.00026194 -1.2785e-05 0.00065022 2.9584e-10 0.00014516 0.00030157 -0.00015103 2.9288e-05 0.15302 0.00015168 -2.5836e-05 -0.00010351 -0.00013113 8.0457e-06 -3.9912e-05 -9.9935e-06 -2.7392e-06 0.00049879 -0.0006307 0.00037616
-1.4026e-05 5.9143e-06 0.00038703 5.7338e-06 -5.1392e-05 1.9051e-06 -6.5283e-06 -9.327e-07 2.7911e-05 6.6876e-05 -1.7491e-06 -2.8995e-05 0.0012968 1.0128e-05 -7.9375e-07 -1.1096e-05 0.00048263 -9.744e-07 1.1349e-05 -0.00039616 0.004395 0.0010914 -2.9668e-05 -4.7464e-06 3.2619e-06 7.5826e-05 -0.00013561 0.001854 -2.5988e-05 -0.00026864 8.7008e-06 -3.9163e-05 -0.00035522 -2.1801e-07 0.25076 0.00031025 -1.8881e-05 -0.00014841 1.3375e-05 0.00047388 -0.00012677 -5.1898e-05 0.52545 0.0024109 -2.242e-05 -0.00010163 -4.9855e-05 0.0003677 1.8759e-05 0.24404
-1.2475e-06 3.7354e-08 -4.2444e-06 -5.7139e-05 0.000428 -7.2751e-06 2.684e-06 -3.2745e-06 -4.3634e-06 0.25923 1.4595e-05 0.00012385 -9.1438e-07 -1.0979e-05 1.0034e-06 6.3387e-06 -2.4542e-05 -1.1464e-06 -3.1926e-05 -0.0013845 0.34635 0.00013511 -0.0003335 -3.111e-06 5.9126e-07 -8.3998e-05 -5.1295e-05 -6.9924e-05 -1.5255e-05 2.3768e-05 4.5747e-06 6.8074e-06 0.003378 -7.7742e-08 0.00015733 5.1053e-05 6.1778e-05 0.00059133 -2.0501e-05 0.0019615 0.00034488 2.6966e-05 -0.002078 -2.3405e-05 -4.371e-06 2.3177e-05 -4.5073e-05 0.0023768 -5.2311e-06 -0.00013216
2.6858e-05 0.13257 6.5473e-06 1.8009e-05 4.2209e-05 -2.9411e-05 6.7021e-05 -1.4956e-06 -1.8435e-05 0.00017992 -1.2312e-05 -0.00030349 -3.2222e-05 -1.4416e-05 2.7992e-05 -4.6715e-06 3.3832e-06 -1.3566e-07 -1.78e-06 -9.9811e-05 9.1346e-05 0.00022732 -0.00020534 -2.024e-05 -2.6143e-06 -7.6383e-05 -6.3485e-05 9.2143e-06 -8.3155e-05 1.3692e-05 5.9757e-05 5.1457e-05 0.26263 -8.0267e-09 -3.0483e-05 8.7911e-08 0.00059775 0.00034028 -5.8181e-05 -0.00017444 -8.1211e-05 1.6276e-05 -5.4153e-05 -2.3142e-05 9.0196e-06 9.5627e-06 -6.8328e-06 0.26463 -7.7401e-06 -9.0603e-05
2.5582e-05 0.00010385 8.5074e-06 0.22959 -9.3554e-06 -2.8309e-05 5.0008e-05 8.4389e-07 -1.2482e-05 5.72e-06 -8.6271e-06 0.22696 5.668e-05 0.00051559 0.00049273 2.9485e-06 2.3811e-06 -3.2172e-05 1.6193e-07 -3.1795e-05 -4.6587e-05 0.21798 -1.1943e-05 -4.0571e-06 3.5744e-06 -5.5972e-06 0.53029 5.8575e-05 -3.9559e-05 -5.1282e-05 0.54261 -0.00014822 0.28122 -8.8927e-08 8.0503e-07 7.8447e-06 0.0006282 -0.00021082 0.14117 0.21665 -2.1114e-05 -3.5717e-05 -6.1107e-05 -3.6119e-05 0.00069362 9.2766e-06 1.123e-05 -9.4329e-05 -1.4747e-05 -2.9122e-05
-2.2929e-05 9.1018e-06 0.33854 1.1472e-06 4.9071e-06 3.1512e-05 -8.0858e-06 -6.6689e-06 8.8098e-06 0.17746 -9.764e-06 -7.6392e-08 0.00054125 0.00034071 6.2401e-06 -1.7603e-05 0.00022815 1.2607e-05 0.00026888 0.00088764 0.23366 5.4953e-06 2.0679e-05 -2.7404e-06 7.6134e-06 0.0012239 -3.0128e-05 0.0013306 -4.6838e-05 -0.00022309 -1.5235e-05 -3.2799e-05 -0.00017216 -7.837e-08 9.1371e-05 2.2958e-05 -0.00021503 0.0030017 0.0003937 0.00014528 1.961e-06 -3.0822e-05 0.0098308 -4.8116e-06 -6.5055e-06 8.4519e-05 -1.8344e-05 0.00036964 7.6845e-06 0.0024598
0.37101 -1.0995e-05 0.25716 -3.1242e-06 0.00014648 3.0365e-06 0.37953 4.1172e-07 4.9247e-06 -7.9832e-06 9.3448e-07 1.1966e-08 -1.9419e-05 2.6358e-05 9.2386e-07 2.1555e-05 -1.2437e-05 -2.956e-06 -6.454e-06 -1.4706e-05 -2.3978e-05 2.9041e-06 4.9734e-06 5.2882e-06 6.128e-06 -7.6835e-06 -1.1531e-07 3.6742e-05 -2.2108e-05 -5.8227e-05 7.8671e-07 -1.3098e-05 -8.6294e-05 4.7578e-08 -1.5396e-05 6.7003e-05 -8.0522e-06 -4.3005e-06 6.3219e-06 -2.9607e-05 -1.0167e-06 -0.00018167 -0.00010784 0.59884 1.6671e-06 0.40894 0.77002 -3.0624e-06 6.0633e-06 -2.7537e-05
-3.0115e-06 -7.2591e-07 0.00015541 2.5934e-05 -2.9073e-05 0.29133 -3.5191e-06 4.3936e-06 -7.3106e-07 1.1952e-05 -2.8119e-06 0.00079958 0.0017354 1.1563e-05 -9.2399e-05 0.00018273 5.5119e-06 1.0308e-06 3.494e-07 -0.0002354 -0.00013988 0.00034273 4.1116e-05 -9.3369e-06 7.3619e-07 -3.5411e-05 0.0018429 -9.9442e-05 -5.0986e-05 8.1439e-06 0.0015627 -5.523e-05 0.0025691 -1.7364e-07 0.25664 -0.0001648 -0.00014246 -0.00042636 0.0012198 0.00045349 -5.2796e-05 -1.6549e-05 0.00045609 -2.8885e-05 -1.0161e-05 -9.6051e-06 -1.4528e-06 -2.6136e-05 9.922e-07 0.24959
2.7998e-07 1.0093e-05 -6.8164e-06 -3.5607e-07 2.8484e-05 4.1818e-06 1.0202e-07 -3.7942e-06 7.4876e-08 0.00077794 -8.9654e-07 -1.164e-07 -0.00015399 -2.7337e-05 -1.6987e-06 -2.1803e-06 2.1009e-07 -1.8998e-06 0.52218 -5.8085e-05 2.4462e-05 9.268e-06 4.8917e-05 -1.2776e-05 -4.8136e-07 -4.5907e-05 -4.0084e-05 1.2857e-05 -5.0437e-05 1.1364e-05 -5.9801e-05 0.48852 6.8557e-05 -3.754e-08 -9.5951e-05 2.0016e-05 -1.2027e-05 0.00024988 -9.1517e-05 3.5538e-05 -5.4811e-05 7.0838e-06 -4.6368e-05 2.5325e-06 -1.1144e-06 -2.9786e-06 1.302e-05 0.00051619 -1.1334e-06 8.4407e-06
-1.7668e-05 -1.7053e-05 0.2102 2.9074e-05 3.4396e-06 5.6091e-06 -1.7801e-05 -1.403e-06 2.5342e-06 -1.3248e-06 -5.3371e-06 -0.0001565 6.0924e-05 -3.8717e-05 -1.8918e-06 2.3679e-05 -1.1714e-05 -2.7134e-06 4.7087e-06 2.7591e-05 -2.263e-05 0.27672 -1.5553e-05 1.0445e-06 6.9659e-06 0.0001022 -0.00013923 -7.708e-05 -1.3821e-05 -3.3685e-05 -0.00024 -2.0675e-05 -9.859e-05 3.9168e-09 0.00016101 0.00031901 -0.00019894 -1.0205e-05 0.18159 -0.0002055 -1.5449e-05 -7.887e-05 0.00014434 1.0507e-05 -3.6469e-05 1.0003e-06 5.9146e-06 -2.0724e-05 -2.1723e-06 0.00042066
1.197e-05 -9.7677e-09 7.4747e-06 7.1708e-07 7.9874e-05 -1.1571e-05 2.6414e-05 -7.7958e-07 -4.1236e-06 -0.00016297 0.68063 -5.6157e-05 -1.3846e-05 0.00031364 -0.00035731 0.00010272 1.8133e-07 3.0649e-07 -2.5051e-05 -7.6178e-05 -4.9796e-05 -9.9537e-05 4.7951e-05 -3.0767e-07 2.3854e-05 -1.1191e-05 0.00021382 0.00039778 -7.3082e-05 -0.00025713 -3.7918e-06 -8.7165e-06 0.00079188 -1.8952e-07 0.0002392 0.0001896 2.5619e-05 0.0018707 0.00044469 -4.1978e-05 0.51166 -1.0573e-05 1.5133e-06 -4.9712e-05 8.3827e-06 -3.1026e-05 -1.0609e-06 -2.8251e-06 5.9912e-06 0.00011459
-5.5918e-07 3.7677e-07 4.0932e-06 -4.4239e-07 -3.6848e-08 1.546e-07 1.5022e-06 -5.7188e-09 -3.5037e-07 3.8238e-08 4.5612e-08 -4.0246e-06 1.5379e-06 -3.9923e-07 -1.0376e-07 2.2144e-06 -9.2242e-09 4.1785e-09 8.7991e-08 4.517e-06 1.7035e-05 3.674e-05 -2.1147e-07 -1.0725e-08 -8.8188e-08 -1.1436e-06 -2.3031e-05 -3.6551e-06 -5.2085e-07 -9.136e-06 -6.3892e-06 -7.91e-07 -3.5253e-06 -4.8299e-09 -4.2694e-06 1.4615e-05 -2.3298e-06 2.7682e-05 0.00016466 -3.4611e-09 -4.965e-07 2.2081e-06 -5.8544e-06 2.3618e-06 4.2915e-06 -2.5684e-06 -4.9105e-07 -2.1003e-06 -1.0711e-07 7.1815e-06
-4.2732e-07 0.00029423 3.2757e-06 -9.3242e-06 3.6022e-05 -2.5092e-05 7.575e-08 0.51438 4.8309e-05 0.00089411 0.00016487 0.00069917 -0.00073426 -0.0001155 -5.8377e-06 -2.2481e-05 3.9733e-06 -8.3943e-07 1.5777e-06 -0.00013416 -5.9006e-06 0.00097396 6.6104e-05 -2.293e-05 -2.9506e-06 -0.00029041 -0.00020728 0.0047841 0.44942 -0.0003068 -7.0623e-06 -1.1174e-05 0.00019729 1.9528e-05 0.19642 -0.00018781 0.0024537 0.32217 0.0010534 0.00030479 0.00032113 -0.00016502 -1.4029e-05 -2.7902e-05 3.952e-05 7.8698e-05 8.1688e-07 0.0030519 1.0014e-05 0.20325
