3.0726e-05 -2.0172e-05 0.34115 3.2029e-07 -4.2486e-06 5.5026e-07 -7.3716e-07 3.0796e-05 0.44406 -2.1155e-06 1.455e-05 1.9547e-05 4.8314e-05 0.2751 -4.0653e-06 1.2375e-05 -5.2498e-06 7.7523e-06 -1.5259e-05 -2.3595e-05 -1.5461e-06 3.544e-06 -4.4807e-06 7.7085e-05 -2.388e-05 4.3909e-05 -1.9578e-05 -5.4469e-05 -1.4611e-06 -4.8631e-05 -4.5619e-06 9.7105e-06 -7.2781e-06 4.3092e-05 -1.9368e-05 -5.8304e-05 1.5403e-05 -2.0137e-05 -1.3636e-07 -2.4832e-06
1.744e-07 0.00016816 -1.4331e-06 -2.0455e-06 -1.6034e-05 4.4908e-07 -1.7519e-06 0.00011608 3.365e-06 4.9552e-06 1.8384e-06 0.00018387 -1.9387e-05 0.00011858 -9.2227e-05 -9.934e-06 0.0016299 -2.5914e-05 2.512e-05 -6.7516e-05 -0.00017228 -5.3793e-06 0.0064041 0.00027381 0.0010364 6.6729e-05 0.001075 6.3318e-06 -0.0001035 -6.1819e-05 3.867e-06 -4.6083e-05 -0.00010488 -6.5348e-06 3.3463e-06 -0.00017327 -0.00027881 1.8575e-06 -4.0955e-05 -1.4286e-05
1.9865e-05 -1.3285e-05 1.6579e-06 0.28356 -5.0785e-05 7.5347e-06 -1.0129e-06 0.26502 1.6634e-05 5.6968e-05 0.26634 6.2581e-06 -2.0761e-05 4.3625e-05 5.1302e-06 -1.7119e-05 1.3256e-06 -4.0222e-05 4.5339e-06 1.8147e-05 -5.4425e-05 -8.1993e-07 8.131e-05 2.1401e-05 -8.2079e-05 -3.3607e-05 5.4104e-05 1.0327e-07 0.22632 -2.9908e-06 1.9467e-05 -3.4269e-05 -2.5017e-05 -7.536e-05 0.0001063 0.0004239 0.00013351 1.9802e-05 -8.5729e-06 2.7285e-05
-1.1975e-05 -7.2999e-06 5.316e-05 -6.0766e-05 4.5392e-05 1.4661e-07 4.8871e-06 -1.5054e-05 -3.5835e-05 0.00024083 0.00012107 7.2337e-05 0.0066747 0.00020797 6.3199e-06 -7.0655e-07 0.0014414 -0.00087434 0.30015 0.0018704 0.00082932 -3.015e-07 -9.6231e-05 -1.4469e-05 -4.8233e-05 -0.00040578 -2.2941e-06 0.011328 0.00033678 -0.00011456 -5.945e-06 -8.8865e-06 0.0022278 0.0034835 -0.00011027 -0.0001076 -9.4562e-05 -6.7224e-05 0.0011575 -7.7776e-05
-9.9783e-06 3.84e-06 1.1601e-05 -6.7192e-06 -0.00019461 -5.6875e-06 4.127e-07 5.1809e-05 0.40608 -9.5417e-06 2.4428e-05 -3.9271e-05 1.9305e-05 3.9026e-06 9.7058e-06 -5.5004e-05 3.3003e-05 0.4415 3.3191e-05 -3.2046e-07 -1.6059e-05 -1.6707e-05 -2.9035e-05 -4.8945e-05 -0.00024503 0.00011061 -2.5995e-05 0.0011018 -0.00019066 1.5605e-06 5.0811e-05 -1.5714e-05 9.2114e-06 -1.3908e-05 -9.4414e-06 -9.4495e-05 1.5224e-05 -1.872e-06 9.8093e-08 4.1371e-06
-2.4886e-06 0.19533 7.9682e-05 -1.8873e-06 -3.6063e-05 2.8309e-06 1.6251e-05 8.6275e-05 3.8194e-06 2.0405e-05 -1.4751e-05 0.13746 0.011426 -2.3923e-05 -9.7741e-05 -0.00010006 0.0001875 -0.00012049 0.00084341 -8.9276e-05 0.0070335 5.6982e-05 0.0039801 0.15332 0.36027 -0.00014192 0.4054 0.0036418 1.1112e-05 -6.485e-06 8.2117e-05 -0.00013442 -3.9636e-05 -1.4795e-05 -0.00013094 0.0005374 -1.9054e-06 -2.5754e-06 1.2126e-05 2.5856e-05
7.0735e-05 -0.00019633 -1.8121e-06 -2.4259e-06 3.3278e-05 2.1534e-05 -3.8354e-07 -4.444e-05 -6.8762e-05 -0.0004107 -0.00014105 0.00058644 -2.1629e-06 8.9911e-05 -5.3299e-05 -0.00048653 -3.1455e-06 -2.1659e-05 3.7223e-05 1.9864e-05 2.6195e-05 9.5e-06 0.005703 0.00095329 -0.00027025 -0.00016194 0.00016424 1.5906e-05 0.00064862 3.2185e-05 0.00036939 0.45847 7.6217e-05 -3.7246e-05 0.0018714 8.8698e-05 0.0024346 -4.9583e-06 3.2012e-05 1.1375e-05
-9.8868e-07 6.1875e-06 9.0984e-06 2.4921e-06 2.8968e-06 1.2117e-07 -5.4498e-06 0.00050031 9.0315e-05 0.00027095 3.8167e-06 5.0497e-07 -2.0937e-05 -5.83e-06 -1.1621e-05 -1.2897e-05 -3.134e-06 0.0011143 3.8136e-05 4.4251e-06 -1.5568e-05 -1.8316e-06 -1.8703e-05 -3.7951e-06 0.00073899 -6.92e-05 -2.7103e-06 0.00029714 0.00023742 -2.9018e-06 8.7981e-06 -5.1382e-05 -7.3538e-06 -2.5353e-05 1.0696e-05 0.000674 3.0993e-05 4.6175e-06 1.149e-06 -5.6343e-05
5.7093e-05 6.9231e-05 0.00031458 2.2879e-05 -2.9628e-05 1.5568e-05 -6.6151e-06 -0.00010317 -5.2171e-05 -0.00028207 2.5809e-05 1.3801e-05 0.00025404 0.19517 0.40467 -0.00025516 -2.0661e-05 -1.7768e-05 0.00027202 0.36075 -5.3161e-05 -4.5045e-05 -3.1595e-05 -4.4918e-05 -0.00014614 -0.0001498 -4.2773e-05 -0.00011388 0.23708 -0.00049444 0.0002173 0.32048 -0.00011602 3.7726e-06 0.00015368 -3.1782e-05 9.0515e-05 -0.00018744 1.1035e-05 -8.4687e-05
-1.902e-05 0.18626 -5.6985e-06 3.9134e-06 -1.6095e-05 2.7811e-05 -6.4835e-06 -2.0048e-05 1.4672e-05 1.4101e-05 -0.00013958 0.13108 -0.00016093 0.18903 -1.0024e-05 -1.217e-05 -3.4171e-05 3.3185e-06 -1.9892e-05 0.34513 -2.1794e-05 4.6821e-06 1.2984e-05 0.14619 -2.7837e-05 -6.075e-06 0.0001618 -7.8033e-05 -6.6094e-05 0.41342 5.5414e-05 -0.00019176 0.34256 -4.5446e-05 -4.426e-05 -1.078e-05 -7.9908e-06 -2.8366e-05 8.3552e-06 -2.3978e-06
1.1718e-05 5.9803e-05 -2.5914e-07 3.7371e-05 0.0015242 8.4437e-06 -1.0047e-05 -2.229e-05 3.2104e-05 1.4209e-05 0.00056484 0.00081602 -0.00010652 0.00072252 -9.6063e-05 0.0020324 -2.2246e-05 0.0065785 0.00044143 -5.3228e-05 -0.00014548 -1.6078e-05 -0.00042911 0.00017386 0.0022298 -8.6867e-05 1.9465e-07 -0.00075418 0.00074812 -0.00013362 -0.0011841 -0.00035322 -6.2734e-05 -1.7026e-05 -0.00029511 0.40492 6.7815e-05 3.0795e-06 0.00038788 -1.7167e-07
-2.8565e-06 0.27614 -9.4744e-06 -7.4479e-06 0.0011026 6.0045e-07 6.2321e-05 -3.04e-05 1.7148e-05 -1.2074e-05 -6.41e-05 0.19444 -4.7573e-07 0.00057252 -1.1825e-05 0.00060315 -4.5215e-07 -0.00019022 1.5384e-05 -7.6039e-06 -0.00063603 4.3642e-06 -0.00012914 0.21651 0.50315 -0.00010343 0.0025617 -7.112e-05 -2.5113e-05 7.6212e-05 -1.9816e-05 -0.00020052 4.081e-05 -3.2691e-05 -9.4679e-05 0.0012426 9.0109e-05 1.4147e-05 1.7765e-05 1.3814e-05
-1.4415e-06 -1.003e-05 3.4924e-05 3.8872e-06 -4.0183e-05 3.3402e-06 -7.2401e-06 0.00032338 -1.7543e-05 -6.2139e-06 0.00063436 7.9387e-05 0.0020237 0.00031864 -9.0115e-05 2.8296e-05 0.00079125 0.00073576 -5.8537e-05 -1.7726e-05 0.61334 0.00064272 0.0030269 9.7223e-05 0.0045047 -1.9418e-05 0.00036287 -0.0001691 0.0033561 -5.1591e-06 3.4263e-06 0.0010225 0.00058438 -4.9374e-06 -2.7161e-05 0.0024678 -0.0015369 7.2599e-06 -3.4628e-06 -8.3431e-06
0.2378 3.2321e-05 0.20396 -8.8644e-06 -0.00011595 0.034884 -5.3065e-06 0.00022536 1.9591e-05 0.00015804 -1.1865e-05 5.6139e-05 -2.0163e-05 0.16458 0.00045472 -0.00022938 4.4315e-05 0.00096424 0.00069896 2.1298e-05 3.3144e-05 0.37668 0.00074006 -8.9863e-06 0.0002132 0.29097 0.00033141 0.0015634 0.20001 -1.9948e-05 0.00017099 0.27092 2.8542e-05 0.001275 -1.3162e-05 0.26645 0.000112 0.001295 -0.0002541 4.9772e-05
-0.00034361 -7.1883e-07 4.9975e-05 7.7012e-06 -0.00014679 -2.2541e-06 1.4426e-06 0.00061291 3.8269e-05 -2.6321e-05 -0.00015355 6.6787e-05 0.22409 -0.00026911 -9.2089e-06 -2.7561e-05 0.00066991 0.0017506 0.00062031 -9.6583e-05 0.42378 0.39211 0.25095 3.5708e-05 0.0032257 -2.4522e-05 0.00013315 -0.00019434 0.21256 8.0247e-05 1.7156e-05 -0.00042735 -8.5635e-05 1.4748e-05 -0.00027743 0.29136 -0.00025764 2.753e-05 -0.00029837 -3.4137e-05
0.36121 1.9577e-05 0.28847 -9.1511e-06 0.00011676 0.37198 9.838e-07 -1.1046e-05 1.7955e-06 -4.1644e-06 2.0905e-05 -1.0017e-05 4.0656e-05 -0.00028607 -1.7454e-05 0.0011616 -4.6368e-06 1.0686e-05 -1.7813e-05 -0.00030331 -1.139e-05 -0.00021538 1.2012e-06 -6.0204e-07 3.1608e-06 2.2617e-05 -0.00012164 -3.7911e-06 -4.7117e-05 0.49102 0.00029011 0.00012743 -0.00057007 -0.00030045 -8.2213e-06 2.4231e-05 -8.8174e-07 0.0015832 -1.5239e-06 0.00055814
0.33743 1.3485e-05 0.26976 -1.5313e-05 -3.1425e-07 0.3475 -3.7255e-07 0.3105 2.4067e-05 -8.5093e-06 6.1978e-06 -4.0032e-05 -4.0114e-05 -1.5424e-05 2.425e-05 1.4549e-05 1.6646e-07 -3.2069e-05 -2.7478e-05 -1.1963e-05 -4.0117e-05 1.0292e-05 1.3824e-05 -4.1256e-05 -4.4785e-05 -7.5548e-05 6.3805e-05 -5.0029e-05 -2.1147e-05 -1.9183e-05 -2.5298e-06 -5.7599e-05 2.2173e-05 0.47838 2.0018e-06 -1.4864e-05 3.3101e-06 0.0043392 7.963e-06 0.65886
6.0804e-05 0.00017657 1.5785e-05 0.24283 0.23865 -4.876e-06 9.7495e-06 -1.0064e-05 -3.1831e-05 -3.0141e-05 0.22859 -5.5665e-05 0.00026155 0.15916 2.541e-05 9.1513e-05 -3.8117e-06 -5.1648e-05 0.22747 1.8008e-05 -8.0989e-06 -1.7483e-05 -0.00066644 -0.00013299 0.00012888 0.28957 1.4948e-05 0.00023682 0.19491 -4.5538e-05 0.0010586 1.1698e-05 -7.6896e-05 -2.8357e-05 0.34459 -0.00029873 0.36074 0.0002142 -3.3264e-05 -5.6092e-05
-2.5901e-06 4.5325e-05 6.1337e-05 -2.7519e-06 1.6485e-06 -2.0697e-05 3.6204e-06 -7.5508e-06 6.0044e-05 8.0148e-05 8.3357e-06 -1.4055e-05 0.22424 -4.7607e-05 0.3713 -1.5639e-06 -0.0001327 -4.8503e-05 0.00068104 0.00049867 -0.00029105 -5.5395e-06 -8.0276e-06 -4.8359e-05 0.00040296 1.1969e-05 1.3775e-05 0.00066961 -0.00011223 -0.00011028 5.3719e-06 -9.4834e-05 -4.0885e-05 3.3348e-05 2.5562e-05 0.00040965 0.00013069 -2.341e-05 3.7606e-06 9.2541e-06
3.633e-05 4.3661e-05 5.2048e-05 -2.2681e-06 -8.7518e-05 1.3277e-05 3.4902e-05 0.20786 4.7939e-05 0.0018885 3.5847e-05 -3.1732e-05 0.18484 0.00035379 2.0715e-05 0.0027848 0.0001458 -0.00022408 0.00044688 0.26882 -0.00068196 5.9828e-06 -0.00010269 -3.4259e-05 0.26751 -0.00017924 -0.00010707 0.00049211 1.2645e-05 -0.00044932 -0.0001691 0.2586 -0.0001473 0.0004443 -0.00014674 -6.7194e-05 0.00012174 1.4246e-05 5.9449e-05 -0.00058383
2.6204e-05 4.3649e-05 0.20416 -4.747e-06 0.00023067 6.3883e-06 -4.7162e-06 1.5546e-05 -3.4819e-06 0.00024235 -8.2858e-06 3.1795e-05 0.0039192 8.4369e-05 0.00043632 9.2617e-06 0.45402 -0.0012441 0.0005127 0.0012595 0.40053 -9.4221e-06 0.00068149 -2.035e-05 -0.00014083 -0.00012293 0.00023952 0.016861 6.7863e-05 -0.00022761 -6.0345e-05 -5.687e-05 -6.669e-05 5.1144e-05 0.000955 0.00088524 4.3668e-05 -9.5894e-05 2.6165e-05 5.5051e-06
-8.3836e-06 0.23344 8.5859e-06 9.7815e-07 6.2025e-05 -4.392e-06 -9.0472e-06 -3.0834e-05 -4.1318e-06 4.0296e-05 -9.7412e-05 0.16422 0.0020302 0.23366 -5.4855e-05 0.00014683 1.214e-05 0.00039065 -5.8313e-05 5.7377e-05 -7.4258e-05 0.00041703 0.00103 0.18295 0.0044771 1.7596e-05 0.47269 -7.6661e-05 -0.00040235 -0.00014787 2.4488e-05 0.00075035 -0.00011517 -6.7469e-06 0.00019826 0.022933 -0.0012471 2.955e-06 0.00073864 -5.2092e-06
0.4272 -6.5311e-06 0.34117 -1.2401e-06 -1.8288e-06 0.43919 6.3754e-07 -7.9714e-06 3.2786e-07 -3.9187e-06 8.8973e-07 -7.3732e-07 -7.5882e-07 -8.4731e-07 9.4409e-06 1.7925e-05 -1.2917e-06 5.3462e-06 -1.5974e-05 3.4495e-05 -1.4222e-05 -3.3729e-06 -2.3138e-06 2.252e-05 -8.9823e-06 -0.00012873 -2.3337e-06 -5.2527e-05 -8.0477e-06 1.4814e-05 -8.8966e-06 -1.4269e-05 -2.7581e-06 2.1681e-05 6.7551e-08 -2.1229e-06 -5.9916e-07 0.47028 9.7536e-07 -0.00039966
6.689e-07 -2.6756e-05 3.1475e-05 4.1432e-06 -6.8445e-05 2.3483e-06 -4.1342e-07 0.00057248 -1.638e-05 9.3379e-05 0.00010461 2.5819e-05 0.012664 -0.00021189 5.5995e-06 -1.1379e-06 0.00082069 0.0019824 3.2455e-05 -8.8188e-05 0.008833 0.0011316 0.00032992 -3.1695e-06 0.0017054 -5.5797e-05 -1.0838e-05 0.0019158 0.002964 5.1784e-05 -2.5528e-06 -0.00047457 -4.9865e-05 -8.5447e-07 5.148e-06 0.00066757 -6.9168e-05 2.1685e-05 -6.7351e-06 -3.1962e-05
2.0315e-05 -4.1858e-05 -7.585e-06 -1.6821e-05 -5.2877e-05 1.0971e-05 -1.0126e-06 -1.5438e-06 -2.7403e-05 0.40059 0.33351 7.3077e-05 0.0058727 0.00029786 4.1149e-05 -3.7613e-05 0.00088659 -2.468e-05 0.0034164 -3.1196e-05 0.00031145 -3.9085e-06 -3.4273e-05 6.72e-05 -0.00010614 -0.00011528 4.5082e-06 -4.1894e-06 0.2827 -1.1731e-05 5.9164e-05 -0.00064577 0.0025855 -3.9514e-05 0.00026075 -0.00020145 8.3472e-05 2.2377e-06 -9.2527e-05 -9.0751e-06
9.4843e-07 1.7576e-06 -8.4335e-06 -7.1449e-07 -8.3284e-05 3.3339e-06 9.4879e-05 0.00018776 -3.1637e-07 0.5338 6.408e-06 -1.3611e-05 0.00022258 -5.3998e-05 6.9393e-05 0.4755 -1.5437e-05 -8.4448e-05 8.2123e-06 0.00012644 4.3163e-06 -1.4413e-05 -2.1739e-05 -9.7327e-06 0.00036508 -0.00020302 -1.783e-05 -0.0001638 0.00016099 -3.7003e-05 0.00010879 0.017219 -9.0421e-06 -4.185e-05 -8.5173e-05 -0.00031418 -4.4339e-06 1.1147e-05 -9.9819e-05 -1.8442e-05
1.7253e-05 0.00018492 9.6866e-06 2.7953e-06 -0.00014586 7.9172e-06 7.5739e-06 0.00038 2.9793e-05 0.0016933 0.00017494 -4.4585e-05 0.0018293 0.0002884 -3.6331e-05 0.0036184 -7.0088e-05 -7.201e-05 0.00020345 -1.761e-05 0.00081383 0.00052312 0.0036718 -0.00012778 0.00023421 5.8137e-05 7.0639e-06 -2.4615e-06 0.21157 6.6896e-06 -0.0005203 0.011105 0.00011995 -4.7319e-06 0.0011895 0.00013123 0.0015503 4.3609e-06 3.9716e-06 -7.0758e-05
2.1973e-05 7.2939e-05 0.00013402 -7.4851e-06 -0.00013034 9.4704e-05 -1.8933e-06 8.408e-05 4.7701e-05 0.00025126 0.00020382 3.3172e-05 0.19941 0.00042898 0.00036364 -3.3598e-05 -6.7814e-05 -0.00016536 0.22771 -1.1618e-05 -0.0002559 -2.1438e-06 0.00076843 -5.9162e-05 0.00071799 0.00022145 0.00033345 0.0014777 0.2024 -1.4461e-05 1.6195e-05 2.3894e-05 -8.604e-05 -4.7728e-05 -0.00013108 0.00023108 0.000186 0.00019383 -3.153e-05 -2.6172e-05
1.0337e-06 -1.0465e-06 -3.3064e-07 -9.3778e-06 0.00011813 -5.7869e-08 2.5554e-05 -1.2773e-05 5.2612e-06 0.00025605 -7.8621e-05 0.00011053 -4.5861e-06 0.00099383 -5.7961e-06 0.00016625 -9.85e-05 -1.676e-06 0.00016022 4.9282e-05 -6.1715e-05 -1.4491e-05 0.00030967 0.00017409 0.00028843 2.7977e-05 0.00013704 -5.4075e-06 -0.00040982 -8.7952e-05 1.0641e-05 -0.00024372 -7.6514e-05 -2.2554e-05 -0.00010405 0.032255 0.0002784 -7.4173e-06 0.79823 -2.6993e-06
-5.0954e-06 0.18082 6.4386e-06 3.1063e-05 0.26765 2.5241e-06 1.4642e-05 -4.6224e-05 4.2933e-05 5.1412e-06 0.00043274 0.42291 -5.1349e-05 0.00062469 -0.00010045 0.27405 -2.7023e-05 0.0047199 0.00035795 -5.2184e-05 -0.00047877 6.8715e-05 -0.000328 -0.275 0.32755 3.9303e-05 -0.00020469 -0.0005859 0.00086668 -0.00010645 0.00018059 -0.00084383 -0.00015074 1.5862e-05 -0.00028534 0.018243 0.00011627 4.6275e-06 0.00056795 1.1711e-05
5.4231e-05 -5.7853e-06 -9.7457e-07 -1.6049e-06 7.4415e-05 1.9789e-05 1.2548e-05 0.00036486 -7.8952e-05 7.0002e-05 0.00025498 6.2945e-05 0.0016053 0.00070682 1.087e-05 -0.00024334 0.00074712 5.4855e-05 0.00071227 9.2571e-05 -0.00040594 0.00034214 0.00035864 6.1978e-05 0.32475 0.0060883 -0.00013433 -9.6223e-06 -2.0609e-07 4.7354e-05 0.00024279 0.29454 -3.5871e-05 -6.5599e-05 0.38406 0.2885 -0.00061317 3.9929e-05 0.00045787 -6.1227e-05
-5.3717e-06 -2.4533e-05 1.5825e-05 -6.6627e-06 -0.00020127 -5.0364e-06 3.9121e-07 -1.7354e-06 -1.147e-05 0.0005305 2.6047e-06 3.7847e-05 0.00017362 -1.7502e-05 7.6007e-06 -7.021e-05 -4.426e-06 0.50264 6.6386e-05 8.9758e-06 -9.8188e-05 -4.6401e-05 0.00012759 2.6259e-05 -0.00029196 -0.00028907 2.2093e-05 0.00028503 -5.2509e-05 1.4448e-06 6.066e-05 -2.4771e-05 3.5371e-06 -2.9073e-05 -1.1317e-05 0.0010011 0.00031361 -1.1978e-05 2.4068e-05 2.8979e-06
-4.4855e-08 1.3976e-08 1.8674e-07 -5.2504e-09 9.1939e-07 -3.9139e-08 0.8942 -2.4408e-06 -4.1315e-07 -8.5354e-06 -1.2709e-06 -2.9878e-09 -9.8918e-06 -3.1594e-06 7.1981e-07 -2.2294e-06 7.5347e-07 9.8379e-07 9.4509e-06 -2.419e-05 -4.6943e-06 -1.5268e-08 -1.0253e-05 5.2956e-07 5.6207e-05 3.7998e-07 -2.8932e-07 8.7214e-07 -3.1746e-06 4.1732e-06 -4.336e-06 -5.5873e-07 3.7382e-07 1.1503e-07 3.2502e-06 2.329e-05 -9.8586e-08 2.8693e-06 4.6907e-06 -8.3233e-07
2.0896e-05 0.14063 0.17096 0.2101 -7.8135e-05 1.2956e-05 1.2877e-05 -5.6763e-05 9.0079e-06 2.3756e-06 0.19786 0.32583 0.17324 2.196e-05 0.00013252 -3.3452e-05 -0.00011568 -1.4039e-05 0.19725 0.0013348 -0.0002723 -1.9681e-05 6.4665e-06 -0.2126 0.00017289 -9.7257e-05 -5.0086e-05 6.7831e-06 0.16905 -7.0176e-05 2.8994e-05 0.00038067 -0.00020296 0.0022798 4.409e-06 -8.5742e-05 0.00017728 -0.00020176 8.5989e-06 -0.0001269
-1.3389e-05 0.19524 -6.5068e-06 2.4856e-06 -1.3157e-05 4.7336e-05 -6.0243e-06 0.0014954 -4.3264e-05 1.4426e-05 -0.00013801 0.13771 -0.00017698 0.19772 0.00025669 -1.2513e-05 -3.2888e-05 -3.4176e-06 -2.7339e-05 0.36171 -4.3426e-05 1.9823e-06 -1.0701e-05 0.15377 -0.00010416 2.5146e-06 0.00011357 -7.6605e-05 -8.2736e-05 0.43511 5.8072e-05 -0.00019021 0.35953 0.006665 -3.8146e-05 -7.301e-06 -8.6721e-06 -5.8245e-05 7.821e-06 -0.0068292
-6.4118e-07 9.1208e-05 9.1939e-06 -7.0537e-06 -6.4598e-05 3.7664e-07 0.00025921 8.5325e-05 0.00018237 4.1649e-05 -0.00079295 0.00023945 0.00032939 8.6089e-05 -9.1942e-05 8.2164e-06 0.0011338 -1.9092e-05 6.1753e-05 -3.8158e-05 -0.00031238 5.5337e-05 0.29499 0.00039812 -0.00064353 1.5932e-05 0.00049983 -5.2294e-06 -0.00063138 -4.1525e-05 1.053e-05 -1.838e-05 -5.2797e-05 -1.2043e-05 0.033216 0.00041553 0.00050559 -3.5695e-07 -2.717e-05 -4.4195e-05
-1.5332e-05 0.27622 -1.2333e-06 2.3647e-06 -1.3221e-05 -6.9673e-06 -4.9853e-07 -9.6709e-06 2.6732e-05 1.6061e-05 3.1965e-06 0.19414 -2.3277e-05 0.27485 6.7087e-06 -5.3923e-06 -1.4144e-05 -2.7631e-07 -1.392e-05 -6.5326e-05 -2.3469e-06 5.7701e-06 -5.782e-07 0.21623 2.5032e-06 -8.5621e-06 -1.1537e-05 -3.2704e-06 -3.8326e-05 -0.0003747 7.1555e-06 6.4223e-05 0.49365 6.8238e-05 -4.9743e-06 5.4673e-05 5.8547e-05 -1.0205e-06 1.8615e-05 4.2034e-06
-4.5476e-07 0.00017352 8.7855e-06 -1.4187e-05 -6.0368e-05 1.321e-06 0.00024519 -2.6051e-05 0.0018591 3.8449e-05 -0.0013161 8.5568e-05 0.00044565 -8.0787e-05 -0.00012625 2.5332e-06 -9.6261e-06 -1.4027e-05 7.2197e-05 -5.0325e-06 -0.00023066 -1.1704e-05 0.28406 0.00023365 -0.00042287 4.0946e-05 0.0014297 -3.8639e-06 0.00048243 8.3498e-06 5.8321e-06 5.6295e-05 0.00066211 1.0784e-06 0.038078 0.00042905 0.0075179 -4.5828e-06 -1.04e-08 3.8937e-06
-1.5866e-06 2.3096e-06 8.645e-08 3.1957e-07 7.0058e-06 -1.3644e-06 -2.6344e-06 -1.7205e-05 -8.0955e-06 -8.3349e-06 8.4882e-05 -8.7584e-07 2.3459e-05 3.3167e-06 5.4359e-05 1.361e-06 2.7031e-06 -1.2264e-05 8.5899e-06 2.4592e-06 0.00012278 7.593e-06 0.44939 -2.5713e-07 8.2488e-05 -5.7874e-06 -1.2249e-05 3.1322e-08 0.00012492 7.2167e-08 8.2846e-07 -3.1009e-05 -5.3415e-08 -6.8897e-07 -0.00047935 0.00019444 -0.00038867 1.7671e-06 -3.8824e-06 1.08e-06
1.1213e-06 -2.0114e-05 1.995e-05 -3.2277e-06 -1.6273e-05 4.8682e-06 7.5058e-05 0.29299 4.1207e-05 0.0016641 -9.4814e-05 2.8866e-05 0.0012582 -4.5296e-05 -0.00012056 -1.8319e-05 -7.1822e-05 -3.2308e-05 5.4876e-05 0.00072949 -6.1712e-05 -1.715e-06 0.0042259 7.9048e-05 0.0019535 4.131e-07 1.4671e-05 -2.9236e-06 0.00049321 -0.0001053 8.2502e-06 0.00057333 -8.8716e-05 0.00072402 0.0013407 0.00016311 0.0018249 -1.7478e-06 5.3352e-05 -0.00073978
-3.1714e-06 0.1866 7.3667e-05 1.3565e-06 -1.7467e-05 -4.6599e-06 1.3319e-05 0.26444 6.3202e-05 7.3983e-06 0.00029895 0.13085 0.23255 0.18622 -1.3731e-05 -2.564e-05 0.50801 -5.0607e-05 0.00062409 9.0194e-06 -0.00054594 -1.1052e-05 0.0015506 0.14573 9.1128e-05 0.00010146 0.37571 4.5551e-05 0.00076497 -0.00010193 1.3111e-05 0.00040728 -0.00025728 -7.4739e-05 2.6672e-06 -6.5975e-05 -5.0879e-06 9.4184e-06 0.00011001 6.6076e-05
-1.1898e-17 1.9852e-17 -8.0482e-18 2.3248e-18 -4.0522e-17 1.4554e-17 8.6864e-18 -6.7255e-17 -1.3053e-17 -3.5062e-15 -8.2514e-18 -9.5275e-18 4.0671e-16 1.1125e-16 -1.1801e-17 2.1106e-17 1.4132e-15 8.4149e-17 -2.3322e-16 -2.9219e-18 7.538e-16 2.1511e-19 1.9593e-16 3.0304e-17 2.7559e-17 4.0629e-17 8.5079e-17 1.6674e-17 4.1393e-16 -3.5518e-17 -1.7585e-18 1.2849e-15 -2.7089e-17 -4.3429e-15 -1.3565e-17 -2.5e-14 -6.438e-17 -1.5345e-14 4.7609e-12 2.8964e-14
2.1003e-05 -4.0575e-05 7.4154e-06 0.38324 -0.00016805 1.6121e-05 -6.9026e-07 -2.2112e-06 -4.4733e-07 2.404e-06 0.361 0.00018115 5.5575e-05 -4.2109e-05 -6.2593e-05 -2.3648e-05 -6.3531e-06 -1.852e-05 0.0002578 6.0398e-06 -9.9527e-05 -4.4474e-06 -3.2189e-05 -0.00010791 -6.2203e-05 -0.0002543 3.3123e-06 1.6228e-05 0.31664 2.7857e-05 1.1794e-05 -3.5231e-05 -8.8551e-06 -8.9489e-06 -4.4886e-05 -0.00038268 0.00033478 8.1143e-07 -1.0509e-05 -2.0338e-06
2.0653e-05 0.00012658 0.24165 3.1404e-05 -9.144e-05 4.9762e-06 6.5908e-06 0.00030702 1.4416e-05 5.179e-06 -0.00041065 7.5419e-05 0.24507 -2.4611e-05 0.00010996 -8.9524e-06 -0.00015714 7.7461e-06 0.27841 0.0003163 -0.00040414 -4.7854e-05 0.0048395 -0.00021168 0.00013432 -6.5618e-05 -1.6872e-05 -5.6433e-05 0.00044476 -5.8172e-05 2.9803e-05 0.00065226 -8.5799e-05 -2.6681e-05 0.032738 -7.3658e-06 0.00027971 -0.00015653 -2.9195e-05 -0.00036183
2.0605e-06 -1.2685e-05 2.2592e-06 -2.516e-07 -9.2074e-06 -1.2614e-06 -6.4669e-06 0.22801 2.6414e-05 6.9909e-06 -1.9998e-05 4.5469e-05 4.3019e-05 -2.2906e-05 -0.0002353 -4.9174e-06 -6.8189e-06 -7.3121e-05 0.00010458 1.1736e-05 -8.2535e-05 6.2984e-05 0.006799 8.3238e-05 0.0016893 -1.4196e-05 0.00015951 -4.1665e-06 0.00039743 -5.1445e-06 6.4799e-06 0.00011077 -2.6935e-06 -9.133e-05 0.0011629 -0.00012587 0.0013461 2.4961e-05 2.1077e-08 -8.8064e-05
-0.00055332 0.25208 1.621e-06 1.0627e-06 -1.7272e-05 -3.3566e-05 -7.4067e-07 5.8238e-05 0.40539 3.4187e-06 2.4482e-06 0.17734 2.9611e-05 0.25103 -1.5464e-05 -7.2769e-06 6.9635e-06 2.7949e-05 1.9463e-06 7.9282e-06 6.3749e-06 0.57512 0.0016942 0.19761 -6.0883e-05 4.662e-05 -8.4569e-06 -4.3198e-06 -3.8211e-05 -2.5096e-05 8.9769e-06 4.6677e-05 2.5526e-05 6.267e-05 -1.645e-05 4.6694e-06 -3.1381e-05 -1.9096e-06 1.4246e-05 -3.662e-05
-1.4472e-05 6.1828e-07 -3.4703e-05 -4.0632e-06 4.1165e-05 -4.3564e-06 1.0521e-06 -1.0632e-05 -4.6507e-08 7.3819e-05 5.2791e-05 8.5386e-07 0.0015689 1.8662e-05 0.00096177 6.7559e-06 0.00022483 -7.2065e-05 0.39299 -0.00018827 0.00035544 -7.5079e-06 -3.5418e-05 -6.0087e-08 -0.00011354 -0.00029563 -0.00010883 0.58767 -6.4023e-05 4.6489e-05 -5.5654e-06 -3.6608e-05 -4.0607e-05 -2.4936e-05 -4.2945e-05 -9.2322e-05 1.6894e-05 5.3709e-06 -3.7368e-05 -3.969e-06
1.8213e-05 -2.4919e-05 -3.2009e-07 -1.418e-06 -3.6645e-05 1.3806e-05 0.00047828 -1.9426e-05 5.9992e-05 3.8568e-05 -1.291e-05 8.0666e-05 -2.6694e-05 -0.00011127 -1.7996e-05 -1.6817e-06 8.9846e-06 -4.4002e-05 1.0928e-05 -1.9154e-05 -1.5883e-05 2.664e-05 0.00017893 0.00010486 0.00010196 2.5641e-06 -6.0866e-06 -4.9443e-05 -0.00022089 1.7417e-05 1.2066e-05 -6.3379e-05 1.7976e-05 -4.2436e-06 0.00011546 0.58152 6.3314e-05 6.4165e-06 -0.00056506 7.2592e-08
1.2995e-05 2.1684e-05 7.7957e-05 -2.4284e-05 0.00011627 0.00015254 1.1685e-06 7.3645e-05 3.462e-05 0.0034753 -3.1117e-05 7.7322e-05 -6.968e-05 0.001115 -2.3442e-05 0.00014033 -3.8064e-05 -0.0002235 0.0012481 4.6716e-05 -3.6514e-05 -2.2238e-06 0.00022933 0.00012419 0.00018905 1.2801e-06 0.00012035 0.0020551 -0.00052665 -8.0182e-05 1.2818e-05 -0.0001865 -7.9134e-05 -2.8406e-05 -0.00019906 0.029134 3.1828e-05 2.7192e-06 0.00094057 -4.1466e-06
6.5714e-05 -3.6137e-05 1.4661e-06 0.26045 0.25671 -6.2064e-06 1.2756e-06 -1.8776e-05 -3.042e-05 -2.3653e-05 0.24514 6.1178e-05 2.5957e-05 0.17127 3.9921e-05 0.00010523 -2.6165e-05 -6.6535e-05 0.24355 8.9094e-06 -1.8605e-05 3.45e-06 -0.00065583 9.5455e-05 0.00010089 0.31569 7.4573e-06 9.5498e-05 0.20878 -5.6642e-05 0.0010899 6.8582e-06 1.2383e-05 -4.6418e-05 0.36843 -0.00025113 0.38637 0.00020742 -4.4488e-05 -3.3176e-05
-1.3308e-05 6.4315e-05 0.00035296 6.253e-06 -1.2579e-05 4.6742e-06 -1.8973e-06 0.00039211 -5.8536e-05 -1.3176e-06 1.1586e-05 3.4581e-05 0.00014986 1.6114e-05 7.7373e-05 -1.0822e-05 -1.288e-05 -1.4357e-05 0.00029661 0.00019893 -5.5552e-05 -5.2252e-05 0.0032532 -2.2276e-05 0.0013008 -0.00018673 0.00021931 -2.3043e-05 0.00076778 -7.9439e-05 1.5115e-05 0.0010261 -5.5088e-05 0.00083135 7.0241e-05 -0.00012765 -9.4533e-05 -0.00022964 7.0055e-06 -0.00070395
-5.6665e-06 1.435e-05 0.00012099 4.941e-07 -5.1767e-07 2.3864e-06 -4.4002e-06 0.00034286 -1.6568e-05 0.00037452 1.3322e-05 5.002e-05 -3.7941e-05 -8.0602e-07 -4.7516e-05 2.7944e-05 -1.6797e-05 -1.0595e-05 0.26575 -1.1355e-05 -1.2819e-05 -1.2387e-05 -1.8357e-05 0.00011701 0.00097341 3.3601e-05 0.0028228 0.00069585 0.00028481 -9.5442e-07 9.9185e-06 0.00011427 -5.305e-05 -1.5452e-05 -9.9803e-06 0.00029389 -3.7464e-05 8.0621e-06 -3.3491e-05 -8.078e-05
-1.4995e-30 -1.7424e-31 -1.8863e-30 1.6812e-31 -5.9184e-29 -2.7155e-29 1.048e-32 -2.1379e-30 -1.2213e-32 7.4377e-33 3.3462e-31 -1.9112e-31 5.8011e-31 -2.5617e-31 1.6933e-31 7.6782e-31 1.4059e-32 -2.5489e-30 -1.0642e-30 -2.45e-30 -6.8755e-33 -4.892e-33 1.3743e-31 -3.6282e-31 8.4958e-31 3.2765e-29 1.9016e-31 -6.0053e-31 2.4463e-30 -1.0346e-31 1.6742e-30 -1.4598e-29 -1.3258e-31 3.5916e-29 2.1918e-30 -7.7669e-31 1.049e-30 9.8115e-28 5.141e-33 5.8596e-28
2.7852e-05 2.5108e-05 -4.1183e-06 3.1677e-05 0.0012121 -5.4032e-07 -1.3001e-05 0.0002234 0.00025595 0.00045889 0.00060884 0.00080214 -3.3687e-05 5.5204e-05 -8.9539e-05 0.0016861 1.2255e-05 0.41897 0.00044752 0.00034778 -0.0001406 0.00012283 -0.00020039 0.00017615 0.0018185 0.0011757 -0.00011071 0.00043931 0.0016226 -0.00017734 -0.0011042 0.00048518 -2.1694e-05 0.0019139 -0.00024281 0.0015204 9.594e-05 -3.4069e-05 -1.4733e-05 -0.00036303
0.4272 -6.5311e-06 0.34117 -1.2401e-06 -1.8288e-06 0.43919 6.3754e-07 -7.9714e-06 3.2786e-07 -3.9187e-06 8.8973e-07 -7.3732e-07 -7.5882e-07 -8.4731e-07 9.4409e-06 1.7925e-05 -1.2917e-06 5.3462e-06 -1.5974e-05 3.4495e-05 -1.4222e-05 -3.3729e-06 -2.3138e-06 2.252e-05 -8.9823e-06 -0.00012873 -2.3337e-06 -5.2527e-05 -8.0477e-06 1.4814e-05 -8.8966e-06 -1.4269e-05 -2.7581e-06 2.1681e-05 6.7551e-08 -2.1229e-06 -5.9916e-07 0.47028 9.7536e-07 -0.00039966
0.00029933 -9.9075e-06 2.7912e-05 1.0621e-06 -2.8642e-06 -0.00019375 0.00020877 -1.4983e-05 -1.0386e-06 9.9354e-05 -5.1242e-05 8.4079e-06 0.0002104 0.21898 -2.9591e-05 9.5106e-06 -2.2149e-05 7.6132e-06 4.9159e-05 0.41156 -5.1148e-05 -5.5803e-06 -1.3775e-05 8.2304e-06 0.00017253 -0.00010679 1.8722e-06 -0.00012922 -4.9578e-05 -0.0029551 -3.9944e-06 -0.00015319 -0.00041583 5.7895e-05 -4.4252e-07 -0.00010997 5.5794e-06 0.37088 8.0919e-05 -0.0007659
2.7804e-06 -1.3428e-05 -1.4343e-06 -4.9663e-06 -3.9067e-05 -2.0645e-06 -1.7302e-05 0.24373 1.7101e-05 9.751e-05 2.5096e-06 8.8838e-05 -8.5253e-05 -6.4153e-07 -7.8176e-05 -6.4112e-05 1.1267e-05 -0.00016473 5.0224e-06 -2.748e-05 -0.00044138 -7.6509e-07 -0.0001501 -9.6837e-05 0.31436 -7.424e-06 -0.00010413 -4.6796e-05 -6.3195e-05 1.9584e-05 4.3748e-05 -0.00015752 1.4329e-05 -5.8785e-05 1.568e-05 -0.00012553 4.6581e-05 2.7075e-05 -2.8324e-06 8.3932e-05
-0.0004345 0.0031667 0.26979 -5.7691e-06 -0.00018911 -1.734e-05 3.8051e-06 -2.4935e-05 6.367e-05 -1.0416e-05 -1.9183e-05 0.36168 0.27439 5.0422e-05 4.2715e-05 -4.0463e-05 -6.3087e-05 0.37909 0.000729 1.5507e-05 -0.00032846 0.49842 0.0012227 -0.50637 0.0021085 0.00018857 3.447e-05 0.00066835 -1.6201e-05 5.7037e-05 5.2495e-05 0.00089459 -7.5363e-05 6.5648e-05 0.00030092 0.00043728 -0.00099516 -3.2572e-05 -7.4336e-06 -1.0816e-06
1.1968e-06 3.7726e-06 2.2649e-06 2.1746e-05 0.4602 -3.5945e-06 -1.5946e-06 2.4837e-06 6.5057e-06 1.543e-05 5.6105e-05 -1.912e-05 1.2196e-05 2.2718e-05 8.9374e-06 0.46938 -9.6802e-06 -0.00013911 -1.3478e-05 -3.0356e-06 2.6026e-06 5.472e-07 1.3488e-05 -2.0775e-05 -3.5704e-06 0.00043421 -5.0617e-06 -1.36e-05 0.00011043 7.089e-05 0.74522 -0.00033077 1.4621e-05 2.2146e-06 0.00012197 -7.9789e-05 5.6222e-06 -3.2506e-06 -8.7988e-06 1.9079e-07
-8.5803e-07 -3.8182e-05 -2.4982e-06 -2.1793e-05 -9.0928e-06 -3.1128e-07 0.00022172 7.6073e-05 1.9867e-05 0.27476 -4.2758e-05 0.00012077 0.0002064 -1.049e-05 -1.4688e-05 -1.5201e-05 0.00035716 0.00024643 0.0025334 -1.4622e-06 8.7762e-05 6.5195e-05 0.0017422 0.00020101 6.4486e-05 -9.3708e-05 9.3758e-06 -4.402e-05 0.00040977 1.3907e-06 3.6034e-05 -0.00051972 4.3055e-05 -2.217e-05 1.0493e-05 0.002578 0.00032927 4.9954e-07 0.0065865 -3.9763e-05
1.1472e-05 0.15203 1.6223e-05 2.5768e-06 -2.6758e-05 -2.672e-06 -6.1317e-06 0.21348 -1.8854e-05 0.00019768 -1.5249e-05 0.35487 -2.0291e-05 9.4776e-05 0.00035034 -1.6475e-05 5.6685e-05 -0.00010377 8.1092e-05 -7.2044e-06 -2.251e-05 -5.3078e-05 0.00079898 -0.23184 2.9053e-05 0.00028518 0.30426 0.00052611 0.00035306 -4.276e-05 4.8563e-06 1.871e-05 -2.1635e-05 -7.2997e-05 -1.2957e-05 0.00098673 -3.0275e-06 8.8083e-05 1.9845e-06 -0.0003501
3.5246e-05 9.4737e-05 5.9085e-05 -1.0114e-05 6.3344e-06 8.2118e-06 7.1011e-06 -1.4498e-05 5.0618e-05 -0.00015876 8.9982e-05 -5.5193e-05 0.23894 0.18603 6.2681e-05 -0.00027013 0.00057085 -3.0117e-05 0.0033463 -0.00010696 -1.645e-05 1.0062e-05 -2.8955e-05 -0.00011691 0.00034819 -4.1037e-05 -1.3649e-06 5.2324e-05 8.4045e-05 -0.0003356 0.00021526 0.30722 0.33573 2.9282e-05 3.3037e-05 0.00010197 6.5825e-05 -1.273e-05 2.7151e-05 2.1211e-06
5.1714e-06 -3.3376e-06 2.448e-05 6.5639e-06 -3.0096e-05 5.5901e-07 -8.6314e-07 0.33215 2.1771e-05 2.2442e-06 0.00074352 -6.9535e-06 0.00022499 0.0002695 -5.1801e-05 8.5457e-06 0.00026462 9.8382e-06 9.4735e-05 -1.7019e-05 0.00012419 7.1498e-05 0.00028116 4.9447e-05 -5.9411e-05 -6.9141e-05 0.00012766 -6.7862e-06 0.0027221 -3.3647e-05 4.4562e-07 -7.2595e-05 0.0005741 -0.00012016 -0.00014022 0.00058364 -0.00013025 3.5482e-05 -1.9702e-05 -5.5721e-05
4.1366e-06 0.16533 8.0124e-06 0.25094 0.25466 5.2049e-06 6.3721e-08 -5.2125e-06 2.1293e-05 4.428e-07 0.23672 0.11656 0.00017592 0.00010221 -8.6161e-05 0.0012761 -9.3928e-07 0.0046661 0.23528 -5.3368e-05 -0.00010762 -1.4763e-05 -8.9151e-05 0.12929 0.0013424 0.0012255 -7.8398e-05 -0.0005128 0.20358 -3.1455e-05 -0.00036926 -9.9935e-05 -0.00011478 -3.3598e-05 -0.00051504 0.00020363 0.00021086 -1.6624e-06 -1.6297e-05 -1.7657e-06
1.9086e-05 0.12627 1.2882e-05 -3.5198e-07 0.00045341 7.6181e-06 2.9405e-05 4.5129e-05 5.7894e-05 0.00027082 -0.00042672 0.088809 0.00020876 -4.0224e-05 0.00027179 0.00028118 -1.4992e-05 -1.2873e-05 0.17956 -1.7884e-05 -3.5115e-05 -4.7946e-06 0.18874 0.098905 0.00065305 0.00032109 0.000253 0.00045441 0.15489 7.5722e-06 -2.2946e-05 -1.3804e-05 -7.0232e-05 -3.7727e-05 0.0030741 0.20786 0.28988 2.7868e-06 0.0043644 -7.5925e-06
1.4974e-05 0.25214 8.2066e-05 1.689e-06 -5.2975e-05 1.092e-05 5.04e-06 2.4738e-05 0.40547 1.0289e-05 2.8517e-05 0.1773 0.31462 4.1331e-05 9.2741e-05 -5.2589e-05 -0.00013215 -8.1389e-05 0.00087769 2.9953e-05 -0.00038711 -2.7054e-06 1.6916e-05 0.19749 0.00053205 4.336e-05 -7.8924e-07 1.7506e-05 0.30488 7.0174e-05 2.2373e-05 -1.6554e-05 -3.3544e-05 -2.8178e-05 0.00010073 1.3721e-05 0.00034468 -9.994e-06 7.7803e-06 -1.3042e-06
0.42678 1.1298e-06 1.8698e-05 0.41979 7.5589e-06 0.43947 -4.3443e-08 -1.1832e-05 -8.2475e-07 -1.9108e-06 8.5255e-06 2.5568e-06 1.9134e-06 -2.9692e-06 0.57206 7.7621e-06 3.8598e-06 5.7573e-05 7.0935e-05 -1.4815e-05 3.7597e-06 -7.0638e-06 -3.3282e-06 -2.6293e-06 2.3944e-05 5.7041e-05 1.0682e-06 -5.9188e-05 4.1666e-05 -3.6213e-05 5.5541e-06 -5.6517e-05 2.2164e-05 -8.7421e-06 2.4711e-05 -2.8887e-05 1.2552e-05 0.0092329 -8.0676e-07 -0.0011315
6.5714e-05 -3.6137e-05 1.4661e-06 0.26045 0.25671 -6.2064e-06 1.2756e-06 -1.8776e-05 -3.042e-05 -2.3653e-05 0.24514 6.1178e-05 2.5957e-05 0.17127 3.9921e-05 0.00010523 -2.6165e-05 -6.6535e-05 0.24355 8.9094e-06 -1.8605e-05 3.45e-06 -0.00065583 9.5455e-05 0.00010089 0.31569 7.4573e-06 9.5498e-05 0.20878 -5.6642e-05 0.0010899 6.8582e-06 1.2383e-05 -4.6418e-05 0.36843 -0.00025113 0.38637 0.00020742 -4.4488e-05 -3.3176e-05
-4.2256e-06 1.2128e-05 -1.6333e-08 -4.6923e-08 1.6969e-05 2.2595e-06 0.00024792 -8.1024e-06 -2.7451e-05 3.9591e-05 5.9611e-05 0.00015936 0.00010317 3.6822e-06 -5.4124e-05 9.3157e-07 2.6906e-05 4.3621e-05 1.5356e-06 -1.3618e-06 6.9646e-05 3.6434e-06 0.27393 0.00030676 -6.5409e-05 -4.06e-05 -2.7756e-05 -1.0798e-05 -0.00015232 -1.6773e-05 2.7326e-07 -3.1612e-05 -2.2383e-05 0.00033474 -0.00032924 0.00058226 -0.00040211 1.3189e-05 7.4268e-06 -0.0001765
-6.0081e-06 0.18616 0.00030967 4.9028e-06 6.2497e-05 -4.6082e-07 2.4938e-06 -2.826e-05 -8.56e-05 0.00086726 4.6043e-05 0.13153 6.9653e-05 0.00088702 0.00012111 9.822e-05 -2.8003e-05 2.5645e-06 0.00024657 0.00012247 -3.891e-05 -7.6234e-05 -7.6163e-06 0.1468 8.3474e-05 0.00036248 5.2986e-05 0.00019264 0.00015008 -6.1926e-05 2.1873e-05 0.00065147 -0.00017697 -4.5733e-05 3.6992e-05 0.018208 -0.00011605 -0.00014993 0.00062074 -7.9174e-05
-1.995e-06 0.00023581 0.00017788 -1.0039e-05 0.00010656 9.3339e-05 1.3853e-06 -8.4015e-06 -1.1503e-05 0.29425 0.00025467 -7.1505e-05 0.00041725 0.00057624 0.00011221 8.8947e-05 0.00019904 8.2839e-05 0.00061181 0.31953 0.00080994 -1.1728e-05 -0.00023602 -0.00014787 1.4298e-05 -0.00015192 1.0967e-05 0.37207 0.00034484 -0.00097345 3.7226e-05 -0.00067475 -0.00013732 -1.7457e-05 -0.000125 0.01744 -3.1352e-05 -8.5838e-05 0.00048083 -8.5496e-06
-8.4378e-06 0.23326 -5.9376e-06 2.5148e-06 -1.4204e-05 -4.9781e-06 -1.2985e-06 0.00024871 -7.8064e-05 -1.05e-05 1.5474e-05 0.16458 0.00013714 0.23338 -1.0361e-05 -3.948e-05 0.00050242 1.7616e-05 -0.0001051 4.9182e-05 -5.1076e-05 6.8475e-06 -9.5131e-06 0.18362 -0.00023464 -0.00010656 0.47044 -5.1228e-05 -5.9359e-05 -8.526e-05 2.8554e-05 0.0034139 -8.6361e-05 -3.9143e-05 -1.6271e-05 2.1155e-05 -3.2137e-06 6.4667e-06 2.6043e-05 -8.41e-06
7.7447e-06 8.7896e-05 7.7901e-05 -3.5019e-06 -0.00012626 -1.3536e-05 -2.2262e-06 0.27795 2.5964e-05 0.00019227 -4.6189e-06 3.1309e-05 0.25356 -8.7064e-05 0.40528 -5.0613e-05 0.00072803 0.0016959 0.00075342 -5.3368e-05 0.0060782 0.0003773 0.28527 -6.3398e-05 0.3584 0.00023224 0.00015532 0.0005467 0.00056501 8.9485e-06 5.3806e-05 -0.0005332 -4.1201e-05 -7.2702e-05 -0.00033322 0.00046598 -0.00018717 4.2668e-05 -1.6138e-05 -4.8408e-05
-4.7488e-06 0.18607 0.0003094 4.947e-06 0.00012368 -4.8783e-07 9.0518e-07 0.00017581 -0.00015601 0.0012385 4.0842e-05 0.13156 5.142e-05 0.00086143 0.00011394 0.0001019 -2.0087e-05 -6.2419e-05 0.00018592 0.00012445 -4.3543e-05 -8.5302e-05 -3.4854e-05 0.14689 0.00054388 0.0067369 1.4331e-05 0.00025556 0.00015728 -6.0304e-05 3.2147e-05 0.0011885 -0.00013394 -5.0488e-05 5.0942e-05 0.018407 -5.1801e-05 -0.00013283 0.0006255 -0.00014148
5.431e-06 1.2857e-05 -1.3201e-06 0.00017843 3.1889e-06 -1.6658e-06 -4.8103e-06 0.33155 4.0712e-05 0.40277 -9.5013e-05 -2.8118e-05 -2.6852e-05 -1.0534e-05 -0.0001024 -4.4507e-05 -8.3197e-07 -3.856e-05 4.434e-05 4.8278e-06 -6.7608e-05 -4.159e-07 0.0049068 -1.1642e-05 -0.00011984 -5.1787e-05 6.1781e-06 -0.00011798 0.00059754 -2.6861e-05 6.9402e-05 -0.00064937 3.423e-05 -7.8593e-05 0.0016337 -4.0677e-05 0.0021366 2.4424e-05 -9.4888e-05 8.9597e-05
6.3277e-05 -2.2124e-05 3.0391e-06 0.25135 0.24702 -5.0441e-06 1.3035e-06 -1.3312e-05 -1.7331e-05 -3.1602e-05 0.23635 1.3586e-05 3.1368e-05 0.16472 3.5745e-05 9.4716e-05 -2.2769e-05 -5.3619e-05 0.23539 -2.5418e-07 -1.417e-05 -1.4207e-06 -0.00066865 -5.2254e-06 0.0001031 0.29963 8.1863e-06 0.00019002 0.20096 -5.8373e-05 0.0010982 2.2656e-05 -3.2229e-05 -2.931e-05 0.3567 -0.00025447 0.37339 0.00022746 -4.5568e-05 -5.9339e-05
-4.8943e-06 0.14183 5.3316e-05 -7.3463e-06 -1.3931e-05 4.2281e-07 0.00019021 -5.6097e-06 0.22928 2.9877e-05 -0.00077841 0.099687 0.1772 -4.187e-05 -5.7403e-05 -1.2895e-05 -8.4231e-05 -1.1089e-05 0.00057384 -7.9751e-08 -0.00036216 -4.3522e-06 0.21563 0.11115 0.00011902 0.00011712 0.0010845 6.1477e-06 0.00030488 4.4555e-05 2.1939e-05 5.1647e-05 0.00050031 -8.7203e-06 0.33347 0.0004088 0.32512 -7.0144e-06 7.2646e-06 2.4456e-06
6.5877e-05 0.15972 1.2583e-05 0.2425 0.24747 -2.4776e-06 2.1973e-07 -2.5362e-05 -8.3065e-06 -2.2843e-05 0.22884 0.11264 0.00015941 0.00070482 -8.6247e-05 0.0012364 -9.7143e-07 0.0044797 0.22716 -5.0463e-05 -0.00011486 -1.3168e-05 -0.00012479 0.12497 0.001277 0.29464 -6.8804e-05 -0.00038967 0.19809 -4.0865e-05 -0.0003791 -0.0001137 -8.9637e-05 -7.5639e-05 -0.00028678 8.5702e-05 0.0003825 0.00018272 -1.7179e-05 -3.0124e-05
-5.5374e-07 0.21835 -3.5766e-06 -5.2382e-06 -1.4203e-06 5.0737e-07 -4.0762e-06 0.00029441 -1.3335e-05 2.7492e-05 7.0013e-06 0.15372 -1.1248e-05 4.698e-06 -3.2782e-05 -1.0299e-05 3.4683e-06 -3.1415e-06 0.00027803 1.4116e-05 -7.8029e-05 6.9162e-06 0.0012986 0.17139 0.00060725 -8.5583e-05 -3.5558e-05 -2.3012e-06 9.5428e-05 3.4418e-05 4.4744e-06 -4.3149e-05 -2.092e-05 -2.3575e-05 -6.5673e-06 0.0015005 5.0058e-05 2.2894e-05 7.6137e-05 -0.00022665
0.00010884 -1.4522e-05 7.1679e-05 -2.857e-06 -1.5527e-05 7.8894e-05 1.2502e-05 0.00044688 9.7271e-07 0.00017811 -2.1665e-05 9.8716e-05 0.0007598 -0.00010726 -2.3415e-05 -1.2393e-06 -8.108e-05 2.5732e-05 0.00044521 0.00011024 0.00014668 2.3456e-05 0.00063273 3.0573e-05 0.00077816 -7.9021e-05 -3.7033e-05 -9.4493e-07 0.00037388 -6.4017e-05 3.4734e-07 0.00032853 1.2875e-05 0.48233 -2.6539e-05 0.0011162 0.00016318 -4.18e-05 0.0078608 -0.00011334
2.6414e-05 1.5499e-05 3.6178e-05 -9.5112e-07 1.4472e-05 -8.0535e-07 -9.003e-06 0.19214 1.0037e-05 0.23467 -3.0736e-05 9.5711e-05 9.5307e-05 3.7768e-05 0.00042144 -3.99e-05 3.9175e-05 0.0016405 4.2573e-05 0.00037241 -3.2747e-05 6.6327e-05 0.00082778 9.9877e-05 0.00061891 0.0055299 0.00030223 0.001387 0.00046558 -0.0001195 4.7427e-05 0.00034567 -3.9216e-05 0.0010481 -2.8359e-05 0.0026814 0.00019465 1.4054e-05 -4.7256e-05 -0.00025036
-1.409e-06 4.114e-06 -3.5238e-08 1.7695e-08 1.001e-05 -1.1225e-07 -1.6911e-06 -8.8687e-05 -2.7774e-05 -8.3032e-06 9.0963e-05 -2.6209e-06 8.5683e-07 -1.7635e-07 1.8102e-05 1.1614e-06 -2.5487e-06 -7.5144e-06 -1.2433e-06 4.4422e-06 -6.6463e-05 9.5828e-07 0.44837 -3.4072e-06 -4.2092e-05 -8.6235e-06 -9.2809e-06 -4.3207e-06 -0.00010832 4.1984e-07 3.2812e-08 -6.9424e-06 6.4808e-07 -7.4632e-07 -0.00048098 -0.00012689 -0.00041994 -7.4828e-07 -6.9255e-06 8.3719e-06
-0.00031059 3.7336e-06 6.7052e-05 9.0492e-06 -0.00016726 -5.3428e-07 -3.7149e-07 0.00058367 3.0395e-05 -2.6482e-05 0.00025435 8.3703e-05 0.20355 -5.1546e-05 -2.4164e-05 -8.2518e-06 0.00092823 0.0018644 0.00051997 -7.5598e-05 0.38219 0.35379 0.22721 4.3585e-05 0.0042113 -4.4674e-05 0.00021606 -0.00018857 0.19362 6.5415e-05 1.713e-05 0.0002277 0.00029075 1.1423e-05 -0.00021952 0.26379 -0.0011439 2.3258e-05 -0.00028027 -3.0429e-05
0.00039571 1.1232e-06 1.4731e-05 3.9463e-06 4.8386e-07 -0.0003411 1.1622e-07 -1.5057e-05 9.8594e-07 -9.9527e-07 -1.3709e-06 -9.1638e-07 9.1751e-07 -9.6784e-07 0.00016635 1.1923e-06 -2.4511e-07 2.2237e-07 -3.2207e-06 3.0378e-06 2.0633e-06 -6.9724e-06 -4.5871e-06 -3.6993e-06 -3.87e-06 -0.00014686 1.1223e-06 5.0328e-06 -1.0452e-06 -9.5686e-06 -3.306e-06 -2.8595e-05 -1.852e-06 3.295e-05 4.711e-06 7.0206e-06 -7.8435e-07 0.48176 3.4863e-07 -0.0030638
-3.8148e-06 -2.7829e-06 4.8201e-05 -9.6236e-06 -0.00020172 2e-07 2.7962e-06 0.21315 -4.3258e-06 0.00031192 0.00047731 4.3828e-05 0.1984 0.00016005 -1.1243e-05 -4.022e-05 0.41918 0.26186 0.0027241 -9.9306e-05 0.37064 0.0004359 0.0011949 6.6697e-05 0.0027595 -7.0819e-05 0.00021336 0.0003417 0.0021585 5.1936e-06 4.0296e-05 -0.00037509 0.0019569 0.00020502 -0.0001976 0.0010273 -0.00011187 2.9189e-05 1.0323e-05 4.4297e-05
-3.8952e-08 1.0589e-06 1.9003e-07 3.5609e-08 3.1418e-06 -8.3867e-09 -3.6418e-08 0.00012574 1.7378e-06 0.0053566 -1.7365e-06 -4.0453e-06 -1.09e-05 4.0828e-06 8.5706e-07 -1.673e-05 3.1001e-07 -0.00015873 1.5185e-06 -3.3167e-06 -1.506e-06 -1.8481e-06 -5.1289e-06 3.8549e-07 -5.7513e-06 -1.611e-05 -2.1545e-06 0.00088696 -6.8419e-05 1.3353e-06 2.8208e-06 -5.7368e-05 7.562e-07 -6.76e-06 -3.5726e-06 0.000418 8.3501e-07 9.4033e-06 5.5761e-06 -7.177e-06
-6.9967e-06 1.4251e-06 6.0074e-05 -8.9495e-06 -9.5545e-05 2.9734e-06 3.7219e-06 0.00086449 -2.4185e-05 9.5632e-05 0.00054965 6.4285e-05 0.23654 0.00019051 -2.0751e-05 -2.0152e-05 0.001737 0.0021633 0.0032477 -7.5019e-05 0.013232 0.00042078 0.0016239 9.0764e-05 0.0038791 -0.00020759 0.0003267 -4.4699e-05 0.0027982 7.1345e-06 1.0297e-05 -0.00032787 0.002361 0.00029604 -0.00028329 0.0016262 1.8411e-05 1.6565e-05 8.0368e-06 -0.00010393
4.583e-05 6.5657e-06 8.6964e-05 0.20487 0.20106 -6.4815e-06 5.6521e-06 -1.7504e-05 0.21694 -1.7652e-05 0.19288 9.3356e-06 0.17346 0.13464 6.2167e-05 6.4591e-05 0.0007616 -6.5981e-05 0.19249 -4.0834e-05 0.0011198 0.00036424 -0.00037431 -1.3617e-05 0.00029691 0.2381 -1.2427e-05 0.00018738 0.16467 -2.4208e-05 0.00080624 -7.6386e-05 -8.9081e-05 -2.8038e-05 0.29058 0.00024175 0.30461 0.00014583 -4.4538e-05 -2.3411e-05
4.9705e-06 -1.3033e-05 0.00020495 -3.89e-07 -1.4255e-05 9.7421e-06 2.7765e-06 -1.29e-05 -3.833e-06 0.00013165 3.1771e-06 2.5102e-05 0.00027275 -0.00011118 0.00020313 2.8178e-06 0.00026829 -0.00084608 4.8125e-06 0.0025348 0.0012902 7.1889e-07 -0.00022101 1.6115e-05 -9.1339e-05 -0.0004643 -2.2653e-06 0.013413 -0.00028197 -0.00047846 3.3667e-06 -3.9742e-05 2.821e-06 2.389e-05 7.9899e-06 0.37661 5.694e-06 -7.9534e-05 -0.0003486 -2.2633e-06
-1.0742e-05 0.19534 6.2174e-06 3.3847e-06 -3.8842e-05 9.5696e-06 -3.0266e-07 -1.9598e-05 0.3158 1.3356e-05 0.00043612 0.13737 0.00011604 0.0024214 -5.331e-06 -2.3645e-06 0.00021305 4.238e-05 -1.8192e-05 0.0023529 0.00010688 6.8223e-05 0.00024814 0.15317 -0.00035161 -6.6372e-05 0.39642 -6.8202e-05 0.0021409 0.021706 8.8634e-08 -0.00021296 0.35262 8.1747e-06 -5.1437e-05 0.00054118 -3.1566e-05 -4.0362e-05 5.3842e-07 1.0628e-05
-1.3389e-05 0.19524 -6.5068e-06 2.4856e-06 -1.3157e-05 4.7336e-05 -6.0243e-06 0.0014954 -4.3264e-05 1.4426e-05 -0.00013801 0.13771 -0.00017698 0.19772 0.00025669 -1.2513e-05 -3.2888e-05 -3.4176e-06 -2.7339e-05 0.36171 -4.3426e-05 1.9823e-06 -1.0701e-05 0.15377 -0.00010416 2.5146e-06 0.00011357 -7.6605e-05 -8.2736e-05 0.43511 5.8072e-05 -0.00019021 0.35953 0.006665 -3.8146e-05 -7.301e-06 -8.6721e-06 -5.8245e-05 7.821e-06 -0.0068292
3.4964e-07 3.2946e-06 -1.2085e-05 -2.5475e-05 -1.327e-05 2.5404e-07 2.3925e-06 -3.4785e-06 -8.1913e-07 -3.9235e-05 -1.0446e-05 -8.0932e-06 -0.00025604 -1.6594e-05 -2.1431e-05 3.4903e-06 0.60005 -7.8358e-05 0.0032582 4.2751e-06 -0.00018392 1.1341e-05 -2.0042e-05 -4.3669e-06 0.0002367 -7.3763e-05 -9.0308e-05 2.6574e-05 -3.2587e-05 9.0323e-06 7.7434e-06 0.00042017 -1.3802e-05 -9.7272e-06 7.3334e-06 0.0014837 5.2842e-05 9.4722e-07 0.60221 1.0986e-07
6.671e-05 3.7425e-05 -1.8625e-05 -3.7063e-06 -0.00021731 -2.1564e-05 4.7023e-07 -4.3376e-05 5.4038e-05 -1.6626e-05 0.00011408 8.8402e-06 5.5887e-06 0.23275 -1.9148e-05 -4.8828e-05 4.1911e-05 0.40553 0.00019592 -9.2286e-05 -0.00014066 1.0099e-05 -2.2942e-05 3.844e-05 -0.00034477 0.41052 -4.6321e-05 0.48789 -0.00013581 -4.3139e-05 3.7764e-05 6.3117e-05 -6.0579e-06 -3.4075e-05 2.8944e-05 -0.00012016 -1.4808e-05 0.00027256 2.7521e-05 -2.8069e-05
4.1542e-06 0.16533 7.8416e-06 0.25093 0.25462 5.2403e-06 6.2199e-08 -5.2056e-06 1.8151e-05 6.0709e-07 0.23672 0.11656 0.00017499 8.9523e-05 -8.6257e-05 0.001277 -9.4123e-07 0.0046676 0.23483 -5.4055e-05 -0.00010833 -1.4917e-05 -8.5212e-05 0.12929 0.0013426 0.0011606 -7.8678e-05 -0.00051221 0.2036 -3.1679e-05 -0.00036633 -9.9578e-05 -0.00011628 -3.2961e-05 -0.00052404 0.00020296 9.3617e-05 -1.7075e-06 -1.6323e-05 -1.8618e-06
7.1081e-05 1.1952e-06 8.2371e-05 1.1293e-05 0.41176 0.00054461 -1.5801e-06 2.0817e-06 5.7019e-06 1.3562e-05 4.1977e-05 -2.1849e-05 1.3946e-05 2.536e-05 -1.6029e-05 0.42121 -1.1465e-05 -0.00012834 -2.3571e-05 0.00011545 1.743e-06 -3.9127e-06 1.6692e-05 -1.7721e-05 -1.2995e-05 0.00040463 -4.3844e-06 -2.2384e-06 3.0203e-05 0.0011348 0.66681 -0.00023095 -5.1558e-05 -1.4895e-05 9.6901e-05 -6.3663e-05 7.8828e-08 8.8985e-05 -7.6678e-06 0.00013392
-2.1307e-05 0.20596 -6.3342e-06 2.9423e-06 -1.5145e-05 3.0436e-05 -7.1099e-06 -2.0966e-05 2.6618e-05 1.5704e-05 -0.00014755 0.14477 -0.00018313 0.20834 -1.1059e-05 -1.3401e-05 -3.5178e-05 3.0506e-06 -2.9368e-05 0.3812 -2.5634e-05 2.5757e-06 1.3789e-05 0.16139 -1.9145e-05 7.2678e-07 0.00017804 -7.7517e-05 -7.1048e-05 0.457 6.1113e-05 -0.00018074 0.37862 -1.1968e-05 -3.9952e-05 -7.2182e-06 -1.0307e-05 -1.0412e-05 9.2045e-06 -1.0847e-05
-7.9199e-07 -2.2882e-08 -4.9589e-07 -3.8832e-06 -5.3527e-07 -1.3028e-05 -1.7955e-07 -9.1061e-06 4.9749e-06 1.8033e-06 1.7993e-06 1.6803e-06 0.0017613 -1.1165e-05 0.0019437 3.1169e-08 -2.8454e-05 -6.5988e-05 8.4274e-05 -5.4752e-06 -6.9914e-06 -1.2473e-05 -2.6023e-05 -3.5928e-07 -1.4308e-06 5.9577e-06 -3.1569e-07 0.0004546 -3.9236e-05 1.405e-06 4.887e-07 -1.6379e-05 -3.0454e-06 9.864e-07 1.3012e-05 -7.8432e-06 2.3132e-06 -1.4096e-06 2.8159e-06 -1.653e-06
-9.248e-07 2.4687e-07 -1.2253e-07 -1.2179e-06 6.2627e-06 -6.9787e-07 1.311e-06 -3.2833e-06 -7.7457e-06 0.00031013 6.7531e-05 2.3641e-05 -1.7003e-05 1.1778e-05 -4.3895e-05 2.0579e-07 1.6924e-06 -6.2264e-06 2.9754e-05 2.0671e-06 1.1164e-06 -4.4672e-06 0.27544 2.3655e-05 0.00046885 -4.1592e-06 0.00023524 -2.2442e-06 3.9556e-05 5.875e-07 4.3709e-07 -3.1929e-05 -7.3155e-06 -1.0775e-06 -0.0003406 -7.6715e-05 -0.0003526 -2.194e-07 1.8624e-05 -7.2722e-07
0.00016285 -0.00015476 3.4492e-07 -1.731e-06 -2.0467e-05 6.6547e-05 1.1104e-07 0.31232 -6.4999e-05 0.00033764 7.446e-06 0.00037842 -3.3551e-05 0.21759 0.45483 -5.312e-06 -1.2105e-05 0.0013884 -2.6885e-05 4.6349e-05 -0.00010017 0.00013624 -0.00011671 0.00067446 -0.00051529 0.0010353 -5.4146e-05 -0.00023919 9.8584e-06 0.0016025 1.6564e-06 0.00035632 0.00039486 0.485 -5.0334e-06 0.00088769 4.2168e-05 -4.1533e-05 -1.0401e-05 -0.0075455
2.4456e-05 2.0141e-05 0.2301 3.6676e-06 -3.3045e-05 6.8711e-06 -8.2755e-07 4.5284e-06 2.0343e-05 9.4343e-05 0.26674 3.2595e-05 0.00020727 0.18603 -1.5549e-05 1.4384e-05 0.00020865 -6.2127e-05 -2.1611e-05 -3.7878e-05 0.00022979 3.2566e-05 0.00025409 0.00011015 -1.3948e-05 0.00035809 0.000106 0.001888 0.0022409 -3.7498e-05 -7.9725e-07 -3.4108e-05 0.00045251 7.9012e-06 -8.0927e-05 0.00048299 -8.0781e-05 -2.1001e-05 6.287e-06 -6.7232e-06
-1.7966e-05 4.512e-05 0.00037413 -5.7833e-06 -3.303e-06 7.2495e-06 4.5627e-06 -3.8931e-05 6.2507e-05 9.8237e-05 0.00062594 4.9797e-05 0.25918 0.00013389 4.0131e-05 -1.2768e-05 0.0011915 -0.0011418 0.0016649 0.0015824 0.0018926 5.4705e-05 0.00011227 -4.3848e-05 0.0004113 -0.00094794 0.00010039 0.020237 0.0023316 -0.00029599 1.6635e-06 -0.00015253 0.00047814 0.0034583 -0.00024718 0.0012969 3.8251e-05 -0.00014182 1.3938e-06 -8.479e-05
-4.1525e-06 -1.6962e-05 -1.2893e-05 -3.869e-05 0.00012957 1.5111e-06 -2.8489e-06 0.00053362 -6.087e-05 0.32319 0.00014015 3.842e-05 4.7127e-05 8.7029e-06 -3.0137e-05 -1.1603e-05 3.5389e-05 -0.00083474 0.0011785 -0.00012948 -1.7317e-05 7.2477e-06 -4.1784e-05 7.6045e-05 0.00043919 0.0059496 -0.00010777 0.40534 7.481e-05 4.2724e-05 4.634e-05 -5.1458e-06 5.2793e-05 -3.8379e-05 -5.6098e-05 0.0002865 6.326e-05 4.0222e-05 -7.1465e-05 -0.00011983
7.5964e-05 0.19535 8.672e-07 8.6639e-06 -0.00010014 -8.9057e-06 -7.2995e-07 0.00017866 -0.00010241 0.00040467 9.1462e-05 0.13752 -5.6226e-05 0.00062538 -1.2446e-05 0.00010346 -1.0828e-05 -0.00022831 -0.00015399 4.2473e-05 -1.5175e-05 -7.6683e-06 -0.00015919 0.15339 0.00056381 0.3613 5.8847e-05 0.00020716 -0.00032014 -3.4861e-05 5.3292e-05 0.00039852 -4.5799e-05 -5.214e-05 -0.00012006 0.018974 -2.6933e-05 0.00023606 0.00062093 -9.7904e-05
6.5714e-05 -3.6137e-05 1.4661e-06 0.26045 0.25671 -6.2064e-06 1.2756e-06 -1.8776e-05 -3.042e-05 -2.3653e-05 0.24514 6.1178e-05 2.5957e-05 0.17127 3.9921e-05 0.00010523 -2.6165e-05 -6.6535e-05 0.24355 8.9094e-06 -1.8605e-05 3.45e-06 -0.00065583 9.5455e-05 0.00010089 0.31569 7.4573e-06 9.5498e-05 0.20878 -5.6642e-05 0.0010899 6.8582e-06 1.2383e-05 -4.6418e-05 0.36843 -0.00025113 0.38637 0.00020742 -4.4488e-05 -3.3176e-05
2.0193e-05 7.018e-05 0.19101 9.0557e-07 -9.9598e-06 6.0953e-06 -7.186e-06 5.7118e-05 6.1901e-05 0.26589 -3.0751e-05 2.1554e-05 0.00019492 0.00028607 0.00048831 -2.6287e-05 0.00021932 0.00064322 0.00012875 0.0015471 0.00081045 -2.8514e-06 0.00070295 -4.97e-05 0.0017535 -0.00014248 0.0012087 0.33589 0.00016087 -0.00030915 4.6002e-05 -0.0005085 9.0035e-06 -1.7704e-05 -4.9023e-05 0.001403 -1.8158e-05 0.00014309 -5.6951e-05 -3.0889e-05
0.38984 8.2043e-06 0.31145 -1.1149e-06 -6.6282e-07 0.40095 4.3522e-07 0.00017157 3.4216e-06 -1.4972e-05 1.3732e-06 -2.2033e-05 -6.709e-06 2.3398e-06 1.9276e-05 1.7363e-05 -1.3952e-06 -7.9738e-06 -4.4786e-05 2.5051e-05 -2.6352e-06 1.6899e-05 -4.0083e-06 -3.9032e-05 -7.5203e-06 -0.00019401 -6.2597e-06 -4.6129e-05 -2.3206e-05 -1.6569e-05 -8.5486e-06 -5.0255e-05 4.0735e-05 0.55059 1.464e-06 -5.0763e-06 -1.0412e-06 0.4335 1.3006e-05 0.75216
-5.3404e-06 3.7513e-05 0.00013014 1.4577e-05 0.00050291 -3.0563e-06 7.1453e-06 -3.6239e-06 0.33136 -2.9373e-06 0.00019217 -7.4873e-06 0.2649 0.00059806 4.4136e-05 -1.7471e-05 0.0011919 -0.00021096 0.00099819 -7.7544e-05 0.0017134 0.00055441 0.00016638 -2.9001e-05 0.00033553 0.001908 -2.0512e-05 3.6707e-06 0.0024046 1.5835e-05 -9.5799e-05 -0.00022282 -0.00012956 -2.0056e-05 0.001339 0.00051773 0.0011444 -1.2317e-05 -1.5477e-05 2.4959e-07
1.6615e-07 0.00016808 -1.5544e-06 -1.8919e-06 -1.5799e-05 4.408e-07 -1.7817e-06 0.00011583 2.1957e-06 0.00046798 4.1396e-06 0.00018401 -2.4469e-05 0.00011925 -8.6528e-05 -8.2585e-06 0.0016275 -2.5708e-05 3.5559e-05 -6.7362e-05 -0.00017345 -5.31e-06 0.0066234 0.00027415 0.001032 6.6334e-05 0.0010761 3.0643e-06 -0.000112 -6.1787e-05 4.1796e-06 -4.7971e-05 -0.00010407 -7.0211e-06 1.5529e-06 -0.0001794 -0.00027867 1.8742e-06 -8.6986e-06 -1.4186e-05
2.543e-05 -2.5742e-05 0.25442 1.1295e-06 -4.7602e-05 6.428e-06 -1.0305e-06 5.3779e-06 1.4856e-06 -7.8839e-06 0.29524 4.0577e-05 0.00022801 0.20551 -1.5852e-05 1.7425e-05 0.00022734 8.6559e-05 -0.00018082 -4.6996e-05 0.00014527 6.867e-05 0.00028381 7.5692e-05 -3.9286e-05 -6.2775e-05 0.00011165 -2.8471e-05 0.002332 -3.9432e-05 -1.3267e-06 -3.3148e-05 0.00047822 1.3381e-05 -0.00028689 0.00046817 -2.1311e-05 -1.0408e-05 -1.9869e-05 6.0744e-06
9.43e-05 -1.4834e-06 -6.908e-06 -1.0715e-06 -9.0083e-05 3.061e-05 -4.0345e-06 5.634e-05 4.2166e-06 0.0029881 1.5063e-05 -6.7507e-07 0.00021212 -3.1226e-05 0.00011297 0.54866 -1.6489e-05 -0.00011224 -1.2703e-05 8.1399e-05 4.2529e-05 6.0598e-06 -1.9238e-05 -9.4684e-06 0.00037497 -0.00016067 -1.3798e-05 -0.00011877 0.00018778 -1.6392e-05 0.000402 0.60435 -2.1316e-06 -4.1136e-05 -9.3665e-05 -0.00010386 -4.2271e-06 -3.6591e-06 4.4336e-05 3.0632e-06
-5.3856e-07 -9.7061e-07 4.3828e-06 -3.5477e-07 -2.0632e-06 2.6238e-06 1.9729e-09 3.9075e-08 2.5316e-07 8.3558e-08 1.8632e-05 1.0187e-06 -3.8049e-06 9.9781e-05 -3.505e-07 3.305e-07 -1.5658e-06 1.1477e-05 4.6855e-08 -2.987e-06 5.6568e-06 2.5981e-06 -1.7484e-06 2.9334e-06 1.8376e-05 -1.1646e-06 -1.3733e-06 2.7978e-05 -1.2583e-05 -1.0631e-05 -2.4415e-08 -7.7962e-06 1.7584e-05 3.1461e-06 -3.0257e-05 2.0069e-06 -5.3519e-06 -4.0424e-06 -7.8412e-08 -1.5556e-06
-3.8705e-06 0.00022022 6.9098e-05 -1.0676e-05 0.00071369 9.1508e-07 0.44766 5.2176e-05 6.3988e-05 0.00083807 0.00022518 8.229e-05 0.22309 0.00054748 2.6153e-05 0.00037524 -0.00018408 -0.00013601 0.0008128 0.0029526 -0.00072892 -1.4955e-05 0.00044134 -3.1676e-05 0.32453 7.3455e-05 -0.00013744 1.3042e-05 0.0010017 -0.00022116 -1.3204e-05 -0.00017917 -0.00016964 6.564e-06 -9.0678e-05 0.0022533 0.00036893 4.5514e-05 0.0064786 3.0985e-06
