3.2889e-05 -4.962e-05 0.3597 5.9483e-07 -6.6335e-05 1.1364e-05 0.46671 -8.9092e-07 2.4708e-06 8.2997e-09 -4.8522e-06 -1.7924e-07 -2.1598e-05 -2.3429e-06 1.6487e-06 -0.00027346 0.00013458 -9.0399e-06 -1.9067e-06 1.499e-06 2.5788e-06 1.5006e-05 -1.4949e-05 4.4379e-05 -6.0426e-07 -2.2479e-06 4.1633e-05 -2.5613e-07 -2.5385e-05 -5.9239e-06 -1.8141e-05 -1.6522e-06 -4.1359e-05 -3.3026e-06 -1.8357e-06 1.5825e-05 -3.0236e-06 -3.2748e-06 -2.5474e-05 7.7376e-06 -2.2423e-05 -8.7527e-06 -7.7553e-06 -3.9244e-06 0.29332 -1.9141e-05 -9.8806e-06 1.1629e-06 1.2266e-06 1.7945e-06 -2.8122e-05 2.4595e-05 -1.9166e-06 -4.9065e-06 1.6022e-06 -9.1602e-08 1.7459e-05 4.1485e-05 -1.96e-07 0.00019997 0.016184 1.0008e-05 -4.1661e-06 1.3502e-06 1.032e-05 -1.0775e-06 1.8253e-05 7.183e-05 -1.9577e-05 -8.7771e-06
4.0628e-06 3.9511e-09 5.9071e-07 6.4805e-07 -1.7902e-07 5.1824e-06 -1.4338e-07 4.3415e-07 6.5343e-07 -4.1042e-05 5.092e-07 -2.1692e-06 3.6406e-05 -1.3613e-06 -2.1192e-06 9.598e-06 3.1761e-05 2.3734e-06 1.215e-06 0.50518 7.92e-06 2.9303e-06 0.00026758 -5.5026e-08 -2.9156e-07 -2.1561e-05 4.7758e-07 -9.0826e-08 5.5482e-05 -1.864e-05 7.8883e-07 7.7496e-07 4.9473e-06 -1.1115e-05 8.9371e-05 -3.2257e-05 0.46413 9.8903e-07 -2.1089e-05 5.9344e-07 5.436e-06 -7.0212e-06 -1.612e-06 -5.1153e-06 3.8179e-06 4.489e-05 5.9816e-06 -5.7256e-07 0.64934 4.7263e-06 3.3381e-06 1.0971e-06 -1.2672e-06 3.1506e-07 -5.2568e-09 2.1487e-08 8.0794e-07 0.00047001 2.9341e-05 4.6613e-05 -1.3349e-06 1.5497e-05 -0.00038591 5.2915e-05 2.5306e-05 2.2406e-05 3.1281e-06 4.6684e-05 -4.6887e-05 2.6446e-05
-5.7075e-05 1.4793e-05 -2.455e-05 0.25141 1.6036e-06 0.17832 3.3356e-06 -4.5886e-07 -1.4435e-06 5.8532e-05 -2.6769e-06 -7.8037e-05 -7.2643e-06 1.1702e-05 1.2139e-05 2.446e-05 0.00034293 -6.7993e-07 0.53415 1.1973e-05 1.9361e-06 4.9593e-06 8.4874e-06 0.23757 -2.8814e-06 -5.3109e-06 0.00011537 -8.2514e-06 4.7376e-05 -3.7119e-05 1.1106e-05 -1.5605e-05 2.1752e-05 -2.9665e-05 -6.2313e-05 -8.1251e-06 1.3349e-05 -5.1733e-06 -2.4753e-05 4.8243e-05 -1.2471e-05 -0.0001212 -1.2493e-05 8.2265e-05 4.9664e-05 -1.6683e-05 3.7166e-06 0.00012703 -2.1156e-05 -7.1733e-05 8.4515e-06 -3.8338e-06 -7.6649e-06 -6.4428e-06 -9.4747e-06 1.1095e-06 -6.3412e-05 8.3973e-06 3.2156e-05 -2.4685e-05 6.9246e-05 -1.666e-05 7.2485e-05 -7.5926e-05 0.00054165 0.19879 -4.3608e-05 -0.00018944 0.52406 -2.417e-05
1.896e-06 2.158e-06 0.00012457 -1.5622e-05 -3.6688e-06 1.0506e-06 -1.7294e-05 4.0661e-06 3.3423e-05 0.00015076 5.8492e-07 4.2085e-06 4.7682e-05 -1.7083e-05 2.3145e-06 -2.5985e-05 -0.00012383 -2.5124e-06 1.4675e-06 -5.3528e-07 -1.3139e-05 0.0011796 0.0013662 0.00013585 -7.0096e-06 -1.436e-06 3.1587e-05 1.1909e-06 -1.7634e-08 3.0443e-06 0.0049571 -5.5641e-05 -0.00022249 -5.8857e-05 -0.00012607 7.1436e-05 2.3979e-05 7.5154e-06 0.011005 -6.5806e-05 0.0028407 4.4399e-05 -0.00017107 1.0693e-05 0.0007995 -2.989e-05 0.25821 0.0001321 1.6536e-05 1.8617e-05 -2.6942e-05 0.0016347 -4.2235e-05 0.75948 -5.3258e-06 2.9658e-06 -2.8575e-05 1.7674e-05 -2.3634e-05 0.00032206 -0.00036618 -1.2606e-05 -0.00011651 -8.3422e-05 -4.1065e-05 0.00074725 0.77402 0.00032903 0.00012176 8.389e-06
4.6529e-05 -7.121e-07 4.551e-05 -2.2791e-06 -7.9912e-06 3.5981e-05 0.3127 -4.4329e-07 5.6968e-06 1.1885e-06 4.5167e-06 9.8595e-05 1.1911e-05 3.2236e-07 -2.3677e-06 -0.00013402 2.9712e-05 -3.3936e-05 1.8145e-05 2.9428e-07 0.3963 0.00059774 3.0068e-05 -1.7312e-05 1.1329e-06 -5.5731e-06 6.9532e-06 -1.6594e-05 -4.4451e-05 -1.1236e-05 -1.3797e-05 5.2689e-07 1.2661e-06 -1.3859e-07 6.3673e-05 1.7612e-05 -9.4359e-09 7.5008e-06 1.0883e-05 -2.9516e-05 1.4535e-05 0.0014402 3.8133e-05 0.00032471 7.3169e-06 4.912e-06 9.1306e-06 -9.4659e-07 1.9011e-07 8.8365e-06 1.8556e-06 -1.1315e-05 2.9583e-06 1.6775e-05 1.8792e-05 -1.3064e-08 -6.2018e-05 -1.0217e-05 -3.1559e-05 0.0017079 -0.00010807 -3.8363e-05 -1.6827e-05 -2.8315e-07 -4.0263e-05 0.00010434 3.3321e-05 0.00030334 -2.1969e-05 1.3028e-05
0.16352 3.5593e-06 0.00022658 4.7328e-06 1.319e-05 -0.00012121 -4.7643e-05 2.5227e-06 3.0092e-05 -1.0828e-05 -5.4318e-05 -0.00018759 0.0074875 -0.00022312 3.346e-05 0.18294 -0.10701 3.5453e-05 -7.975e-06 0.4115 7.1817e-05 0.0020575 0.00025655 -2.5477e-05 1.109e-05 -5.2085e-05 -5.8325e-05 -8.7175e-06 0.42457 0.0001044 -0.0002855 5.3286e-05 -0.0003451 6.7957e-05 -0.00022517 -2.0602e-05 2.2752e-05 -6.9056e-05 0.011543 -0.00013206 -3.0132e-05 -0.00015515 0.0001454 -2.7318e-06 -0.00015681 0.404 0.00060564 3.328e-05 0.00013011 -0.00023983 8.16e-05 -6.1729e-06 3.1066e-07 -0.00020086 -1.8431e-06 1.3447e-05 0.0001174 0.00010312 3.101e-05 0.0078626 -0.00050945 1.7404e-05 0.0026874 -5.4309e-05 0.00067542 0.00032224 -0.0001721 0.00046064 0.00070437 0.0013867
0.00011994 3.3996e-05 3.296e-05 5.8577e-07 2.9965e-05 9.7212e-05 2.0329e-06 1.6034e-06 -3.348e-06 -0.00022883 0.0011667 -9.8332e-05 -3.5146e-05 0.00024233 -0.00043129 -0.00031668 -8.8493e-05 0.00012601 2.044e-06 -3.7174e-07 -0.00010478 -4.5903e-05 -2.681e-05 -0.00021912 1.669e-05 -2.6378e-05 0.00019112 6.9598e-06 0.00010263 0.00084775 0.00046237 0.00010079 -0.00024603 0.00047243 0.00082975 4.9723e-05 -1.2147e-05 0.73411 0.0003046 -1.9032e-05 0.00020868 -3.9875e-05 0.00076515 -7.2674e-07 0.00049888 0.0022471 -3.9477e-06 -1.9278e-05 -1.1302e-05 0.0070256 -1.8996e-05 -8.8413e-06 -3.9617e-05 2.6956e-06 5.4167e-06 -4.4675e-06 -1.0924e-05 -8.3478e-05 6.0552e-06 -0.00010964 -7.9296e-05 -0.0001766 0.0094613 -7.1153e-06 0.0030376 0.0011412 -3.8856e-06 -0.00057044 0.00035727 0.00016344
-5.7618e-06 2.0562e-07 0.00012262 -1.8876e-06 -1.2608e-07 0.00039108 4.9957e-05 -4.4411e-06 1.4102e-06 0.00023608 8.8209e-07 5.2723e-06 -8.5231e-06 -1.1252e-05 -1.496e-06 6.3542e-05 0.00011745 -2.5662e-06 0.17309 -2.8616e-05 0.00090614 1.9292e-05 -4.6268e-06 2.8406e-06 1.088e-06 0.00042529 -7.3292e-06 -1.7296e-06 -6.0102e-06 -6.4421e-06 9.3658e-07 -9.1403e-07 2.3489e-06 -1.1286e-05 -7.8699e-05 -3.3669e-06 -6.4371e-05 2.2285e-06 -2.4158e-05 -7.9813e-05 -4.1033e-06 -0.00011234 -6.6865e-06 0.00043402 -2.4399e-05 0.00066367 1.2071e-05 0.00016318 0.00059141 -7.9726e-05 -1.199e-05 -1.954e-05 2.5696e-06 1.9603e-07 4.9483e-06 -8.3375e-09 -5.8185e-05 -3.6544e-05 -2.4195e-05 0.0013724 -0.00036247 1.8825e-05 -4.9119e-05 -1.2207e-05 0.0007885 0.00030138 1.9204e-07 -0.0001636 -0.00082278 1.6188e-05
-0.00017232 2.523e-05 1.6678e-05 7.8926e-05 2.4054e-06 -0.00011948 -7.5462e-06 -7.3799e-06 6.2972e-06 -0.00017523 0.00082803 -0.00010504 -7.9324e-06 0.38025 -0.00031229 2.0523e-05 0.00042614 8.2287e-05 -1.419e-06 -1.0473e-05 -4.1416e-05 -9.7592e-05 3.0972e-06 -3.971e-05 -8.5602e-06 7.7715e-06 0.375 5.8451e-05 -1.7022e-05 0.00019041 0.34315 -1.9769e-05 -0.00054166 2.021e-05 0.00058403 9.1757e-06 2.21e-05 0.00087982 0.0012942 -2.0081e-06 8.6729e-05 -5.5552e-05 0.00054759 -2.2512e-05 0.15885 0.0014578 3.6074e-05 -4.8686e-05 -3.194e-06 0.0048424 -0.00027507 -2.0787e-05 -0.00012224 0.004378 7.3079e-06 1.4183e-06 -5.1031e-05 -6.9488e-05 -6.0761e-06 -0.0005101 -2.9606e-05 -1.3698e-05 -0.00014089 -0.00017982 0.0020084 0.20246 0.0010183 -0.00075011 4.7247e-05 0.00014007
0.14554 -5.0511e-06 -3.8148e-06 2.8665e-06 3.1015e-06 -1.5615e-05 -5.9419e-07 -7.5714e-06 8.2197e-05 9.5918e-06 6.6812e-06 -0.00024952 2.078e-05 4.3887e-06 6.4711e-06 0.17992 -0.085072 8.458e-06 -1.711e-06 5.6807e-06 3.9564e-05 -6.7269e-06 -1.778e-05 -0.00022865 -9.7393e-05 -9.9426e-05 -2.0147e-05 -2.6027e-05 0.00017075 -6.866e-06 0.34962 -1.0986e-06 0.41599 1.1057e-05 -5.2375e-05 1.5004e-06 -1.6142e-05 -9.2137e-05 -0.00037614 8.4184e-06 0.31175 -0.00037673 -1.1486e-05 8.8785e-07 0.16792 -0.00025053 -1.2212e-05 -1.6407e-06 1.2244e-05 -5.3082e-05 0.46908 -3.1256e-05 -3.0407e-05 -6.5783e-05 2.5211e-06 2.0652e-06 0.00028469 -0.00039659 4.5487e-06 -5.6213e-05 1.0464e-05 -2.4565e-05 -3.4445e-07 4.2827e-05 0.00010121 -0.0005065 -0.00010567 0.00032314 -7.0702e-06 0.00070934
-0.00045947 2.2797e-05 4.5281e-06 4.3427e-06 1.7468e-05 -9.3168e-06 -8.8565e-07 6.8752e-06 3.5217e-05 -1.1923e-05 -0.00015382 -0.0010123 -4.4772e-05 1.3627e-05 0.00017669 -3.0985e-05 0.0003061 2.0908e-06 -1.5037e-06 4.0145e-06 -0.00096705 0.00015276 3.1817e-05 -0.00012106 1.4563e-05 -2.1847e-06 -2.7821e-05 -1.0054e-05 1.6208e-05 6.4801e-05 2.113e-05 -5.6145e-05 0.00017533 1.1193e-05 -9.7922e-05 -0.00014701 1.2378e-05 -1.2076e-05 -3.9726e-05 -3.2754e-06 6.6615e-06 0.36539 -9.3556e-06 -1.9493e-05 -3.4592e-05 -0.00019372 8.6406e-05 -0.00026886 2.2466e-06 -1.7948e-05 3.3192e-05 -6.9632e-06 -9.5039e-07 -3.4077e-06 -0.00010146 -2.0981e-07 -3.8823e-06 0.2858 2.7483e-06 -0.0003706 -9.9487e-06 3.5643e-05 -0.00038368 4.0755e-05 0.26734 -0.0016607 3.0216e-05 -8.4821e-05 7.9318e-06 0.00032338
0.50481 -2.3576e-06 -3.0114e-05 -7.263e-06 3.4674e-05 1.7368e-05 -9.8602e-06 1.2316e-05 0.00050736 4.6474e-06 -4.2431e-05 0.00016797 -0.00047145 -5.7742e-06 1.8931e-05 0.32431 -0.67475 -5.932e-06 -2.5716e-06 2.3088e-05 -3.9653e-06 -5.2846e-05 5.2148e-06 -6.0787e-05 -1.04e-07 -1.2827e-05 -6.6842e-05 1.5049e-05 -0.00015696 0.00027422 -0.00011432 0.00012694 -9.1221e-05 0.00012688 -0.00012036 -3.3671e-05 2.5501e-05 -1.278e-05 -3.481e-06 1.8417e-05 2.6059e-05 0.00072593 -4.968e-05 -2.0597e-05 3.0766e-05 0.49754 1.0772e-05 -0.0001259 -3.1229e-05 -0.0001071 0.00010777 9.9111e-06 1.903e-05 -6.6767e-06 4.1958e-05 -3.7163e-08 3.9562e-05 0.00029488 -2.1409e-05 -0.00012034 7.1144e-05 -2.3597e-05 -0.0004054 -0.00012366 -0.00020192 -0.00038807 3.9039e-05 0.00031488 -2.0009e-05 -0.70707
4.3866e-05 2.8406e-07 5.3439e-05 7.5293e-06 -3.5842e-08 0.00017695 -5.8973e-06 -7.6316e-06 -1.1375e-05 -8.8645e-07 8.7871e-06 -1.9863e-05 0.6016 -9.4628e-05 1.1992e-06 -6.6567e-05 7.8655e-05 9.03e-05 -3.4176e-06 0.00012051 0.00028893 -3.8089e-05 0.001043 0.00089517 7.4864e-07 -1.2197e-05 -9.9203e-07 0.00021701 0.00033141 6.1095e-05 8.2715e-07 1.5671e-05 -1.3793e-05 -1.0834e-05 -2.8432e-05 -6.5856e-06 -5.5293e-05 -1.8396e-07 -2.789e-05 -5.136e-05 0.0005207 -1.7495e-05 0.54695 5.4599e-06 0.00038717 0.0042243 2.5393e-05 8.9547e-06 -2.125e-05 -4.0972e-06 -3.7451e-05 -6.6868e-06 3.1437e-06 1.2175e-05 -1.2693e-06 8.8999e-06 -2.2565e-05 -8.3515e-05 1.0307e-05 -7.4644e-05 -0.00011982 -5.5807e-05 0.0044859 1.7837e-05 0.0015704 0.0021986 0.0010258 0.0042672 0.00073558 0.0002075
-5.6066e-05 0.17819 0.33214 -2.3076e-06 0.14816 0.00022985 5.9039e-06 -8.6321e-07 -2.0667e-05 4.316e-05 0.000713 -0.00011667 -8.0056e-05 0.00053991 -0.00026208 -0.00015537 0.00026168 0.32861 -4.9091e-06 -3.3713e-06 0.00091378 0.00017734 3.184e-05 -6.4911e-05 -1.6544e-05 -5.1111e-06 0.00010753 1.6902e-06 0.00016109 0.00021843 0.00027116 -1.1216e-06 -0.00014357 7.6997e-05 0.25013 0.31591 -1.2085e-05 0.00071594 0.00010512 -0.00020631 0.00015484 -9.5091e-06 0.00044708 0.00051065 0.13565 0.001732 0.00018104 -8.2858e-05 1.3047e-05 0.0041965 -7.1102e-05 0.0010621 -5.0967e-05 0.0001121 -3.2632e-05 -2.7438e-05 0.0020912 -0.00038343 0.00074334 0.0028372 0.014608 0.00073807 0.0010367 -2.5823e-06 0.48915 0.17406 6.4284e-05 0.00011318 -1.6407e-05 3.254e-05
3.556e-05 -0.00052254 0.00013493 1.8748e-05 -0.0010184 4.7836e-05 6.4122e-05 2.1877e-06 -1.0236e-05 -4.9808e-06 -7.863e-06 -0.0001081 0.34031 -0.00013587 5.5686e-06 -0.0002313 0.00037134 0.32509 -5.668e-06 9.9512e-05 6.6102e-05 -2.6202e-05 1.9054e-05 -0.00056198 -1.9992e-06 -4.4666e-06 1.8162e-06 -3.45e-06 0.00012432 -0.00025012 -2.1402e-05 1.13e-05 4.4128e-05 -0.00030843 -3.5663e-05 -1.3926e-05 -9.742e-05 -2.6732e-06 0.18386 -8.8874e-05 -9.6175e-05 -0.00020077 0.00053995 -2.8477e-05 -0.00032011 0.0023907 0.00041485 -0.00011565 -2.1059e-05 3.6697e-05 1.2107e-05 1.2968e-05 2.8397e-07 -2.8612e-05 -3.9831e-06 1.002e-05 -3.4358e-06 -0.00052396 5.4519e-05 -0.00072083 -0.00032512 -0.00011302 0.27046 7.4449e-05 0.2604 0.18553 -0.00053193 0.42532 0.000132 -0.00015834
-0.00045368 0.31923 0.23237 -5.695e-07 0.32105 1.5001e-06 7.5202e-06 3.8826e-06 9.5404e-06 -1.4464e-06 -0.00013489 2.0552e-05 -1.4527e-05 8.8354e-06 4.5366e-05 -0.00019615 -0.0015391 -0.00017601 5.5869e-07 1.7907e-07 3.6248e-06 2.1681e-05 -3.4122e-06 3.6508e-05 0.63226 1.987e-05 2.7387e-05 2.1808e-05 -0.00011628 9.9547e-07 -6.9981e-07 2.3365e-06 0.45881 9.8052e-07 -2.5121e-05 -4.0615e-05 2.5611e-05 -6.8882e-06 9.0772e-05 -6.5898e-05 -0.00027175 0.00012739 -4.741e-07 3.246e-06 -0.00041644 9.0448e-05 2.2072e-06 -8.0423e-06 -3.734e-06 8.2506e-05 1.4692e-06 -0.00027264 0.00013001 0.00021581 -1.6907e-06 -1.8231e-05 -0.00017034 7.6155e-05 1.1113e-06 0.00026082 0.010032 -1.7658e-05 -5.9573e-06 -1.6748e-05 -1.5178e-05 8.7558e-05 9.5233e-06 -5.056e-05 3.9406e-08 -5.7439e-05
-5.1457e-06 0.30651 0.035314 -2.1553e-05 0.30791 0.21201 4.1049e-06 -4.1759e-07 -2.8235e-06 -3.192e-06 1.8029e-06 3.3722e-06 4.8257e-07 1.1451e-05 -1.8218e-06 -6.902e-08 2.6562e-07 -4.1812e-05 1.2627e-06 -3.0527e-06 -1.7282e-05 -4.0565e-07 -1.3854e-06 7.4858e-06 -4.2056e-06 -2.7235e-06 0.00011117 -4.9597e-07 5.8659e-05 2.6568e-10 -5.6766e-06 -1.4117e-05 1.3459e-06 4.2638e-07 -6.4553e-05 -3.6511e-05 -1.5201e-05 -9.1461e-06 -3.2553e-05 0.6409 -6.9232e-06 -9.4663e-06 -1.1617e-07 -1.9172e-05 -2.0049e-05 -2.6596e-05 -1.0788e-05 -4.3466e-06 1.486e-05 -4.0418e-05 7.1746e-06 0.49578 -0.00048614 0.00022923 -1.2211e-05 4.9034e-05 -0.00083952 1.3851e-06 3.2581e-06 -5.435e-05 0.64893 4.1413e-06 3.2709e-05 -0.00016881 -1.3742e-05 -3.3552e-05 -0.00039044 2.2931e-05 -0.00023715 -1.0941e-05
0.00048288 4.9527e-05 4.6961e-05 0.25636 9.6191e-05 -5.6031e-06 -1.5274e-05 1.8589e-05 -9.671e-06 -6.5705e-06 -5.5366e-06 0.25164 -1.3659e-05 3.7347e-05 0.00057014 -0.0010365 -0.0016093 -1.3752e-05 -5.6852e-05 -8.4421e-07 0.00024161 0.00027353 -9.2866e-06 0.24356 3.0489e-05 2.1921e-05 -2.9856e-05 2.1931e-07 3.6504e-06 0.29711 1.6754e-05 0.00011183 1.4652e-05 0.30427 0.29596 1.7923e-05 9.0374e-06 -1.7853e-05 0.00044532 -4.4399e-05 -4.8728e-05 0.00024396 -0.00014091 -1.621e-05 0.15669 0.00016573 0.2415 7.6476e-05 5.5936e-06 -3.3364e-05 5.7787e-06 -3.9855e-07 7.2326e-06 -2.8127e-05 -1.0644e-06 2.8577e-08 0.00014116 0.00012077 0.69528 0.00035528 -0.00011019 0.6952 -0.00075464 2.5933e-06 -0.0001402 0.20223 -7.8096e-05 -0.00013889 0.0004414 -3.9435e-05
3.3216e-05 -1.3645e-05 8.9727e-05 -2.5141e-06 -2.6678e-05 -6.0701e-06 2.7185e-05 2.6604e-06 4.73e-06 5.2428e-05 -7.5795e-06 -3.0244e-06 -3.1543e-05 0.34773 4.0292e-06 -2.0261e-06 2.1044e-05 5.876e-06 -5.7608e-07 3.9981e-05 -7.6463e-05 0.00041938 -9.768e-05 8.5607e-06 1.2604e-06 4.7222e-07 -1.9547e-05 4.691e-06 1.2693e-05 8.2094e-06 0.00042373 -1.2286e-06 -5.7267e-05 6.049e-05 -1.7123e-05 0.00025039 0.00014564 5.5657e-06 0.19476 -5.5311e-05 -8.4e-05 -1.1378e-05 0.00011116 0.00017219 -0.00016325 0.00022784 0.00050672 7.3976e-05 -5.8395e-06 -3.7708e-05 1.8984e-05 2.6793e-05 -4.2168e-06 -3.5449e-05 2.8411e-06 6.703e-06 -7.4381e-05 0.0002085 7.4863e-06 0.007915 -0.00020355 6.9115e-06 -1.5092e-05 3.8367e-05 0.00020299 -0.00017571 -0.00047939 0.0013533 1.9332e-05 -1.0589e-05
0.0012685 1.3232e-05 0.00021236 9.7055e-07 1.5871e-05 0.27553 8.822e-06 1.081e-05 -5.2797e-05 0.00015931 0.00057254 -1.7511e-05 -0.00028004 7.8094e-05 -0.00012068 -0.0036626 -0.0023822 7.5989e-05 2.2775e-07 0.00011519 -0.00013492 0.0004772 0.00036292 -4.57e-05 -7.6856e-06 -5.1534e-06 0.011379 -1.3374e-05 -0.00015959 0.00025398 0.25179 0.35751 -0.00036993 7.1058e-05 0.00038343 2.0262e-05 0.00016103 0.0011389 0.16479 -0.00030793 2.1006e-05 5.4057e-05 0.00072449 -1.8472e-05 0.00080096 0.26291 0.00020272 0.00024696 -8.0556e-05 0.29175 -0.00015418 0.00015493 3.7803e-06 9.7127e-05 0.00074359 2.1216e-06 -0.00082527 -0.00019489 -9.1678e-07 -0.00040852 -0.00061113 -8.7738e-05 -0.00043358 0.048586 0.0015884 0.00020342 -0.00035859 -0.0017051 0.00032541 0.00037097
-3.8476e-06 -2.4418e-05 0.31519 -1.4308e-05 -4.5542e-05 1.6629e-05 9.1167e-07 3.1249e-08 1.3608e-06 9.3472e-05 -6.4191e-07 0.00039355 0.43001 0.00022681 -4.9366e-05 -8.7497e-05 -0.00022037 -4.3096e-05 1.596e-06 2.8027e-05 -0.00061875 0.0060153 0.32395 7.9373e-06 6.122e-07 7.2264e-06 -1.8556e-05 -7.6541e-05 -0.00011029 0.0013842 -0.00029384 -7.3243e-06 6.5204e-05 2.6339e-05 -0.00010476 -0.00015507 -0.00031692 -6.8782e-06 0.0091969 -0.00042511 -5.8416e-05 -3.0683e-05 -2.366e-05 0.00016679 0.00011777 -0.0005302 0.0013184 -2.6499e-05 4.0646e-06 -1.023e-05 7.7983e-05 -0.00020049 1.2306e-05 -0.0018764 8.226e-06 -6.5598e-06 1.3156e-05 -0.00021746 -8.4e-05 0.51139 0.012564 1.5782e-05 0.00035429 -1.3135e-05 -0.0004574 -0.00017496 0.26366 -0.0030525 -5.8001e-05 -0.00012545
0.20809 -9.103e-06 -5.8315e-06 3.5852e-06 -2.3745e-06 7.5295e-06 -1.8544e-05 -1.9821e-06 7.9154e-05 -1.0426e-05 1.3101e-05 -0.00017223 -5.4686e-05 1.0952e-05 6.6468e-06 0.23372 -0.13683 1.3047e-05 -1.6784e-06 2.6819e-05 1.8535e-07 -2.9452e-05 4.5889e-05 8.0145e-07 6.4113e-06 1.0599e-05 -1.026e-05 3.2724e-06 0.51345 0.00028746 -2.7604e-05 -0.00011078 -0.00040509 5.6844e-05 -2.0212e-05 1.2086e-05 3.5801e-05 5.8747e-05 3.8304e-05 -6.7743e-08 -2.1497e-05 -0.00018466 0.52337 -9.0167e-06 0.2282 -0.00013428 1.2119e-05 -1.1403e-05 7.3743e-06 -4.2449e-05 0.00010485 2.4085e-05 1.3146e-06 -6.592e-06 -0.00010801 2.8165e-08 4.1789e-05 0.44214 9.705e-06 -0.00011568 1.0081e-05 4.637e-05 0.00017994 3.132e-05 -0.00013536 0.00011748 -5.9625e-06 8.4942e-05 -3.4194e-05 -0.70714
-8.6182e-06 0.48061 0.34987 -9.7044e-07 0.48302 -7.6724e-06 1.5773e-06 1.0961e-06 -5.0062e-06 -1.1718e-06 -3.6445e-07 9.6486e-07 -2.039e-05 1.9553e-05 -2.573e-06 -4.1379e-06 -5.2773e-06 -7.6309e-05 6.2377e-07 -3.2961e-07 5.4051e-06 1.3684e-05 -3.131e-06 2.756e-06 -8.4493e-06 7.9824e-07 3.3422e-05 6.601e-08 -3.3102e-06 5.009e-07 6.4479e-05 6.6596e-07 -1.0931e-05 -3.8304e-07 -8.4065e-05 -5.7153e-05 -2.412e-06 -2.6795e-06 -3.1756e-06 4.3488e-05 1.0717e-06 2.4644e-07 2.3487e-07 -2.7396e-06 -2.5179e-06 -1.3252e-05 -7.6464e-06 7.7926e-06 -3.3094e-07 1.7188e-05 1.625e-05 -4.0411e-05 0.52661 0.00032348 -3.1145e-06 -0.00019225 -2.9527e-05 1.8776e-06 -9.0789e-07 0.00018985 0.015883 2.4693e-06 -1.5933e-06 1.0215e-06 -5.0592e-06 -2.2621e-05 1.845e-05 1.497e-05 4.9922e-06 -1.8894e-06
9.7977e-06 1.2112e-06 0.0001312 2.2817e-06 -1.9207e-06 1.1673e-05 3.1522e-05 -4.0243e-07 3.0885e-06 6.61e-05 -1.0533e-06 4.3918e-05 0.00015504 6.5328e-06 -6.1621e-06 -1.1078e-05 -3.9016e-05 0.00019272 -2.2282e-06 9.0114e-06 -0.0001351 0.0011352 9.6972e-05 0.00015859 5.2182e-07 6.8957e-06 4.6683e-06 2.5318e-06 3.3909e-06 5.6711e-05 -1.0563e-05 1.8011e-06 -8.3141e-06 -5.7128e-06 7.3307e-05 -2.838e-05 7.3926e-06 9.0372e-06 0.0012756 -7.867e-05 -2.4484e-05 -3.4649e-05 5.9787e-05 -3.1854e-05 8.7183e-06 0.00017896 6.7723e-05 -2.6089e-05 -5.961e-06 0.0001298 1.5451e-06 -6.6736e-07 -6.4371e-06 0.00060675 1.5035e-05 2.0995e-08 4.8316e-06 4.6299e-06 6.3332e-06 -0.00013025 -0.00030151 -7.6458e-05 0.00013858 1.1283e-05 0.00019954 0.0017054 1.0745e-05 0.4134 0.00013481 4.7207e-06
-0.00011318 1.9662e-05 -1.7265e-05 -2.4818e-05 2.7819e-06 -4.2896e-07 -3.0983e-05 -1.6047e-06 1.2853e-05 0.39006 3.8976e-07 -9.766e-05 0.00016835 5.1613e-05 5.3679e-06 6.5939e-05 0.00038813 -4.4037e-06 1.1583e-06 -3.033e-05 1.958e-05 -5.1078e-06 0.0012735 0.33217 -3.6704e-06 -1.9526e-06 -2.7745e-06 -1.797e-05 2.7472e-06 0.00023097 -6.0774e-05 -0.00012896 -1.1841e-05 -4.2327e-05 -0.00015254 -3.5717e-05 -3.2246e-05 1.7123e-05 0.011946 9.8273e-06 0.003837 -0.00012928 -0.00023107 7.0764e-06 0.0010074 -2.0192e-05 0.0048246 1.0847e-05 -6.0176e-06 0.00016792 -5.1554e-05 -1.8901e-05 -2.4074e-06 2.8466e-05 -0.00039524 8.9656e-07 -3.0388e-05 2.4383e-05 -3.4943e-05 -8.1636e-05 4.2388e-05 7.013e-05 -0.0001765 -2.7854e-07 -0.00030006 0.27622 0.00011414 0.00018667 0.00035683 -1.9531e-05
0.0029685 -3.2685e-06 -2.6039e-06 3.7901e-07 6.926e-06 6.4135e-05 1.4229e-06 0.00011907 -0.0001097 0.48877 0.41482 3.4686e-05 4.1727e-06 4.4856e-06 7.8106e-05 -0.0080147 -0.0048842 -7.1805e-06 -1.7927e-06 -4.6784e-05 3.6381e-06 -2.7746e-05 -7.4409e-06 -2.0324e-06 3.1733e-05 -3.0186e-05 -0.00024116 -1.998e-05 5.0212e-06 -3.1855e-05 0.00010446 0.0039468 7.456e-06 -3.4519e-06 -9.8822e-05 -1.191e-05 6.4958e-06 -0.00013956 -0.00011675 -3.4892e-06 5.4553e-05 0.00012056 -1.243e-05 1.3109e-05 -6.8963e-05 -0.00042171 2.5944e-05 0.0002006 -1.8725e-05 0.61773 -3.2778e-05 -3.5215e-05 1.0206e-05 -3.463e-06 -0.00045079 4.0767e-08 -8.4764e-05 -3.3421e-05 -1.1352e-05 1.011e-05 1.0855e-06 1.269e-05 6.5535e-05 -0.00076915 -0.00012287 -0.00011747 1.8731e-05 0.00030647 -2.6317e-06 -1.7977e-05
0.00037254 9.4356e-06 3.6275e-05 5.7488e-07 8.717e-06 8.9692e-05 8.4831e-06 9.3325e-06 -8.9689e-06 3.912e-05 -0.00016966 -6.3179e-05 0.00023547 -2.3322e-05 0.0001355 -0.00053101 -0.00096869 0.00016696 -1.6274e-05 2.8135e-05 -2.4038e-05 3.739e-05 -5.5386e-05 0.00024326 4.6929e-06 8.9014e-07 -0.00021869 3.0643e-07 3.1204e-05 0.00028482 -7.0239e-05 3.2784e-05 3.0496e-05 0.00028641 -2.8905e-05 -5.8411e-06 7.2139e-06 0.00023939 0.0013805 -3.9087e-05 9.2015e-05 0.00041968 -1.0111e-05 -4.2059e-06 0.00040848 -0.0005295 0.00026665 2.242e-05 3.4733e-06 0.52084 -5.6006e-06 -1.7379e-05 1.6324e-06 -2.205e-05 3.7482e-05 1.445e-06 -2.3468e-05 4.18e-05 0.00010885 0.00039658 -9.7744e-05 -4.2298e-05 0.00504 -0.00070677 -0.000165 0.14476 -7.9463e-05 0.0055923 0.022171 -9.7196e-05
-3.0234e-05 0.0001768 0.00028668 -2.501e-06 0.00043278 4.0861e-05 1.7091e-05 -3.1415e-06 2.1635e-05 0.00011476 -4.1701e-06 -0.00021664 -7.9293e-05 0.00028695 6.3956e-06 -1.7296e-05 -1.056e-05 -1.0424e-05 -2.5461e-06 3.1339e-05 -2.6703e-05 4.2391e-05 -6.4417e-05 0.00043573 2.1931e-06 -6.2704e-06 -6.0148e-05 -9.279e-06 0.00017686 -9.6895e-05 -3.7514e-05 6.8484e-06 1.4454e-05 9.9512e-05 -6.3916e-05 0.31826 0.00010962 -1.2843e-06 0.17755 -0.00017391 -9.5661e-05 -0.000295 8.3122e-05 0.00037739 0.00040645 0.00076906 0.2033 5.6919e-05 -4.7924e-06 -8.5935e-05 2.0338e-05 -1.861e-05 0.00020506 -2.0064e-05 -6.7144e-05 -1.4267e-05 1.676e-07 -6.7252e-05 9.0498e-06 0.002318 -0.00068866 -9.0971e-05 0.0014145 4.773e-05 5.8225e-05 0.1953 -0.00025242 0.0021017 0.0001016 -2.9573e-05
-0.0001332 -2.9148e-06 1.9764e-06 -1.2529e-06 -1.5266e-06 -1.0986e-05 -1.7682e-07 -3.7706e-07 7.4287e-06 -5.6639e-05 2.3786e-06 3.8227e-05 5.3845e-07 3.5316e-06 -1.0881e-06 0.00029091 0.00052907 -1.5188e-06 9.6688e-08 -1.8301e-06 -6.9567e-06 2.5372e-06 6.0224e-05 -2.5616e-07 -6.0741e-06 -2.9759e-05 -4.8167e-05 -4.0045e-05 4.0972e-05 -1.5257e-05 2.089e-05 -2.4286e-05 2.9779e-05 -1.9995e-05 -1.3592e-05 -1.7129e-05 -2.7306e-05 1.201e-06 1.2983e-05 -8.5826e-07 7.2721e-06 -6.2129e-05 -1.3901e-05 -6.1937e-06 7.8474e-06 -2.8134e-05 7.2181e-05 0.70256 5.3277e-06 -1.4601e-05 -8.9957e-06 -4.8436e-06 9.4595e-06 -4.5654e-05 -0.00016445 -3.7389e-07 5.2166e-06 0.5001 -5.6896e-06 -5.4118e-05 -1.2701e-06 1.5688e-06 -9.0509e-05 -6.9199e-05 -0.0012065 5.2132e-05 -6.1775e-05 -3.9671e-05 6.7013e-06 -0.00023556
0.28848 1.0433e-05 3.2025e-05 7.2201e-06 5.721e-05 -2.6323e-05 6.9766e-07 -1.0541e-05 0.69638 -4.3836e-06 0.20345 0.20982 -0.00027123 -7.7826e-05 0.00022752 0.18701 -0.39223 0.00010059 -8.1932e-06 1.9562e-05 -0.00011425 1.0624e-06 4.1092e-06 -3.6763e-05 3.6519e-05 -1.9891e-05 -4.4864e-05 -2.6414e-05 -0.0002338 0.00018348 -7.8683e-05 -9.962e-05 2.3206e-06 9.8352e-05 -0.00010729 -4.042e-05 2.3027e-05 -2.6108e-06 -2.158e-05 -2.1809e-05 -4.462e-06 0.32064 -4.4107e-05 -2.2655e-05 8.1045e-06 0.28939 0.00015826 -0.00020629 -5.58e-05 -0.00022965 6.9047e-05 1.744e-05 9.4764e-06 1.2652e-05 -9.0901e-05 6.9207e-07 3.9416e-05 0.25486 0.00017517 -0.00020494 -8.0498e-05 0.00026826 -0.00051356 -4.5894e-05 -0.00045923 -0.00061594 4.8153e-05 0.00019825 -1.2225e-05 8.994e-05
0.000147 5.0031e-05 5.5057e-06 -3.1391e-07 3.5805e-05 0.00029349 -2.7279e-05 1.2107e-05 -8.8433e-06 5.3778e-05 0.00076442 9.416e-05 -0.00035142 0.00016141 -0.0002748 -7.8703e-05 -0.00034983 9.6149e-05 5.8238e-07 2.3142e-05 -0.00017894 -2.2727e-05 0.001079 0.00014418 1.044e-05 -3.0526e-05 0.00041184 0.0010253 -0.00024481 0.27199 0.00033551 0.00012438 -0.00015119 0.0012286 0.0049545 2.6871e-05 -9.3332e-06 0.0014912 0.00029899 -1.3343e-05 0.00010652 0.00013983 0.33577 3.633e-05 0.0014401 0.31877 0.001484 -4.2415e-05 -2.237e-05 0.0045329 -3.611e-06 -4.4466e-05 -9.2308e-06 0.00049999 0.0014465 -2.3121e-06 -8.6818e-05 0.0020727 -0.00011734 -0.00020399 -3.2212e-05 -0.00047381 -0.0011247 -0.00014384 0.26449 0.00019869 -8.4651e-05 -0.00043207 5.6965e-05 0.00031274
0.00053101 2.6091e-06 1.4306e-05 -1.4447e-06 -1.3714e-05 -7.9097e-07 -6.807e-06 -1.7528e-06 1.161e-05 0.00015773 3.5742e-06 0.00021368 -2.8156e-05 -1.3816e-05 -7.9896e-06 -0.0010393 -0.0020505 -6.8122e-05 -2.7374e-06 1.8809e-06 0.46326 -0.0011584 -2.8554e-05 -2.386e-05 -5.8083e-07 -4.2812e-06 -5.9968e-06 1.2984e-05 -1.4158e-05 -2.7688e-05 6.0425e-06 -4.4464e-05 2.5081e-05 8.2088e-05 -0.00075926 -6.8696e-05 1.0471e-05 4.3252e-06 0.00013872 -7.3179e-06 1.7254e-06 -2.3558e-05 0.00010201 0.63902 -1.7201e-05 -3.7041e-05 2.6423e-05 0.00046457 -1.0926e-05 -2.0809e-05 2.4133e-06 -3.1557e-05 -6.8715e-06 0.0001462 4.0219e-05 4.264e-07 -9.3825e-05 -7.8626e-05 -0.00010266 0.00074475 -2.6001e-05 1.1634e-05 0.00021543 1.3389e-06 0.0013983 0.00037785 3.9993e-05 0.00010028 3.679e-06 6.1271e-05
2.6665e-06 6.0291e-09 1.0509e-06 -1.1874e-07 -5.1293e-08 -1.8741e-06 -3.9553e-07 0.85759 1.1537e-07 -1.1703e-05 -9.5254e-07 2.4226e-07 -4.4446e-06 2.4133e-06 -7.1855e-07 -4.7228e-06 -1.0474e-05 -3.3461e-07 9.0444e-08 4.9415e-07 -6.6522e-07 7.2414e-07 1.1691e-06 -2.8828e-06 2.3996e-07 3.7026e-06 1.1658e-06 -2.4342e-07 -5.4968e-07 3.4307e-06 -5.0198e-05 -8.2736e-06 1.1611e-05 -1.0057e-08 4.4236e-06 -4.2912e-07 -8.1514e-08 6.4514e-07 -9.1214e-06 -1.7387e-06 1.5529e-06 3.2972e-05 8.8243e-07 6.0662e-07 -6.6908e-06 2.2192e-05 1.2677e-05 -1.1213e-05 1.5855e-06 -1.3701e-05 4.1229e-07 -1.4716e-07 4.4776e-06 -1.467e-06 1.0395e-07 6.915e-07 -4.7672e-06 -1.8104e-06 2.9634e-06 7.8505e-06 -3.1051e-06 1.214e-06 -1.4923e-05 3.5039e-06 2.2398e-05 -7.5268e-06 5.6548e-07 -5.7396e-07 -3.1827e-07 3.4599e-06
0.097385 2.578e-06 0.13157 0.17549 1.6282e-06 -0.00026466 4.7611e-06 1.3666e-05 0.28315 -1.1899e-06 -5.5435e-06 -0.00020273 -5.2023e-05 7.1571e-06 1.837e-05 0.10985 -0.065464 2.1326e-05 -2.7683e-05 3.0971e-05 5.0139e-05 -0.00011967 -9.4494e-05 0.16642 -5.7349e-07 2.9847e-05 0.51352 6.988e-05 -2.779e-06 -9.4627e-05 0.0069424 5.1835e-05 -0.00043383 5.7418e-05 -0.00010662 1.0053e-06 0.00012449 2.3582e-06 0.14539 -0.0002565 -0.00011397 0.00018948 6.4831e-05 -7.6362e-06 7.042e-05 8.7164e-05 0.16576 0.00024005 -6.3394e-06 -0.00035272 5.9091e-05 0.0013425 -0.00010789 0.0080812 4.6747e-07 7.5404e-06 1.7926e-05 -1.9749e-05 3.8508e-05 0.0021056 0.004866 -1.5896e-06 1.2527e-05 -0.0016173 -0.00023827 0.14015 0.0088632 0.001059 0.00028554 -5.0642e-05
0.16161 -6.1543e-06 -0.00017194 3.2529e-06 6.6537e-06 -3.8266e-05 3.3907e-06 -6.2815e-06 0.00010145 1.1793e-05 7.6414e-06 -0.00025506 1.9587e-05 -5.5057e-05 6.546e-06 0.19951 -0.094724 3.9075e-06 -4.7506e-06 6.0594e-06 -1.8788e-05 8.0741e-06 -1.5981e-05 -0.00023815 -0.00010122 -0.00010356 -2.1164e-05 -4.2586e-05 0.00017107 -1.2003e-06 0.38755 5.0325e-06 0.462 1.0887e-05 -9.4206e-05 7.6621e-06 -7.4825e-06 -2.9594e-05 -0.00043076 0.00061826 0.34619 -0.00041322 -1.3053e-05 3.7874e-06 0.18495 -0.00019711 -3.1618e-05 8.392e-06 7.718e-06 -5.9645e-05 0.51989 -9.307e-07 4.597e-06 -7.1079e-05 3.2521e-06 1.0382e-05 0.58617 -0.00037041 4.0159e-05 -6.8887e-05 0.00058678 3.5732e-05 9.8292e-06 0.00011052 8.6843e-05 -0.00054653 -0.00010256 0.00032942 2.2026e-05 0.00071302
8.6009e-05 2.0107e-06 4.5692e-05 -7.4884e-06 -4.4729e-06 3.7992e-05 0.00011981 0.00024127 -2.882e-05 0.00010686 2.8616e-06 -5.5086e-05 -0.00025318 -0.00014728 4.41e-06 0.00073287 0.0010627 7.6206e-05 -2.0374e-07 0.00015064 1.4561e-05 -7.0384e-06 0.00020121 -0.00066872 3.247e-06 -0.00013456 9.423e-05 -4.7795e-06 -2.4479e-05 0.012397 2.0624e-06 7.9719e-05 -7.1401e-05 4.6939e-05 6.2958e-06 -2.4241e-05 0.34706 5.8596e-06 0.00093236 -4.1429e-05 -3.6123e-06 5.2239e-05 -1.2079e-05 -1.4557e-05 -5.2121e-05 -0.00087901 0.00017011 0.00023064 -0.00029879 1.5617e-05 -3.6438e-05 -2.8792e-06 -4.5928e-06 -1.2317e-05 -8.6685e-07 4.1e-06 -3.2462e-05 -0.0001152 -0.00010526 1.284e-06 -0.00010805 -3.7016e-07 0.33965 2.2356e-05 6.1244e-05 -0.0012564 -6.2371e-06 -0.0005187 0.00017993 2.141e-05
0.28843 -1.356e-05 -1.6675e-06 1.1054e-05 -2.6441e-06 4.6122e-06 1.5187e-05 -3.0924e-07 0.00011591 1.7383e-05 -4.9014e-07 -0.00027148 -8.6652e-06 -1.8854e-06 1.0236e-05 0.32335 -0.19092 9.4728e-06 -2.2923e-06 5.9997e-06 4.886e-05 -7.6177e-06 1.7486e-06 -1.4533e-05 2.3272e-05 4.8683e-05 2.0683e-05 1.2167e-05 2.3776e-05 1.3513e-05 -7.0246e-05 -9.5161e-05 -0.0007399 3.0082e-05 -4.3344e-05 3.0303e-06 2.2275e-05 5.071e-05 -9.0078e-05 1.6507e-06 0.60251 -0.00031178 -8.9504e-06 -2.346e-06 0.31586 3.3674e-05 -5.5734e-05 -4.3776e-05 -5.2176e-06 -0.00010577 5.2342e-05 3.6977e-05 1.0728e-06 -2.7751e-06 6.5394e-06 3.3959e-07 6.4335e-05 0.00038343 2.0122e-05 -1.9545e-05 3.0375e-06 6.1182e-05 -5.5389e-05 -3.0793e-05 5.4104e-05 5.0833e-05 -5.0878e-05 8.2716e-05 -4.0311e-05 -0.00031272
0.00064426 2.1157e-06 3.631e-05 -1.4223e-05 -2.974e-06 -1.543e-05 0.001688 0.00022824 -5.3877e-05 9.9428e-05 -2.7273e-07 -5.9412e-05 -0.00029998 -0.00019166 2.6433e-06 -0.00010765 0.00053608 -1.1954e-05 4.2444e-06 -6.3523e-05 5.8438e-06 -5.0616e-06 -7.22e-05 -0.0012819 4.4137e-06 -0.00015027 8.9979e-05 -6.5817e-06 0.0018897 0.015068 4.3697e-06 0.00014792 -6.2167e-05 0.0022341 3.0287e-05 -2.1262e-05 0.0029082 0.00045876 0.0012877 -2.1434e-05 0.00073988 3.903e-05 9.9583e-06 -1.5582e-05 -0.00016681 -0.00085778 0.00016241 0.00049197 -0.00032712 5.7436e-05 -6.3972e-05 4.9609e-06 -4.2344e-06 -1.3227e-05 -3.6396e-07 4.372e-06 8.2719e-06 -0.00021719 -0.00012562 -4.6985e-06 -8.131e-05 -4.7379e-05 0.33453 2.8163e-05 4.732e-05 -1.6687e-05 3.6321e-06 -0.00046316 0.00025174 0.00069054
6.9459e-06 1.4313e-06 5.6272e-07 1.079e-06 -5.641e-06 -2.3814e-06 -5.1291e-06 -2.3457e-06 1.4084e-07 -5.6696e-06 -8.9206e-07 3.3143e-06 6.5327e-05 6.577e-05 9.0024e-07 -3.3623e-05 -5.9357e-05 5.9237e-06 -4.2523e-07 0.00015385 -2.9682e-06 3.5292e-06 1.8452e-05 8.7982e-05 -1.6618e-07 4.8037e-05 1.1029e-05 2.4541e-07 -3.9125e-06 -0.00031018 -4.2091e-06 -1.5125e-05 3.404e-06 -0.00016268 -5.9681e-06 -1.8201e-05 -0.00030291 7.2711e-06 8.2643e-05 -2.9738e-06 -9.4219e-07 1.4403e-05 6.9851e-05 -4.648e-06 2.9084e-05 0.00016802 1.3695e-05 -1.138e-05 1.9786e-05 1.12e-05 -4.1372e-07 -6.4759e-07 2.4837e-06 1.7833e-06 -6.5194e-07 -5.4079e-06 -1.8726e-06 -1.6901e-05 4.7484e-06 0.00045742 -3.4412e-06 -6.3509e-06 0.35917 3.1636e-05 0.00047512 0.00029867 6.8887e-06 8.3825e-06 -4.3647e-05 7.4488e-06
0.0015536 -3.6429e-06 0.0001068 -8.0406e-08 1.3062e-06 0.31458 1.1286e-05 6.7089e-05 -6.3453e-05 0.00090408 -3.4791e-06 1.1412e-08 2.834e-06 -0.00010761 7.4125e-06 -0.0042551 -0.003087 2.4028e-06 -2.0428e-06 7.839e-05 -1.3657e-05 -1.1886e-08 -7.2961e-06 -9.2586e-05 -1.0399e-06 -2.0214e-05 0.013184 0.00033167 2.3892e-05 0.00036068 0.00044262 0.81989 -5.6084e-05 0.00030648 4.0282e-05 -4.8461e-05 -9.6614e-06 0.00045474 0.0018987 -0.00023029 1.5499e-05 -3.1833e-05 -2.1812e-05 0.00023009 -5.5156e-05 0.00047765 3.4624e-05 0.00038551 -1.2204e-05 0.0045887 4.622e-06 0.0002463 6.7861e-06 -9.3204e-08 -1.3869e-07 2.5553e-06 -0.00069368 0.0018082 -5.947e-06 1.2758e-05 -0.00035278 -2.1154e-05 0.0060837 0.055588 -4.2667e-05 0.00025003 8.6855e-05 -0.00050605 0.0001323 0.00021746
0.14133 -7.7015e-06 7.5715e-05 5.5461e-06 -4.1905e-06 0.17998 5.3196e-07 1.7674e-05 3.848e-05 3.9137e-06 -1.195e-06 -0.00015318 -0.00016898 -5.955e-06 8.5092e-06 0.15746 -0.093895 -1.8796e-06 -3.7751e-06 3.4442e-05 1.1972e-05 2.7668e-06 0.57364 0.00039545 7.1803e-06 2.1194e-05 0.00011812 9.5931e-06 0.34737 -5.8335e-05 1.1793e-05 0.00014737 -0.00025753 5.5658e-05 6.2225e-05 2.6417e-05 0.65863 0.00072844 0.20787 -1.417e-05 -0.00018388 0.00059038 0.00058973 4.3341e-07 0.15546 0.00011925 0.00036938 0.00015328 5.9032e-05 -1.6063e-05 8.4889e-05 -2.3486e-05 -3.1088e-06 -6.7638e-05 -2.9443e-06 1.8439e-07 -8.616e-05 0.00016875 0.00013884 7.9541e-05 -0.00015137 5.198e-05 -0.00025502 1.338e-06 8.7151e-07 0.0012941 -0.00050042 0.0021585 -5.673e-05 -0.00047941
-2.2333e-12 -3.5734e-13 1.7651e-11 2.3324e-12 -6.6702e-13 1.6738e-11 1.5147e-12 -2.9934e-14 -1.1893e-12 2.3122e-13 2.559e-13 -7.8614e-11 6.3659e-13 3.0763e-12 2.1877e-12 3.8483e-11 1.3255e-10 4.3727e-14 1.1154e-12 3.514e-13 1.5079e-11 3.258e-12 3.8762e-13 -1.0279e-11 3.1075e-13 -1.5078e-11 -6.9976e-13 -3.6203e-12 -1.2698e-11 3.6814e-12 4.259e-12 2.3029e-12 3.8516e-11 -6.7326e-12 -1.148e-09 5.141e-13 4.7347e-13 -8.362e-13 1.4922e-12 -7.9525e-11 -4.3572e-12 1.086e-11 3.1625e-13 -1.5068e-13 -4.4553e-11 -1.7441e-11 2.0864e-11 8.7734e-13 7.4087e-13 5.4601e-13 3.1816e-13 2.9986e-10 1.5417e-11 2.0758e-12 -5.8974e-12 -2.2758e-12 -7.2206e-09 -2.8448e-11 1.4592e-09 -3.1078e-12 -6.0767e-11 1.9491e-08 6.1684e-12 -2.4929e-12 2.7447e-11 -6.8409e-11 4.4204e-12 -1.7892e-12 -7.0755e-12 -9.9456e-10
-0.00028587 2.4671e-05 3.4437e-05 0.37656 1.8511e-06 7.7463e-07 -1.7866e-06 -1.2019e-06 0.00011385 7.1872e-06 -3.9399e-06 -0.00033598 -7.6842e-05 -8.3953e-05 7.1528e-06 0.00046606 0.0007335 -5.0973e-06 -6.0641e-05 1.5088e-06 5.4453e-05 1.5246e-05 2.9629e-06 0.35766 -3.0754e-06 4.094e-06 0.00022501 -7.3851e-07 3.4051e-06 -0.00013509 -9.2013e-06 -1.786e-05 5.0052e-05 0.00016054 -0.00054744 2.2204e-05 1.0839e-05 -5.8836e-07 0.00012576 -2.229e-05 -1.0831e-05 -0.00046896 -4.3493e-06 -1.0442e-05 -0.00013093 4.4736e-05 0.00049578 -3.3325e-05 -2.2885e-06 -3.8975e-05 9.9021e-06 -5.4474e-06 -7.6016e-07 3.7925e-05 1.6308e-08 1.1986e-06 1.4031e-05 0.00012943 -7.8725e-05 1.6306e-05 -7.8541e-05 -0.00012957 -0.00021145 2.8041e-05 -0.00068403 0.33126 -6.1069e-05 -0.00062536 0.00031046 -2.8015e-05
8.2054e-05 -2.7547e-05 0.22746 4.7311e-05 -3.5039e-05 0.00017762 4.2022e-05 4.4497e-06 8.0302e-05 2.4874e-05 -2.5681e-05 -9.4836e-05 -0.00016153 -0.00013011 1.9245e-05 9.5375e-05 0.0001102 -2.8514e-06 1.0202e-06 1.4065e-05 1.5399e-05 -1.0017e-06 -0.00013729 -6.8952e-05 1.3409e-06 -5.2817e-05 0.44875 3.1357e-05 1.4143e-05 0.014087 0.00033763 0.00011696 -1.8997e-05 3.4321e-05 8.4159e-05 3.4674e-05 0.0015157 -1.154e-05 0.25162 -0.0003645 -0.00010238 4.8891e-05 0.00013417 -8.25e-06 -0.00016131 -0.00011004 0.28622 5.2808e-05 -0.00015232 0.00090476 3.1929e-05 -5.4745e-05 1.7172e-05 -5.0068e-05 3.3713e-06 -8.603e-07 -0.00031424 -0.00012883 -0.00014557 -0.00010643 0.009362 -4.0925e-05 0.016637 0.001514 6.8897e-06 -0.00046832 -0.00051771 0.0019285 0.00012412 3.6874e-05
-4.6184e-05 -3.6193e-06 -7.459e-05 -1.0038e-05 5.0946e-07 0.48251 1.1439e-05 -6.8992e-06 -8.0874e-06 -6.7795e-06 5.0968e-08 5.0607e-07 -5.4435e-06 -0.00025925 6.5562e-07 5.842e-05 0.00017544 6.7393e-05 -2.6407e-05 0.23902 -5.9075e-05 -5.8588e-06 -1.6586e-05 -0.00012637 5.8777e-07 -5.7375e-06 0.00029773 -3.5682e-06 -4.4473e-07 0.00028713 2.1704e-05 0.00010348 2.5296e-05 0.00022526 -3.1034e-05 -2.952e-06 0.00030491 0.0003211 5.9951e-06 9.9313e-05 3.5987e-06 -1.9035e-05 -1.3387e-05 -3.6232e-06 -5.7844e-06 0.00096137 0.00016514 5.6756e-05 0.00096709 -6.6155e-05 -5.2787e-06 -3.8994e-05 -9.8816e-06 -1.4762e-05 -2.7476e-05 1.6526e-06 -0.00049803 -1.3376e-05 -3.1564e-06 2.901e-05 0.00021512 1.6516e-06 0.0065593 -0.00027444 -4.7591e-05 0.00018053 1.8816e-05 -3.4363e-05 0.41979 1.1559e-05
0.24882 -0.0011531 2.2587e-06 5.4735e-06 -0.002104 8.5903e-05 0.43437 -1.4455e-06 7.0771e-05 -2.8734e-06 -4.5625e-06 -0.00024865 -2.2289e-05 -2.2166e-05 1.2339e-05 0.2785 -0.16437 0.66045 -2.0134e-06 0.00035001 8.9864e-05 -5.9934e-06 1.5255e-06 3.9742e-06 1.0051e-05 -2.0715e-06 2.0141e-05 8.8704e-07 9.1466e-06 2.3693e-06 -4.7601e-05 -7.8071e-05 -0.00042773 -2.1226e-05 -9.6468e-06 -1.0182e-05 0.0011476 4.9985e-05 5.7545e-05 -2.2136e-05 3.5901e-05 -0.00028623 -2.1218e-05 -1.9416e-06 0.27249 -0.00014106 -4.5959e-06 0.00015437 8.3496e-06 -7.4886e-05 0.00011371 7.0594e-05 2.245e-06 2.8446e-07 3.963e-06 2.9813e-06 2.3748e-05 0.00030383 8.602e-06 1.2612e-06 -3.4938e-05 5.2908e-05 0.0050907 -4.6018e-05 6.0404e-05 5.9799e-06 1.9084e-05 2.6687e-05 0.00030638 -0.00025236
1.3632e-05 -2.2754e-05 -4.139e-05 -1.7775e-05 7.5005e-06 -5.7663e-06 2.5362e-06 9.2864e-07 2.121e-06 6.9354e-05 5.4807e-07 5.0758e-05 0.00035108 0.0011651 7.7136e-06 -4.3734e-05 -6.6381e-05 6.6578e-06 1.805e-06 -4.577e-07 -0.00081541 0.6329 0.00020426 0.00014668 -2.0431e-06 1.2984e-06 -6.7587e-06 -0.0001055 -8.946e-05 -5.1973e-05 -0.00049081 -4.4902e-06 4.8287e-05 1.3436e-05 -0.00086537 -0.0005803 -6.6034e-06 5.2696e-06 0.0031422 2.4056e-05 -5.8888e-05 -2.4476e-05 -1.8615e-05 -3.5248e-05 4.9393e-05 -0.00015698 0.40856 1.248e-05 -2.3809e-06 -6.4034e-06 2.2146e-05 -2.0029e-05 1.5868e-05 -0.0027541 -7.6685e-05 -2.8187e-05 3.7104e-05 -5.2454e-05 -7.0766e-05 0.083442 9.3113e-05 -1.05e-07 -9.1012e-05 -9.8291e-07 -7.5622e-05 -0.0001891 0.00043134 -0.00098892 0.00024486 -0.000103
9.7281e-05 5.2969e-05 1.3739e-06 -3.0153e-06 3.048e-05 -1.8459e-05 3.2799e-05 0.00044627 -6.3116e-06 0.00019388 -2.3362e-06 6.6663e-05 -2.433e-05 -3.2449e-05 4.2939e-06 -0.00022748 0.00033635 3.6556e-05 -2.6482e-06 8.9703e-06 -1.0978e-05 9.0255e-07 3.6673e-05 2.2795e-05 -5.5458e-07 5.0574e-05 1.0013e-06 -2.0031e-06 -2.702e-06 3.1935e-05 -2.2311e-05 9.6263e-05 -7.9245e-06 5.2567e-05 -1.9805e-05 -2.9133e-07 5.4425e-05 -3.5228e-05 -7.8471e-05 -1.1073e-06 -1.6214e-05 -5.6143e-05 -0.00010166 -3.6701e-05 -5.7421e-05 8.3279e-05 6.1372e-06 0.00031738 -6.5616e-06 -0.00016158 1.9095e-06 -6.9062e-06 -3.2858e-06 6.2423e-06 7.3929e-07 1.4762e-06 -2.4196e-05 -0.00015071 -7.796e-07 0.0002767 -3.0547e-06 1.9552e-05 1.7019e-05 2.2795e-06 0.54853 -0.00049885 6.3671e-06 -0.00034814 -6.4584e-06 -2.2263e-05
-0.00013871 0.00044771 -1.9349e-05 -7.7942e-06 0.0011753 1.5672e-05 1.2337e-05 -5.3812e-07 -9.9651e-06 0.0017481 -6.2724e-06 3.7122e-05 -7.885e-06 -3.066e-05 -2.487e-08 0.00045153 0.00052116 -1.3483e-05 -8.4847e-07 -6.3592e-06 -0.00016052 0.00024095 4.7618e-06 2.5909e-05 -3.4295e-06 0.0011434 -1.6826e-05 -5.0155e-05 1.196e-05 3.8165e-06 -1.0393e-07 -3.4957e-05 3.4347e-05 4.2938e-05 -6.5657e-05 0.83209 -7.7894e-06 8.2061e-07 -8.6308e-06 1.2153e-05 1.3403e-05 -0.00022012 -1.4568e-06 0.00022449 -4.8539e-05 -5.1335e-05 0.00034061 0.00016064 1.5857e-05 -0.00025161 -1.6339e-05 -1.8708e-06 2.5387e-06 7.9266e-05 0.027178 -2.383e-06 7.5994e-06 0.35304 -2.7436e-05 0.00022185 4.4378e-05 1.9136e-05 0.00055422 4.5064e-05 0.0015075 0.00023356 4.6653e-05 -1.1463e-05 -6.297e-06 0.00094716
-5.3495e-05 7.0425e-05 1.7873e-05 0.29259 8.4074e-05 -1.0448e-05 -4.3537e-05 1.2036e-06 8.3863e-06 -9.5003e-06 -5.4222e-07 0.28929 -4.3553e-05 4.357e-05 0.00060618 -0.00045028 -0.00050489 2.0663e-06 -4.2269e-05 -9.9708e-07 -1.5185e-05 1.7619e-05 -3.9484e-05 0.27698 1.4668e-05 3.9387e-05 -3.7978e-05 3.7344e-05 1.6374e-05 0.33861 7.4081e-06 -4.6064e-05 4.1623e-06 0.34699 0.36188 9.5963e-06 -2.439e-05 -3.6687e-05 -1.8049e-05 -1.596e-05 1.7887e-05 9.592e-05 -0.00012821 -2.048e-05 0.18021 0.00013905 0.27578 -3.6533e-05 1.9502e-05 -7.4427e-05 -5.9125e-05 -4.9849e-05 2.5386e-05 1.5721e-05 -6.223e-06 -2.678e-06 -8.5783e-05 8.0763e-05 -0.0035571 -4.2299e-05 -4.0636e-05 -0.005402 -0.0009002 1.3304e-05 -0.00028746 0.23368 -5.5267e-05 -0.00014176 0.00041748 -1.462e-05
3.4027e-06 -1.8553e-07 7.8749e-05 1.6184e-06 2.7468e-07 -3.7164e-05 5.7539e-06 -2.2325e-06 6.7693e-06 -3.8193e-05 1.4252e-05 4.4624e-07 1.0818e-05 -1.0169e-05 -1.3369e-06 -2.6443e-05 7.7905e-05 -9.6688e-07 -5.2671e-06 0.40672 2.2083e-06 -2.6018e-06 1.7986e-06 1.2915e-05 7.8009e-07 4.2368e-05 0.42941 6.2048e-05 -1.3665e-05 1.7363e-06 -5.1101e-05 0.0022466 9.888e-06 -2.1143e-06 2.0002e-05 -9.9308e-07 -1.2858e-05 -1.605e-05 -9.3097e-05 -0.00012053 -8.9953e-07 -1.5078e-06 -1.0169e-06 1.0921e-06 1.8856e-05 0.0004002 1.9648e-05 0.00040501 7.1514e-05 0.0031229 3.7113e-06 -1.2274e-06 -1.2704e-05 -1.297e-05 6.0796e-06 -9.5162e-07 -0.00014785 3.1061e-05 5.1543e-07 2.1868e-05 -0.00031734 6.2466e-06 5.3816e-05 0.99549 5.1421e-06 4.3468e-05 0.00010676 0.00011058 6.9004e-05 2.904e-05
0.00013917 -7.4187e-06 0.00089714 -5.5189e-06 2.2362e-06 0.00017722 -1.6311e-05 -1.1743e-05 -1.5578e-05 0.00024199 -0.00015652 2.4672e-06 -1.4671e-05 -6.8375e-05 3.9974e-05 2.2093e-06 3.5998e-05 -2.2375e-05 -2.8419e-05 0.00037145 -1.3097e-05 0.00036792 -2.7286e-05 4.1898e-05 1.822e-06 4.7622e-05 2.7379e-06 -4.0522e-06 0.0047502 2.5177e-06 -2.7757e-05 -1.822e-05 -3.5551e-06 -1.9887e-05 1.8008e-05 -2.771e-05 -0.00011057 1.6606e-05 -3.6612e-05 -0.00058008 -7.798e-05 -8.768e-06 3.919e-05 0.00023179 -9.8983e-06 0.002838 0.24199 -6.4688e-06 4.2005e-05 0.0022399 -1.6207e-06 -7.2727e-06 4.7136e-06 -9.6226e-05 1.7839e-05 3.6684e-06 -3.948e-05 -6.771e-06 -2.5484e-05 0.00054916 -0.0020966 2.6263e-05 -0.00014168 6.4304e-05 0.00039314 0.00035435 -4.1618e-05 -0.00020618 0.031031 0.00046835
-5.0407e-18 5.7718e-19 -2.2938e-18 6.1764e-20 2.4288e-19 -7.7813e-21 1.4058e-22 -1.2156e-21 5.2917e-20 3.1857e-20 -8.1906e-21 -2.6492e-20 -5.9649e-20 -1.1133e-20 -3.8384e-21 1.3953e-17 7.3916e-18 -4.4148e-19 3.3625e-22 9.0758e-22 7.7353e-19 -3.6102e-18 2.6508e-20 4.6481e-21 5.2822e-20 -1.9525e-19 3.4436e-20 2.417e-21 4.2378e-20 6.796e-21 -1.3741e-19 7.3091e-20 9.3636e-20 1.6553e-19 -5.6918e-19 1.3526e-15 -1.8646e-20 -1.8632e-19 -6.7586e-19 1.7727e-18 1.6998e-20 6.1861e-20 7.2626e-20 3.6178e-20 1.1695e-18 -1.8979e-19 -3.3138e-18 4.0092e-19 -3.8734e-21 -8.2626e-21 -1.3984e-19 1.9915e-19 3.74e-19 4.0137e-17 -1.0946e-18 -1.2514e-20 -1.39e-19 1.08e-17 -2.2152e-19 -4.8078e-18 5.7391e-18 1.2537e-20 -1.1895e-19 3.6611e-21 -2.8666e-18 -1.6415e-18 -1.4016e-18 -1.4292e-20 5.4124e-21 -4.3195e-18
-2.4085e-05 2.3456e-05 -6.0251e-06 -1.6301e-05 -7.2685e-06 0.00018888 0.00017989 8.0338e-06 -4.081e-06 0.00029492 -3.51e-05 -0.00094858 6.3063e-06 1.0293e-05 0.00016913 -0.00085636 -0.0011464 6.7734e-05 -1.9094e-06 2.3828e-08 0.36481 0.00065962 1.9356e-05 -0.00017508 2.8668e-05 1.3353e-05 1.2608e-05 -4.6568e-06 2.0156e-05 9.515e-05 0.00060634 -3.9695e-05 1.9487e-05 1.341e-05 0.0010926 0.006547 -8.6163e-06 8.1152e-06 -7.924e-06 -0.00010247 2.4872e-05 0.4832 9.5372e-06 1.313e-05 -6.8872e-05 -7.9228e-05 0.0001442 -2.5175e-05 6.0837e-06 -4.6736e-06 -9.2197e-05 0.0016271 -5.4726e-05 -1.8609e-06 5.24e-05 2.8528e-06 0.0028085 -0.001116 4.8117e-05 0.001257 -2.8669e-05 -0.00030714 -9.6146e-05 -1.2853e-05 0.0019032 -0.00061463 -4.3565e-05 0.00013942 1.4112e-05 -0.00022674
-8.6182e-06 0.48061 0.34987 -9.7044e-07 0.48302 -7.6724e-06 1.5773e-06 1.0961e-06 -5.0062e-06 -1.1718e-06 -3.6445e-07 9.6486e-07 -2.039e-05 1.9553e-05 -2.573e-06 -4.1379e-06 -5.2773e-06 -7.6309e-05 6.2377e-07 -3.2961e-07 5.4051e-06 1.3684e-05 -3.131e-06 2.756e-06 -8.4493e-06 7.9824e-07 3.3422e-05 6.601e-08 -3.3102e-06 5.009e-07 6.4479e-05 6.6596e-07 -1.0931e-05 -3.8304e-07 -8.4065e-05 -5.7153e-05 -2.412e-06 -2.6795e-06 -3.1756e-06 4.3488e-05 1.0717e-06 2.4644e-07 2.3487e-07 -2.7396e-06 -2.5179e-06 -1.3252e-05 -7.6464e-06 7.7926e-06 -3.3094e-07 1.7188e-05 1.625e-05 -4.0411e-05 0.52661 0.00032348 -3.1145e-06 -0.00019225 -2.9527e-05 1.8776e-06 -9.0789e-07 0.00018985 0.015883 2.4693e-06 -1.5933e-06 1.0215e-06 -5.0592e-06 -2.2621e-05 1.845e-05 1.497e-05 4.9922e-06 -1.8894e-06
-0.0002279 -6.022e-05 0.00020146 1.0682e-06 -4.464e-06 -3.6011e-06 -1.0701e-06 0.00032827 1.9065e-06 5.9827e-05 -1.5849e-05 4.4856e-06 3.0167e-05 -4.1001e-05 2.1315e-06 9.8744e-05 -0.00041356 -7.027e-06 -1.6515e-06 -3.7802e-06 9.461e-08 -3.9666e-05 -1.6073e-05 -8.8793e-05 2.0258e-05 1.0473e-05 -2.4277e-05 -2.4431e-05 5.4645e-06 -8.2814e-06 0.41766 2.7776e-05 -0.0045286 -6.7353e-06 1.3438e-05 9.0387e-05 -1.2776e-06 -3.0534e-06 0.00040507 -0.00016659 -0.00044104 3.4592e-05 1.2299e-05 8.4277e-05 0.19027 0.00027822 7.4376e-05 0.0006341 -5.1018e-06 -2.9685e-05 -0.00038841 2.3045e-05 0.34503 -8.0178e-05 1.0831e-06 -0.00011572 -3.7216e-05 -0.00024652 -2.0863e-06 -0.0005907 -0.00056401 -6.5763e-06 -6.6313e-05 4.1604e-05 -0.00017329 -0.00015945 -9.6905e-05 -0.00010183 -5.8026e-06 0.00013764
-1.0131e-05 -9.1379e-07 -4.6557e-05 -3.3147e-06 -1.614e-06 0.27318 5.6239e-06 -1.7475e-05 4.7921e-05 5.6614e-05 -2.2573e-05 1.6899e-05 -0.00025123 -0.00012194 5.5433e-06 0.0001011 7.8127e-05 -9.2791e-09 1.6981e-05 -0.00012311 -2.358e-05 -3.3938e-05 -8.5375e-06 4.4118e-06 -2.9827e-08 0.00032303 0.00014527 -9.3146e-08 -0.0001118 0.00013524 -2.9422e-05 3.9414e-05 5.0969e-05 6.1869e-05 -1.9213e-05 -1.2977e-05 -0.00012808 -2.5054e-05 -4.4871e-05 7.7127e-05 5.602e-06 8.6908e-05 -5.5731e-05 0.00035977 1.7722e-06 0.25908 6.1399e-06 -3.8377e-06 0.35388 -0.0002288 1.1498e-06 -2.5721e-05 2.9866e-06 -1.9025e-05 -1.6446e-05 1.1968e-06 -0.00012218 -1.7342e-05 5.6418e-06 -3.5371e-05 0.00012613 -2.9367e-06 -0.00049769 -6.9774e-05 -7.9044e-05 2.3117e-05 2.5502e-05 -0.00019008 0.0021978 4.7442e-05
-0.0013102 -0.00095001 0.27532 -1.2163e-06 -0.001753 -8.0739e-06 4.2886e-05 3.6194e-06 0.59374 5.065e-06 -4.248e-06 9.3733e-05 -1.5363e-05 2.6396e-05 4.9032e-06 0.0020017 -0.0010978 0.54279 -3.3731e-06 6.5196e-05 0.44831 0.00076914 -5.3977e-05 -2.5081e-07 -2.4543e-06 -6.5097e-06 7.4136e-06 5.1826e-06 -8.4053e-06 0.00028188 -4.15e-05 2.1513e-05 4.1224e-05 0.00015472 0.00019447 -2.2042e-05 0.00021326 1.0317e-06 0.30113 -7.8151e-05 -0.00010668 0.0012353 0.51421 2.9157e-05 -0.0001159 0.00048976 0.00061242 0.000121 -1.1121e-05 -9.5666e-05 1.3782e-05 2.8178e-05 -3.2086e-06 -5.8261e-05 1.5116e-05 1.152e-06 -7.8114e-05 9.0829e-06 -8.8928e-06 8.842e-05 0.012043 -7.1932e-05 0.00030231 3.689e-05 -4.6954e-05 4.6322e-05 -0.0004469 0.0034455 6.3263e-06 2.7041e-05
0.00022111 -5.9767e-06 -9.3651e-07 3.7074e-05 -1.555e-05 6.8133e-07 1.0016e-06 -3.5766e-07 -1.7037e-06 7.8209e-07 0.43268 0.44819 -9.3744e-06 -3.6109e-06 0.76105 -0.0011316 -0.0018243 -4.0415e-07 -1.2648e-05 -2.3067e-07 0.0001701 -2.4843e-05 -1.5947e-05 7.107e-05 8.2651e-05 2.3641e-05 2.9204e-06 2.2253e-07 -3.4655e-06 7.72e-05 -1.3768e-05 -1.694e-05 1.4522e-05 3.0904e-06 0.00033731 5.2662e-06 1.0624e-05 2.149e-05 7.9354e-06 6.2947e-07 1.3013e-05 -0.00047047 2.3112e-05 2.0652e-06 4.8303e-05 0.00014633 2.3989e-05 -1.408e-05 -1.5747e-06 2.3343e-06 -5.2278e-07 1.5856e-06 -9.6353e-07 3.8033e-05 -9.0589e-07 -2.7416e-07 7.854e-06 0.00014572 0.00039178 -3.3858e-05 1.8768e-06 0.00064124 1.5211e-05 9.9687e-06 9.8985e-05 -6.3912e-05 -4.4291e-06 2.9914e-05 -6.2779e-06 1.2392e-05
0.0002396 -6.5056e-08 -2.0566e-06 -1.8612e-05 2.6398e-06 4.8794e-05 1.7399e-05 0.00029465 -1.0148e-06 0.55112 3.4845e-06 -6.2592e-07 6.1233e-05 -1.7238e-05 3.3569e-08 -0.00051318 -0.00096343 5.9352e-05 -1.4456e-06 0.0011864 0.00021398 -5.2923e-05 0.00042126 -4.0213e-06 1.8628e-07 2.0137e-05 -7.189e-06 -1.8531e-05 -1.5817e-05 9.0263e-06 -3.3653e-06 -4.1172e-06 1.4691e-05 2.6544e-05 -0.00010577 -1.9856e-05 0.00050615 2.2162e-05 0.00019895 -1.1521e-05 0.00010215 -1.1195e-05 -1.5887e-05 0.00042688 8.2897e-06 3.5305e-05 0.0028134 0.28893 0.00017921 0.0001273 -7.8774e-06 -2.6177e-05 4.046e-06 0.00025942 -0.00056188 4.8514e-07 -2.8715e-05 -0.00010829 -9.2127e-06 -5.1028e-05 2.5369e-06 -5.5043e-06 0.0026847 -4.3809e-05 0.0018591 0.00016628 0.0011115 0.00031071 0.00016675 -6.5168e-06
0.098003 1.2861e-05 9.4764e-05 3.4329e-06 2.5377e-05 0.25247 -2.7747e-05 -5.7649e-06 0.28696 8.1892e-05 -1.5579e-06 -0.00012544 -3.7366e-05 0.00025181 2.1511e-06 0.11151 -0.065341 -3.182e-05 -4.7088e-08 6.2293e-06 -6.3322e-05 5.6656e-05 3.8766e-05 -2.3153e-05 6.9713e-06 2.1896e-05 0.00013819 -5.0152e-08 0.24501 -1.2248e-06 -3.5255e-05 -1.9372e-05 -0.00022425 -7.3995e-07 0.00017843 0.00023694 -3.4267e-05 -4.0238e-05 1.8807e-05 -0.00023575 -2.9298e-05 -0.00017058 -1.4784e-05 0.00035263 1.5456e-05 -0.00015723 6.2629e-05 9.7107e-05 0.00012771 -9.8526e-05 4.758e-06 -5.4246e-05 5.6431e-05 -2.6596e-05 -1.4778e-05 -6.9827e-06 -0.00079751 -7.1446e-05 8.8944e-06 0.0019323 -0.00029569 1.6213e-05 0.0013863 -3.1525e-06 0.0011009 0.00037292 9.2226e-05 0.00067907 -0.0002244 0.00018715
-1.1968e-05 1.1823e-05 9.7778e-05 -1.8758e-05 6.7301e-06 7.2646e-05 -1.2424e-05 1.083e-05 5.5743e-06 4.4504e-05 0.00072109 -5.9891e-05 0.00020026 0.00021234 -0.00027544 -0.0002326 -0.00015735 8.3156e-05 9.2991e-07 3.7508e-05 -5.252e-05 -4.6681e-06 0.0015346 0.00012657 1.3645e-05 3.692e-06 0.00012245 2.7135e-06 -1.9681e-05 0.00021891 0.00014374 -6.3167e-05 -0.00036619 -7.5485e-05 0.00043567 1.3777e-05 0.00010105 0.00078089 0.20577 -6.0794e-05 0.27032 -2.5978e-05 0.00031975 7.8539e-06 0.14099 0.0016985 0.0065591 6.5412e-05 5.9183e-06 0.0051309 -0.00018324 5.6674e-06 -2.9573e-05 2.5478e-05 6.5111e-06 -3.2281e-06 -6.7123e-05 -4.3824e-05 -3.7226e-05 -0.00020763 -0.00022375 -0.00010375 -0.00024514 2.2735e-05 0.0018622 0.0008408 -0.0001439 0.0015289 -1.4311e-05 9.368e-05
2.1679e-05 -3.6734e-07 5.2162e-06 -6.9101e-06 8.3048e-07 0.22008 5.5363e-06 -4.549e-07 -9.9072e-06 3.4499e-06 3.1209e-06 -1.7526e-05 5.0695e-05 -3.1025e-05 -2.9915e-07 -2.0732e-05 3.4829e-05 1.6773e-05 1.7034e-05 0.00022006 1.0599e-05 -1.4761e-05 0.00022832 0.00059855 1.1108e-07 -1.2198e-05 0.00013191 0.00015343 0.00011202 -0.00010067 -1.8325e-05 -4.7416e-06 -9.9217e-06 -2.8551e-05 -2.8171e-05 9.6379e-07 -4.2038e-05 -4.5964e-06 8.9249e-05 9.4776e-06 0.00039659 -6.3406e-06 0.00022042 -4.3619e-06 0.00031975 -6.2265e-05 0.0002507 -5.1449e-06 -5.1297e-05 -2.8113e-05 -3.1077e-05 -9.3411e-06 -5.0409e-07 -6.4102e-06 -1.318e-05 7.1548e-07 -0.00013237 -5.0172e-05 -1.6954e-05 0.00047471 9.484e-06 -3.7499e-05 0.00026479 -0.00011337 0.00019678 0.001365 0.00099767 0.0035162 0.74005 2.2376e-05
0.14928 9.6874e-06 1.7243e-05 0.26983 7.3397e-06 3.669e-06 -1.3282e-05 2.2504e-05 3.0669e-05 -4.8323e-06 -6.7246e-05 0.28013 -3.3457e-05 1.8615e-05 7.3716e-06 0.17633 -0.08786 -2.5011e-06 -4.8642e-05 -1.7845e-06 -0.0018673 0.00010046 -7.6699e-06 0.25577 4.5151e-06 -8.5965e-05 -2.6599e-05 -6.2686e-06 1.0852e-05 -0.00040572 -5.9843e-05 0.00017476 -0.00056189 0.00018741 0.0018161 1.151e-05 -2.7908e-05 -1.5732e-06 0.00026585 -1.1729e-05 -0.00014155 0.4302 -2.1369e-05 -4.1138e-06 -3.7459e-05 -0.00089578 0.25558 0.00012856 3.42e-06 1.6548e-05 9.7139e-05 -2.241e-05 7.3006e-07 -1.892e-05 3.8167e-08 2.2119e-06 -8.9422e-05 -0.00053874 8.0356e-05 0.00033466 -3.7784e-05 -0.00084499 -2.998e-05 1.6777e-06 -0.00039281 0.21694 -8.242e-05 6.8943e-05 0.00035696 0.0001092
0.12455 4.074e-05 4.9435e-05 1.8504e-05 3.5336e-05 1.6837e-05 2.4507e-05 -2.1273e-05 0.00017736 5.4273e-05 -2.1659e-05 9.8401e-05 -7.8021e-05 0.00017524 2.491e-05 0.026779 -0.24148 -7.3162e-06 -1.8859e-06 1.5897e-05 1.2233e-05 7.9216e-05 1.2503e-05 -0.00058148 -3.2076e-06 0.00054773 -2.3463e-05 -3.7732e-06 7.0576e-05 0.0038084 -9.0147e-06 -0.00022312 0.0005044 0.18046 0.00018601 0.00055751 -0.0002504 0.0002729 0.00017249 -3.2977e-05 -2.2072e-05 3.3305e-05 -8.5791e-05 0.0006247 7.7867e-05 0.0002192 0.14266 0.27222 3.1102e-05 -7.3818e-06 -6.8581e-05 -6.7775e-06 7.7142e-06 -5.1172e-05 0.00012397 -5.1273e-06 -9.197e-05 0.0021587 -1.0877e-05 0.0016161 -0.00011682 -7.632e-05 0.18909 -1.2117e-06 0.33984 0.12342 4.8244e-05 0.00067622 0.00024431 0.0005276
0.29457 3.2204e-05 0.00022013 2.3369e-06 3.5901e-05 3.1262e-05 0.51426 3.5923e-06 0.00014378 9.942e-06 -1.0149e-06 -0.00038744 -6.8293e-05 0.00011998 1.6279e-05 0.32997 -0.19418 1.3818e-05 -5.173e-06 9.3065e-05 8.9431e-05 -3.5743e-06 -8.419e-05 5.2916e-05 1.212e-05 3.5455e-05 9.0804e-06 3.2812e-06 2.2365e-05 9.5963e-05 -6.5246e-05 -6.5228e-05 -0.00041194 0.00023906 -8.5511e-05 4.0689e-05 0.00032379 5.8961e-05 0.43375 -0.00013812 -0.00012851 -0.00046032 0.00027711 -1.1874e-05 -0.00020946 0.00071771 0.00086165 0.00010159 -1.8637e-05 -0.00022437 0.00019953 -2.122e-05 -7.848e-06 -6.6696e-05 5.1743e-06 -3.1676e-07 0.00010588 0.00038595 -4.2384e-06 -0.00026159 -0.0005029 0.00015847 -1.2584e-05 1.9727e-05 -0.00022683 0.41397 -0.00072916 0.0042854 0.00012649 -0.00024163
-1.3002e-05 0.41322 -9.701e-05 0.40177 0.41521 -1.1944e-05 3.5634e-07 1.6487e-06 2.9069e-06 -1.0192e-06 -8.5737e-06 2.5089e-05 1.1951e-05 0.59349 6.3184e-06 1.6868e-05 4.1329e-05 -6.1166e-05 -5.9677e-05 -1.3676e-06 2.1129e-05 -3.882e-05 4.4542e-06 1.2689e-05 -9.3543e-06 1.4336e-06 9.0243e-06 -9.601e-08 7.861e-06 -5.7111e-06 4.9797e-06 1.5294e-06 -1.5357e-05 -7.1616e-07 -1.8112e-05 -9.1278e-05 4.9266e-06 9.6713e-06 2.2924e-06 0.00013697 1.2266e-06 2.6379e-05 -9.222e-07 -1.9679e-05 -5.8068e-06 -8.4131e-06 8.9599e-05 1.5143e-06 1.3952e-06 3.3672e-05 5.7992e-06 -3.8221e-05 -0.00012167 0.00029758 3.9054e-07 0.74813 -0.0001168 3.1467e-06 -5.5476e-06 -8.0099e-05 0.00017389 -6.043e-05 1.2308e-05 1.9772e-05 -5.8359e-05 -2.4088e-05 -2.3229e-05 3.8207e-05 -2.4077e-05 -2.0463e-06
-5.3495e-05 7.0425e-05 1.7873e-05 0.29259 8.4074e-05 -1.0448e-05 -4.3537e-05 1.2036e-06 8.3863e-06 -9.5003e-06 -5.4222e-07 0.28929 -4.3553e-05 4.357e-05 0.00060618 -0.00045028 -0.00050489 2.0663e-06 -4.2269e-05 -9.9708e-07 -1.5185e-05 1.7619e-05 -3.9484e-05 0.27698 1.4668e-05 3.9387e-05 -3.7978e-05 3.7344e-05 1.6374e-05 0.33861 7.4081e-06 -4.6064e-05 4.1623e-06 0.34699 0.36188 9.5963e-06 -2.439e-05 -3.6687e-05 -1.8049e-05 -1.596e-05 1.7887e-05 9.592e-05 -0.00012821 -2.048e-05 0.18021 0.00013905 0.27578 -3.6533e-05 1.9502e-05 -7.4427e-05 -5.9125e-05 -4.9849e-05 2.5386e-05 1.5721e-05 -6.223e-06 -2.678e-06 -8.5783e-05 8.0763e-05 -0.0035571 -4.2299e-05 -4.0636e-05 -0.005402 -0.0009002 1.3304e-05 -0.00028746 0.23368 -5.5267e-05 -0.00014176 0.00041748 -1.462e-05
-0.00049695 4.5238e-07 -4.6591e-06 -4.3628e-07 -3.5515e-06 -5.0483e-06 -3.8987e-06 0.00019002 -9.1728e-06 8.3027e-05 2.9501e-07 -3.3566e-06 7.7422e-06 -4.2313e-05 6.0371e-07 0.0017213 0.001281 2.1111e-06 2.6852e-06 -1.0168e-05 2.9469e-05 -7.4755e-06 3.6593e-05 7.5191e-05 -1.7401e-06 0.70308 0.00014732 3.9737e-06 -1.8128e-05 -0.00022277 -2.9606e-07 3.3472e-05 -2.3187e-05 -0.00016534 6.7441e-06 -2.6722e-05 -0.00025678 -8.6192e-06 8.3509e-05 4.9874e-06 -6.2377e-06 5.7201e-06 3.2682e-05 3.6842e-05 -4.2636e-05 -0.0001384 8.7931e-06 0.00025076 -6.9193e-06 -1.0195e-05 -1.0468e-05 0.00017529 -3.2926e-06 7.4781e-06 -9.9095e-06 5.4051e-07 0.0012059 0.0003557 -1.3383e-05 -1.3398e-05 8.9739e-06 -5.1133e-06 0.24635 -3.6918e-05 0.00024859 -0.00030978 3.7995e-06 0.00066473 -2.3552e-05 0.00011625
0.12004 2.2078e-06 1.8011e-06 1.3214e-06 5.0519e-06 -0.00014079 -5.5292e-06 1.9617e-06 2.8285e-05 0.00037541 3.4151e-06 -0.00010628 1.562e-06 -1.2588e-05 4.2283e-06 0.13557 -0.078807 6.4221e-06 5.5887e-07 2.6626e-07 1.6501e-05 6.0309e-05 1.9585e-05 -1.6544e-05 3.3015e-06 -1.7789e-05 0.32634 0.3871 5.1381e-07 5.6603e-06 9.516e-06 0.0013205 -0.00021841 -8.8514e-07 7.3443e-05 -2.0328e-05 -4.9775e-06 4.4563e-06 2.9094e-05 7.3686e-06 6.139e-06 -0.00015603 0.0006286 0.00030106 -0.00013015 -6.9652e-05 5.1543e-05 -2.5311e-05 1.2066e-06 -0.00025286 6.3217e-05 -2.5885e-05 2.3852e-05 -8.8814e-06 -8.9618e-05 9.0942e-07 7.3128e-05 0.25981 3.2162e-06 -4.6513e-05 -2.302e-07 -1.781e-06 0.00020158 -0.0010745 -0.00016418 -2.8132e-05 -3.3707e-05 0.00010552 -1.9993e-05 0.00030647
0.00018997 0.00016406 -4.2915e-05 1.1105e-06 0.00046299 -3.4233e-06 -1.607e-05 3.0292e-06 -1.0421e-05 0.25078 -8.7548e-06 1.7931e-05 -0.00014759 7.4589e-05 8.0096e-06 -5.4026e-05 -0.00056049 -4.8879e-06 7.9016e-07 -1.5532e-05 0.00065298 0.32592 -8.0418e-05 0.00035565 -8.3419e-06 -1.3694e-05 -2.6459e-05 -2.5664e-05 -8.3802e-05 -2.0993e-05 0.29786 5.7303e-05 -0.00045033 -4.0405e-06 0.00018637 0.32634 5.8067e-05 1.1803e-05 0.00036639 2.8575e-05 -9.0413e-06 0.00048188 -3.0284e-05 -1.5256e-05 -0.00022186 -0.00020625 1.1401e-05 7.9992e-05 -2.3975e-05 2.3843e-05 -0.00015566 -2.0475e-05 -1.8949e-05 -0.0006448 -0.00044611 2.0138e-06 6.7183e-05 0.26923 0.00012914 0.36146 0.00010612 -1.3363e-05 -0.00012053 6.8239e-05 -0.00011401 0.0011174 2.7214e-07 4.7567e-05 -4.6715e-07 -0.00014407
0.18434 -6.9388e-06 6.817e-06 5.3101e-06 -2.6225e-06 0.00021656 -1.2588e-05 -2.3931e-06 6.9954e-05 -3.9977e-08 2.4893e-06 -0.00018428 -5.9806e-05 5.3268e-07 1.6062e-05 0.20621 -0.12183 4.9501e-06 -2.0489e-06 3.8057e-05 3.29e-05 -2.8505e-05 0.00080464 2.2801e-05 9.7302e-06 1.9593e-06 -4.8107e-06 1.3099e-05 0.45421 8.596e-06 3.9054e-06 -2.9974e-05 -0.00037789 -7.2954e-07 -5.8354e-05 -2.3212e-06 6.0018e-05 0.67903 0.0002609 -5.7397e-06 -9.2278e-05 -0.0001792 0.00064693 6.6947e-07 0.20344 -0.0004577 -0.00015761 -2.8819e-05 -5.1984e-06 -6.5583e-05 0.00010154 -1.7772e-05 8.7453e-06 9.663e-07 7.055e-06 5.1061e-07 -8.9099e-06 0.00027388 1.246e-06 -8.187e-05 -4.2048e-05 3.9178e-05 -1.1453e-05 8.1025e-05 4.0025e-05 -5.884e-06 -3.7626e-05 6.6986e-05 -6.5342e-05 -0.00066583
0.00015982 -4.0415e-06 0.0001779 7.3508e-07 -3.5088e-05 0.21025 4.24e-05 -2.3119e-05 2.2981e-05 8.1678e-05 -3.6615e-05 2.8925e-05 -0.00064915 0.4376 1.2534e-05 6.1518e-06 -0.00056132 -4.965e-05 -2.1843e-06 0.0001109 -0.00011903 1.0728e-05 0.00013894 7.1591e-05 8.8863e-07 -9.6541e-05 8.8709e-05 -1.6696e-06 -0.00015747 -0.00010371 -3.8106e-05 9.5288e-05 3.5221e-05 -6.1811e-05 0.00031412 0.00035924 -8.501e-05 -3.5526e-06 0.24231 -0.00014527 -8.4434e-05 9.7702e-05 2.1581e-05 0.0004148 2.8845e-06 0.40262 0.00056915 8.8604e-06 -4.4178e-05 -0.00019317 2.905e-05 -2.1393e-05 1.174e-05 -7.5411e-05 -2.0276e-05 -1.7535e-05 -0.00039862 -0.00012845 2.135e-05 0.003166 -0.00037499 -1.1159e-05 0.35407 -0.00020664 0.00027394 -0.00053348 -0.0001547 0.53387 -0.00028655 0.0010832
0.12254 3.0805e-06 -1.0793e-06 2.621e-06 5.413e-06 -8.2272e-05 -3.8062e-05 -1.1689e-06 -8.5667e-06 0.00058123 3.8602e-06 -0.00010058 1.5201e-06 -2.0096e-05 7.4907e-06 0.1384 -0.0798 -9.479e-07 4.382e-07 -2.0934e-06 -2.6803e-05 5.9388e-05 2.1272e-05 -1.1334e-05 4.8345e-06 -5.2367e-05 0.32102 0.39253 -5.5093e-05 1.0576e-05 -6.2814e-06 0.0013637 -0.00022795 2.8388e-05 0.0040951 -2.5473e-05 -6.3034e-06 -6.1389e-07 -6.3698e-05 -1.1783e-06 -2.9698e-05 -0.00014717 0.0007386 0.00035937 -3.3084e-05 0.00041326 -7.2652e-05 -0.00011632 -1.3126e-06 -0.00029669 5.4048e-05 -2.4608e-05 8.3618e-06 0.00044755 0.0012594 1.2899e-07 -8.0076e-06 0.26733 -0.00013367 -4.9218e-05 9.2502e-07 -0.00036099 0.00015313 3.5483e-05 -4.1294e-05 7.6628e-06 -9.3608e-05 9.0812e-05 -1.9586e-05 0.00061517
1.2219e-05 -7.1836e-07 1.7588e-05 4.1246e-05 1.7766e-06 0.21767 1.1645e-05 -5.1986e-06 -2.5874e-06 0.34245 2.4723e-06 4.1803e-06 -8.8287e-06 -9.909e-05 -1.4589e-06 -4.6371e-05 -3.3439e-05 3.0539e-07 0.82748 -2.5018e-05 -4.3564e-06 -6.8445e-05 2.2971e-06 -6.2204e-05 2.9431e-07 -5.4591e-06 0.0001352 -1.2282e-05 1.1289e-05 0.00047544 9.0186e-06 2.1664e-05 8.3554e-06 0.00042124 -2.6697e-05 -9.7441e-06 -3.7599e-05 0.00061599 -9.1042e-06 3.267e-05 6.0698e-05 -4.2178e-06 -3.156e-06 -2.6593e-05 -1.8373e-05 -0.00011033 2.4443e-05 -1.9686e-05 -9.2698e-06 -0.0001354 -4.5719e-06 -3.0481e-05 -1.6355e-06 2.1665e-05 -0.00035865 1.1424e-06 -0.00015703 -6.6063e-05 -1.7039e-05 -1.5982e-05 -8.7233e-05 -5.5666e-06 0.0085209 -0.00013415 -4.3065e-05 0.00046637 1.6334e-05 -8.6644e-05 -3.7729e-05 -3.9672e-05
2.5667e-05 5.1462e-05 2.6554e-05 0.26504 9.9126e-05 -7.4523e-06 4.5454e-06 1.9114e-06 4.3625e-06 -6.8828e-06 -2.4578e-06 0.26017 -1.7925e-05 4.5442e-05 0.00058686 -0.00059751 -0.00062092 -6.3043e-06 -5.9049e-05 -4.9761e-07 0.00024667 0.00025908 -3.2725e-05 0.2514 3.0994e-05 1.9949e-05 -3.2524e-05 3.7705e-07 -8.2989e-07 0.3072 1.9578e-06 -4.4452e-05 2.3847e-06 0.31458 0.30587 1.536e-05 -2.0254e-05 -1.9082e-05 2.271e-05 -3.2454e-05 -2.1333e-05 -0.00052129 -0.00011315 -1.4958e-05 0.16199 0.00012075 0.24956 -3.2039e-05 1.378e-05 -4.9216e-05 9.8486e-06 -2.0629e-06 9.5464e-06 -2.2505e-05 -1.0267e-06 4.3174e-08 0.00014501 0.00014119 0.7187 -0.00013834 -6.4302e-05 0.71873 -0.00073066 4.6406e-06 -3.3146e-05 0.20777 -4.2702e-05 -0.00011523 0.00043088 -5.9596e-05
0.099071 1.0971e-07 0.0001751 -1.0488e-05 1.7227e-06 1.9408e-06 0.17318 0.00016362 4.3401e-06 7.38e-05 -5.0638e-06 -0.00010986 -0.00024038 -0.00010177 1.2591e-05 0.1101 -0.064743 3.9641e-06 -1.3284e-06 1.5884e-05 2.9417e-05 -4.3852e-06 -0.00013088 -0.00088255 8.0251e-06 -9.4364e-05 5.251e-05 -2.9621e-06 0.0013341 0.21579 -4.2618e-05 9.5358e-05 -0.00019114 0.21146 1.7553e-05 1.4136e-05 0.0022273 0.0003438 0.29092 -0.00010844 0.00043907 -8.6013e-05 0.00011382 -1.0478e-05 -0.00027655 -0.00011033 0.00069741 0.00044037 -0.00023993 -6.6639e-05 2.0899e-05 -1.7074e-06 -6.9069e-06 -4.3687e-05 1.9205e-06 2.7334e-06 3.9313e-05 -5.9965e-05 -8.9116e-05 -0.00017294 -0.00039804 -2.4259e-05 0.23417 4.3386e-05 5.5321e-05 -0.00011955 -0.00045742 0.0027096 0.00021436 0.00040594
0.14044 7.1604e-05 3.5162e-05 0.25419 9.1958e-05 -7.3211e-06 -5.2512e-05 2.1973e-05 3.4668e-05 -1.6802e-05 -6.2113e-05 0.26668 -4.7997e-05 1.338e-05 -1.2591e-05 0.16623 -0.08247 1.0838e-06 -3.0488e-05 -2.949e-06 -0.0018764 0.00012706 -1.2593e-05 0.24115 -5.5028e-06 -6.4151e-05 -5.4668e-05 2.5303e-05 2.4277e-05 -0.00016505 -5.9212e-05 0.00015873 -0.00053109 0.00026615 0.31563 6.5662e-06 -2.9639e-05 -3.1601e-05 0.00020464 -2.7199e-05 -0.00010346 0.4054 -1.6731e-05 -1.3887e-05 0.0015303 -0.00089309 0.24008 0.00012054 1.9246e-05 -3.2567e-05 4.575e-05 -7.0591e-05 2.219e-05 -1.4918e-05 -7.7907e-06 2.8835e-08 -0.0001599 -0.00057846 -0.00327 0.00041134 -7.8902e-05 -0.0058526 -0.00011551 1.1077e-05 -0.00057872 0.20857 -7.2842e-05 4.8329e-05 0.00028972 0.00011225
0.16147 3.0149e-06 2.6902e-05 -3.4713e-06 1.2695e-05 0.00026495 1.8346e-05 -3.3885e-06 5.5024e-05 -9.6808e-06 3.4647e-06 -0.00018416 4.9226e-06 -7.1583e-06 3.4768e-06 0.18331 -0.10579 3.3998e-06 2.561e-05 -3.1246e-05 3.3153e-05 -3.5155e-06 1.4204e-05 -7.8623e-06 7.9366e-06 0.71111 1.3968e-05 -2.6017e-05 1.4303e-05 1.5278e-05 -2.4158e-05 -4.6799e-05 -0.00024623 3.0981e-05 -8.1747e-05 0.0006561 -5.2674e-05 1.9668e-05 5.8975e-05 -1.4444e-05 9.912e-06 -0.00027321 -2.2808e-06 8.8835e-06 -0.00014282 0.00065317 0.00032259 0.0002481 0.00058538 -0.00011173 3.1713e-05 -8.709e-06 3.2438e-06 -4.145e-06 0.00019821 -6.9563e-07 0.0012852 0.0056592 -3.7149e-05 -4.7722e-05 -0.0001036 4.7422e-05 0.00075239 0.0001002 0.0019247 0.00020277 2.1128e-05 1.4751e-05 -3.5292e-06 0.00058912
2.6517e-05 5.3093e-05 1.3802e-05 2.6993e-06 0.00015435 0.0002838 4.4111e-06 -5.7591e-06 2.3763e-05 -4.7733e-06 3.4355e-06 -5.0747e-06 7.4457e-05 -1.3641e-05 -6.425e-08 -7.7565e-05 0.00019638 9.9702e-06 -4.3804e-06 7.4856e-05 4.5974e-05 -0.00010425 -5.0005e-05 8.1588e-06 1.6669e-05 6.122e-06 0.0071733 9.5603e-06 -2.3787e-05 -7.6808e-06 4.9868e-05 0.0019561 -1.1478e-05 -2.5732e-05 -2.2863e-05 -1.2967e-05 -7.6822e-07 1.3993e-06 0.00081847 -4.9138e-05 -8.7707e-06 -1.3837e-05 7.2701e-07 -4.0168e-06 -0.00017232 0.000615 0.00029979 0.40888 -2.7951e-05 0.0034315 4.4907e-05 0.39518 2.1742e-05 0.0067197 1.0404e-05 1.6265e-06 -0.00021778 -0.00012977 -1.6803e-05 0.0027512 -0.00018885 9.8061e-06 0.00025008 0.059558 -0.00022365 3.1148e-05 0.010474 0.00064407 -1.1448e-05 -3.9989e-05
0.00017983 1.2321e-05 0.00010463 -3.7793e-07 5.9401e-06 0.10357 3.6967e-05 -6.8246e-06 6.165e-06 0.16285 -2.6635e-06 1.0385e-06 -4.0925e-05 0.00027927 4.1326e-06 -0.00018291 -0.0006064 3.9384e-05 1.7976e-05 -1.6717e-05 0.0014734 0.00017412 1.4205e-05 -1.8349e-05 2.9757e-06 4.3377e-06 0.00042117 0.0003615 0.00012583 -9.726e-06 0.00026139 0.00090602 -5.5008e-05 5.0495e-05 0.0033613 0.00057471 -2.9127e-05 9.2991e-06 4.0528e-05 -0.00011344 3.9081e-05 -1.605e-05 5.4518e-05 0.51067 -2.8939e-05 0.00059082 -1.2133e-05 0.00027236 0.00010945 -0.00019028 -5.3368e-05 0.00079747 -2.6334e-05 0.0002894 0.014437 -4.5223e-06 0.001309 0.0029329 -5.6119e-05 0.0079382 -0.00025267 -0.00034881 0.0012408 -8.3757e-05 0.0026393 0.00046291 -4.3818e-05 0.00078187 -0.00010552 0.00055386
1.7253e-05 2.4737e-06 -2.1689e-06 -4.1323e-07 -6.0796e-06 -8.7701e-05 -3.2728e-05 -5.164e-07 -1.442e-06 -7.3697e-06 7.7806e-07 1.0248e-05 -0.00013919 2.7261e-05 -1.0206e-07 -5.5256e-05 -6.2555e-05 -2.2304e-06 2.8925e-06 1.1302e-05 -4.7976e-06 -1.2034e-06 2.8514e-05 0.00012092 -3.5885e-07 -5.4052e-05 2.5202e-05 -2.0661e-07 6.9089e-06 -0.00036711 7.525e-06 -1.6259e-05 -3.653e-07 -0.00020371 -5.1402e-06 -2.1391e-05 -0.00033418 7.6608e-06 2.8971e-05 4.4208e-06 1.1641e-07 1.5549e-05 8.9251e-05 -1.2472e-05 1.5043e-05 -0.00018152 -4.1569e-06 -7.0627e-05 2.4598e-05 2.1159e-05 -7.5016e-07 -7.0738e-07 -1.8404e-06 5.447e-06 -9.1863e-07 9.4087e-07 1.7531e-05 5.2097e-06 3.0595e-06 -2.3202e-05 7.2392e-06 7.0626e-06 0.43873 3.7592e-06 -0.00031663 -0.00034714 1.2503e-05 -0.00025149 -4.6812e-05 -1.2316e-05
5.0302e-05 -0.0003785 0.00012418 1.7079e-05 -0.00073802 0.00016233 3.9862e-05 -3.4005e-06 -1.2861e-05 -3.9485e-06 -3.7188e-06 -8.2141e-05 0.49579 -0.00017964 4.9056e-06 -0.0002056 0.00032348 0.23561 -5.4306e-06 0.00016181 0.00030076 -3.5854e-05 0.00059406 -4.8432e-05 -1.1415e-06 -1.9036e-05 8.6957e-07 8.5563e-05 0.00038626 -0.00018574 -2.567e-05 1.8899e-05 2.6414e-05 -0.00025148 -4.4816e-05 -1.3096e-05 -9.5508e-05 -3.2493e-06 0.13323 -9.3281e-05 0.00014728 -0.00016291 0.22309 -1.8516e-05 -7.4959e-05 0.0054945 0.00031182 -8.6263e-05 -3.4504e-05 3.2315e-05 -6.7419e-06 6.3286e-06 3.6921e-06 -1.349e-05 -3.6327e-06 1.4745e-05 -2.2546e-05 -0.00042746 4.9191e-05 -0.0007467 -0.00029606 -0.00010644 0.19966 6.9576e-05 0.18966 0.13553 -6.5527e-05 0.31005 0.00039286 3.889e-05
1.3409e-06 -8.4882e-05 9.0635e-05 -2.4851e-07 -1.0409e-05 -6.6005e-06 -1.1629e-07 9.0558e-07 3.781e-07 -5.849e-07 1.6425e-07 -5.3384e-07 1.6404e-06 9.8382e-06 -2.1562e-07 -4.5199e-06 -4.236e-06 1.7323e-06 1.1102e-07 -1.8469e-07 8.5651e-07 -5.0364e-07 -6.8693e-08 -1.3545e-06 -2.1512e-07 -1.2914e-07 -7.4496e-07 1.5215e-08 6.514e-07 2.261e-08 2.6585e-05 -3.0752e-07 -5.979e-06 -6.9454e-08 2.9403e-06 1.0708e-06 -3.4926e-08 1.924e-06 -2.5292e-07 -0.00031488 5.411e-07 2.6039e-07 4.2836e-08 -1.3417e-06 2.829e-07 1.1081e-05 2.2198e-07 4.5912e-06 -5.1263e-07 5.3419e-07 3.8811e-06 -2.6642e-06 0.39811 1.4772e-05 -1.3026e-06 0.66355 -1.7442e-05 -4.3016e-07 6.391e-07 5.7412e-07 -0.00037369 -5.8423e-07 1.4015e-06 -4.8206e-07 2.6958e-08 2.9849e-06 4.0322e-06 -4.7848e-06 -1.8153e-06 8.3385e-07
3.2903e-05 -1.9436e-06 4.5921e-05 -6.8769e-06 -1.1951e-05 0.13919 1.0162e-05 4.4644e-07 -2.0953e-06 0.00054404 -2.0562e-06 4.9627e-05 0.30241 -3.045e-05 1.316e-07 6.3625e-05 2.5674e-05 4.4864e-05 -5.1924e-06 0.00010499 0.23958 0.00033465 0.46472 0.00054583 2.0943e-07 -2.1151e-06 9.4565e-05 0.00010437 0.00017358 -0.00010668 -2.4203e-05 5.0717e-06 -1.984e-05 -3.9676e-05 2.589e-05 -2.2772e-05 -0.00082341 -1.4835e-05 0.16747 -1.3106e-05 0.0022848 0.00066171 0.00031759 6.3944e-07 0.00055873 0.0026017 0.0029991 0.00018986 7.5227e-06 -3.0626e-05 -3.9936e-05 0.00013875 -3.5964e-07 -3.2889e-05 -7.2719e-06 5.0119e-06 -0.0001344 -4.4968e-05 -1.4051e-05 -0.0003637 -7.5859e-05 -6.8714e-05 0.0022932 -3.1403e-05 0.00058601 0.00097818 0.00027988 0.35604 0.00034018 0.00012685
-5.5081e-05 -1.3925e-06 -3.4213e-06 4.6084e-09 8.307e-07 1.6976e-05 5.8888e-07 7.0761e-08 2.4299e-06 0.0029098 -5.0147e-07 3.5997e-06 1.5409e-08 4.7692e-07 -1.9122e-08 3.8419e-05 7.833e-05 -2.2408e-06 -1.7298e-06 -1.3957e-07 -0.00014017 0.00046493 1.6035e-06 -2.7779e-06 -6.9115e-08 -2.0572e-05 -5.3906e-06 -3.5976e-06 -5.0464e-07 -1.1315e-06 -3.7383e-06 -1.246e-06 5.6787e-06 -1.2518e-06 -6.2254e-05 0.00065122 -6.2661e-07 -1.4565e-06 5.571e-06 8.1171e-06 6.9003e-07 -6.3535e-05 -2.7445e-06 0.0005315 -2.5954e-05 -1.6526e-05 -4.7065e-06 -0.00014184 3.6139e-07 -0.00041245 3.6077e-06 -3.5424e-06 4.7091e-07 -1.1972e-06 0.99924 -1.348e-07 -1.2758e-06 0.0015002 3.1856e-06 -6.1546e-05 9.4432e-06 1.2663e-05 1.6519e-07 -4.2406e-07 -7.6577e-05 -3.1329e-05 1.9476e-05 2.2773e-05 -1.4482e-05 0.00052332
0.00033738 -1.8867e-06 0.00013728 -8.4847e-06 -5.7453e-06 0.0002651 8.3398e-06 6.7024e-07 3.7045e-06 8.6121e-05 -7.612e-06 -2.6352e-07 0.0056104 -4.0171e-05 2.5371e-06 -0.00063217 -0.0011702 -3.6297e-06 -1.9997e-06 0.00011333 0.00036583 -1.1902e-05 0.0012136 0.00057773 1.4116e-07 -5.2782e-06 2.4892e-06 0.00010548 0.00026553 -0.00010829 -2.9347e-05 5.7849e-05 -2.2085e-05 -6.3054e-06 -7.4482e-05 -2.4801e-06 7.4691e-05 6.6891e-06 0.17611 -0.00011025 0.00243 -1.6642e-05 0.00013357 0.00048602 0.00063635 0.0031585 0.003198 0.00043338 -1.8425e-05 4.8003e-05 -4.6325e-05 0.00015618 -3.0503e-06 -6.4466e-07 -2.8837e-06 5.8353e-06 -5.5136e-05 -8.9736e-05 -1.4894e-05 3.6419e-05 -0.00033501 -3.7638e-05 0.0028865 8.0193e-05 0.0012911 0.001089 0.00039818 0.37414 0.00099184 0.00014667
8.9075e-05 3.802e-05 0.00041922 0.1854 5.0699e-05 -1.554e-05 0.18032 4.8154e-06 2.1109e-06 6.3265e-07 -8.0959e-06 0.18178 0.0010167 5.2672e-05 0.00034548 -0.00071399 -0.00057484 0.00011363 -4.2547e-05 3.0379e-05 0.0001361 3.3065e-05 0.00099093 0.17569 1.662e-05 1.8693e-05 -6.4746e-05 1.0342e-05 -2.0708e-05 0.43004 -0.0001082 -5.7681e-05 4.1477e-05 0.44065 0.20948 1.2547e-06 -3.4999e-05 -1.7345e-05 0.16266 -0.00026731 -8.463e-05 -0.00040735 -1.6675e-05 6.6005e-07 0.11391 0.00026534 0.17603 2.5373e-05 1.2751e-05 -7.8004e-05 5.2149e-06 -2.0531e-05 -3.0162e-06 -5.7555e-05 -2.457e-07 -6.053e-07 2.1094e-06 9.0102e-05 0.00074809 0.0039484 -0.00097902 0.00082636 -0.00090082 2.8878e-05 0.00012167 0.14676 0.00041879 0.0045752 0.00045634 -8.4354e-05
-3.8759e-05 3.2451e-05 -0.00080713 3.1403e-06 2.2217e-05 -6.9523e-06 -1.6943e-07 3.3291e-06 8.6128e-07 6.4163e-05 -1.7432e-06 8.2536e-06 -0.00048926 0.00011302 4.6287e-06 8.2455e-05 0.0001659 3.4711e-06 8.9565e-08 1.3846e-05 0.00037137 -0.0029344 -0.00010559 -5.5579e-06 1.3883e-06 -3.1115e-06 -8.2593e-06 -8.356e-06 -7.2933e-05 -1.4718e-05 0.00077833 -9.5708e-07 -8.3386e-05 1.2796e-06 0.00023516 0.00027783 2.6731e-05 -1.2874e-05 7.4423e-05 0.00066545 -1.5637e-05 -0.00013161 2.7382e-06 0.00013857 -3.5115e-05 -0.00016787 -0.00011818 -4.7952e-05 -7.0344e-06 -5.8066e-05 1.9144e-05 -2.518e-05 1.296e-05 4.0557e-05 1.588e-05 1.9418e-06 7.4327e-07 0.00022317 -4.3059e-06 0.48171 0.0021193 -1.2998e-05 -0.00030758 -6.6254e-06 0.31478 -0.00037148 -0.0007284 0.00011589 -5.1815e-05 -0.000103
0.1629 -4.3776e-06 -7.7271e-06 5.4391e-06 2.0664e-05 -4.7632e-05 0.2896 1.6306e-06 6.4581e-05 1.0798e-05 1.7088e-05 -0.00031326 -1.2364e-06 3.661e-06 9.1221e-06 0.1979 -0.094407 3.6683e-05 -2.6769e-06 1.9103e-05 6.2327e-05 -5.6798e-05 0.0001982 0.00040349 -8.1311e-05 -0.00011901 -4.1608e-05 0.00011243 0.4112 -4.2736e-05 0.0036268 1.9551e-05 0.023112 3.4938e-05 -0.00014216 -9.0671e-07 -0.00011629 -0.00015257 -0.00028037 7.4344e-06 0.34766 -0.00052265 0.00020663 1.3666e-06 0.0050959 -0.0010073 -4.0514e-05 5.3456e-05 4.1642e-05 -4.2364e-05 0.00017039 -3.4271e-05 -2.674e-05 1.5884e-06 2.0489e-06 1.326e-06 0.00061031 -0.00059375 7.6283e-06 0.00024391 2.3371e-05 -6.9461e-06 0.00044465 3.1453e-06 0.00032745 0.0005752 0.0010162 0.0037695 0.000585 0.0017544
0.15211 -5.7922e-06 -0.00016183 3.0615e-06 6.2622e-06 -3.6015e-05 3.1912e-06 -5.9119e-06 9.548e-05 1.1099e-05 7.1918e-06 -0.00024005 1.8435e-05 -5.1818e-05 6.1608e-06 0.18777 -0.089151 3.6776e-06 -4.4711e-06 5.7028e-06 -1.7682e-05 7.5991e-06 -1.5041e-05 -0.00022414 -9.5266e-05 -9.7471e-05 -1.9919e-05 -4.008e-05 0.00016101 -1.1297e-06 0.36474 4.7364e-06 0.43482 1.0247e-05 -8.8663e-05 7.2113e-06 -7.0423e-06 -2.7852e-05 -0.00040542 0.00058189 0.32582 -0.00038891 -1.2285e-05 3.5646e-06 0.17406 -0.00018551 -2.9758e-05 7.8983e-06 7.2639e-06 -5.6136e-05 0.48931 -8.7594e-07 4.3266e-06 -6.6897e-05 3.0608e-06 9.7714e-06 0.55168 -0.00034862 3.7796e-05 -6.4834e-05 0.00055225 3.3629e-05 9.2509e-06 0.00010402 8.1734e-05 -0.00051437 -9.6526e-05 0.00031003 2.073e-05 0.00067107
-4.1043e-05 1.5677e-07 -5.292e-05 -3.016e-05 5.6432e-07 -5.9973e-08 -1.7712e-06 2.7007e-06 -8.7794e-07 -8.5315e-06 2.6588e-08 -1.154e-05 -0.0001906 -2.2874e-05 2.2094e-07 0.00012001 4.7746e-05 3.2673e-06 1.7056e-07 3.0293e-06 -0.00010697 2.4513e-05 0.59162 -1.5599e-05 8.8989e-08 -7.6955e-07 1.3173e-05 -7.4555e-06 -8.2867e-05 -4.1351e-06 3.2581e-05 -8.6266e-06 1.1076e-05 3.0051e-05 -8.5048e-05 -7.516e-06 -0.00040163 -1.9166e-05 -0.00033497 3.5763e-05 -2.9385e-05 1.6125e-05 4.9431e-05 1.3615e-06 -5.3978e-05 0.00041991 0.0043028 0.00068742 6.5062e-05 1.5353e-05 1.6894e-05 -3.4767e-06 1.4999e-08 0.0004211 3.9202e-06 5.7924e-07 4.7502e-06 0.00020208 9.7009e-06 -0.00055575 0.00012814 -1.5139e-05 4.8661e-05 -7.6996e-06 0.001222 -1.1612e-05 0.0016336 -0.00036838 5.1507e-06 0.0002753
-3.8418e-05 6.5707e-05 4.621e-05 2.7297e-06 0.00010528 -1.8338e-05 2.7055e-05 2.8949e-07 -8.098e-07 -2.9594e-05 -2.3369e-07 9.6921e-05 -9.3148e-06 -1.6675e-05 1.4411e-07 2.396e-06 5.4246e-05 5.5285e-05 -6.9628e-06 6.2202e-07 0.48667 0.57143 3.9008e-05 5.1086e-06 -1.1865e-06 1.3367e-05 1.7941e-05 0.70661 -5.1248e-05 3.8656e-06 4.7869e-05 -5.4418e-05 -3.1115e-05 7.5381e-05 0.44621 -6.2777e-05 1.0574e-05 -3.6261e-05 -1.7261e-05 -2.9826e-05 1.8071e-05 0.0010806 5.202e-05 3.3017e-05 0.24282 -0.00016008 0.00029659 2.9181e-07 1.7425e-05 -6.8016e-05 -1.1136e-05 -3.4521e-06 3.8372e-06 -0.00013295 -5.8107e-05 6.3612e-07 -0.00012898 -3.3135e-05 0.0012305 -0.0027987 -0.00010093 0.0015229 -4.0697e-06 -8.0784e-06 3.1786e-05 -1.8696e-05 -0.00024383 0.00031193 -3.8726e-05 -0.00014857
0.14753 9.663e-06 1.5947e-05 0.26666 7.1888e-06 3.666e-06 -1.7322e-05 2.2345e-05 3.0823e-05 -4.42e-06 -6.6387e-05 0.27675 -3.407e-05 1.8252e-05 1.2021e-05 0.17432 -0.086737 -2.4336e-06 -4.7434e-05 -1.8132e-06 -0.0018436 9.9974e-05 -7.2717e-06 0.25279 4.9871e-06 -8.6631e-05 -2.2824e-05 -5.7402e-06 1.0139e-05 -0.00041182 -6.0725e-05 0.00017413 -0.00055864 5.0285e-06 0.0017039 1.591e-05 -2.828e-05 -2.0834e-06 0.00026021 -1.0879e-05 -0.00014257 0.42516 -2.1027e-05 -4.0267e-06 -8.4919e-05 -0.00088659 0.25131 0.00012866 3.5267e-06 1.6673e-05 9.9086e-05 -2.1476e-05 7.4268e-07 -9.8772e-06 3.2953e-08 2.1172e-06 -9.3602e-05 -0.00053769 9.2651e-05 0.00033133 -3.4707e-05 -0.00076911 -1.7654e-05 1.6683e-06 -0.00039155 0.2145 -8.0431e-05 6.6747e-05 0.00034818 0.00010493
0.0001872 -3.4571e-05 1.2143e-06 3.0821e-05 -3.2174e-06 6.7078e-07 8.6297e-07 -1.8338e-07 -1.2593e-06 6.4573e-07 0.36881 0.38202 -7.962e-06 -3.8177e-06 0.64869 -0.0009322 -0.0015195 -4.7063e-06 -1.0792e-05 -2.0885e-07 0.00014537 -2.1077e-05 -1.3409e-05 5.5648e-05 0.77475 1.938e-05 2.4454e-06 -1.8979e-07 -2.4567e-06 6.4912e-05 -3.2624e-05 -1.4514e-05 5.8407e-05 3.4429e-06 0.00028778 4.4268e-06 8.4354e-06 1.735e-05 4.7617e-06 -2.4895e-05 2.6209e-05 -0.00043113 2.0542e-05 1.6374e-06 3.8075e-05 0.00012348 2.0224e-05 -1.1928e-05 -1.2579e-06 3.4293e-08 7.0836e-05 6.754e-05 1.7675e-06 3.1922e-05 -7.7306e-07 -2.528e-06 2.717e-05 0.00011376 0.00033538 -2.8989e-05 -1.648e-05 0.00053876 1.2431e-05 5.7553e-06 8.672e-05 -6.8452e-05 -3.9041e-06 2.4327e-05 -4.9956e-06 1.0302e-05
0.16164 -1.4958e-05 -2.7786e-06 3.1867e-06 -7.8754e-06 -1.6941e-05 5.9345e-06 -7.1787e-06 9.56e-05 1.1332e-05 6.0189e-06 -0.00025768 2.0643e-05 4.4152e-06 6.9596e-06 0.19937 -0.094999 6.7147e-06 -2.8739e-06 8.1384e-06 4.2668e-05 2.634e-06 -2.0314e-05 -0.0002204 -0.00010715 -3.1151e-05 -2.0817e-05 -3.8339e-05 0.00019904 -1.2899e-06 0.38746 5.6296e-06 0.46192 1.3561e-05 -3.4433e-05 7.6086e-06 -3.0406e-06 -3.1186e-05 -0.00045856 3.6234e-06 0.34614 -0.00041438 -1.5791e-05 -7.5856e-07 0.36547 -0.00023167 -2.229e-05 8.4571e-06 5.782e-06 -6.5811e-05 0.51986 1.4494e-05 -5.1541e-06 -7.3817e-05 4.592e-06 1.5636e-06 0.00067877 -0.00034236 1.4192e-05 -7.2829e-05 6.8389e-06 4.0747e-05 3.7795e-06 4.8263e-05 0.00012658 -0.0005296 -0.00012162 0.00031384 -2.0605e-05 0.00068271
-4.9835e-07 6.7147e-07 -3.4358e-06 -6.1802e-06 -1.0234e-05 -6.6027e-06 4.8824e-06 -5.6875e-08 9.1713e-07 1.5453e-06 -1.6088e-08 -2.6844e-07 -1.1068e-06 0.0019766 1.7968e-07 -9.6577e-07 -3.1824e-06 -4.7745e-06 2.391e-09 1.8915e-06 -0.00012017 0.00053637 -2.9935e-05 -5.3946e-07 3.4581e-07 -9.8855e-07 -5.2048e-06 6.0342e-06 -1.3777e-07 1.0444e-05 -9.0117e-06 -4.0554e-06 1.6551e-06 3.3358e-06 9.228e-06 -5.1734e-06 -1.2631e-07 -1.1833e-07 0.0028458 1.8876e-06 -3.5458e-06 6.8211e-07 1.9241e-06 -6.4494e-06 -1.6086e-05 -6.4655e-07 0.00018036 -1.6091e-06 4.0354e-07 3.9468e-07 2.3797e-06 2.3535e-06 -1.5127e-06 -2.2633e-05 2.3409e-07 -1.9515e-07 1.0204e-05 3.6388e-07 4.875e-06 0.00017471 7.3711e-06 1.1057e-05 -5.5212e-05 7.7615e-07 -2.7509e-06 -5.4857e-05 -4.8854e-05 -0.00056337 1.0991e-05 -2.2381e-05
3.7105e-06 1.2007e-06 -6.0127e-07 -2.9917e-07 -3.3029e-06 1.1018e-06 -7.2386e-06 1.4129e-06 3.6175e-06 0.00043211 1.5498e-07 5.9561e-06 3.5383e-06 9.4836e-06 -4.1283e-07 -9.279e-06 -1.6116e-05 -1.8631e-06 -2.3506e-08 0.28941 -1.1635e-06 -1.4652e-06 4.5941e-06 7.5751e-05 -2.0066e-07 4.4336e-05 1.4408e-05 -1.3897e-07 1.6393e-05 -0.00022217 2.4486e-06 -1.2288e-05 -1.0342e-06 -0.00016779 -4.0604e-06 -1.2958e-05 -0.0001916 4.4217e-06 -1.494e-05 -7.454e-07 -1.1076e-06 1.2123e-05 2.8833e-05 -2.9338e-06 1.1948e-05 -9.2209e-05 1.4589e-05 -1.6062e-05 0.00023103 -1.6116e-05 -1.6084e-06 -1.2684e-06 4.0107e-07 1.4724e-06 -8.7653e-06 -1.1481e-06 6.2994e-07 1.6677e-06 1.6055e-06 2.5e-06 8.0651e-07 1.8304e-06 0.24687 0.00014987 -1.1018e-05 -2.0227e-06 4.926e-06 -0.00010336 9.7072e-06 -1.9912e-05
-8.8584e-05 7.5611e-05 -0.00021169 -1.3451e-09 0.00013476 0.41796 4.949e-07 5.5846e-07 -5.7005e-06 0.00019091 -9.2438e-06 -2.3585e-05 1.4733e-06 0.43676 2.7915e-06 -7.6858e-05 0.00022745 9.6236e-05 1.9082e-06 -4.0556e-06 0.0010768 -0.00021317 -1.4011e-05 1.5209e-05 2.4423e-05 -7.7612e-05 0.00023506 2.929e-06 1.5098e-05 -2.9205e-06 -0.00010464 -1.2468e-05 -0.00011957 1.6678e-05 0.0010238 0.00011331 -1.2049e-05 -9.1043e-06 -6.1833e-05 0.00047764 0.00011345 0.00037666 -1.6567e-05 0.00025599 0.17918 -0.00089027 -2.8268e-05 -2.8306e-05 1.7045e-05 -8.5819e-05 -0.00026955 0.48687 -4.5128e-05 5.4645e-05 1.737e-05 -3.689e-05 0.59332 -8.5278e-05 0.00010808 -6.0438e-05 0.00046015 -0.00017153 -0.00030245 -0.00023817 0.0020095 -4.7926e-05 -0.00040159 -0.00027524 -0.00030097 -0.00013526
-1.9731e-05 -2.5726e-05 0.18727 1.0172e-05 -4.4919e-05 -1.9619e-06 2.4365e-06 -1.1394e-06 -8.3781e-06 6.7022e-05 -4.0329e-06 -1.9712e-05 -0.00011927 -1.1914e-05 2.3714e-06 -2.0009e-05 8.7827e-05 1.6076e-05 -2.9867e-06 1.437e-06 -0.00021781 0.0012917 0.00016584 0.23683 -1.3028e-06 1.6351e-06 6.6423e-05 0.44359 7.9731e-05 9.0604e-06 -2.6797e-05 -4.2751e-05 -2.0258e-05 -1.582e-05 -0.00014495 -2.5273e-05 -3.9518e-05 -3.8951e-06 4.9911e-05 -0.00017175 0.00032005 -2.0057e-05 0.00018904 -2.3493e-05 0.15282 -0.00013516 -1.7358e-05 -6.9863e-06 1.6524e-06 -8.0096e-06 2.0177e-07 1.5253e-05 -5.5527e-06 0.00069085 1.9968e-05 4.5673e-07 -4.5538e-06 -5.5101e-05 -3.565e-06 0.00024746 0.0077608 -1.6246e-05 0.00027331 -1.4481e-06 0.000176 0.0013307 0.00078389 0.0051385 0.00069271 -2.002e-06
6.3856e-05 -7.6742e-07 0.0003766 -1.7101e-05 -6.6174e-06 -1.9073e-06 4.2118e-05 3.4526e-06 2.8532e-05 8.0956e-05 -2.2077e-06 -1.2297e-05 0.00030691 -2.3547e-05 -7.4389e-07 -9.7069e-06 3.1275e-05 1.7301e-05 -1.9833e-06 6.2779e-05 -0.00040956 0.0066959 0.00029973 0.00078757 -2.3904e-06 -3.9728e-07 5.0331e-05 7.2525e-05 2.1785e-06 -0.00020433 -0.00028479 -8.6167e-06 2.8955e-05 5.4817e-05 -0.00075636 -0.00033893 0.00013987 -3.068e-07 0.25339 -0.00022996 0.00028483 -4.0078e-06 0.00036264 -8.0441e-05 9.7353e-05 0.00022422 0.0023789 0.00029079 -1.2106e-05 -7.3954e-05 4.5548e-05 0.0020176 7.7635e-06 0.0069412 9.242e-06 9.175e-07 6.3901e-07 -0.00018567 -8.7503e-05 0.55026 -0.00096518 -1.2033e-05 0.00022718 1.8303e-05 -4.4366e-05 0.001301 0.57548 0.0056215 0.00056615 -6.8536e-05
2.4781e-05 -2.4961e-06 8.6317e-05 -6.2084e-06 8.1388e-06 0.0004227 -8.1615e-06 -3.3158e-06 -5.5931e-06 0.2592 1.4581e-05 7.6593e-05 -0.00014961 -1.4203e-05 3.6762e-06 -3.4116e-05 7.9604e-05 9.0853e-06 -2.1826e-06 -2.8998e-05 -0.00029933 0.3381 1.9213e-05 0.00015557 9.7689e-07 -1.9706e-05 0.00030091 0.00017353 -6.6981e-05 4.9948e-05 -5.5512e-05 -8.3823e-07 1.6451e-05 2.7515e-05 0.0040371 0.00038428 -1.3941e-06 2.8111e-05 7.3842e-05 -8.8829e-05 5.2821e-05 -5.3293e-05 0.00010454 0.00026592 -3.1756e-05 0.00043857 -0.00014086 -8.5688e-05 -1.9673e-05 0.00029265 6.4562e-06 -1.0441e-05 2.0299e-05 0.65038 0.023644 6.2586e-07 -8.2926e-05 0.0021734 -0.0001258 -0.0033252 -0.0001959 -0.00038063 -9.7706e-05 -7.8541e-05 0.00013481 0.00011611 0.00028345 0.0020765 -9.3033e-06 0.00050558
0.12519 5.2706e-05 1.1357e-05 1.5017e-05 8.5177e-05 4.5139e-05 -3.3757e-05 -2.0326e-06 -1.4973e-05 0.000185 -5.2414e-06 -0.00033112 -2.1079e-06 -3.5049e-06 2.8359e-05 0.14039 -0.08063 6.2731e-06 -2.4175e-06 3.3777e-06 -0.00013994 0.00013153 7.7352e-06 0.00018047 4.4749e-06 -4.0436e-05 0.00023916 0.00017933 -2.2923e-05 -5.2882e-05 -2.7585e-05 -4.2082e-05 -0.00027643 -1.5738e-05 0.26652 -7.0198e-05 6.2731e-06 -7.2559e-06 7.6566e-06 -1.9016e-05 -1.7241e-05 0.0003499 9.8677e-05 4.7484e-05 -1.7909e-05 0.00033408 -0.0002851 2.9754e-06 0.00045856 -9.0139e-05 4.3671e-05 -8.7907e-06 1.4472e-05 0.00043954 0.0012659 1.3237e-06 -6.2529e-05 0.26764 0.00034737 -2.3134e-05 -3.0032e-05 -3.8847e-05 -8.4555e-05 -2.6503e-05 1.5057e-05 0.00033863 -5.3117e-05 3.9812e-05 -2.1901e-05 0.00019873
-3.5687e-05 5.5204e-05 1.3645e-05 0.22957 6.6064e-05 -8.3876e-06 -3.5976e-05 1.229e-06 6.2501e-06 -8.4926e-06 -4.393e-06 0.22703 -3.6321e-05 4.1566e-05 0.00048062 -0.00035824 -0.00041089 2.3606e-06 -3.6824e-05 -5.0213e-07 -6.2042e-06 1.7408e-05 -3.5461e-05 0.21751 1.172e-05 3.2119e-05 -3.5886e-05 2.9133e-05 1.112e-05 0.53099 3.522e-06 -4.2595e-05 3.2491e-06 0.54423 0.28397 8.6216e-06 -4.8613e-05 -2.905e-05 5.4934e-05 -1.2248e-05 2.2255e-05 8.1368e-05 -0.00019686 -1.6336e-05 0.14139 0.00016166 0.2164 -3.6583e-05 1.7872e-05 -6.9985e-05 -4.7368e-05 -3.9253e-05 2.0601e-05 1.5729e-05 -4.9552e-06 -2.2699e-06 -6.7279e-05 6.204e-05 -0.002773 -5.3078e-05 -3.0902e-05 -0.0042277 -0.0013503 9.9562e-06 -0.00021575 0.18328 -4.9217e-05 -7.7471e-05 0.00037266 -1.0256e-05
0.00010163 -3.6025e-05 0.35855 2.3234e-06 -3.8613e-05 -6.2985e-06 3.7377e-05 -4.2148e-06 8.7507e-06 0.17705 -8.3337e-06 -5.2076e-05 -0.00012503 0.00029036 1.0843e-05 0.0001621 0.00054809 2.8046e-06 1.0521e-05 0.00027374 0.0010234 0.22862 -8.9065e-05 -3.7033e-05 -1.5621e-06 -2.2612e-05 1.4388e-05 -8.3536e-06 0.0012017 -3.0883e-05 0.0003611 -5.1818e-05 -7.484e-05 -1.497e-05 8.555e-05 0.00040767 -2.1482e-05 1.7462e-06 8.4444e-06 -0.00056597 1.5682e-05 -0.00027968 9.1938e-06 0.57521 0.00038044 0.0028776 7.5862e-05 7.5785e-06 -2.6152e-05 4.6676e-06 2.7217e-05 -3.5485e-05 0.00016599 -0.00032244 -0.00018431 -1.0798e-05 -2.4292e-05 -1.8833e-05 2.0538e-05 0.25636 0.013926 -2.3421e-05 0.0010753 -1.4856e-05 0.00061485 0.00017674 0.00022173 0.00052428 9.4392e-05 0.00056863
-4.4012e-06 0.37371 0.052426 -7.9667e-07 0.37568 9.1577e-05 6.2382e-07 3.4976e-07 4.1728e-06 -6.4849e-06 1.4549e-06 1.8315e-06 -1.4479e-06 1.649e-05 -2.7162e-06 -4.6538e-06 -2.0702e-05 -3.8142e-05 -1.7209e-06 -1.2626e-06 -1.065e-05 2.7603e-06 -2.3926e-07 2.4748e-06 6.5665e-06 7.0795e-06 -1.98e-05 -7.7597e-07 -3.4817e-06 6.3671e-07 3.7368e-05 -1.9478e-05 -1.9509e-05 -8.924e-08 -5.4071e-05 -5.3704e-05 -9.6658e-07 1.1117e-06 -7.586e-06 0.76762 -1.4961e-07 -6.4009e-06 -3.6654e-07 -1.3708e-05 2.9096e-05 -1.1236e-07 -2.3191e-05 4.9406e-06 2.4142e-06 -5.3212e-06 -8.6774e-07 0.60082 0.40967 0.0002894 -1.2437e-06 -0.00011083 -0.0010736 5.7476e-06 9.2304e-08 -7.1721e-05 0.75964 2.4454e-06 -4.7847e-06 -5.7471e-05 -1.6339e-05 -3.7337e-05 -0.00047271 -9.5476e-06 1.9916e-05 1.5553e-06
0.00010127 -3.6569e-06 0.00064964 2.6514e-05 -2.9389e-06 -1.3522e-05 0.29134 6.2974e-06 -2.4164e-06 6.9173e-06 -4.5283e-06 0.00079293 0.0016703 2.7598e-05 -8.8802e-05 -0.00044837 -0.00015053 0.00018372 1.7593e-07 4.9202e-05 -0.00019902 -0.00025073 0.0016417 0.00032434 2.1499e-07 1.0242e-06 -4.7217e-05 8.7614e-06 -3.3933e-05 0.0018583 -0.00018704 -3.6887e-05 5.2205e-05 0.0015274 0.0026681 -1.3135e-05 7.7706e-07 -1.9315e-07 0.26272 -0.00041215 -0.00013843 -0.0001717 0.00023113 1.1e-05 0.001305 0.00019692 0.0010306 8.8836e-05 4.0001e-08 -5.5527e-05 1.2273e-05 -2.5958e-05 -8.0707e-06 -6.3028e-05 1.2684e-06 -2.6234e-07 2.7333e-05 -1.4305e-05 -3.506e-05 0.0065604 -0.0015191 -0.00033223 0.00019893 3.9688e-05 0.00019222 0.0030552 0.00073733 0.0074882 0.00019843 -7.6052e-05
8.0792e-06 5.2302e-09 -5.1962e-07 8.7521e-07 -2.3932e-07 6.791e-06 -1.4406e-06 5.3301e-07 3.9009e-07 0.00077036 1.9502e-07 -2.2596e-06 3.4828e-05 5.1349e-06 -2.2625e-06 6.3756e-07 2.8725e-05 2.4499e-06 1.103e-06 0.51879 8.7177e-06 -2.6395e-08 0.00034754 4.1531e-06 -2.9111e-07 -2.4683e-05 8.6601e-07 -5.1499e-07 4.0947e-05 -2.0256e-05 1.1288e-06 -7.3417e-07 4.8236e-06 -1.1726e-05 9.2774e-05 -3.4574e-05 0.47992 2.5518e-07 -2.9656e-05 1.5292e-06 2.8059e-06 -8.4436e-06 -4.1151e-06 -9.3036e-06 8.32e-06 4.2405e-05 2.2694e-05 3.3936e-05 0.67314 -4.4734e-05 -1.4822e-06 -6.6302e-07 -1.1581e-06 -2.133e-07 -1.5401e-05 -8.0123e-08 1.3569e-06 0.00047388 2.9819e-05 4.661e-05 1.164e-06 1.7831e-05 0.0001029 0.00016022 -7.1889e-07 3.695e-06 5.5257e-06 4.7541e-05 -5.0654e-05 5.0013e-05
-1.995e-05 -3.3001e-05 0.22285 6.7744e-06 -5.0316e-05 8.8688e-07 2.7502e-06 -1.1338e-06 -4.2998e-06 -6.672e-06 -4.6869e-06 -4.0772e-05 3.7284e-05 -8.6644e-06 3.4047e-06 -4.3569e-05 8.1538e-05 1.9816e-05 -4.0727e-06 1.4853e-06 2.1036e-05 1.2314e-05 0.00020522 0.28265 3.4092e-06 2.295e-06 2.1414e-05 0.00015749 0.00010341 -0.00021288 -5.7863e-05 -1.7107e-05 -3.0821e-05 -2.7501e-05 -5.9386e-05 1.3821e-05 -5.3267e-05 -9.2257e-06 6.5814e-05 -0.00043812 0.00031984 -6.5479e-05 0.00020828 -5.6578e-06 0.1821 -4.1978e-05 -0.00050088 -3.452e-06 2.736e-06 4.0085e-06 -7.4331e-05 2.6881e-06 1.0784e-05 2.2878e-06 8.2946e-07 -6.0412e-07 -1.4781e-05 -4.8761e-06 -3.1626e-06 0.00069949 0.0083788 -4.8499e-05 0.00033982 4.3542e-07 0.00018195 0.0012912 0.00096611 0.0033865 0.00084273 5.2145e-05
3.5079e-05 3.3688e-05 1.8849e-05 1.8227e-06 3.3979e-05 8.2345e-05 -1.0877e-05 4.128e-07 -5.3455e-06 -0.00016745 0.68066 -6.2239e-05 -2.0216e-05 0.00030339 -0.00034943 -0.00024369 -0.00030371 0.00011236 2.6667e-07 -1.2799e-05 -9.6494e-05 -3.8344e-05 2.8722e-06 -0.00013631 8.0966e-05 7.2097e-06 6.819e-06 4.6015e-06 -1.1723e-05 0.00024898 0.0003899 -6.8981e-05 -0.00023986 -3.2146e-05 0.00079639 4.5898e-05 3.7384e-06 0.001115 0.00018499 -1.4012e-05 0.00019755 3.2724e-05 0.00077138 -3.7887e-07 0.00040795 0.0018377 -4.8378e-05 -6.3982e-05 -3.7037e-06 0.51169 8.5972e-06 -2.6624e-05 -3.9275e-05 -7.7501e-06 3.9545e-05 -4.8398e-06 -3.4696e-05 -7.0425e-05 7.5138e-06 -7.3283e-05 -3.7842e-05 -0.00015162 -6.796e-05 -0.00061485 0.002911 0.00052642 -1.2298e-06 -0.00038043 -2.5747e-05 0.00013326
-5.9683e-06 -9.4527e-07 1.4509e-05 -5.0022e-07 8.8581e-07 -4.7168e-07 2.3809e-07 -7.7077e-09 -1.2204e-07 7.1649e-08 -6.6465e-08 -1.7749e-06 -3.839e-06 -3.3851e-07 -6.4355e-08 1.3694e-05 -2.1286e-05 2.2483e-06 5.4109e-09 -3.4439e-08 -1.0659e-05 1.9345e-05 -3.0631e-06 2.8507e-05 -7.4872e-08 6.3873e-07 -3.4061e-08 3.3947e-05 -1.2867e-06 -2.1242e-05 -3.2223e-06 3.34e-07 -8.7483e-06 -1.4918e-06 7.846e-07 -8.1962e-06 3.8131e-07 3.7863e-07 -7.7691e-06 -8.922e-06 1.3816e-05 -4.5188e-07 -1.9415e-07 -3.9668e-07 0.0001632 -9.8086e-06 1.4496e-08 3.4112e-08 2.921e-07 5.5542e-07 3.7721e-06 1.9774e-06 -2.1667e-06 3.7941e-05 1.5199e-08 2.2345e-07 -1.9876e-06 -1.7772e-06 -4.0141e-06 -1.0236e-05 -3.3181e-05 -9.7475e-07 -4.2603e-06 -1.0187e-08 -2.0727e-07 -2.726e-05 2.2438e-06 2.8174e-05 -4.6651e-07 1.5775e-06
0.059974 -9.3888e-06 0.00013342 -8.5783e-06 3.8644e-06 5.8307e-05 -1.043e-05 0.51434 0.00013648 0.0006902 -3.8218e-05 0.00036367 -0.00032484 -2.6872e-05 1.8094e-05 -0.098429 -0.26519 -2.0763e-05 -1.8923e-06 4.9272e-05 -2.6618e-05 2.2625e-07 -7.211e-05 0.00070348 -1.0751e-05 -3.3491e-05 -9.5128e-05 -3.8946e-05 -0.00029166 0.00014424 0.0047815 0.44715 2.213e-05 0.00013229 0.00014907 3.8825e-06 0.0002367 -5.5853e-05 0.201 -8.1976e-05 -0.00019542 0.0022024 4.2522e-05 -3.2645e-05 0.0011144 0.32467 0.00067322 0.4262 -4.9729e-05 0.00057318 -0.00020297 -7.9226e-06 8.7718e-05 -5.8268e-05 7.1417e-06 3.9036e-06 -9.1809e-05 -0.00050115 0.00023583 0.0006158 -0.00030705 2.6156e-06 3.3036e-05 -0.00024385 7.6297e-05 0.0019753 -0.00041274 0.0019237 4.1052e-05 2.5838e-05
