-5.1682e-05 5.6389e-07 0.34096 2.7048e-06 -5.771e-05 2.7419e-05 0.4439 -5.1145e-05 0.26823 0.0011823
3.4549e-05 -2.2989e-07 1.7376e-07 -2.3306e-07 -7.2385e-06 0.00013447 2.3625e-06 4.4287e-05 0.00014454 5.9749e-05
0.00021642 7.4044e-06 6.9422e-06 0.28305 0.0028086 0.26443 2.4832e-05 4.7116e-05 0.011302 0.00039768
-2.4742e-07 -4.8826e-06 0.00012232 0.00096929 1.9879e-05 -2.6158e-05 3.7738e-06 0.0076777 0.0019517 7.5959e-05
-7.0077e-05 -1.547e-06 7.3369e-05 -2.5127e-06 0.00017501 0.00039199 0.40601 0.00021159 8.0202e-06 0.0012914
0.19647 -2.4416e-06 7.6959e-05 -2.4161e-06 0.0005413 0.001745 0.00021324 0.011947 0.00012452 0.012306
2.3767e-05 8.4995e-06 7.494e-06 6.405e-07 -2.8098e-08 0.00016411 1.4683e-07 0.00040423 0.00064255 1.6812e-05
-6.5199e-07 -1.1131e-06 1.1015e-05 2.5534e-06 9.872e-07 0.00051791 8.4527e-05 -2.0808e-05 1.7645e-06 5.0957e-06
0.0003694 1.7636e-05 0.00032842 0.00020264 0.0017474 0.0013648 -7.9009e-05 0.00081062 0.19416 0.00013778
0.18723 1.5714e-05 0.00010404 1.3052e-05 -0.00016661 -1.3867e-05 1.8814e-05 9.5505e-05 0.19002 0.012012
1.1685e-05 3.9202e-06 2.3238e-06 3.2641e-05 0.0018846 2.2589e-06 -5.6123e-06 0.00041136 0.001292 0.0004554
0.27736 -4.0477e-06 -1.2696e-05 -1.1356e-05 0.0019357 0.00084042 -4.313e-05 0.00054148 0.00053866 0.017681
2.0043e-05 3.3824e-07 0.00010076 -1.2737e-06 -5.4043e-06 0.00069174 -3.4776e-05 0.005624 0.00050094 2.4847e-05
0.00025888 0.25187 0.20429 4.2291e-05 0.0065491 0.00039618 0.00092374 0.0010324 0.1626 0.003146
0.00025073 0.0010028 0.00038907 5.2588e-05 0.0016388 0.0011549 0.00017221 0.22671 0.001484 0.0033214
0.00013783 0.35948 0.28844 0.00010991 0.00010345 -3.1758e-06 -1.7162e-05 -4.9841e-05 0.0011617 -0.00011153
-1.9118e-05 0.33769 0.26967 9.8116e-05 -2.4397e-05 0.31167 -1.5892e-05 -3.2788e-05 0.00098664 -0.00014805
0.00030584 1.2889e-05 0.00019385 0.24319 0.24213 6.2596e-05 0.00094423 0.0012491 0.16741 0.00038954
1.2754e-05 4.3376e-06 5.9062e-05 0.00010756 -1.0251e-06 0.0011109 5.3999e-05 0.22232 -6.6614e-05 2.479e-05
0.00025097 1.9438e-06 6.2184e-05 3.6886e-06 0.00040495 0.20793 -3.9311e-06 0.18402 0.00217 2.7613e-05
7.3851e-06 -4.4995e-06 0.20429 2.677e-06 0.00024283 0.0002108 -2.6345e-05 0.014703 0.00058897 2.4027e-05
0.23454 2.3001e-06 -9.7732e-07 5.1953e-06 3.0979e-05 0.0009222 0.00021642 0.0020456 0.22812 0.014871
-1.3286e-05 0.4248 0.34114 0.00013439 -2.4526e-05 2.431e-06 -3.1016e-05 3.9375e-06 7.0324e-05 -0.0002146
-1.5275e-06 9.349e-07 3.9684e-05 1.4704e-07 4.6101e-05 0.00062644 -1.6037e-05 0.013765 -0.00017613 8.5579e-06
0.00028108 8.8874e-06 5.8242e-05 0.00045398 0.0035317 9.6997e-05 1.021e-05 0.0062866 0.01455 0.00046929
-1.9467e-06 -5.3693e-06 6.9511e-05 -7.8892e-06 0.00087403 0.00021141 -8.8299e-06 0.00030682 -9.5628e-06 0.00012664
0.00023088 7.7309e-06 1.7015e-05 5.0365e-05 0.0017217 0.00042723 1.9133e-05 0.0020837 0.0016692 7.2601e-05
0.00014407 1.1478e-05 0.00017878 0.00077812 0.0015177 0.00010041 7.2529e-05 0.1982 0.0027717 0.0001376
2.5681e-05 9.5043e-08 -1.2022e-07 -7.3926e-07 0.00017143 7.3438e-07 -7.7699e-06 5.9438e-05 0.0011799 -6.8018e-06
0.17065 -2.4189e-05 -5.1972e-06 2.0739e-05 0.26359 0.00054119 -6.8848e-05 0.00032468 0.0006468 0.51578
0.00015088 7.9264e-06 1.0046e-05 5.0539e-05 0.0012079 0.0010664 5.4237e-06 0.00263 0.0025575 3.0096e-05
-1.873e-05 -3.056e-06 8.3517e-05 -1.2446e-06 0.00015566 0.00037036 7.8056e-05 0.00039792 -3.6837e-06 0.00027301
-1.7657e-08 4.4899e-08 2.4692e-07 -1.6695e-07 5.3072e-07 7.3498e-06 3.7747e-06 0.00020886 8.7939e-06 9.9997e-07
0.13244 -1.8221e-05 0.1709 0.21035 0.0021085 3.4561e-05 -4.6691e-05 0.17222 0.0094984 0.39816
0.1964 1.6668e-05 0.00010896 1.3447e-05 -0.00017131 0.0015891 3.752e-06 8.8968e-05 0.19875 0.012549
5.5139e-05 -1.0532e-07 9.9706e-06 -1.8517e-07 -5.2254e-06 0.00038614 0.00024654 0.00085543 7.9268e-05 2.3038e-05
0.27719 3.7697e-06 -7.6864e-06 1.2657e-05 -0.00013806 -2.011e-05 3.45e-05 0.00021692 0.26974 0.017821
0.00010837 5.6661e-08 8.2464e-06 -2.3356e-07 1.6737e-06 0.00025511 0.001938 0.00088262 -2.4375e-06 -4.5871e-05
1.0445e-06 -1.2958e-07 3.2116e-07 -4.4355e-07 4.1743e-07 0.00042796 6.4283e-05 0.00080373 -3.2829e-05 2.3084e-08
-7.0966e-06 -2.7715e-06 2.0483e-05 5.8874e-06 -1.5346e-06 0.29228 1.033e-05 0.0012834 -1.7434e-05 2.7292e-05
0.18723 1.9575e-06 0.00026197 1.3091e-05 -9.4518e-05 0.26451 0.00020963 0.23966 0.18224 0.01193
-1.6314e-26 1.1137e-28 1.5646e-27 -1.3838e-27 3.4514e-26 3.3552e-27 3.2096e-24 -4.6317e-26 -8.2164e-26 1.0928e-26
0.00030223 1.4842e-05 1.7342e-05 0.38255 0.0038313 0.00012257 3.6614e-05 0.00016299 0.015279 0.00070683
4.632e-05 -1.1863e-05 0.24156 0.00092578 2.7455e-05 0.00033987 3.2613e-05 0.24344 0.0013368 0.00021353
-2.3623e-06 -4.7653e-06 6.8325e-07 7.284e-06 8.3969e-07 0.22747 1.3907e-05 6.1814e-05 5.7754e-06 3.1867e-05
0.2531 0.00146 0.00042106 3.9124e-06 -6.6586e-05 3.2656e-05 0.40539 0.0004264 0.24507 0.021857
6.8725e-08 -1.284e-05 0.00042022 0.0012612 7.8906e-05 -2.0397e-05 5.2121e-05 0.0023117 0.0019761 1.8953e-05
2.5911e-06 6.317e-06 -1.8539e-07 2.5212e-07 2.1582e-05 -6.9191e-06 5.9865e-05 0.00070108 0.00057948 1.7138e-05
3.4605e-05 3.4833e-06 8.3997e-05 3.1713e-07 0.00016002 7.9571e-05 1.2658e-05 -1.2123e-05 0.0013615 -1.5156e-05
0.00025054 1.4141e-05 0.0001931 0.26085 0.26063 6.0389e-05 0.0010285 0.0010791 0.1801 0.00038526
4.74e-05 -7.0857e-06 0.00035794 8.4832e-06 -1.7027e-06 0.00049501 -7.5349e-05 0.00019595 4.9376e-06 5.0184e-05
5.7664e-05 -5.5069e-06 0.00016783 0.0008505 2.7567e-05 0.00037352 2.5801e-05 0.00051091 0.0013377 -2.217e-05
-7.5848e-31 2.8513e-33 4.306e-32 1.9171e-30 -8.4702e-28 1.64e-31 1.3112e-31 -8.4964e-29 -6.0009e-30 -6.0277e-31
-1.3104e-05 4.8034e-05 5.7497e-05 3.0146e-05 0.0018509 0.00058332 0.00032329 0.00015464 1.8086e-05 0.00067404
-1.3286e-05 0.4248 0.34114 0.00013439 -2.4526e-05 2.431e-06 -3.1016e-05 3.9375e-06 7.0324e-05 -0.0002146
0.00020954 2.4088e-05 0.00014813 6.4017e-06 -0.00010672 -4.69e-06 -1.0599e-05 0.00032753 0.21614 2.0876e-05
0.0001194 -4.0055e-06 -5.1731e-07 -1.4264e-06 0.00049264 0.24367 -3.1032e-05 0.00024958 -3.5849e-06 0.00018553
-0.010112 0.0012325 0.27005 2.7311e-06 9.7581e-05 0.00026897 0.00017348 0.27262 0.00034645 0.61912
-3.0668e-05 -1.4158e-06 -5.6408e-06 2.3027e-05 0.45483 -3.0509e-06 6.3948e-05 -4.422e-05 -0.00017732 0.00014633
1.1306e-05 -2.5257e-06 3.5445e-05 2.4637e-06 8.5739e-06 9.0871e-05 2.2622e-05 0.00025394 2.5821e-06 1.4046e-06
0.14348 -1.6166e-05 4.4172e-06 8.1348e-06 -1.6545e-05 0.21361 6.0156e-05 -8.4101e-06 0.00027944 0.43359
5.6831e-05 1.1171e-05 6.4315e-05 1.175e-05 -8.5382e-05 0.00010353 5.5245e-05 0.23759 0.18307 0.00023259
-5.1552e-07 -4.1171e-06 2.3538e-05 1.2273e-05 -6.5282e-06 0.33131 6.7764e-08 0.00027831 0.0004585 2.0037e-05
0.16593 3.6599e-06 4.7692e-05 0.25123 0.25293 5.7903e-05 7.2669e-05 0.00070783 0.011156 0.01115
0.12671 8.0053e-06 4.4053e-05 0.000649 0.0017387 0.00024859 0.00011114 0.0015079 0.0024796 0.0081118
0.25315 1.2969e-05 7.7618e-05 7.6633e-05 0.0023566 2.0343e-05 0.4053 0.31196 0.0017687 0.017152
-4.4742e-06 0.42479 1.8805e-05 0.41879 1.8121e-06 0.0017588 -1.9467e-05 0.00012193 0.00015152 -0.00015947
0.00025054 1.4141e-05 0.0001931 0.26085 0.26063 6.0389e-05 0.0010285 0.0010791 0.1801 0.00038526
5.6499e-05 -1.9083e-08 -1.3583e-07 -3.1891e-07 2.5821e-07 0.00027775 5.6165e-05 0.00062315 -2.4747e-05 -2.979e-05
0.18697 -8.1173e-06 0.00030808 6.79e-06 8.3301e-05 2.6797e-05 -7.2819e-05 0.00012569 0.0010493 0.011832
0.00026174 -1.0334e-05 0.00047668 2.0278e-06 0.0001347 5.7808e-06 -3.1289e-05 0.00064871 0.0025937 1.4931e-05
0.23455 2.2253e-06 -1.2656e-05 5.8302e-06 -8.8475e-05 0.0011927 0.00021889 9.6765e-05 0.22771 0.014837
0.00016407 7.8053e-06 8.462e-05 0.00011657 0.00054505 0.27947 1.5234e-05 0.25319 -0.0001266 0.0001277
0.18698 -8.094e-06 0.00030808 7.3603e-06 8.3856e-05 0.00024101 -8.4085e-05 0.0001234 0.0010487 0.011786
-9.0001e-06 -6.9685e-06 5.1581e-05 0.000185 9.1989e-06 0.33071 1.7483e-05 -3.6476e-05 4.5474e-05 3.4483e-05
0.00022003 1.361e-05 0.00018617 0.25173 0.2506 6.198e-05 0.001001 0.0010486 0.1732 0.00038178
0.14224 1.9754e-07 4.8136e-05 8.6506e-05 0.00054857 0.00017959 0.22931 0.17631 0.0012561 0.0095557
0.16035 8.5685e-06 0.00018936 0.24278 0.25124 4.6808e-05 0.00087072 0.00083573 0.011515 0.010751
0.21918 -2.5119e-06 -8.4023e-06 4.6698e-08 -1.8691e-05 0.00030033 -1.4069e-06 3.6265e-06 5.5847e-06 0.013812
1.4781e-05 0.0016571 0.00010635 2.9383e-06 -3.0194e-06 0.00068429 -3.4841e-06 0.00081838 0.00091787 2.3289e-05
7.2576e-06 2.7857e-05 7.0086e-05 2.7775e-06 8.3703e-06 0.19169 4.4311e-05 0.00013765 0.00010332 5.1018e-05
7.173e-07 -1.4438e-07 -2.2619e-07 -5.2027e-07 3.7726e-07 0.00048418 6.8029e-05 0.00080577 -3.4303e-05 3.7739e-08
0.00023633 0.00090374 0.00037186 4.6717e-05 0.0014721 0.0010784 0.00015003 0.20598 0.0016718 0.0030105
9.1075e-07 3.7071e-05 0.00015378 5.1737e-06 -1.3277e-06 1.2444e-06 -1.5897e-05 4.088e-07 2.8221e-06 -2.8109e-05
6.2654e-06 -8.0128e-07 0.00028755 6.229e-06 2.1484e-05 0.21305 1.6029e-05 0.20747 0.00075805 0.00019615
-2.2474e-07 -1.9919e-07 1.7368e-08 1.7649e-08 3.6487e-07 0.00012374 4.4402e-07 -7.8477e-06 8.0144e-06 -4.2822e-06
2.2149e-05 1.0599e-06 6.5949e-05 2.9034e-06 -3.1415e-05 0.00096214 -1.7036e-05 0.23573 0.0004289 3.8763e-05
0.00016932 1.0983e-05 0.00023825 0.20519 0.20385 3.3498e-05 0.21766 0.17313 0.14152 0.00087296
7.5032e-07 -2.483e-06 0.00022471 1.8321e-07 1.2686e-05 -6.2967e-06 -7.2651e-06 0.00079612 0.0003745 1.0055e-05
0.19627 -6.5592e-07 6.3485e-06 5.7239e-06 -4.701e-05 0.00079929 0.31591 0.00041547 0.0048961 0.013287
0.1964 1.6668e-05 0.00010896 1.3447e-05 -0.00017131 0.0015891 3.752e-06 8.8968e-05 0.19875 0.012549
6.1308e-06 1.2358e-06 0.00022735 1.6849e-06 -4.8368e-05 9.8807e-06 -2.7594e-06 0.01061 0.00060963 -1.183e-05
7.357e-05 -5.3838e-08 0.00055708 1.2197e-05 0.0072293 0.00029051 0.0012621 0.00033367 0.227 0.00024834
0.16593 3.6982e-06 4.7668e-05 0.25122 0.25288 5.7952e-05 6.8991e-05 0.00070545 0.011152 0.011151
-2.7541e-05 3.2721e-05 7.4547e-05 1.5198e-05 0.40698 -2.3644e-06 5.7062e-05 -4.0197e-05 -0.00015758 0.00012884
0.20699 1.7258e-05 0.00011503 1.3852e-05 -0.0001774 -1.4833e-05 2.582e-05 0.00010182 0.20941 0.013268
-5.9593e-08 7.7683e-09 -4.0612e-08 -2.6465e-08 -1.8666e-06 -2.5892e-06 5.2e-06 0.0017025 -1.205e-05 1.4246e-06
6.1311e-06 -1.7101e-07 -5.9571e-09 -5.5053e-07 6.905e-07 0.00026833 4.1293e-05 0.00049488 -2.0541e-05 8.0748e-06
3.4086e-05 0.0017121 2.8953e-05 0.00013421 -6.4228e-05 0.3133 -2.7089e-05 -3.8924e-05 0.21316 2.4725e-05
0.00012532 7.3032e-07 0.22997 0.00030939 0.0010064 4.6184e-05 4.7921e-05 0.00018098 0.19141 0.00030867
2.4499e-05 -6.0539e-06 0.00040241 9.4033e-06 -1.9886e-05 -4.9929e-05 5.7753e-05 0.25722 0.00028879 8.2622e-05
4.065e-06 -7.5155e-06 0.00030628 2.5141e-06 3.9451e-05 0.00055071 -2.3987e-06 7.137e-05 1.5046e-05 -1.0426e-05
0.19612 2.9193e-06 0.00016923 1.9836e-05 0.0061832 0.00019235 0.00095966 0.00018814 0.00078937 0.012296
0.00025054 1.4141e-05 0.0001931 0.26085 0.26063 6.0389e-05 0.0010285 0.0010791 0.1801 0.00038526
1.3453e-05 -1.0781e-05 0.19117 -1.1518e-06 2.354e-05 0.00013349 5.2323e-05 0.00026421 0.00034892 3.9714e-05
-1.1082e-05 0.3898 0.31149 0.00011898 -2.6049e-05 0.0024631 -3.3045e-05 8.9954e-06 0.0011379 -0.00023117
-1.7785e-05 1.4675e-06 0.00013178 1.6297e-05 0.00074637 -2.2144e-05 0.33124 0.26314 0.00064654 0.00085669
3.4547e-05 -2.2985e-07 1.7377e-07 -2.3315e-07 -7.2366e-06 0.00013447 2.4849e-06 4.5543e-05 0.00014465 5.982e-05
9.6351e-05 -5.2778e-07 0.25428 0.00034196 0.0011067 5.0894e-05 3.495e-05 0.00019878 0.21144 0.00037762
-1.707e-06 1.0826e-05 1.0496e-05 -9.2633e-06 0.00099873 0.00032164 -2.1023e-05 0.00084348 0.00070838 0.00015541
4.0699e-07 -1.493e-07 4.1471e-06 1.1536e-07 -1.0146e-06 -1.1047e-08 2.0045e-07 -4.7646e-06 0.00010752 -3.9141e-07
0.00027976 -1.6762e-07 7.0709e-05 -5.2143e-06 0.0012905 0.00061418 2.7047e-05 0.22166 0.00060646 0.00013515
