9.5507e-07 -6.1658e-07 0.3412 5.1966e-07 -1.1593e-06 2.1153e-06 1.2104e-05 0.4441 -6.1797e-07 -4.1695e-06 1.7739e-05 2.0741e-06 0.27554 -1.7765e-06 -7.4021e-07 7.4919e-06 -2.5429e-06 7.7286e-06 -5.0885e-07 6.1061e-06 -1.8054e-05 7.5546e-06 -3.5545e-06 1.7079e-06 -1.566e-05 -2.872e-05 -1.0913e-05 5.7148e-07 3.9617e-05 -1.6879e-05 -3.6248e-06 -5.8189e-05 -1.0579e-06 4.9074e-06 1.7357e-06 2.5155e-06 -5.2584e-05 -1.5752e-05 -3.9358e-06 -2.6086e-06 1.6372e-06 -3.5615e-05 -3.9285e-06 1.0852e-05 4.2324e-05 2.7409e-05 -1.9629e-07 -1.8615e-05 -3.3838e-06 1.4372e-05 2.0272e-05 6.5901e-06 2.7738e-06 1.2195e-06 6.4847e-06 -5.7433e-06 -2.2987e-05 -9.1818e-06 -6.1225e-07 -1.9176e-05
2.2868e-05 2.7887e-06 -9.1457e-07 5.3545e-07 7.5465e-07 -9.5757e-07 0.0001113 2.5055e-06 -6.4166e-06 -2.5837e-05 2.7951e-06 0.50686 4.5225e-05 -8.492e-06 4.664e-06 -5.9188e-06 0.00097449 9.6679e-05 1.1206e-05 -1.0468e-05 -1.383e-05 1.7571e-05 -7.6197e-05 -4.0083e-06 0.0017902 1.4906e-05 0.00014283 -0.0007857 7.6033e-05 0.00056502 7.0109e-06 2.6457e-06 -1.2118e-05 -6.3592e-05 -1.6387e-05 -6.0534e-07 -1.3038e-05 0.00032069 1.0094e-05 -4.3368e-08 -1.4782e-05 -7.9742e-06 0.65671 -3.1978e-06 -6.8401e-06 -1.0797e-05 1.0404e-05 1.0973e-05 1.9551e-06 -4.1108e-06 -3.8697e-06 -8.9366e-06 -4.2628e-06 -0.00018025 7.018e-05 -6.8023e-05 -3.9554e-06 1.741e-05 -7.6429e-06 -0.00012441
-4.5479e-06 -9.4073e-06 1.4053e-06 0.28346 8.0898e-08 2.8625e-06 0.26479 4.0921e-06 2.2857e-05 6.091e-05 0.2664 1.2159e-05 1.2784e-05 1.3967e-05 3.0266e-06 5.0701e-06 3.0964e-06 -3.2213e-05 4.0959e-05 -3.4148e-05 1.5811e-05 -2.9697e-06 -7.6984e-05 -2.5457e-06 -2.6983e-05 -0.00028812 -6.2825e-05 -8.0701e-05 -3.0345e-05 5.5985e-05 0.48787 -5.8403e-06 0.00015585 0.22617 7.3885e-05 -1.3701e-05 -4.0165e-06 -2.3808e-05 -1.8855e-05 -6.354e-06 -4.1262e-06 -2.9466e-05 -2.6624e-05 -5.7786e-05 -3.174e-05 0.00019404 -5.7246e-06 -1.1276e-05 9.2217e-06 -3.7098e-05 -2.6302e-05 0.00014398 1.4065e-05 3.3404e-05 0.00011066 0.00067737 -4.9504e-06 2.0219e-05 7.852e-05 0.49451
-6.061e-08 -1.0366e-05 6.0972e-05 -4.9887e-05 8.11e-07 9.1238e-07 -2.335e-05 -5.1437e-06 5.1691e-05 0.0001425 3.8495e-05 2.541e-06 -1.7149e-05 8.3067e-06 -1.6406e-07 -6.8266e-05 0.00062847 0.0012703 0.29757 -0.00089568 0.0019127 6.6464e-05 0.00051532 9.0664e-07 -2.9234e-05 -6.2869e-05 -3.6735e-05 -7.1545e-05 -0.00049868 -5.7487e-06 -6.4929e-07 0.011274 0.0002855 0.00020274 -0.00016511 -1.5339e-05 -8.3539e-05 0.00095469 -1.364e-05 -6.7323e-06 4.7963e-06 -6.2402e-05 -1.5574e-05 7.3595e-05 0.0034751 -3.0688e-05 0.47804 -0.00011961 -1.0921e-05 1.6411e-05 -3.1755e-05 -8.5475e-05 1.1225e-06 1.3992e-05 0.0012084 -9.2945e-07 -6.0516e-05 -0.00013082 -5.5386e-05 0.0001877
-6.3497e-06 -7.0086e-07 1.2209e-05 -9.013e-07 -4.8873e-07 1.0335e-06 3.2274e-05 0.40611 3.1335e-05 -6.988e-06 -9.3002e-06 1.4958e-06 3.5725e-06 -1.6505e-06 7.3165e-06 8.9518e-05 3.1015e-05 -9.6936e-06 5.8334e-06 0.44287 -6.2382e-07 9.5661e-06 -2.5617e-05 -2.3751e-05 -4.3186e-05 -5.2108e-06 -6.5954e-06 -7.7236e-05 6.9378e-05 -3.3586e-05 3.7748e-05 0.0010059 -1.8229e-06 -8.9707e-06 -0.00063091 -1.116e-05 2.2088e-06 3.5545e-05 -5.5593e-05 1.6593e-06 2.5147e-06 2.3986e-05 1.0634e-05 1.9738e-05 -1.5936e-05 -7.0834e-06 7.9032e-06 -2.2428e-05 6.42e-06 3.9397e-07 1.8105e-06 0.00013289 2.2786e-06 2.8523e-06 3.5111e-05 -1.426e-05 2.001e-06 -5.4713e-06 5.5965e-07 -2.865e-05
0.19556 6.8796e-06 1.1586e-05 1.1948e-06 5.7711e-06 4.109e-06 6.7554e-05 -6.6915e-05 -7.1643e-05 1.4757e-05 -9.5636e-06 0.35629 -3.0322e-05 -7.6387e-05 -4.5348e-05 -0.00031466 0.00024767 -0.00056072 -2.5917e-06 -2.0028e-05 -0.00010585 -4.5719e-05 0.0069812 2.182e-05 0.0010927 5.9151e-05 -6.2788e-05 0.35975 -0.00017 0.40529 -8.086e-06 0.0035947 -2.3388e-05 6.5005e-05 5.888e-06 -2.4826e-05 -1.0562e-05 0.19375 -0.00015918 1.2264e-06 -1.4492e-05 -2.6207e-05 0.0004782 -5.3279e-05 -1.2596e-05 -2.7395e-05 2.0786e-05 -6.4342e-05 3.2036e-06 -1.413e-05 -3.4955e-05 -0.00060617 -1.6602e-05 4.8972e-05 -3.3771e-05 -3.8892e-05 7.2706e-06 3.2386e-05 2.1729e-05 0.000596
2.283e-05 -8.3981e-06 -3.9467e-07 1.8832e-07 -5.318e-07 3.6035e-05 -3.4234e-05 -1.7556e-05 -1.1717e-05 2.2002e-05 5.8264e-05 -3.7021e-06 0.00010719 3.5598e-05 -6.8696e-05 0.00011988 -2.2808e-05 1.8266e-05 7.4713e-06 -3.9015e-05 2.2448e-05 -5.6161e-05 8.0171e-06 1.0982e-05 -0.0006881 -1.893e-05 -5.4964e-05 -0.00018883 -0.00010419 0.0001578 -2.3228e-06 1.0942e-05 -9.3151e-06 -1.3526e-05 4.9242e-06 7.7392e-06 2.6308e-05 -4.4266e-05 0.46523 -2.8836e-06 -7.7274e-06 2.6969e-05 -1.6084e-05 -0.00069657 -2.1784e-05 -0.00013713 -8.4209e-06 -0.00087508 -2.0762e-05 -1.7743e-05 -1.6682e-05 5.1212e-05 -4.0267e-06 -0.0005571 -0.00042512 0.48981 1.743e-05 0.0035042 3.2885e-05 0.00014004
-1.2242e-06 -8.975e-06 1.0695e-05 -4.4024e-06 -4.8704e-06 -2.0442e-08 0.00052279 8.3597e-05 -1.6252e-06 0.00022815 3.7791e-06 -2.9686e-05 -1.1273e-05 -1.2286e-05 5.1065e-08 -7.2493e-06 -4.3338e-06 -2.9774e-05 2.5978e-05 0.001088 3.9444e-06 4.2874e-06 -1.6247e-05 -5.388e-07 -5.0867e-05 -4.3653e-05 -6.4855e-06 0.00072509 -8.1118e-05 -1.3235e-06 0.24254 0.00030088 0.00021134 0.00025314 0.00014095 -1.3516e-06 7.9659e-07 -9.5901e-06 -2.974e-05 1.9118e-06 0.00016092 4.2947e-06 0.0009083 -6.3743e-05 -2.9206e-05 -0.00013319 9.1405e-06 -1.8776e-05 4.5097e-05 -4.5164e-05 -4.0685e-06 -2.3805e-05 3.3726e-06 -3.2278e-05 0.00021888 0.00070727 9.3248e-06 -4.6313e-05 -5.6868e-05 -0.00075323
1.1715e-06 -0.0075994 1.2993e-05 1.7217e-05 -6.9312e-06 -0.00035084 -0.00031514 1.4825e-06 1.7407e-05 4.6227e-06 4.454e-05 -1.074e-05 0.19548 0.40458 2.8703e-05 -6.16e-06 -5.2627e-07 -3.0086e-05 2.7826e-05 1.0179e-05 0.36097 1.3223e-05 -5.9655e-05 -4.8967e-06 -7.4711e-05 -0.40453 -0.0001154 -0.0001189 -5.8263e-06 2.4884e-06 -4.3323e-06 -9.9993e-05 -6.5648e-05 0.2362 3.3054e-05 4.5067e-05 -0.00029932 0.00034698 0.32506 -1.4812e-05 6.263e-06 -5.9402e-05 -2.4602e-06 -0.0003022 -6.2578e-05 0.30926 8.6715e-05 6.6504e-05 -2.5649e-05 -0.00021064 0.00024757 7.1234e-05 -3.742e-06 0.00012141 5.217e-06 7.8856e-05 -1.0435e-05 -2.1572e-05 8.2057e-05 5.6336e-05
0.18643 -1.6594e-06 -5.2029e-07 2.3755e-06 -6.2645e-06 2.5432e-05 -7.2848e-06 1.6946e-06 7.3075e-06 -8.1154e-07 -0.00010295 1.9278e-06 0.18823 -2.2563e-05 8.8325e-06 4.6352e-05 -7.1771e-06 -9.407e-05 1.707e-05 2.5333e-06 0.34493 2.1931e-06 -1.7292e-05 3.5825e-06 -2.733e-06 -1.4032e-05 -4.9872e-05 -3.2251e-05 -7.7808e-06 0.00016106 -3.2262e-06 -6.9139e-05 -4.591e-06 -4.824e-05 -3.536e-06 -1.1758e-05 0.41298 -6.0519e-05 -0.00017575 -0.00012503 1.4033e-06 0.339 -1.9534e-06 9.1495e-07 -0.00011853 -3.1372e-05 9.0081e-06 -4.1722e-05 3.8162e-05 3.4692e-05 -0.47518 9.0594e-05 5.3737e-07 1.1728e-05 -5.9597e-07 -5.0781e-06 -1.3533e-05 -2.6875e-07 4.0862e-05 -4.4941e-06
-5.1676e-06 7.1311e-06 3.5065e-07 5.3874e-06 5.3457e-06 -2.5868e-06 -2.2489e-05 -2.3201e-06 -0.00082326 -1.6099e-05 -0.00012502 -8.6962e-06 0.00024036 -4.4611e-05 -0.00020465 -0.0024233 -5.199e-05 0.00018791 5.1412e-05 -0.00088 -2.0649e-05 5.7214e-05 0.0003762 7.168e-05 0.0015313 2.5957e-05 0.35227 9.8509e-05 -5.0874e-05 -3.4811e-06 -6.8017e-07 9.1e-05 8.7529e-05 0.0027971 -0.49052 -8.8278e-06 1.3112e-05 0.00035619 0.0008878 1.6344e-05 -3.0277e-05 -1.765e-05 -1.8698e-05 -4.0168e-05 -4.8489e-06 4.4871e-05 -2.5994e-05 0.00012575 -0.00037472 -6.489e-06 8.7621e-06 -0.0038652 -1.7013e-05 -2.6599e-06 7.2174e-05 -2.356e-05 -7.2669e-06 -5.2463e-07 -2.5876e-06 -1.3675e-06
0.27652 4.9336e-06 -3.2456e-06 -8.0658e-06 5.9847e-05 4.912e-06 -2.9386e-05 8.4466e-06 0.0013393 1.1534e-07 -6.3796e-05 -6.8583e-07 0.00052429 -5.3019e-06 0.00059461 0.0002678 -6.3821e-06 2.4514e-05 3.1398e-05 -0.00017414 -3.1695e-05 0.00017391 -0.00065225 6.616e-06 -0.00020406 5.824e-05 0.0035447 0.50392 -8.2976e-05 0.0025379 -1.6927e-06 -7.0562e-05 0.0010987 2.5966e-05 -0.0011552 -4.3087e-05 3.7207e-05 0.00013387 -0.00015854 -2.2138e-05 -7.4959e-06 6.6357e-06 0.00087058 -0.00025227 -2.4802e-05 -3.8516e-05 -2.4161e-05 4.2208e-06 -0.00012742 9.7003e-05 -1.0795e-05 0.00074937 3.6676e-06 0.00022105 -4.5715e-05 1.4712e-05 7.5478e-06 2.0259e-05 1.4507e-05 -2.2937e-05
1.4247e-05 -2.301e-06 3.3789e-05 5.016e-06 -6.7291e-06 -1.3171e-06 0.00031898 -1.2809e-05 -6.9439e-05 -1.3059e-05 0.000606 6.8553e-05 0.00030988 -9.2466e-05 1.7016e-05 -8.7257e-05 0.00079828 0.00073345 -9.0025e-05 0.00074777 -2.3815e-05 1.2358e-05 0.61326 0.00064294 0.0031453 1.0462e-05 3.2417e-05 0.0044197 -1.1087e-05 0.00036294 -6.7471e-06 -0.00017138 -2.6022e-05 0.0035145 7.6703e-06 0.00031116 -5.6965e-06 0.0035719 0.0010089 4.1306e-06 -6.7251e-06 0.00050617 4.0154e-05 -6.6616e-05 -3.4952e-06 -2.7186e-05 0.00092036 0.00014891 -5.4713e-06 -1.3704e-05 1.0599e-05 -0.00020694 -1.6219e-05 -0.001805 0.00036485 -0.00010185 9.2662e-06 0.0013742 -2.4808e-06 0.00086735
2.3832e-06 0.25596 0.204 -4.9892e-06 -5.9796e-06 0.012902 0.00024467 1.1253e-05 -0.00016801 0.00039078 -5.1376e-05 -1.1276e-05 0.16504 0.00041215 7.3825e-06 -0.00030567 9.8924e-06 0.00015853 0.00069274 0.00096045 2.2558e-05 5.2923e-05 0.00026419 0.3767 0.0019573 0.060773 0.0046188 0.00043635 0.29159 0.00033013 -5.5396e-06 0.0015851 0.0001247 0.20217 -0.00019806 -2.952e-05 2.0369e-05 0.00044837 0.27577 -2.4641e-05 -1.0015e-05 -2.1817e-05 -1.1051e-05 -0.00011995 0.0013079 0.16785 -3.3496e-05 2.3305e-05 0.0013253 1.1441e-05 9.1053e-07 -0.00032959 -2.0803e-05 0.0001083 0.00087897 5.9086e-05 -0.00024873 -6.8131e-05 -0.00030197 -3.7576e-05
-2.4043e-06 -7.1861e-05 -3.032e-06 1.1723e-05 -3.8097e-06 -0.00018821 0.00055475 7.0474e-06 -4.315e-05 -1.4801e-05 -0.00023841 2.4814e-05 -4.3746e-06 -9.5825e-05 5.9859e-06 0.00040004 0.00057088 0.22912 -7.1332e-06 0.0018237 -0.00010891 1.9225e-05 0.42399 0.39216 0.25331 3.6109e-05 0.0039475 0.003089 -5.0761e-05 0.00012427 -9.157e-06 -0.0001982 3.5809e-05 0.21528 0.00016413 -1.8327e-05 6.0288e-05 0.21378 0.00033435 -5.3479e-06 -1.9569e-05 -5.3386e-05 -0.00021975 -9.9162e-05 2.5224e-05 -0.00026386 2.8438e-05 -0.00020837 -9.0994e-05 1.6493e-05 -5.9684e-06 0.00095527 -6.0213e-05 -0.00013942 2.5086e-05 -0.0002352 3.602e-05 -4.8402e-05 -3.0402e-05 0.00030275
3.276e-06 0.35956 0.28846 -2.8417e-06 9.942e-07 0.37155 -1.1432e-05 7.9807e-06 -4.4695e-06 -5.196e-06 1.5651e-05 -9.5643e-07 -0.00023106 1.3842e-05 -0.00013403 -2.2659e-05 -7.848e-06 1.0843e-05 -6.4944e-07 1.0506e-05 -0.00030039 9.0955e-06 -9.1267e-06 -0.00024713 6.8118e-07 0.088201 7.1516e-06 2.152e-05 -1.1587e-05 -0.00011999 3.4112e-06 -1.284e-05 2.7767e-06 9.9901e-07 -5.9205e-06 -1.0078e-05 0.49297 1.5231e-05 6.0887e-05 0.65479 -3.2797e-07 -0.0002767 1.1694e-05 5.7039e-05 -0.00023504 0.24243 1.1123e-05 4.2374e-06 -1.9879e-06 1.7906e-05 0.00057333 -0.00013269 2.9474e-06 2.319e-06 -1.7466e-05 7.9838e-07 -0.00026754 1.2068e-05 -0.00014379 1.5904e-05
-5.8834e-06 0.33599 0.26982 -1.7452e-05 2.8786e-08 0.3477 0.31066 9.8008e-06 4.1492e-06 -6.4539e-06 6.1912e-06 -6.2891e-06 -1.6283e-05 2.0266e-05 2.2465e-06 7.9261e-06 -3.1053e-06 -5.2259e-05 -2.5225e-05 -3.5381e-05 -9.328e-06 4.9642e-06 -3.9947e-05 1.2146e-05 -2.6514e-05 0.08209 7.6e-06 -3.1598e-05 -5.1445e-05 5.8453e-05 -3.6527e-06 -4.5359e-05 -5.0931e-06 -1.8971e-05 9.4509e-06 -1.3612e-06 -9.5026e-06 6.0003e-07 -2.5569e-05 -6.2172e-06 5.7073e-05 1.0753e-05 5.6581e-06 -2.9397e-05 0.47829 0.2264 6.5582e-08 5.0175e-07 -4.2976e-05 -4.3112e-05 0.00012175 1.5555e-05 1.6359e-05 -3.9642e-08 -8.6264e-05 4.8844e-06 -0.00019701 1.6372e-05 0.65858 -0.00011505
8.0139e-05 -8.1199e-07 1.2509e-05 0.24285 9.1033e-06 6.4351e-05 3.3318e-06 -5.244e-05 0.2487 -1.4003e-05 0.22868 4.3806e-06 0.15937 2.6365e-05 3.2529e-06 0.21265 5.0651e-06 -2.8833e-05 0.22783 2.8604e-05 1.5585e-05 4.1369e-05 -4.038e-05 -3.2538e-05 -0.00050039 -0.00015108 -3.1195e-05 0.00012411 0.29039 1.7563e-05 -7.4805e-05 0.00025415 2.2768e-05 0.19492 -0.00038717 -3.0457e-05 -3.9865e-05 0.0018379 -1.1471e-05 3.5025e-05 1.9382e-05 -5.8247e-05 4.6016e-06 1.5854e-05 -2.3684e-05 -0.00032469 -0.00011994 0.34507 -5.1135e-05 5.81e-05 -4.9864e-06 0.27917 7.1044e-06 0.36119 -0.00071915 -0.00097439 6.4912e-05 -6.3398e-05 0.00015209 0.00045762
-3.1546e-06 -4.5172e-06 -1.2928e-06 -2.0539e-06 -1.4414e-06 -2.5628e-05 -4.1844e-05 6.3509e-06 -1.1516e-05 8.0574e-05 7.2353e-06 4.7029e-06 -3.2717e-05 0.37129 4.443e-06 -7.1554e-05 -0.00014786 0.22311 3.5686e-05 -5.6026e-05 0.00048678 4.248e-06 -0.00030973 -3.8383e-05 -5.0412e-05 -1.0227e-05 0.00014939 -3.2216e-05 -2.0292e-05 -9.9971e-07 -1.7193e-06 0.00065053 1.3194e-05 -9.1113e-05 1.223e-05 6.4246e-06 -0.00010347 0.22388 -6.9873e-05 3.4365e-06 1.9848e-06 -9.4657e-07 -2.24e-05 -3.1027e-05 3.9813e-05 -2.2118e-05 -7.5316e-05 1.6786e-05 4.8869e-05 -2.603e-06 3.013e-05 -0.00011614 1.6762e-06 7.5743e-05 7.8947e-05 2.9242e-06 -5.2904e-06 -3.629e-05 1.5767e-06 -8.4329e-06
-4.6609e-06 -0.00029391 -5.0269e-06 -7.3092e-07 -2.7265e-05 6.7201e-06 0.2077 6.7064e-06 -9.0508e-05 -0.00014506 3.9006e-05 0.00020899 -0.00014902 -4.7698e-05 -3.4627e-05 -1.7257e-05 -0.00014323 0.18495 -2.7726e-05 -0.00016795 0.26891 -5.335e-06 -0.00070482 -4.2152e-06 -0.00025935 -0.014555 -0.00024114 0.26722 -0.00013536 -0.00016131 -4.3689e-06 0.00051499 0.0020413 -8.1549e-05 4.4772e-05 -1.3437e-05 -0.00033334 0.18122 0.25155 -1.3617e-05 3.6247e-06 2.5722e-06 0.00026547 0.2877 0.00044376 0.010625 -9.0751e-05 -0.00011564 0.00047019 0.3399 0.00018675 -0.0003238 1.6546e-05 0.0001289 0.0045557 0.00082963 5.6152e-05 0.3856 -0.00047566 0.00083531
6.8963e-06 9.9246e-06 0.20418 -6.0772e-06 -3.5556e-06 -1.1329e-06 1.3899e-05 -3.9069e-06 0.00057533 0.00022565 -5.6314e-06 6.4003e-06 0.00010538 0.00043188 -1.2692e-05 0.0019942 0.45427 0.0027807 0.00051489 -0.0012407 0.0012448 4.8024e-05 0.40049 -1.6014e-05 0.00071398 0.00010933 0.0001494 -0.00021885 -0.00012066 0.00023434 -5.3073e-07 0.016868 -1.5921e-06 0.00011491 4.7371e-05 -1.6457e-05 -0.0002338 0.0034664 -2.3914e-05 1.0448e-05 -4.4867e-06 -1.6265e-05 -0.00040682 -7.3968e-05 5.0857e-05 0.00013568 -0.00024064 0.00081428 0.00021753 2.0724e-06 2.2527e-05 0.0036032 -1.506e-05 4.6373e-05 -1.3599e-05 3.4112e-05 -8.7641e-05 6.8836e-05 4.9215e-06 -3.817e-05
0.23369 2.6454e-06 9.5062e-06 1.4058e-06 -1.0533e-05 5.8149e-06 -3.6155e-05 -2.5338e-05 -2.8343e-05 -5.6169e-06 -6.1015e-05 3.6687e-06 0.23324 -4.4633e-05 2.222e-05 -4.4805e-05 3.8792e-05 0.0010218 -7.4891e-05 0.00042004 1.0033e-05 6.0709e-05 -7.0109e-05 0.00042828 0.001219 -1.8973e-05 0.34515 0.0041616 1.7116e-05 0.47266 -3.5809e-06 -8.369e-05 -4.1467e-05 4.9052e-05 7.4351e-05 -3.4073e-05 -7.8183e-05 0.0024707 0.00085687 6.6006e-08 -2.6042e-05 -0.0001011 -0.00020061 -7.8357e-05 1.9595e-05 1.9282e-05 -0.00020807 0.00041354 -0.000211 1.5645e-05 -2.2346e-06 -8.0838e-05 1.1893e-05 -0.001517 0.00027742 -3.9466e-05 2.9271e-06 0.0013589 -2.4908e-06 -9.8644e-06
7.5236e-07 0.42483 0.34124 -1.1217e-06 4.1872e-07 0.43959 2.3062e-05 -3.0037e-07 -1.0072e-06 -5.7242e-06 9.0872e-08 -1.9557e-07 6.2205e-07 1.7333e-05 -7.8528e-07 2.5436e-07 -7.5802e-06 -1.3435e-06 -5.2956e-06 3.9066e-06 3.2374e-05 -3.9967e-06 -1.4747e-05 -3.2204e-06 2.1093e-06 0.10378 4.9592e-07 8.9253e-07 6.0006e-06 -5.4405e-06 3.5725e-06 -5.1777e-05 2.4573e-06 -9.9232e-07 -4.2332e-07 1.139e-06 3.7642e-05 -2.1762e-05 2.8801e-06 -2.3585e-05 1.3369e-07 -6.3197e-06 1.263e-06 1.552e-05 3.8421e-05 0.28475 -2.2455e-07 -2.9512e-07 1.9133e-06 1.4959e-05 -3.2973e-05 -9.1396e-07 3.332e-06 -1.7723e-07 -1.4141e-05 1.5962e-06 0.47048 -2.5231e-06 -0.00014891 2.6989e-06
-3.0122e-06 -1.5395e-06 4.307e-05 4.4756e-06 -7.9305e-07 -2.5217e-06 0.00055326 3.7915e-07 0.00016375 9.5308e-05 0.00010258 -9.5809e-06 -0.00021329 1.0171e-05 9.0978e-07 0.00080245 0.00075599 0.01903 -7.5491e-06 0.0020181 -9.1605e-05 2.6576e-05 0.008885 0.0011306 0.00032293 8.101e-05 -3.4255e-06 0.001812 -8.3498e-05 -1.1616e-05 -8.1558e-07 0.0018984 -7.82e-05 0.0030359 0.00019955 3.7786e-06 4.2191e-05 0.0014643 -0.00037205 1.2635e-06 -1.2103e-05 -3.8934e-05 -6.9008e-05 -7.0269e-05 6.0905e-07 -0.00024096 0.0015507 -1.8098e-05 0.00054159 2.4134e-05 -5.3778e-06 0.0016435 -2.0567e-06 -5.3842e-05 0.00020404 0.00018705 3.4003e-05 -3.5753e-05 -1.8862e-05 0.00043344
-4.7449e-06 -6.8855e-06 -1.8244e-06 -6.7412e-07 -1.7086e-06 1.3553e-07 -1.5819e-06 1.752e-06 1.6479e-05 0.40192 0.33353 -1.5365e-05 2.0434e-05 5.4358e-05 3.7249e-06 -2.1801e-05 -1.6441e-05 1.852e-05 -3.5924e-05 -2.6623e-05 1.8968e-05 9.5539e-06 -7.145e-05 -2.7785e-06 -1.295e-05 -3.7231e-05 -7.5323e-05 -4.3671e-05 -3.5098e-05 -1.3739e-06 -2.2629e-06 -9.2143e-07 -4.5538e-06 0.28232 7.9053e-05 -2.505e-05 1.3639e-05 5.3653e-05 -3.1346e-05 -8.3946e-06 -6.3911e-07 -6.7007e-05 1.4383e-06 7.1296e-05 -2.6423e-05 -1.3123e-05 0.53992 0.00022375 -1.23e-05 0.00011711 -2.3939e-05 9.6619e-05 2.3034e-06 0.00013154 6.2173e-05 7.5996e-05 -9.0227e-07 7.4809e-06 -7.4648e-07 0.0002676
6.0629e-06 9.3531e-06 3.8384e-06 2.3093e-07 6.6199e-06 2.7574e-06 -3.1911e-05 8.3408e-07 3.4421e-05 0.53163 -4.6647e-06 -3.259e-05 -6.599e-07 -4.7371e-06 0.47293 -2.4014e-05 4.8535e-06 -3.3497e-05 8.1946e-06 -8.585e-06 2.1044e-05 -2.2571e-06 -4.7467e-06 6.9734e-07 2.0157e-05 0.00044368 1.544e-05 -0.00012137 -5.9395e-06 8.4473e-06 -1.2197e-07 -5.3782e-05 -0.00011622 1.3488e-05 -1.8933e-05 -3.0968e-05 3.2389e-06 -8.5542e-06 0.00019306 4.6725e-05 1.7284e-07 -9.7898e-06 -2.6891e-05 0.58729 -7.2098e-05 -0.00029952 -1.7551e-05 5.4932e-06 -3.7239e-05 0.69758 8.1994e-06 0.00024458 -1.2107e-06 1.3127e-06 2.3941e-05 -5.4017e-05 -4.6607e-06 6.51e-05 -2.8513e-06 8.7106e-06
8.5019e-05 1.1581e-06 1.5693e-05 3.141e-06 9.2628e-06 2.0002e-06 0.00019641 -3.6723e-06 0.00020038 -5.0239e-06 0.00032412 2.0811e-05 0.00034105 5.6426e-06 -0.0001492 0.0010658 -5.7162e-05 0.00033237 0.0001142 -1.9352e-05 -3.7693e-05 3.8492e-05 0.0008188 0.00052956 -0.00029542 0.00012871 -5.9379e-05 -0.00011908 0.00017648 1.5745e-05 -3.238e-05 6.2546e-05 2.6711e-06 0.21085 -0.00029684 1.3088e-05 1.0828e-05 0.004935 -0.00033649 -1.3493e-06 -2.9737e-06 0.00010857 3.062e-05 0.33505 -1.8657e-05 -0.00011816 0.0015997 -0.00051427 -1.4944e-05 0.00010351 -1.1053e-05 0.0019967 8.987e-06 -0.00032846 -1.995e-05 0.30114 5.3806e-06 -0.0001128 -3.8063e-05 0.0365
-1.9799e-06 3.6666e-05 8.3147e-05 -7.017e-06 -5.754e-06 5.9793e-05 5.2742e-05 2.8621e-07 -0.0001382 0.00023961 0.00022548 1.585e-06 0.00041398 0.00033598 5.261e-06 -0.00018662 -7.5106e-05 0.1989 0.22755 -0.0001366 -1.4071e-05 5.0448e-05 -0.00029176 -1.7291e-05 0.00072734 0.00015638 0.00087922 0.00031362 0.00017868 0.00032433 -4.3873e-06 0.0014319 3.5439e-06 0.20221 0.00019859 -1.0312e-05 -6.5454e-06 0.19859 2.3426e-06 6.0397e-07 -6.36e-06 -1.2238e-05 -2.7198e-05 -7.067e-05 -3.1804e-05 0.00040783 -0.00011967 -0.00014362 0.00069767 -1.0392e-05 5.8595e-06 -0.00026186 -6.1561e-06 0.00013312 -4.7163e-06 -5.2943e-05 0.00022898 -9.089e-05 -5.1052e-05 0.00010327
-1.0615e-06 1.147e-07 1.8945e-07 -5.7326e-07 -2.2068e-07 2.9347e-08 -6.8061e-06 1.3001e-06 -4.6692e-06 -1.3365e-05 3.2124e-05 -6.0003e-06 -4.0479e-05 1.15e-05 -9.5426e-07 -1.1069e-05 4.8908e-05 1.4471e-05 3.3526e-05 -6.3946e-06 4.85e-06 -3.7742e-06 -2.9424e-05 -2.6002e-05 -0.00012686 1.5742e-05 0.46275 -6.1205e-05 7.2441e-06 1.5944e-05 1.1365e-07 -3.2381e-06 0.66152 -0.00028218 4.9316e-05 -2.655e-05 1.1482e-05 2.0448e-05 -6.6024e-05 -1.5272e-06 -3.6884e-05 5.6793e-06 -6.1655e-06 -1.4975e-05 -4.4645e-06 -6.9703e-07 -3.9071e-06 -1.5888e-05 -0.0003437 -8.3074e-05 -9.6954e-06 -3.0206e-05 5.6942e-06 -2.9247e-05 -2.7626e-05 -6.2234e-05 9.6808e-06 7.5485e-06 2.0743e-06 7.1688e-06
0.17852 2.6457e-06 7.6515e-06 1.0996e-05 2.6471e-05 -2.1262e-06 -3.678e-05 4.2998e-06 0.27757 3.9068e-07 4.241e-05 1.1392e-05 -1.1643e-05 -1.2963e-05 0.2746 0.23825 -1.0719e-06 1.1203e-05 3.3192e-05 -0.00034742 -2.2036e-05 0.51366 -0.00043088 4.564e-05 -0.00020878 1.4337e-05 0.26361 0.32627 0.00013137 -0.00016876 -1.1571e-05 -2.1175e-05 0.00067704 1.6433e-05 -0.36961 -2.1668e-05 1.9682e-05 -8.9415e-06 -0.00021804 4.6871e-05 -2.3711e-05 2.234e-05 0.00048721 -0.0002545 1.8345e-05 2.7542e-06 -5.9047e-06 -8.9701e-05 -0.00015782 6.7998e-05 -4.436e-05 0.31383 5.3361e-06 0.00020673 -4.0435e-05 -1.4025e-06 5.9227e-06 9.8856e-06 1.3136e-05 -1.3607e-05
1.7167e-06 -2.1751e-06 4.7946e-06 3.8833e-06 1.1695e-05 1.6819e-05 -5.2378e-05 8.6224e-08 -2.2972e-05 -7.083e-05 0.00017904 4.7759e-06 0.0002351 -1.3888e-05 1.8195e-05 4.2861e-05 0.00031429 0.00096859 0.0008237 0.00017685 3.9088e-05 3.2377e-05 -0.00013325 0.00040646 0.0018155 4.3015e-05 0.0042291 0.32509 0.00017283 -0.00019117 -4.5196e-06 -8.4438e-05 0.00013001 0.0027248 -0.00012823 0.0010469 2.8195e-05 0.0021943 0.29883 4.1525e-06 -4.5158e-06 -5.4208e-06 0.000561 -0.00018546 -2.1599e-05 -6.9587e-05 -0.00018371 0.38343 0.0010528 5.3157e-05 -1.0558e-05 0.00027231 -3.8381e-06 -0.0017703 0.44285 -0.00081024 1.5029e-05 0.47665 1.2899e-05 9.4679e-05
2.2951e-06 -2.2489e-07 1.5661e-05 5.6157e-07 5.8059e-08 1.6178e-06 -4.9623e-06 -9.9243e-06 8.5769e-05 0.00053076 -3.2443e-05 -7.8919e-08 -1.5506e-05 -6.8316e-06 1.2219e-05 0.00022243 -6.8863e-06 3.0971e-06 2.1128e-05 0.50436 7.393e-06 1.3802e-05 -0.00010591 -5.5897e-05 0.00012404 -1.8766e-06 -1.516e-05 -9.3868e-05 -0.00032425 1.0032e-05 -7.494e-06 0.00016959 0.00057451 0.00021128 0.00040513 4.0964e-06 2.4629e-06 0.00047901 -6.4715e-05 3.1204e-06 3.0766e-06 -3.1436e-06 4.5606e-06 9.3957e-06 -2.6649e-05 -3.0372e-06 7.0706e-05 -5.8915e-05 0.00042462 -1.2346e-06 4.5056e-07 0.00034504 -1.9034e-06 0.0002593 0.00029115 4.1683e-05 -3.2431e-06 6.2934e-06 2.8248e-06 5.0807e-06
-4.5057e-08 -1.3249e-07 1.5478e-10 -6.019e-08 0.89423 -8.9454e-09 1.2913e-08 -1.0021e-06 9.3688e-07 -2.4072e-06 -1.097e-06 9.6344e-08 -3.2669e-06 -1.5465e-06 -1.7649e-06 6.6994e-06 3.2389e-07 -1.8887e-06 2.8612e-06 -3.3689e-07 -2.548e-05 -1.8282e-07 -4.1209e-06 3.5671e-07 -9.7191e-06 -4.5433e-06 -2.8961e-06 4.6473e-05 3.6046e-08 -1.8166e-07 9.1529e-08 7.2454e-07 3.267e-07 -2.8717e-06 -2.1198e-05 -1.9186e-07 4.4193e-06 -1.2064e-05 -1.5486e-07 2.0705e-07 4.9713e-06 9.3404e-07 -1.8436e-05 3.9597e-06 -2.8232e-07 2.2574e-06 -1.2686e-07 4.303e-06 2.3319e-07 5.0456e-05 -1.633e-06 1.5341e-05 6.3073e-07 -1.5823e-07 -8.8959e-07 -1.1111e-05 3.5062e-06 -1.6317e-06 -1.5267e-06 -3.947e-07
0.13842 -0.0054028 0.17072 0.2101 8.8159e-06 -0.00026064 -0.0002449 -2.9635e-05 4.5589e-05 2.0753e-06 0.19792 -2.5055e-06 1.9219e-05 3.1642e-06 -1.7785e-06 0.00012961 -0.00011826 0.17261 0.19693 -2.0401e-05 0.0012814 0.39646 -0.0002901 -5.5442e-06 -5.7333e-05 -0.28739 -8.3245e-05 -0.00014042 -1.8386e-05 -1.931e-05 -4.5528e-05 2.3212e-06 0.00018352 0.16838 -0.00024956 3.7116e-05 -3.4669e-05 0.17391 -5.6965e-05 -5.5347e-06 6.947e-05 -3.7186e-05 1.4159e-05 -0.00021525 0.0022175 0.21965 0.00017498 -8.3153e-05 1.8337e-06 -0.00011141 -5.1252e-05 0.00040788 -9.1908e-07 0.00011585 -2.0693e-05 0.00022294 -6.9273e-05 -5.8739e-05 2.0096e-05 0.00040439
0.19556 -2.4598e-05 -9.2769e-07 8.1704e-07 -5.462e-06 2.5342e-05 0.0014826 -1.7866e-05 8.1633e-06 -1.5489e-06 -0.00010049 1.4437e-06 0.19689 0.00024439 9.5565e-06 4.1682e-05 -4.774e-06 -0.0001103 1.1107e-05 -7.2114e-06 0.36149 -6.8403e-05 -3.8319e-05 1.3837e-06 -2.4864e-05 -0.00023681 -4.5956e-05 -0.00014434 3.7342e-05 9.8804e-05 -6.068e-08 -6.7073e-05 -3.9225e-06 -6.402e-05 -3.2934e-06 -1.9163e-05 0.43446 -6.4598e-05 -0.0001683 -0.0001744 1.3091e-05 0.35598 7.9306e-07 2.0199e-06 0.006333 -0.00075305 -8.0202e-06 -3.4961e-05 2.7608e-05 2.0707e-05 -0.49959 8.4215e-05 2.1386e-06 1.2286e-05 -5.2301e-05 1.0421e-06 -0.0014851 -5.6295e-05 0.0050918 -0.00021954
5.3492e-05 -7.3749e-07 9.1908e-06 -8.2585e-06 0.00025908 3.855e-07 7.8474e-05 0.00018815 -0.00015874 4.3027e-05 -0.00079252 0.00017686 7.5598e-05 -9.0545e-05 2.1992e-05 -0.0006812 0.0010303 0.0004649 6.4835e-05 -2.632e-05 -7.6912e-06 -1.8877e-05 -0.00032105 5.6516e-05 0.29545 -6.1871e-05 -6.4705e-05 -0.0013572 7.8021e-06 0.00047391 1.1381e-07 -7.5133e-06 0.00025006 -0.0007594 -0.00021516 3.1198e-06 -2.1071e-05 0.00050081 2.9124e-05 3.8175e-06 -0.00012067 -1.6457e-05 0.057717 1.8445e-05 -1.1455e-05 4.9369e-05 -3.2226e-05 0.032743 -2.5651e-05 -3.1695e-06 -1.2299e-05 -0.0011819 -0.00016333 0.00041291 -6.2513e-06 0.012325 3.4317e-06 1.1479e-05 -3.457e-05 0.00028227
0.2765 3.6447e-06 -5.2886e-07 9.6624e-07 -5.8169e-07 5.4895e-06 -9.9189e-06 7.482e-06 -5.5837e-06 -1.5824e-06 6.1027e-07 1.5507e-06 0.27535 7.8554e-06 8.7451e-08 -7.3236e-06 3.5019e-06 -1.1661e-05 1.3104e-05 3.9486e-06 -2.5282e-05 4.73e-05 -1.1923e-06 7.053e-06 -1.5409e-05 2.3743e-06 -2.7496e-06 6.1586e-06 -1.132e-05 -6.6624e-06 -3.6847e-06 -1.3621e-06 -5.2723e-06 -1.9554e-05 -1.1352e-06 3.1731e-06 -0.00027965 -4.325e-05 1.0391e-05 9.6933e-06 3.2038e-06 0.49975 3.3683e-06 -3.5031e-06 7.5309e-05 4.0919e-06 1.1239e-07 -1.573e-05 4.7087e-05 2.5753e-05 0.0004172 -2.9053e-05 1.5803e-06 2.839e-05 -2.493e-07 -1.3252e-06 -1.8135e-06 7.5966e-06 9.7671e-06 -3.1671e-05
0.00010004 -1.0755e-07 9.3382e-06 -1.2801e-05 0.00024398 4.8229e-07 -2.9537e-05 0.0018427 -0.00014006 3.5145e-05 -0.0011294 -7.5087e-05 -3.7583e-05 -6.7632e-05 1.4523e-05 -0.00058661 -1.1829e-05 0.0006127 4.7281e-05 -2.5436e-05 1.4313e-06 -5.8599e-05 -0.00022661 -8.1579e-06 0.27981 -6.7681e-05 -8.416e-05 -0.00043673 3.0327e-05 0.0014227 -1.4135e-05 -4.2665e-06 0.00038271 -0.00026113 -0.00018488 1.1761e-05 7.0728e-06 0.00027656 6.4538e-06 4.1664e-06 -0.00010749 0.00061221 0.00099174 1.6652e-05 2.3805e-06 6.2635e-05 -2.9081e-05 0.035398 -2.3266e-05 -6.87e-06 -5.0153e-06 -0.00098922 -0.0001549 0.0043764 -9.3449e-07 0.37845 -3.6464e-06 0.0001109 5.3328e-06 5.8488e-05
7.6454e-07 3.9867e-07 8.6778e-08 4.3317e-07 -2.4463e-06 -1.2585e-06 -1.6861e-05 -4.8783e-06 1.2369e-06 -4.5754e-06 7.169e-05 9.7591e-05 -5.1826e-06 3.379e-05 3.3108e-07 6.2307e-06 5.0917e-06 1.8909e-05 8.2035e-06 -1.5824e-05 2.6668e-06 -1.1014e-07 9.2769e-05 8.4285e-06 0.45133 -7.9308e-06 -7.1005e-05 6.223e-06 -3.081e-06 -8.2754e-06 -4.8428e-06 -3.7786e-06 -2.4031e-05 8.4236e-05 2.9796e-06 1.7658e-07 -2.9145e-07 -8.9445e-06 -3.1449e-05 -3.2852e-07 2.8828e-05 -7.5661e-06 -0.00031025 2.1718e-05 -6.8542e-07 -2.2559e-06 5.6395e-06 -0.00037621 -1.717e-05 9.8212e-07 -1.271e-06 -2.745e-06 1.3145e-05 -6.6815e-05 -1.4172e-05 -5.6822e-05 3.1595e-06 -1.9807e-06 4.8185e-06 -3.489e-05
-1.8605e-06 -0.00041408 -6.032e-06 -8.0253e-07 4.1844e-06 -2.0226e-05 0.2931 -2.5525e-06 -2.0299e-05 0.00075375 6.6557e-05 0.00025551 -1.2406e-05 -8.6886e-05 -3.4782e-05 -4.1496e-06 -4.0513e-05 0.00095852 -1.5884e-07 -3.1472e-05 0.00063817 -1.1173e-05 -5.21e-05 -2.2123e-06 -0.00073401 -0.021027 0.001486 0.001825 -2.4791e-05 8.6951e-06 -2.0723e-06 -2.3076e-06 0.0029509 -5.7157e-05 7.1115e-05 0.0008165 -8.4192e-05 0.00095924 0.00015794 7.9583e-06 6.3029e-06 -3.5038e-05 -0.00018094 0.0049044 0.00068218 0.015517 -5.8442e-05 -0.00080402 0.00054642 0.47928 6.2302e-05 -2.8306e-05 2.5729e-05 -0.00046488 0.0018235 0.36434 2.5977e-05 0.00015124 -0.00061873 5.6857e-05
0.18652 -3.0636e-06 4.3566e-06 9.4848e-07 1.0268e-05 4.3447e-06 0.2644 -3.4737e-05 6.6253e-05 -1.2846e-06 0.0002961 -2.0342e-05 0.18582 -3.5514e-05 2.0843e-06 0.00020506 0.50776 0.23184 -9.3988e-07 -4.837e-05 -1.6843e-05 6.0408e-05 -0.00054582 -3.2903e-05 0.0013389 -0.00026547 -3.0933e-05 -0.0010556 8.6371e-05 0.37568 -1.0547e-05 2.7957e-05 5.9572e-05 0.00078817 -0.00055964 8.7333e-06 -6.7806e-05 0.23302 -8.2969e-05 7.6473e-07 -1.128e-05 -9.3803e-05 0.053522 -1.8093e-05 -2.17e-05 0.00020964 -0.00015584 -3.7126e-05 3.4578e-05 0.00011346 -6.3954e-05 0.00045143 2.0904e-07 -3.7672e-05 -1.4296e-05 0.00024217 8.4011e-06 0.49134 6.9983e-05 0.00010297
4.5753e-16 -1.1287e-14 -1.5386e-15 -8.9141e-17 -4.9502e-17 4.1367e-15 -3.3791e-14 -7.716e-16 -5.1071e-16 -9.7306e-16 -1.6938e-16 -1.5286e-16 1.4138e-15 -1.3589e-16 -4.8573e-18 -4.5531e-16 7.4516e-18 2.8068e-16 -1.3432e-16 3.852e-16 4.9265e-15 2.0435e-17 -5.8145e-16 1.8354e-17 2.4863e-14 -5.7503e-14 5.7922e-16 4.2482e-16 1.6589e-14 2.0961e-15 -6.5484e-16 -4.8974e-16 -2.3613e-17 -8.6406e-16 4.7968e-17 2.3703e-16 -2.9857e-15 -3.5241e-16 1.6921e-15 -5.6712e-16 -1.084e-11 4.0954e-16 3.4755e-16 -2.2199e-17 -2.85e-13 -1.7734e-13 -6.857e-18 -3.2576e-16 8.6796e-15 2.0153e-15 7.5324e-16 -7.1043e-16 -7.6144e-16 -7.7092e-17 2.5896e-15 -2.6387e-15 -6.994e-12 2.1483e-15 1.4432e-11 2.245e-14
-8.1422e-06 -9.8179e-06 7.8442e-06 0.38326 -7.2976e-07 5.7741e-06 -2.1737e-06 -8.8601e-08 -0.00014324 3.7603e-06 0.36112 2.0279e-06 -6.5975e-05 -5.0216e-05 4.76e-06 -8.0051e-05 -5.5684e-06 5.0394e-05 0.0002476 3.9323e-06 5.0002e-06 0.00021177 -0.00012858 -1.8435e-06 -0.00010384 -0.00016498 -7.2842e-05 -4.8844e-05 -0.00025629 1.5861e-06 -8.1417e-05 7.329e-06 -2.2895e-05 0.31632 0.00022589 -3.2261e-06 1.7072e-05 0.00013776 -4.761e-05 -9.4205e-06 2.2305e-07 -1.0271e-05 1.4836e-05 -1.1943e-05 -6.0375e-06 6.229e-05 5.935e-06 -6.493e-05 -1.7874e-05 3.091e-06 -7.4771e-06 -6.2762e-05 4.6286e-06 0.00024602 1.6869e-05 9.6757e-05 1.5135e-06 -8.9187e-07 4.8126e-06 0.0002434
6.132e-06 -0.00768 0.24132 2.2151e-05 2.2976e-07 -0.00037762 3.844e-05 1.2432e-05 -0.00020588 3.2206e-05 -0.00039867 -3.3385e-05 -9.8942e-06 -6.0702e-05 -1.5741e-06 -0.0007242 -0.00016257 0.24465 0.27801 -1.7703e-05 0.00021572 0.00016425 -0.0003931 -2.8282e-05 0.0042966 -0.40883 -6.3842e-05 -0.0003161 4.4264e-05 1.7206e-05 2.2472e-06 -5.7914e-05 -4.1776e-05 -0.00031015 -0.00014337 1.6337e-05 -2.6149e-05 0.24224 1.4442e-05 2.014e-07 -2.5601e-05 2.6485e-05 0.00044119 0.00048894 -9.8532e-05 0.31255 -6.2551e-05 0.032094 5.5948e-07 0.0016985 -3.9079e-06 -0.0012774 -9.6187e-06 -9.4005e-06 -5.0223e-05 0.011102 2.7028e-05 -6.1601e-05 -0.00017223 0.00015945
-3.3605e-06 -1.0214e-05 1.3888e-06 -6.2626e-06 -7.5229e-06 -2.527e-07 0.2276 -3.0004e-06 -9.4525e-06 -5.7386e-06 -1.8159e-05 0.29286 -7.719e-07 -0.00011256 -2.8421e-06 -2.5411e-05 -5.1967e-06 -1.7772e-05 0.00011888 -5.6684e-05 1.0738e-05 9.8371e-07 -5.2582e-05 6.2893e-05 0.0004175 -0.00025272 -5.6597e-06 0.0012378 -5.965e-06 -3.367e-05 -2.6658e-05 -5.7005e-06 9.4714e-05 -6.285e-05 1.9128e-05 -1.2533e-06 -4.3933e-06 0.0002604 6.6148e-05 1.7432e-06 6.2339e-05 -8.0098e-06 0.0015157 -3.3674e-05 -4.2113e-05 6.2159e-05 7.226e-06 -0.00049962 -7.7147e-06 -8.3544e-06 -1.3056e-05 -3.8969e-05 -9.9506e-06 -0.00037391 -5.221e-06 0.2829 1.0168e-05 0.00026101 -7.6513e-06 0.50413
0.25241 -0.00010171 1.7209e-06 1.1728e-06 -1.0231e-06 -0.00026932 3.8922e-05 0.40541 -1.428e-05 3.3659e-06 2.044e-06 0.00033562 0.25143 -1.363e-05 -1.7466e-06 -3.693e-05 1.3269e-05 -2.6109e-05 5.6217e-06 4.1316e-05 6.6735e-06 2.8979e-05 -1.3432e-06 0.57509 0.0015255 -4.8294e-05 -1.4567e-05 -4.1375e-05 3.76e-05 -6.3992e-06 -4.7111e-06 -2.2914e-06 0.00016109 -1.9989e-05 5.4518e-07 -6.1479e-06 -2.0419e-05 2.1948e-05 3.2042e-05 -4.7494e-06 -1.6582e-05 6.5776e-08 -2.885e-06 2.2444e-06 6.797e-05 -0.00017355 2.8898e-06 -1.355e-05 3.7036e-05 1.8238e-05 7.2411e-06 -9.0391e-05 -3.4937e-05 -6.1601e-05 -2.3986e-06 0.0019757 1.7921e-06 -1.7085e-05 -2.5318e-05 0.00034373
9.3858e-08 5.1832e-06 -3.3337e-05 -7.0531e-06 9.6981e-08 -1.1037e-05 -9.6711e-06 3.2372e-06 -8.4141e-07 5.4732e-05 5.5286e-05 2.0199e-06 9.4597e-06 0.00096114 7.1224e-07 -5.574e-05 0.00023627 0.0011663 0.39371 -0.00024966 -0.00019237 2.6986e-06 0.00035249 -8.3095e-06 -4.1975e-05 -1.9141e-07 -1.1197e-05 -0.0001158 -0.00027618 -0.00011 -8.5134e-07 0.58789 1.1741e-05 -7.7572e-05 -2.0967e-06 -5.3484e-05 4.4018e-05 0.0011795 -1.5613e-05 -1.5901e-06 4.7228e-06 5.0021e-06 -3.3169e-06 -1.3856e-05 -2.4656e-05 1.1441e-05 -0.00017244 -2.9882e-05 -3.8078e-05 -4.5138e-06 -1.1063e-05 -0.00013464 -2.6011e-07 2.6671e-06 -0.00012257 1.2812e-06 3.863e-06 -0.00010881 -5.3849e-06 0.000266
-3.2366e-08 1.1844e-05 2.8264e-07 4.5273e-06 0.00047368 -3.6844e-06 -4.4384e-05 6.0349e-05 -0.00020111 6.0079e-05 -0.00015217 -2.1636e-05 0.00040799 -0.00010582 4.3417e-07 -0.00017201 -8.5566e-05 0.00047979 2.1379e-05 -1.2882e-05 -2.0908e-05 1.6922e-05 0.00054997 0.00012867 0.0028651 6.3002e-05 0.0081828 0.00062319 -9.0313e-06 -5.0245e-06 -1.2298e-06 3.01e-06 0.00063966 0.0049535 -0.00012155 -2.4314e-05 1.5181e-06 0.00070434 0.0013883 1.5541e-06 2.1477e-05 -3.2808e-05 1.5801e-05 -0.00015014 -2.8193e-07 4.3067e-05 -3.5638e-05 0.00018844 -0.0001634 4.2352e-06 2.6575e-05 -0.00027957 -8.1022e-05 9.6656e-06 0.00014089 3.8866e-05 -1.2626e-05 -1.1149e-06 -5.1613e-06 -8.799e-06
3.5516e-05 3.0064e-05 8.6566e-05 -2.0117e-05 -9.2844e-07 9.9844e-05 -4.0761e-06 1.5794e-05 -1.341e-05 -0.00010515 3.2456e-05 -3.222e-06 0.0001416 -8.7955e-06 -1.895e-05 1.275e-06 -6.814e-06 -2.9099e-07 0.0012283 -0.00012768 -3.671e-06 -3.1973e-05 -1.5497e-05 1.15e-06 0.00031901 9.2173e-06 0.41548 -0.00011481 -2.1993e-05 -1.0861e-05 -5.7671e-07 0.0014407 0.00019205 2.7616e-05 0.00036983 -7.784e-05 1.0544e-05 0.00011812 -2.463e-06 -1.6537e-06 0.0011558 2.5855e-05 7.9071e-06 9.8449e-06 -2.1906e-05 0.00025072 -5.3807e-05 -0.00013579 0.47839 2.1121e-10 5.9359e-05 -1.0919e-05 8.2684e-06 4.4796e-05 -0.00010234 -2.5453e-05 3.5103e-07 -2.7151e-05 -7.9038e-06 2.9372e-06
6.9281e-06 -1.5775e-06 7.0569e-07 0.26046 9.9184e-07 6.7093e-05 -1.647e-06 -3.5893e-05 0.26709 -5.6394e-06 0.24523 4.078e-06 0.17148 4.1962e-05 2.2285e-05 0.228 -1.4757e-05 1.6281e-05 0.24398 -9.8964e-06 7.7296e-06 7.0051e-07 -5.1891e-05 -1.2147e-05 -0.00047452 -0.00015818 -7.5136e-05 0.00012099 0.31657 8.1778e-06 -6.8116e-05 0.0001192 -2.5022e-05 0.20872 -0.00032724 9.1569e-06 -5.1139e-05 -2.8999e-05 -3.2033e-06 3.4798e-05 1.3762e-05 5.414e-06 -1.623e-05 1.2133e-05 -4.0794e-05 -0.00035423 -3.4614e-05 0.36894 -4.0241e-05 7.0049e-06 5.3164e-05 0.29854 7.5767e-06 0.38682 -0.0015591 -0.0011897 5.5421e-05 -8.0691e-05 0.00014014 0.0003543
-5.448e-06 -0.0089042 -2.0053e-05 -4.9398e-08 -1.0671e-05 -0.00043689 0.00012027 3.8513e-06 -1.794e-06 -2.0731e-05 1.3832e-05 0.39919 1.0436e-05 -6.7964e-05 7.1157e-06 7.8058e-06 7.4327e-06 -9.483e-07 5.4273e-06 -8.8755e-07 4.6045e-05 2.0515e-05 1.8438e-05 -7.1782e-06 3.5506e-05 -0.47473 -0.0002194 0.00064146 5.4291e-05 -2.8986e-05 -3.0914e-06 1.1864e-05 0.00068983 -0.00011286 -9.9992e-06 3.9111e-05 -3.7097e-06 0.00022235 4.4214e-05 2.0624e-07 0.00011922 2.6744e-07 -0.000482 0.0039889 0.00070189 0.36298 5.5849e-06 1.2802e-05 1.5185e-05 0.0022769 2.1077e-05 1.1698e-05 -2.8034e-06 -9.6398e-06 -0.00036603 4.0556e-05 -3.9682e-05 5.9621e-06 -0.00047886 8.0231e-05
4.0472e-05 -5.6094e-07 0.00012339 -3.4007e-06 -4.1347e-06 -2.2071e-06 0.00019852 -1.5535e-05 -2.6619e-05 0.00035297 2.0906e-05 0.00018916 6.1529e-06 -4.0598e-05 -0.00012754 -9.4339e-05 -1.2246e-05 -4.0699e-05 0.26628 -2.7289e-05 -1.3692e-05 -2.8119e-05 -1.54e-05 -1.8155e-05 -2.6402e-05 -1.444e-05 -5.385e-05 0.00091975 -8.5416e-07 0.0028066 -3.9769e-05 0.00069946 3.8009e-06 0.00028164 7.0486e-06 -1.7373e-05 -1.1871e-06 0.0014158 -7.4337e-05 1.6929e-06 9.0861e-05 -3.427e-05 1.3742e-05 0.0013404 -1.3498e-05 4.1318e-06 -0.00010876 -4.5012e-06 -0.00011596 -4.8387e-05 -1.1129e-05 -0.00023885 -9.3799e-07 -4.9805e-05 0.002054 0.00019507 6.6664e-06 0.0028541 -4.3463e-05 0.039107
6.5093e-31 -3.6948e-30 1.258e-30 1.0599e-30 1.6147e-32 1.6498e-29 -7.3981e-30 -1.2998e-31 -8.9341e-28 -2.1763e-31 8.1394e-30 6.6658e-32 -2.2918e-30 1.3617e-31 -7.5514e-29 1.9371e-27 -3.5778e-34 -2.5698e-29 -8.8521e-30 1.0097e-30 2.6597e-30 -1.9163e-30 3.7824e-31 1.0274e-30 2.6948e-32 -1.7239e-30 -2.2515e-30 -1.7697e-30 4.0386e-29 -3.8627e-31 -2.2366e-32 -1.0985e-30 -6.5521e-32 1.2221e-29 -5.6586e-30 1.2987e-31 9.2697e-31 1.1147e-28 6.0309e-30 2.1851e-31 2.8259e-31 1.6281e-31 -1.2186e-31 4.131e-29 1.3431e-29 8.0839e-30 -2.5806e-30 -3.274e-29 2.2832e-30 -6.8723e-31 1.03e-30 1.1351e-27 -1.2092e-32 5.8812e-30 -7.5911e-29 -4.8035e-32 -1.1704e-27 1.7887e-32 1.9471e-27 1.3541e-30
-4.5005e-06 3.6182e-05 -4.1688e-06 -1.4024e-05 6.3199e-06 -2.9473e-06 0.00023106 0.0002289 -0.00070532 0.00043439 -7.9032e-05 7.0068e-07 3.2928e-06 1.1312e-05 -8.893e-05 -0.002322 1.804e-05 -1.6742e-05 4.4055e-05 0.41276 0.00042953 1.225e-06 -4.1629e-05 0.00011597 -2.7851e-05 1.794e-05 -0.00082074 -0.00028474 0.0011502 1.7158e-05 -5.0035e-06 0.0012218 -2.1436e-05 -0.00013517 -0.51403 -3.8102e-06 -9.8188e-05 -1.9552e-05 0.00057233 2.7247e-05 4.0893e-06 -7.9542e-06 -1.1531e-05 -8.1055e-05 0.0018775 6.3589e-05 1.3994e-05 0.0001633 0.00094058 -1.5973e-05 -7.3683e-06 -0.0041593 -1.198e-07 1.6598e-05 0.0011122 -1.0236e-05 -0.00010645 -9.2552e-06 -0.00014514 6.404e-06
7.5236e-07 0.42483 0.34124 -1.1217e-06 4.1872e-07 0.43959 2.3062e-05 -3.0037e-07 -1.0072e-06 -5.7242e-06 9.0872e-08 -1.9557e-07 6.2205e-07 1.7333e-05 -7.8528e-07 2.5436e-07 -7.5802e-06 -1.3435e-06 -5.2956e-06 3.9066e-06 3.2374e-05 -3.9967e-06 -1.4747e-05 -3.2204e-06 2.1093e-06 0.10378 4.9592e-07 8.9253e-07 6.0006e-06 -5.4405e-06 3.5725e-06 -5.1777e-05 2.4573e-06 -9.9232e-07 -4.2332e-07 1.139e-06 3.7642e-05 -2.1762e-05 2.8801e-06 -2.3585e-05 1.3369e-07 -6.3197e-06 1.263e-06 1.552e-05 3.8421e-05 0.28475 -2.2455e-07 -2.9512e-07 1.9133e-06 1.4959e-05 -3.2973e-05 -9.1396e-07 3.332e-06 -1.7723e-07 -1.4141e-05 1.5962e-06 0.47048 -2.5231e-06 -0.00014891 2.6989e-06
-2.9132e-06 -9.2042e-06 2.6557e-05 1.1959e-06 0.00020919 -1.5162e-05 -5.0107e-06 -1.1558e-06 4.3374e-07 9.9538e-05 -4.8902e-05 -1.4673e-06 0.21935 -2.7603e-05 5.5558e-06 1.266e-05 -1.786e-05 0.00014992 4.5522e-05 6.3995e-06 0.41186 3.6663e-06 -5.0256e-05 -4.2371e-06 -2.4533e-05 -1.3499e-05 -0.00011285 0.00015855 1.4815e-05 4.4823e-06 -3.3538e-06 -0.00013072 0.00030426 -4.9621e-05 8.5739e-07 -2.214e-05 -0.0027439 0.00020422 -0.00013603 1.2167e-05 1.0456e-06 -0.0003551 -2.7453e-05 -4.9046e-06 7.8409e-05 -5.8905e-05 -3.7859e-05 -7.5998e-06 -9.6859e-07 0.0002003 0.0003922 3.0651e-05 -3.4705e-07 -2.9594e-06 6.993e-06 7.5509e-06 0.37252 -3.1875e-05 -3.246e-05 -1.166e-05
-3.0218e-06 -1.1426e-05 1.8939e-06 -4.0084e-06 -1.5506e-05 -3.1103e-06 0.24388 9.8593e-06 -2.5063e-05 9.3829e-05 6.2807e-06 4.1173e-05 -4.2341e-05 -7.105e-05 -2.423e-05 -9.8009e-05 -0.00030655 6.3354e-06 7.483e-06 -9.0886e-05 -2.4083e-05 0.0001378 -0.00041964 -2.4912e-06 -0.00044568 -0.00025674 -2.836e-05 0.31476 2.2271e-05 -0.0001851 3.8428e-05 -4.8555e-05 -1.9714e-05 -3.8587e-05 9.5663e-06 -3.5353e-07 1.622e-05 -0.00015016 -0.00011218 2.3113e-06 0.00018779 1.2986e-05 0.36257 -0.00013468 -5.4608e-05 5.9101e-05 1.7238e-05 3.7128e-05 0.00045501 -3.225e-05 -2.5137e-05 -0.00012945 2.9919e-05 0.00012486 4.0625e-05 0.00014907 1.0263e-05 6.9542e-07 8.3628e-05 0.0031853
3.6677e-05 -9.1264e-05 0.26975 5.9145e-07 -1.7134e-06 -0.00023336 -7.457e-05 -1.3469e-06 -1.8525e-05 -1.5944e-05 -6.6584e-05 5.735e-06 5.4297e-05 -8.9526e-06 1.6413e-05 -8.1506e-05 -8.8323e-05 0.27302 -7.8023e-05 0.38033 8.0703e-06 0.62635 -0.00035896 0.49837 0.0012536 -5.3998e-05 2.06e-05 0.0016954 0.00014126 1.0678e-05 -6.6089e-06 0.00055837 -1.3231e-05 0.00016024 -0.00041617 -3.0812e-06 2.7984e-05 0.27278 0.00084525 -3.0721e-06 -2.8208e-06 -2.1813e-05 -5.0868e-05 -7.2769e-05 6.1313e-05 -0.00011716 -0.00018764 0.00042553 -4.6092e-05 5.8258e-06 -1.9064e-05 -0.00014156 6.9368e-06 -0.0013213 0.00027747 -1.8813e-05 -1.1536e-05 0.0012343 -3.1695e-06 -4.8017e-06
1.3028e-07 -3.1161e-06 1.2832e-07 2.7356e-05 -1.219e-06 -1.0511e-05 -9.8272e-07 -1.2192e-07 0.43044 -6.5922e-07 9.7769e-05 -2.8552e-07 2.6707e-05 1.7559e-06 0.47297 0.52996 -1.8243e-05 2.8105e-06 -1.5947e-06 9.1121e-05 -3.8486e-06 -6.5226e-06 -1.3166e-05 3.9371e-07 1.1944e-05 1.213e-06 5.2475e-05 8.406e-05 0.00052621 -2.4172e-06 -1.6205e-05 -2.6755e-05 -2.3302e-05 0.00035288 4.8817e-05 4.6884e-07 9.2612e-08 6.1052e-06 1.3496e-05 0.00013036 -2.6698e-07 1.8363e-07 -1.2466e-05 5.8256e-05 4.1539e-06 -9.3975e-06 6.7909e-06 0.00014343 6.7213e-06 -1.9466e-05 5.2753e-06 -0.28782 -5.5827e-07 -4.8796e-06 -5.984e-05 -5.129e-06 -1.8875e-06 -1.042e-06 2.0969e-07 -1.3643e-05
3.3798e-07 -9.3251e-07 -2.6341e-06 -1.7135e-05 0.00021132 3.4353e-07 7.1771e-05 2.4258e-05 -7.3244e-06 0.27562 -2.0957e-05 0.0012692 -7.5233e-06 -1.0295e-05 2.9122e-07 -2.5446e-06 0.0004019 0.00012655 0.0023905 0.00024764 -4.3713e-06 -7.2786e-06 0.00011325 5.4206e-05 0.001331 2.0975e-05 -3.069e-05 4.2195e-05 -7.7266e-05 9.4075e-06 1.684e-06 -2.8335e-05 0.34247 0.00024085 1.2142e-05 -1.4207e-05 4.3693e-06 0.00042386 -1.8199e-05 1.0779e-07 -2.9146e-07 -1.1482e-06 0.00031155 -3.205e-05 -2.4516e-05 -2.7417e-05 0.0010757 1.9956e-05 -0.00012416 -1.7883e-05 9.2035e-07 -5.2035e-06 -5.166e-05 0.00012637 0.00029408 0.0017169 1.1742e-05 -2.2159e-05 -2.8034e-05 0.00030991
0.15003 1.4372e-05 1.4859e-05 2.7103e-06 -4.9607e-06 1.4668e-06 0.21361 -3.8473e-05 -1.2684e-05 0.00019006 -2.6175e-05 1.8625e-06 9.8533e-05 0.00034083 -4.8228e-06 -2.3218e-05 5.6118e-05 -7.3149e-06 7.7456e-05 -0.00011086 -6.4328e-06 0.43204 -2.4001e-05 -5.5482e-05 0.00079994 -0.00011884 -2.1554e-05 2.8217e-05 0.00029 0.30433 2.3873e-06 0.00052622 0.00013836 0.00036441 2.993e-05 6.9896e-07 -4.9813e-05 0.00011293 3.2681e-05 2.826e-06 5.861e-05 -2.8575e-05 -5.2688e-05 -7.3793e-05 -7.8889e-05 0.00033762 8.2121e-07 -1.754e-05 0.00022763 -3.5741e-05 -2.0641e-05 -2.9207e-05 1.6417e-06 -9.9647e-06 9.5839e-05 0.0004285 0.00011615 2.1101e-05 -0.00034338 -6.1828e-05
1.249e-06 -6.2268e-06 -2.6235e-06 1.4317e-06 3.6314e-07 2.5463e-05 -3.3133e-05 1.6017e-05 -7.6554e-06 -6.4867e-06 1.7436e-05 5.0388e-06 0.18618 1.8597e-05 -2.2833e-05 -6.195e-05 -0.00015183 0.23328 -9.3672e-05 -4.9328e-05 -3.7761e-05 3.0851e-07 -0.00033158 -8.4749e-06 -2.9547e-05 -3.0574e-05 -4.9294e-05 -4.342e-05 -2.4616e-05 -1.7288e-05 -6.1762e-06 2.3526e-05 1.1751e-05 -3.5173e-05 9.8793e-06 -2.2212e-06 -0.0002285 0.23272 0.31204 7.6469e-06 3.3418e-06 0.33765 -2.9172e-05 0.00035555 4.1011e-05 -3.8852e-05 0.4327 -1.9138e-05 -2.0536e-06 7.4448e-06 0.00026686 -0.00011563 1.3998e-06 0.0001109 -2.9581e-05 4.2952e-05 4.2475e-06 -0.00016636 3.9286e-06 9.7116e-07
4.0529e-06 -6.7012e-06 2.2438e-05 -3.7151e-06 -1.211e-07 1.765e-06 0.33177 6.9405e-06 -6.573e-05 4.3461e-06 0.00059101 0.00022514 0.00026858 -4.2064e-05 6.6863e-06 -3.408e-05 0.00026888 2.2918e-06 0.00015916 2.217e-05 -1.7573e-05 -2.4146e-05 0.0001212 6.2642e-05 0.00020909 -0.00032323 -1.7418e-06 -6.948e-05 -4.891e-05 0.00012841 4.1518e-05 -7.2152e-06 -5.8382e-06 0.0028255 7.3665e-06 0.00026748 -2.3825e-05 0.00059586 -3.3415e-05 1.8705e-06 -1.1673e-05 0.00049848 -8.4832e-05 -2.1785e-05 -4.9129e-05 0.00022105 3.9392e-05 -0.00026162 -9.5407e-06 -1.0324e-05 -1.3148e-05 -0.00010104 9.3381e-06 -0.0001244 -3.3491e-05 0.00061774 1.7996e-05 -5.4246e-05 4.7179e-05 0.70599
0.16534 -5.3794e-06 8.4912e-06 0.25093 1.2202e-05 -3.0331e-06 2.7507e-06 -2.6098e-05 0.26274 -3.2067e-06 0.2364 2.0917e-06 4.5313e-05 4.4666e-06 -0.0001104 0.22964 1.1417e-05 -6.9355e-05 0.23541 -0.00093907 2.1375e-05 4.7368e-05 -6.9556e-05 -3.3181e-05 -4.3238e-05 -2.2193e-05 -0.00023303 -0.00039695 0.0014003 2.5031e-05 -6.3758e-05 6.1589e-05 8.6931e-06 0.20217 -0.34952 8.1303e-06 3.2295e-05 0.0018448 -2.8071e-05 1.1282e-05 4.6328e-06 -2.116e-05 2.2599e-05 4.8386e-05 -3.3744e-05 -4.1153e-05 -0.00012 -0.00042601 1.3917e-05 6.535e-05 -3.289e-05 0.30074 2.4865e-06 0.00015779 -4.2097e-05 0.00019197 2.2518e-06 -7.089e-05 7.6022e-06 0.00040747
0.1263 2.4183e-05 1.4576e-05 5.4726e-06 1.9599e-05 8.6079e-07 3.4502e-05 2.9098e-05 0.00056092 3.3643e-05 -0.00033554 4.283e-07 0.00016026 0.00027351 0.00028227 0.00013339 5.5809e-09 0.00022579 0.17982 -3.3075e-05 -1.851e-05 8.6487e-05 0.00018248 3.7341e-05 0.18697 0.00013109 0.0059102 0.00075724 0.00030574 0.00026296 -1.9754e-05 0.00047274 0.27631 0.15609 -0.00044359 -2.3872e-05 5.7792e-06 0.00067902 0.00046319 -9.599e-06 0.00058955 -9.206e-06 -0.00011224 -0.00015697 -4.1525e-05 0.0002681 -3.1879e-05 0.0024316 0.0048833 -1.4228e-05 6.3715e-06 0.0004491 -4.4743e-05 0.28888 -4.2836e-05 0.24885 -4.196e-06 1.7532e-05 -2.6863e-05 0.00014395
0.2524 -4.7195e-06 -3.6615e-06 2.5891e-06 -1.2397e-06 7.5945e-06 -3.3689e-05 0.40542 -2.188e-06 4.5049e-06 4.455e-05 9.2983e-06 3.7311e-05 5.4417e-05 1.0502e-05 -0.00014951 -0.00016222 0.31416 -1.3988e-05 -3.0604e-05 2.0104e-05 5.1899e-05 -0.00044539 -2.3604e-05 -0.00011191 -3.9778e-05 -0.00011278 -6.1525e-05 1.9657e-06 -1.8819e-05 -7.761e-06 -1.8025e-05 -5.766e-06 0.30459 6.7176e-05 -3.7974e-06 4.9817e-05 0.31219 -5.9545e-05 -5.8701e-06 2.5204e-06 2.8265e-05 -7.8167e-06 -3.3585e-05 -1.761e-05 2.9388e-07 1.308e-05 0.00010389 2.9972e-05 1.2861e-05 -2.8461e-05 -0.00015216 8.1156e-06 0.00025698 -5.6055e-06 -9.1661e-06 8.1383e-07 -6.4586e-06 -3.1833e-06 6.1293e-05
5.6601e-07 0.42498 6.2334e-05 0.41981 -9.8619e-07 0.4397 -2.4282e-05 -1.6237e-06 2.2179e-05 1.6534e-06 -7.6888e-06 1.5088e-06 -4.8412e-07 0.57212 1.5817e-06 2.8021e-05 1.0728e-06 1.1778e-05 6.0066e-05 5.2036e-05 -1.3671e-05 3.7468e-06 7.367e-06 -8.1249e-06 -1.0286e-05 0.10437 9.734e-06 1.6369e-05 2.0939e-05 -2.7836e-06 -8.0475e-05 -5.1343e-05 9.9879e-07 2.7421e-05 -2.3683e-05 3.6645e-06 1.9234e-05 -3.0123e-06 -7.5746e-06 -2.0201e-05 1.7243e-06 1.264e-05 -1.8579e-06 -1.292e-06 -1.2453e-05 0.28648 9.2416e-07 2.2386e-05 1.6806e-06 -1.6063e-06 3.6355e-05 6.6981e-05 2.9407e-06 -3.9666e-07 -2.3132e-05 3.5544e-06 0.006782 7.6608e-06 -0.0022708 -1.5215e-05
6.9281e-06 -1.5775e-06 7.0569e-07 0.26046 9.9184e-07 6.7093e-05 -1.647e-06 -3.5893e-05 0.26709 -5.6394e-06 0.24523 4.078e-06 0.17148 4.1962e-05 2.2285e-05 0.228 -1.4757e-05 1.6281e-05 0.24398 -9.8964e-06 7.7296e-06 7.0051e-07 -5.1891e-05 -1.2147e-05 -0.00047452 -0.00015818 -7.5136e-05 0.00012099 0.31657 8.1778e-06 -6.8116e-05 0.0001192 -2.5022e-05 0.20872 -0.00032724 9.1569e-06 -5.1139e-05 -2.8999e-05 -3.2033e-06 3.4798e-05 1.3762e-05 5.414e-06 -1.623e-05 1.2133e-05 -4.0794e-05 -0.00035423 -3.4614e-05 0.36894 -4.0241e-05 7.0049e-06 5.3164e-05 0.29854 7.5767e-06 0.38682 -0.0015591 -0.0011897 5.5421e-05 -8.0691e-05 0.00014014 0.0003543
5.0195e-05 -8.2981e-06 -2.59e-06 -5.5361e-08 0.0002484 9.614e-07 1.9589e-06 1.9333e-05 -1.909e-06 4.1612e-05 4.6927e-05 -1.7631e-05 -2.2841e-05 -5.5289e-05 -1.7651e-06 1.9829e-06 2.302e-05 4.5697e-05 3.8238e-06 3.8121e-05 -4.6333e-06 -3.7945e-05 0.00011862 2.0779e-06 0.27431 -0.00026915 0.00031359 -5.3101e-05 6.5082e-06 -2.0187e-05 9.1625e-07 -9.935e-06 0.00031267 -0.00016373 3.2298e-05 8.898e-06 -1.4817e-06 0.001175 -6.67e-06 -2.6433e-07 0.64889 -1.686e-06 -0.00019248 4.1092e-06 0.00033744 0.00016712 5.2264e-05 -0.00024295 -0.00010121 7.7341e-06 1.0666e-05 -1.4739e-05 -4.6818e-05 -0.00018145 0.00028903 -0.00035442 -4.2782e-06 -2.3548e-06 8.9927e-06 -7.7598e-06
0.18646 -0.007306 9.325e-06 3.7075e-07 -3.3361e-07 -0.00035761 -0.00025575 -1.2168e-05 9.1935e-06 0.00067921 7.7342e-06 -1.9941e-05 -4.7901e-05 -3.7389e-06 6.2938e-06 3.6646e-07 3.7227e-06 -4.8573e-06 2.151e-05 1.3601e-05 3.1001e-05 -3.8193e-05 -6.3931e-06 -1.4191e-05 4.164e-05 -0.39025 0.27648 -0.00010172 -0.00033411 -8.126e-06 2.5758e-07 7.291e-06 -4.9445e-05 -0.0001694 8.6119e-06 0.46965 3.485e-05 -2.3477e-05 0.00013758 -3.6363e-06 2.9808e-05 2.7729e-05 1.5445e-05 -0.00034052 -8.9691e-05 0.29862 -9.7548e-07 -7.3547e-06 0.00028969 0.00030322 -2.504e-05 -9.9309e-06 -3.4712e-06 -7.7122e-06 0.024007 0.0019097 2.9067e-06 -2.5313e-06 5.5731e-05 -3.7682e-05
9.1418e-05 9.8884e-06 0.00018078 -8.5162e-06 1.4943e-06 5.7114e-05 -2.6671e-06 -3.0899e-05 7.5501e-05 0.29527 0.00029587 -1.0212e-05 1.7435e-05 0.00012079 -3.9023e-06 0.00026013 0.00020933 6.8857e-05 0.00058216 -6.9071e-06 0.31976 2.5401e-05 0.00083275 -2.9456e-05 -0.00012175 -7.9187e-06 0.2543 -0.00016791 -0.00011136 -7.3768e-05 3.8133e-07 0.37223 3.8722e-05 0.00069817 -0.00033748 3.3315e-06 -0.00079499 0.0028856 -5.8505e-05 -9.8592e-07 -1.6192e-05 -5.137e-05 -1.9975e-06 -4.2854e-05 1.6182e-05 -1.9878e-05 -8.6084e-05 -0.00010973 0.00023449 0.00013437 0.00016617 0.00051035 3.6848e-06 -2.2136e-05 -2.9194e-05 0.0001194 -6.6521e-05 -5.899e-06 1.4608e-05 0.00012751
0.2337 3.3736e-06 -2.7251e-06 1.842e-06 -8.1953e-07 5.1162e-06 -1.1552e-05 -2.4419e-05 -4.4689e-06 1.4508e-05 4.4341e-06 1.5804e-05 0.23283 1.7355e-05 -9.9301e-06 4.2357e-07 2.9263e-06 -8.8816e-06 -4.0875e-05 1.6924e-05 -6.1865e-06 -1.9286e-05 -5.5343e-05 1.7273e-06 -4.992e-05 1.8715e-05 -1.6139e-05 -0.00029155 -6.3319e-05 0.47046 -8.0546e-06 -4.9667e-05 -1.5938e-07 -1.2711e-05 -1.7541e-05 2.5838e-06 -7.2903e-05 -4.3326e-05 0.0025032 -2.9227e-06 -5.0247e-06 -6.0633e-05 -0.00013512 -0.00036475 2.9398e-05 -3.5109e-05 -1.4654e-06 1.6229e-06 4.6048e-05 7.6992e-05 -1.9395e-05 -3.0473e-05 -4.1779e-06 -1.3985e-05 -0.00026827 0.0045208 6.3693e-06 0.61861 1.7298e-05 -1.6002e-05
1.4344e-06 2.1097e-05 1.8866e-05 -9.0278e-07 -8.033e-06 -1.5396e-05 0.27809 -2.5806e-05 -0.00012968 0.00020061 -9.0551e-06 1.4225e-05 -7.3137e-05 0.40525 -1.096e-05 -0.00019994 0.0006458 0.25989 6.2557e-05 0.0018013 -6.4257e-05 5.6338e-05 0.0060688 0.00036911 0.28637 -2.1065e-05 -8.847e-05 0.35862 0.00021686 0.00016054 -7.2017e-06 0.0005189 -9.0838e-05 0.00057083 6.487e-05 7.0892e-07 1.0151e-05 0.24095 -0.00040696 3.5505e-06 -6.975e-05 1.774e-07 0.00032686 -0.00027785 -6.8586e-05 0.0004287 0.00024725 -0.00024024 0.00023531 4.0344e-07 -5.5093e-06 -0.00028814 4.4202e-06 4.8176e-05 4.65e-06 -0.00012298 5.8089e-05 -4.6643e-06 -7.4589e-05 -0.00018424
0.18647 -0.0072161 1.0228e-05 8.0353e-07 -1.0085e-06 -0.00035896 -0.0002833 -5.354e-06 4.2872e-06 0.0006868 5.2617e-06 -1.5383e-05 -3.2516e-05 -6.4482e-07 6.0492e-06 7.0528e-06 -7.0413e-06 -2.0821e-05 -1.4144e-05 7.9937e-06 1.2343e-05 -5.4656e-05 -4.0796e-06 -2.3477e-05 4.5978e-05 -0.38525 0.27628 -0.00012806 -0.00068387 -2.0846e-05 3.2436e-07 -7.8061e-05 -5.2401e-05 -0.00013986 1.1814e-05 0.46845 3.1547e-05 -2.6517e-05 9.4966e-05 -3.3289e-06 3.4591e-05 2.0294e-05 -5.4539e-06 -0.00036392 -0.00010319 0.29481 4.1896e-06 -8.6256e-07 0.0017176 0.00031932 -1.7045e-05 -8.2313e-06 -2.8688e-06 -7.0209e-06 0.52446 0.0019045 -2.1273e-05 -2.5016e-05 5.7244e-05 -4.1432e-05
-2.9753e-06 -1.1234e-05 -1.5372e-06 4.3608e-05 -1.6e-06 -6.5304e-07 0.33178 8.214e-08 3.8341e-08 0.40422 6.4774e-05 -2.0674e-05 3.3165e-06 -2.3654e-05 -4.5058e-07 -1.7145e-06 -3.6455e-06 -6.827e-05 -9.3924e-06 -5.3635e-05 3.9994e-06 -5.8055e-06 -6.6134e-05 6.0353e-07 -0.00066593 -0.00036157 -1.5233e-05 -6.266e-05 -1.8985e-05 -3.5956e-06 0.83854 -8.9922e-05 -1.6085e-05 5.1854e-06 1.1773e-05 -9.2384e-06 -2.1604e-05 3.8143e-06 4.9345e-05 1.411e-06 6.4512e-06 -2.3618e-05 -3.4685e-06 -0.00018836 -8.2469e-05 0.00018907 3.6579e-06 -0.0007499 -0.00037487 5.4161e-05 -1.8736e-05 -3.6205e-06 1.8434e-05 -0.00050177 -8.7707e-05 0.41073 1.7085e-05 0.00011325 6.7028e-05 -2.992e-05
-5.8074e-06 -4.93e-07 1.8063e-06 0.25137 9.8869e-07 6.6585e-05 8.4697e-07 -2.4206e-05 0.25736 -1.486e-05 0.23644 5.2893e-06 0.16493 3.803e-05 8.9326e-06 0.21988 -1.1684e-05 2.892e-05 0.23577 2.8066e-05 -2.2598e-06 1.9827e-05 -4.9097e-05 -1.615e-05 -0.00049177 -0.00015528 -3.399e-05 0.00011421 0.30047 1.1108e-05 -7.7699e-05 0.00020682 -2.5343e-05 0.20097 7.112e-05 -3.6847e-05 -5.2089e-05 -3.5944e-05 4.7395e-06 3.5806e-05 1.9409e-05 -3.6853e-05 -1.4962e-05 1.6419e-06 -2.361e-05 -0.00033351 -5.5962e-05 0.35724 -4.8792e-05 5.9706e-06 1.9575e-05 0.28849 6.7025e-06 0.37386 -0.00074387 -0.0011475 7.0619e-05 -6.5703e-05 0.00015542 0.00036163
0.14191 6.316e-07 5.0434e-06 -5.64e-06 0.00018575 2.4066e-06 -4.158e-05 0.22924 -5.2718e-05 2.7375e-05 -0.00064541 -5.1821e-05 -1.129e-05 -4.5877e-05 1.1409e-05 -0.00037468 -0.00010239 0.17705 5.2246e-05 -3.1077e-05 -7.2023e-07 -1.7696e-05 -0.0003777 -1.4635e-05 0.21254 -4.4454e-05 -7.5074e-05 -0.00024944 8.6552e-05 0.0010703 -2.2689e-05 -9.1724e-06 0.00028869 -0.00022496 -0.0001309 9.1146e-06 3.3549e-05 0.17569 -3.3137e-06 3.5744e-06 -7.6693e-05 0.00049457 0.00072089 -1.1776e-06 -3.8201e-06 4.4509e-05 -2.119e-05 0.33169 1.2515e-05 2.9542e-06 -1.7271e-05 -0.00050104 -0.0001114 0.32313 -3.9006e-06 0.28714 -2.3294e-06 8.0921e-05 1.4119e-06 6.3043e-05
0.15974 -1.9762e-06 1.0966e-05 0.24249 1.1746e-05 6.3724e-05 -4.7922e-07 -5.9114e-05 0.25565 -9.3041e-06 0.22851 7.241e-07 0.00063294 5.8929e-07 -0.00010116 0.22286 9.466e-06 -8.6242e-05 0.22727 -0.00096467 2.1857e-05 3.7459e-05 -8.1023e-05 -3.0432e-05 -7.8581e-05 -0.00014957 -0.00026278 -0.00037078 0.2956 2.7897e-05 -5.1613e-05 0.00019577 1.2891e-05 0.19666 -0.33797 1.5077e-05 2.0721e-05 0.0017766 -3.7775e-05 3.4239e-06 1.1929e-05 4.0904e-07 3.5863e-05 5.4531e-05 -7.4956e-05 -0.00034905 -0.0001014 -0.00012356 -1.1853e-05 6.4967e-05 9.9397e-06 0.29259 4.5685e-06 0.00030908 -0.0014154 0.00014367 5.1593e-05 -7.614e-05 0.00013695 0.00036908
0.21867 -4.7598e-06 -1.0438e-06 -4.4631e-06 -2.5192e-06 2.7413e-06 0.00030542 1.1367e-05 -1.5066e-05 -0.00019043 3.3493e-06 -2.9928e-05 -2.2329e-05 -1.4317e-05 1.4468e-07 -1.5424e-05 -3.1716e-06 -3.196e-06 0.0002865 1.0805e-05 9.4202e-06 -1.8802e-05 6.305e-06 5.056e-06 0.00039897 -5.842e-05 0.0043508 0.00066604 -3.0706e-05 -2.2202e-05 4.6309e-05 3.0579e-06 0.00019961 0.00015504 0.00016695 -4.4618e-05 2.0976e-05 -8.4708e-06 -2.4598e-05 3.7487e-07 0.76088 2.9064e-05 0.00086437 -3.189e-05 -1.4168e-05 -8.6103e-05 1.6117e-06 8.0713e-06 0.007989 1.5281e-05 2.4072e-05 -5.1442e-05 8.5624e-06 6.5879e-05 -0.00053133 -7.4822e-06 5.2757e-06 -3.6661e-06 -7.6024e-06 4.4211e-05
-1.191e-05 -0.00031589 3.9409e-05 3.3564e-06 -1.2745e-05 -6.6756e-06 0.00043003 3.0811e-06 -1.0811e-05 -1.3798e-05 1.3392e-05 0.00028468 -0.00010899 -3.7277e-05 4.1385e-06 -3.2907e-06 -1.5118e-05 0.0004385 0.00031679 2.4085e-05 8.598e-05 7.7288e-05 0.00018796 1.2315e-05 0.00022933 -0.015688 -0.00011202 0.00065654 -6.4778e-06 -2.818e-05 -7.2477e-06 1.0227e-05 0.46996 3.5241e-05 2.3783e-05 4.017e-05 -4.1442e-05 0.0018605 8.3336e-05 2.5994e-05 2.4783e-05 1.3099e-05 -0.00012377 0.0043055 0.48255 0.011453 0.00039672 -9.1801e-06 -5.7521e-05 0.0024713 0.00015241 -4.399e-06 -6.849e-06 -5.9814e-05 -0.00033402 -7.4202e-06 -1.4016e-05 -1.2506e-06 -0.00052876 -5.3621e-06
6.1906e-06 2.5144e-05 3.045e-05 -3.7664e-07 -5.6615e-06 -8.5763e-06 0.19207 4.5189e-05 -2.539e-05 0.23353 -3.0705e-05 -1.0269e-05 4.2757e-05 0.0004146 -1.5462e-05 -2.1725e-05 2.7426e-05 -3.0295e-05 4.2866e-05 0.0016719 0.00036816 3.1302e-05 -2.1021e-05 5.6542e-05 0.00084022 -0.0004135 0.0012679 0.0002839 0.00098346 0.00032402 2.3207e-05 0.0010322 0.00040754 0.00053672 -5.7423e-05 0.00043722 -9.7992e-05 0.0010354 0.00032606 7.5934e-06 2.6057e-05 -2.1358e-05 0.00012537 -0.0001776 0.0010147 0.00066326 4.0229e-05 -3.9131e-05 0.23354 0.0003945 -7.6742e-06 -2.6124e-05 -1.4704e-06 0.00012904 0.32237 0.0017756 -4.3436e-05 -4.1296e-05 -8.0764e-05 -6.4633e-05
7.8686e-07 9.0378e-07 -1.0794e-07 5.298e-09 -1.8611e-06 1.0268e-08 -1.1351e-05 -4.8639e-06 1.5841e-06 -4.2909e-06 7.1922e-05 -4.2502e-06 -9.038e-06 1.9366e-05 2.0006e-07 7.2406e-06 -3.2224e-06 1.7791e-05 -9.093e-07 -1.1391e-05 2.0367e-06 -2.4896e-07 -2.4571e-05 1.8025e-06 0.44886 -3.2159e-07 -7.0242e-05 -6.9641e-06 7.0449e-07 -6.7662e-06 -4.3661e-06 -8.2804e-06 -3.9749e-05 -0.00011612 4.4373e-06 8.3887e-08 6.168e-07 -1.2287e-05 -1.671e-05 -5.3196e-07 3.9231e-06 -7.1247e-06 -0.00031947 2.1998e-05 -6.6489e-07 1.4238e-07 5.749e-06 -0.0003558 -2.2648e-05 5.5644e-06 -1.0042e-06 -1.7175e-06 1 -6.5471e-05 -1.4115e-05 -0.00026295 1.1167e-06 -1.9412e-06 3.4933e-06 -2.1691e-05
6.0109e-06 -6.5954e-05 1.8861e-05 1.3355e-05 -4.8915e-06 -0.00016927 0.0005304 3.8328e-07 -9.6659e-05 -1.6398e-05 0.0001605 1.9206e-05 0.00018251 -0.00010416 1.7652e-05 0.0003134 0.00083673 0.20733 -6.2556e-05 0.0019396 -8.8973e-05 3.153e-05 0.38238 0.35384 0.22942 4.1939e-05 0.0035846 0.0040474 -6.0346e-05 0.00020656 -1.0898e-05 -0.00019254 2.0225e-05 0.19619 0.00015473 0.0001729 4.8632e-05 0.19486 0.00092081 -2.4256e-06 -2.3772e-05 0.00025471 -0.00020859 -0.00014462 2.149e-05 -0.00026332 0.00061075 -5.2957e-05 -8.6382e-05 1.3862e-05 2.2278e-06 0.00075282 -5.2418e-05 -0.0012044 0.00023633 -0.00025211 3.1543e-05 0.0007953 -2.4205e-05 0.00083689
3.6009e-07 0.00014012 2.4459e-05 4.1822e-06 2.1494e-07 -2.488e-05 -3.3138e-05 4.0373e-07 -3.8277e-06 -8.6776e-07 -2.3299e-06 -4.0284e-07 -6.2036e-07 0.00016223 3.7238e-07 -2.6501e-06 -9.0188e-07 1.9765e-06 -3.0376e-06 9.8637e-07 -4.7195e-07 2.0577e-07 1.5959e-06 -2.015e-06 -4.3079e-06 0.00059602 -2.7453e-07 -4.688e-06 1.6541e-06 7.7781e-07 -3.1393e-07 5.4961e-06 4.159e-06 4.5341e-06 -2.3309e-06 2.0212e-06 -9.7182e-06 6.7327e-07 -1.2526e-05 -7.5645e-07 3.8852e-08 -1.7374e-06 -1.2051e-06 2.2518e-07 5.7983e-05 0.0018068 1.2821e-07 5.7984e-06 7.1895e-07 -1.1478e-06 -6.2748e-06 -5.3173e-06 1.6306e-07 -2.713e-06 9.0811e-06 1.4051e-07 0.48301 1.7158e-06 -0.0026038 2.6492e-07
1.1635e-06 -1.095e-05 2.2472e-06 4.1596e-06 -2.9101e-06 4.7522e-07 0.21326 -2.5767e-05 -9.0279e-05 0.00022703 0.00038964 4.7845e-05 1.0339e-05 -5.3517e-05 5.1713e-06 -5.0152e-05 0.41871 0.1992 -5.0659e-05 0.26272 -7.813e-05 -1.4388e-05 0.37039 0.00042097 0.001168 -0.00017384 -1.5005e-05 0.0025783 -6.2092e-05 0.00018691 -1.2854e-05 0.00027144 0.00011449 0.0022396 -0.00023644 0.0001837 2.0352e-05 0.1863 -0.00032065 9.81e-07 5.3159e-06 0.00028492 -0.0004136 -0.00014269 0.00020915 2.6772e-05 0.3485 -0.00026126 -9.9225e-05 -3.4798e-06 -3.2438e-05 -0.00011634 -1.1086e-05 -5.5849e-05 -8.4232e-05 -5.7079e-05 4.0945e-05 -2.628e-05 4.0222e-05 0.00054209
7.6962e-06 -2.1673e-07 -1.5854e-07 -2.0142e-08 -1.3386e-07 2.2028e-07 -4.6363e-05 -3.8792e-06 1.9845e-06 -1.4539e-05 -1.28e-06 1.3623e-06 3.6192e-06 5.7489e-07 3.1343e-07 4.7224e-07 7.3996e-07 2.313e-05 -1.8756e-05 -5.4751e-05 6.8689e-07 -4.1723e-06 3.1138e-06 -2.2085e-06 -2.8146e-05 -1.966e-05 -0.00030973 7.2625e-06 9.0831e-05 7.1216e-07 -1.8792e-06 -7.1446e-05 -5.6549e-05 -5.1327e-05 9.4926e-06 6.3142e-06 -2.3737e-06 -1.1604e-05 -3.1556e-05 -1.2061e-07 -0.00030154 4.1483e-07 -6.3883e-06 1.6563e-05 -6.9396e-05 2.0782e-05 4.1606e-06 -2.7575e-07 0.78441 1.3119e-05 -2.715e-06 2.4887e-06 1.4242e-06 1.1057e-05 -0.0036981 -1.2975e-05 -4.3898e-06 1.4749e-05 2.6252e-05 5.0608e-06
9.6674e-07 -9.4937e-06 8.7548e-06 2.9331e-06 -3.2842e-06 5.5808e-07 0.00080674 -3.8094e-05 -0.00013388 3.5574e-06 0.0004623 6.546e-05 2.7641e-06 -5.9236e-05 -6.3931e-06 -0.00012633 0.00096951 0.23736 -2.7609e-05 0.0021868 -4.3745e-05 -1.4617e-05 0.013008 0.0004074 0.0016896 3.7884e-05 -2.9097e-05 0.0035775 -0.00018413 0.00031111 -5.0278e-06 -6.4282e-05 0.00048875 0.0028038 7.9879e-05 0.00021309 2.734e-05 0.22208 -0.00025624 -1.7824e-07 -1.2084e-06 0.00036844 -6.9965e-05 -0.00012984 0.00030295 -0.00018457 0.41385 -0.00033527 7.9031e-05 3.6605e-05 -2.4104e-05 -0.00024822 -4.044e-05 6.4744e-05 0.00014254 -3.6085e-05 3.9449e-05 0.00019513 -9.1543e-05 0.0017314
-6.4164e-06 8.2949e-06 3.9849e-05 0.20488 2.8086e-06 5.0184e-05 -4.057e-05 0.21692 0.20959 -4.226e-06 0.19297 6.7142e-07 0.13484 3.3946e-05 -3.3105e-06 0.18167 0.00077879 0.17171 0.19232 1.0117e-05 -4.6749e-05 2.0557e-05 0.0010884 0.0003319 -0.00026345 -4.3545e-05 -3.4892e-05 -6.9281e-05 0.23878 -2.2744e-05 -6.6407e-05 0.00018267 -1.6412e-05 0.1647 0.00028719 -1.8277e-06 -2.0507e-05 0.172 -7.7737e-05 3.6139e-05 8.0878e-06 -4.516e-05 -3.516e-05 2.7303e-05 -2.2067e-05 -0.00016041 -0.000274 0.29079 -4.1891e-05 -6.798e-06 1.9501e-05 0.23916 1.0088e-05 0.30493 -5.5276e-05 -0.00080341 1.9996e-06 -8.0266e-05 -5.202e-06 0.00056375
-2.9838e-06 -7.2021e-06 0.00020643 3.4023e-06 1.2911e-06 -7.2355e-06 -2.5589e-05 -5.4581e-06 -0.00011869 0.00014534 -8.5665e-05 -1.088e-05 0.00022254 0.00013771 5.9307e-07 -7.4103e-05 0.00020801 0.0003826 7.2664e-07 -0.00082329 0.0025029 1.2228e-05 0.0016906 6.6201e-05 0.0015234 2.4559e-05 0.0058328 0.00022018 -0.0004651 -6.7392e-06 1.7459e-06 0.013477 0.00018793 0.0032505 -7.2508e-05 7.2809e-06 -0.0004721 0.0015908 0.00088706 1.0848e-05 -6.5371e-06 -2.277e-05 -1.1331e-05 -0.00013296 2.9758e-05 -0.00024009 -4.2629e-06 4.9467e-05 -0.00010232 1.208e-05 6.4465e-05 -0.00011403 -1.8805e-05 7.539e-06 0.00012033 8.1826e-06 -7.6465e-05 4.7408e-07 1.3505e-05 -4.644e-06
0.19556 -8.0844e-06 7.6224e-06 2.1279e-06 -6.1295e-07 9.4787e-06 -4.158e-05 0.31582 -3.2222e-05 4.3664e-07 0.00042455 6.0165e-06 0.002526 -5.7121e-06 6.2607e-06 4.2515e-05 0.00021897 -6.5878e-06 -5.8414e-06 4.2074e-05 0.0024124 -2.8404e-05 0.0001131 6.7251e-05 0.00024818 -1.4574e-05 -8.243e-05 -0.00032045 -7.1542e-05 0.39652 -3.1827e-06 -6.6267e-05 -4.0588e-06 0.0022473 -1.3642e-05 0.00021382 0.021967 0.00055141 -0.00024281 -0.0001264 -8.5672e-06 0.35701 -9.61e-05 8.0422e-06 9.8394e-06 -8.5185e-05 3.8685e-05 -8.0989e-05 3.1203e-05 1.7853e-05 0.00031062 5.7945e-05 -6.3334e-06 -2.5385e-05 1.8466e-05 -1.3077e-05 -2.9138e-05 -8.0226e-06 2.4485e-05 0.00070983
0.19556 -2.4598e-05 -9.2769e-07 8.1704e-07 -5.462e-06 2.5342e-05 0.0014826 -1.7866e-05 8.1633e-06 -1.5489e-06 -0.00010049 1.4437e-06 0.19689 0.00024439 9.5565e-06 4.1682e-05 -4.774e-06 -0.0001103 1.1107e-05 -7.2114e-06 0.36149 -6.8403e-05 -3.8319e-05 1.3837e-06 -2.4864e-05 -0.00023681 -4.5956e-05 -0.00014434 3.7342e-05 9.8804e-05 -6.068e-08 -6.7073e-05 -3.9225e-06 -6.402e-05 -3.2934e-06 -1.9163e-05 0.43446 -6.4598e-05 -0.0001683 -0.0001744 1.3091e-05 0.35598 7.9306e-07 2.0199e-06 0.006333 -0.00075305 -8.0202e-06 -3.4961e-05 2.7608e-05 2.0707e-05 -0.49959 8.4215e-05 2.1386e-06 1.2286e-05 -5.2301e-05 1.0421e-06 -0.0014851 -5.6295e-05 0.0050918 -0.00021954
1.5961e-06 -1.2059e-07 -1.4444e-05 -2.5771e-05 1.7579e-06 6.0768e-07 -7.8415e-07 -8.4649e-07 4.6211e-06 -3.021e-06 -9.5237e-06 3.2278e-06 -1.1674e-05 -2.4241e-05 4.3423e-07 4.2934e-05 0.60041 -0.00015352 0.0032002 -7.7572e-05 -3.5429e-07 -1.0906e-06 -0.00019733 6.4359e-06 2.6106e-06 -5.2091e-06 7.9623e-05 0.0002268 -0.00010313 -0.00011487 1.2701e-07 2.164e-05 0.00037083 3.0567e-06 -1.6916e-05 -5.9204e-06 6.2426e-06 -5.5611e-05 0.00041717 4.4945e-07 -4.061e-07 1.8296e-05 -0.00058282 -4.2442e-05 -3.1641e-07 4.2173e-06 0.0012612 1.5507e-06 -1.5695e-05 3.3144e-05 3.2991e-07 7.8546e-05 7.6323e-07 3.4837e-05 0.00087037 -5.6267e-06 1.364e-06 0.001194 -1.9733e-07 5.8776e-06
-4.9719e-06 4.1552e-05 -3.393e-05 2.2045e-06 -4.976e-07 9.2863e-05 -2.7424e-05 2.4996e-05 -3.2376e-05 -2.2113e-05 1.601e-06 1.1952e-06 0.23277 -3.0362e-05 5.3373e-06 -0.00012929 4.4428e-05 1.1733e-05 0.00013777 0.40671 -9.5301e-05 8.5402e-06 -0.00015136 3.1285e-05 -4.183e-05 -6.4297e-05 -1.7251e-05 -0.00015595 0.41102 -7.1795e-05 -1.2576e-05 0.48778 1.6794e-06 -1.8038e-05 -0.00037064 0.5847 -2.1236e-05 -0.00013739 1.8916e-05 -1.4876e-06 1.1627e-05 -2.1471e-05 1.3929e-05 -2.2149e-06 -1.1828e-05 -0.00014616 1.074e-05 -1.3562e-05 -0.0001735 -4.2214e-06 1.5771e-06 -0.00012119 -4.4203e-07 5.2518e-05 -0.0001008 3.5048e-05 6.1888e-06 2.0412e-06 -1.0747e-05 -5.0331e-05
0.16534 -5.3309e-06 8.3467e-06 0.25092 1.2202e-05 -3.0029e-06 2.7729e-06 -2.9658e-05 0.26271 -3.0188e-06 0.2364 1.9549e-06 3.4686e-05 4.3579e-06 -0.00011211 0.22963 1.1384e-05 -7.3346e-05 0.23496 -0.00093816 2.0937e-05 4.7533e-05 -7.039e-05 -3.3293e-05 -3.9447e-05 -2.3255e-05 -0.00023309 -0.0003971 0.0013359 2.4967e-05 -6.3337e-05 6.2152e-05 9.0088e-06 0.20219 -0.34951 8.1764e-06 3.2328e-05 0.001845 -2.772e-05 1.176e-05 4.4352e-06 -2.1019e-05 2.2654e-05 4.8305e-05 -3.3142e-05 -3.8723e-05 -0.00010815 -0.00043911 1.3843e-05 6.535e-05 -3.3877e-05 0.30076 2.4917e-06 4.0419e-05 -3.4693e-05 0.00019879 2.2171e-06 -6.9072e-05 7.2663e-06 0.00040544
1.2344e-07 -1.2856e-05 -3.1198e-06 2.3909e-05 -1.0266e-06 -1.954e-06 1.0581e-06 -1.0593e-07 0.38501 -6.1241e-07 8.3197e-05 -2.2103e-07 2.2322e-05 1.8102e-06 0.42306 0.47401 -1.6222e-05 2.1288e-06 -1.5413e-06 8.1716e-05 -1.6631e-05 -5.6757e-06 -1.1733e-05 -6.4238e-06 1.0217e-05 -2.0636e-05 4.4058e-05 7.4532e-05 0.00047208 -1.6912e-06 -1.4471e-05 -2.4661e-05 -2.0787e-05 0.00030645 5.632e-05 3.9452e-07 9.6403e-05 4.2627e-06 1.3033e-05 0.75581 -2.9347e-07 1.2896e-05 -1.1016e-05 4.7547e-05 6.2547e-05 -7.558e-05 5.9496e-06 0.00012868 5.8917e-06 -1.4041e-05 -3.3525e-05 -0.25743 -4.9792e-07 -4.2817e-06 -5.3319e-05 -5.1184e-06 -1.0545e-05 -8.1583e-07 1.3199e-05 -1.3191e-05
0.2061 -1.8668e-06 -5.6827e-07 1.1514e-06 -6.92e-06 2.7598e-05 -7.8277e-06 6.2687e-06 8.6157e-06 -7.3939e-07 -0.00010694 2.0058e-06 0.2075 -2.4925e-05 9.7303e-06 4.5972e-05 -6.8441e-06 -0.00010669 1.1574e-05 2.2511e-06 0.38099 1.2189e-05 -2.0587e-05 1.0244e-06 -3.5963e-06 -1.5721e-05 -4.7103e-05 -2.8383e-05 -4.6346e-06 0.00018075 -3.2833e-06 -6.8073e-05 -4.9406e-06 -5.1477e-05 -3.6899e-06 -1.8634e-05 0.45653 -6.9705e-05 -0.00016512 -0.00013495 3.5801e-06 0.37472 9.5879e-07 8.6991e-07 -9.2356e-05 -3.4335e-05 4.2253e-06 -3.6871e-05 4.1168e-05 4.0002e-05 -0.52442 9.0407e-05 5.9837e-07 1.1669e-05 -1.84e-06 -6.5399e-06 1.1959e-06 8.21e-06 4.1548e-05 -4.4532e-06
-1.6941e-07 -1.3829e-06 -8.8175e-07 -3.9095e-06 -2.7459e-07 -1.1142e-05 -7.8986e-06 4.4046e-06 1.0209e-06 1.5388e-06 2.2177e-06 -2.7099e-07 -1.0539e-05 0.0019414 4.7543e-08 4.1494e-06 -2.7312e-05 0.0012638 8.4706e-05 -6.6756e-05 -5.5198e-06 1.0668e-06 -5.6058e-06 -1.3002e-05 -2.706e-05 2.1666e-06 1.3423e-07 1.9595e-06 5.5427e-06 2.2446e-07 5.0863e-09 0.00045526 -9.4673e-07 -3.9356e-05 -2.2093e-08 3.5142e-06 1.1928e-06 0.0014453 -1.7679e-05 5.6949e-07 -6.2375e-07 -1.5197e-06 1.353e-06 7.0575e-07 1.1197e-06 -1.0864e-05 -6.6549e-05 1.1573e-05 -6.9762e-06 -5.4054e-07 -9.5336e-07 8.6806e-06 2.6823e-07 2.0255e-06 2.1496e-06 8.4721e-07 -1.1574e-06 -2.6746e-07 -2.1928e-06 1.106e-05
9.7812e-07 1.8108e-06 -3.344e-07 1.826e-07 -3.9839e-07 -2.4789e-07 -7.3808e-06 -5.5983e-06 4.3708e-06 0.000301 5.7248e-05 0.34063 -4.8358e-07 -1.2717e-05 6.2869e-07 1.3665e-05 1.8932e-06 2.0333e-05 1.771e-05 -6.1257e-06 2.021e-06 1.1872e-05 6.8905e-06 -2.6045e-07 0.27382 -3.0865e-06 -3.8173e-05 -9.8257e-05 -4.5635e-06 1.0017e-05 -3.5199e-06 -4.5315e-06 -9.2951e-07 2.7498e-05 -2.2946e-07 -3.3266e-07 -2.3475e-07 -1.7535e-05 -8.9786e-06 -3.4951e-07 8.7207e-05 -4.8218e-06 2.6894e-05 -9.5212e-06 -7.117e-06 -1.6803e-06 1.6158e-05 -0.00026134 -7.6946e-05 -3.6901e-06 -7.7763e-07 1.5988e-05 3.3949e-06 -0.00010922 -1.1223e-05 -0.00018121 2.0744e-06 -1.4121e-06 3.9739e-07 8.0991e-05
3.111e-05 4.1801e-06 1.8752e-06 -2.0509e-06 8.733e-07 -2.6015e-05 0.3125 -3.0864e-05 -2.7469e-05 0.00031602 1.1258e-05 -3.4629e-06 0.21791 0.45487 -1.2422e-05 -1.2445e-05 -2.5731e-06 -4.0751e-05 -2.8907e-05 0.0013122 2.7612e-05 -8.0695e-05 -8.9177e-05 0.00014017 -0.00013902 -0.00051709 -6.691e-05 -0.00060108 0.0010458 -7.8479e-05 -6.1287e-07 -0.00023743 -7.0051e-06 2.2323e-05 -0.00039063 1.0115e-06 0.0014152 -1.6036e-05 0.00043904 -2.6038e-05 1.3247e-05 0.00055647 -8.4589e-06 -0.00013804 0.48494 -0.00061929 -8.2132e-06 -3.3783e-06 0.00090833 -7.0258e-05 -0.0021609 -4.8583e-06 1.6102e-05 1.992e-05 0.00095577 1.8603e-05 -0.0017499 -7.1107e-05 0.0054941 -0.00033172
2.7514e-06 7.8191e-06 0.23012 4.8301e-06 -1.1464e-06 -3.8137e-06 2.6806e-06 3.1511e-06 -4.7148e-05 6.7985e-05 0.26674 -2.981e-07 0.18605 -1.5253e-05 -2.3938e-06 -3.8409e-05 0.00021112 4.2132e-05 -2.1801e-05 -0.00010423 -3.4003e-05 -9.847e-06 0.00023418 5.0636e-05 0.00025775 -2.8278e-05 -3.155e-05 -8.4058e-06 -0.00016007 9.5881e-05 -6.1274e-06 0.0016715 -2.198e-06 0.0023657 9.0858e-06 0.46701 -4.1813e-05 0.00044564 -3.7707e-05 -3.3591e-06 -4.0163e-06 0.00039058 -1.0896e-05 -9.3055e-06 2.4676e-05 -2.3986e-05 4.406e-05 -9.4602e-05 0.00046444 -5.4479e-07 -9.1308e-06 -9.0058e-05 -4.0656e-06 -7.4825e-05 0.00013262 5.4561e-05 -2.3755e-05 -3.7253e-05 6.7635e-06 0.00082915
3.5723e-06 -2.7742e-05 0.00030319 -5.7542e-06 -7.1746e-07 6.6757e-07 -7.16e-05 5.9319e-06 -5.9792e-05 9.0301e-05 0.00061733 4.9384e-06 0.00015016 -3.6298e-06 3.2723e-06 -0.00014191 0.0011633 0.25867 0.00091547 -0.0011438 0.0015617 5.3108e-05 0.0018956 2.8683e-05 0.00011531 -9.5898e-05 0.00017799 -8.0717e-05 -0.00095965 8.1617e-05 -6.1476e-06 0.020232 0.00026565 0.0024876 -5.3725e-05 0.00022611 -0.00028318 0.25601 -0.00010374 5.315e-06 1.5317e-07 0.00044229 -5.7734e-05 -7.5032e-05 0.0034565 -0.00027794 0.00035093 -0.00025663 -2.2753e-06 -1.9121e-05 1.5033e-06 -0.00028308 1.1712e-07 -5.2179e-06 -4.5235e-05 -4.671e-05 -0.00010719 -6.219e-05 -4.5989e-05 0.00077492
-1.3037e-06 -5.3089e-07 -1.2876e-05 -3.8849e-05 6.4053e-08 -4.1574e-06 0.00024579 1.6751e-05 5.1447e-05 0.32177 0.00014166 -1.0903e-05 1.3963e-05 -1.597e-05 1.5943e-05 -6.5036e-05 6.1141e-06 0.00010809 0.0012084 -0.00081635 -0.00012475 -1.3131e-06 -1.3149e-05 6.2281e-06 -2.4456e-05 3.0903e-05 -0.00036259 -3.0466e-05 -0.00016075 -7.2738e-05 -1.5029e-06 0.40491 -5.6564e-06 8.1853e-05 -0.00012417 -0.00013499 3.5884e-05 -0.00011405 -6.029e-05 1.6285e-07 -7.9362e-05 2.7968e-06 -3.9782e-05 0.00047403 -6.1701e-05 -4.2088e-05 2.7472e-05 -3.6078e-05 0.31811 0.00017255 -2.0235e-05 -0.00013449 1.5451e-06 1.8447e-06 0.44562 -1.0928e-05 3.1858e-05 5.1094e-05 -2.6849e-05 -1.2178e-06
0.19562 1.3221e-05 8.7575e-07 1.0574e-05 -6.1202e-07 7.905e-05 -3.4481e-05 -2.964e-05 -0.00014203 -2.4711e-05 0.00012005 8.4476e-06 -8.9369e-06 4.693e-06 -5.8493e-06 -0.00036625 -1.3337e-05 -1.4077e-06 -0.00011472 -0.00016816 7.3809e-06 -5.4913e-05 -6.4673e-06 -3.3788e-06 -5.7184e-05 -0.00011218 0.28782 -6.4638e-05 0.35547 -8.0677e-06 -3.9304e-06 0.00012627 -8.1004e-06 -2.9954e-05 -0.00031412 -0.0001216 1.1563e-05 -6.5733e-05 -0.00011915 -7.3338e-07 -1.4157e-05 4.0795e-06 0.00026325 1.8942e-05 -4.0008e-05 -0.00021451 5.3913e-06 -5.9589e-05 0.0011473 7.7334e-06 -1.1434e-05 -0.00030433 4.3108e-06 -9.3575e-05 0.47507 -2.9976e-05 4.3155e-05 -4.6876e-05 2.5453e-05 -1.3624e-05
6.9281e-06 -1.5775e-06 7.0569e-07 0.26046 9.9184e-07 6.7093e-05 -1.647e-06 -3.5893e-05 0.26709 -5.6394e-06 0.24523 4.078e-06 0.17148 4.1962e-05 2.2285e-05 0.228 -1.4757e-05 1.6281e-05 0.24398 -9.8964e-06 7.7296e-06 7.0051e-07 -5.1891e-05 -1.2147e-05 -0.00047452 -0.00015818 -7.5136e-05 0.00012099 0.31657 8.1778e-06 -6.8116e-05 0.0001192 -2.5022e-05 0.20872 -0.00032724 9.1569e-06 -5.1139e-05 -2.8999e-05 -3.2033e-06 3.4798e-05 1.3762e-05 5.414e-06 -1.623e-05 1.2133e-05 -4.0794e-05 -0.00035423 -3.4614e-05 0.36894 -4.0241e-05 7.0049e-06 5.3164e-05 0.29854 7.5767e-06 0.38682 -0.0015591 -0.0011897 5.5421e-05 -8.0691e-05 0.00014014 0.0003543
1.0801e-05 1.473e-05 0.19104 1.1776e-06 -5.0004e-06 -4.0429e-06 5.5116e-05 5.6133e-05 -3.696e-05 0.26684 -3.3641e-05 0.00015981 0.00029479 0.00048445 -1.4097e-05 -9.3321e-05 0.00021106 6.2651e-05 0.00011775 0.0005602 0.0015336 5.6004e-05 0.00081287 -2.1507e-05 0.00078638 0.00010482 0.00027104 0.0017694 -0.00012754 0.0012171 2.7398e-05 0.33603 7.6353e-06 0.00025324 0.00020214 -5.3455e-06 -0.00030389 0.001481 -3.3557e-05 7.0836e-06 -7.3519e-06 -1.3534e-05 -2.5962e-05 -8.6464e-05 -9.9227e-06 0.00017333 4.9357e-06 -4.2213e-05 0.00021106 2.7651e-05 7.4781e-06 -0.00019839 -7.1993e-06 -1.0851e-05 5.7255e-05 9.2362e-06 0.00017402 -5.1518e-06 -3.526e-05 0.00012599
-5.3495e-06 0.38782 0.31151 -7.3087e-07 7.3285e-09 0.40134 0.00012914 1.6859e-06 1.1398e-07 -1.3736e-05 8.0806e-07 -5.0144e-06 -8.2316e-07 2.1503e-05 8.9555e-07 2.4969e-06 -7.0849e-06 -6.538e-06 -3.5946e-05 -9.968e-06 2.1028e-05 1.4904e-05 -2.7336e-06 2.154e-05 4.7699e-06 0.094836 3.2143e-06 8.34e-06 -2.8107e-05 -3.4057e-06 -3.493e-06 -4.5186e-05 1.6262e-06 -1.291e-05 6.4242e-06 -1.6225e-06 -4.4002e-06 -1.453e-05 -2.3084e-05 9.9624e-06 7.0993e-05 3.2794e-05 6.3432e-06 -2.8004e-06 0.55054 0.2601 7.7817e-07 6.7729e-07 -3.6037e-05 -1.4713e-06 0.00015787 3.2763e-06 2.7311e-06 -1.3014e-06 -2.1781e-05 5.9951e-06 0.43031 6.188e-06 0.75244 2.518e-05
-5.4668e-07 -3.6211e-06 5.9196e-05 1.2786e-05 3.0793e-06 -1.973e-06 -5.1536e-05 0.33133 0.0015302 -2.5832e-06 0.00020568 -4.4902e-06 0.00063913 -1.2307e-06 -2.5487e-05 0.0049512 0.0012048 0.26224 0.00021624 -0.00018771 -8.4349e-05 1.3995e-05 0.001704 0.00052354 0.00011904 1.0995e-05 -1.4876e-05 -0.0002396 0.0019144 -3.9594e-05 -3.4049e-06 -2.485e-05 7.4371e-06 0.0024717 0.00038137 5.5719e-06 1.645e-05 0.26278 -0.00020104 3.2586e-06 -6.4679e-07 -5.3398e-05 -3.5181e-05 3.7766e-05 -1.793e-05 -8.0194e-05 -0.00035976 0.0011548 1.0555e-05 -1.8124e-05 2.1999e-05 0.0093434 9.5317e-06 0.0010659 -4.9949e-05 0.00014829 8.224e-06 -4.2941e-05 4.1019e-06 0.00040484
2.276e-05 2.7174e-06 -1.0815e-06 6.6993e-07 7.8249e-07 -1.0614e-06 0.00011132 1.4953e-06 -6.2413e-06 0.00044044 4.7448e-06 0.50497 4.522e-05 -3.7694e-06 4.5417e-06 -5.6222e-06 0.00097622 9.1257e-05 2.0652e-05 -1.0265e-05 -1.3658e-05 1.7258e-05 -7.8611e-05 -3.9956e-06 0.0020132 1.5385e-05 0.00014118 -0.00078968 7.6835e-05 0.00055572 6.7185e-06 -3.3012e-07 2.6891e-05 -7.27e-05 -1.5553e-05 -4.4981e-07 -1.2921e-05 0.00031087 1.6439e-05 -6.2537e-08 -1.8759e-05 -8.3621e-06 0.65656 -3.0293e-05 -8.0587e-06 -1.0836e-05 2.5561e-05 9.7713e-06 -0.00010347 -8.9997e-06 -2.4408e-06 -8.3565e-06 -1.393e-05 -0.00018044 4.5314e-05 -9.3678e-05 -3.7269e-06 1.8229e-05 -6.9077e-06 -0.00012451
3.4372e-06 -9.4695e-07 0.25445 1.8421e-06 -1.2298e-06 -7.6019e-07 4.0261e-06 3.0634e-06 -6.5159e-05 -7.8353e-06 0.29532 -2.7029e-08 0.20583 -1.5521e-05 -2.9845e-06 -3.534e-05 0.0002313 3.6249e-05 -0.00017285 5.3492e-05 -4.2426e-05 -2.5986e-06 0.00014846 6.3979e-05 0.00028725 -1.5374e-05 -1.9939e-06 -1.7878e-05 -5.9235e-05 0.00011277 -6.4458e-06 -2.8438e-05 -8.5377e-08 0.0024681 3.5967e-05 0.00024977 -4.5119e-05 0.0004853 -2.4905e-05 1.3882e-06 -3.8896e-06 0.00039676 -1.1659e-05 5.219e-06 1.7099e-05 2.458e-05 6.24e-05 -0.00030595 1.478e-06 1.0815e-05 4.4032e-05 -8.3545e-05 -4.5928e-06 -8.7406e-05 3.8021e-06 3.604e-05 -1.5048e-05 -0.00012073 7.6914e-07 0.00093689
2.6262e-07 -7.1901e-07 3.2228e-06 4.8247e-08 2.9054e-07 4.9511e-05 -2.4157e-05 1.8106e-06 4.1851e-05 6.1293e-05 2.3798e-06 -9.3354e-06 2.0169e-05 2.5851e-05 0.54612 -2.0356e-05 5.1477e-06 7.7623e-06 3.5245e-07 -3.9413e-05 5.267e-05 -5.2337e-06 1.5268e-05 2.2574e-05 6.2748e-06 0.00025094 -3.1854e-05 -0.00011017 4.0187e-05 3.45e-06 -2.4773e-07 8.0965e-07 -5.1926e-05 6.6219e-06 -3.0616e-05 -8.009e-06 2.4539e-05 -4.4222e-05 0.59319 5.5345e-05 6.298e-07 4.3485e-05 -2.6473e-05 0.67824 -6.1524e-05 -0.00027493 -6.3603e-06 -7.1999e-06 -4.5179e-05 0.00013646 -9.0647e-06 0.00028841 6.0479e-08 2.0637e-05 -8.7396e-05 4.4399e-05 3.0454e-06 -0.0001125 -1.5388e-06 -8.5768e-06
5.3957e-07 3.2631e-07 4.3923e-06 -2.7215e-07 -2.0682e-10 -9.6989e-07 3.3499e-07 2.2886e-07 -3.902e-06 7.0246e-08 1.8414e-05 3.1408e-08 9.9607e-05 -4.5495e-07 -4.3474e-07 3.0432e-06 -1.2612e-06 -1.9202e-06 3.0241e-08 1.1168e-05 -2.957e-06 -1.0414e-06 5.8669e-06 2.5598e-06 -1.2998e-06 6.0422e-07 -1.4528e-06 1.9422e-05 6.2569e-07 -1.2963e-06 1.8015e-08 2.9673e-05 1.5166e-07 -1.2107e-05 2.2889e-06 3.6136e-05 -1.0208e-05 -1.3113e-06 -7.1973e-06 -1.5121e-07 -9.5685e-08 1.5253e-05 -1.0194e-06 9.5559e-08 3.0978e-06 1.5912e-06 1.4908e-06 -3.3359e-05 1.4614e-06 -4.756e-08 -3.0599e-06 -1.5701e-06 -4.2808e-08 -4.1294e-06 2.1743e-06 -5.9518e-07 -2.183e-06 6.2182e-06 2.4568e-06 5.5382e-07
0.00010985 2.8151e-06 9.6871e-06 -6.0853e-06 0.4476 1.571e-06 -5.1431e-05 6.445e-06 0.00091881 -7.7535e-07 0.00026154 -9.2779e-07 0.0005611 -1.1821e-05 0.00036548 0.00033758 -0.00012959 0.22239 8.6909e-05 -0.0001413 0.002862 0.00011128 -0.00072228 -4.2559e-05 -5.4567e-06 0.00018047 0.00071883 0.32451 5.5307e-05 -0.00012291 -3.1291e-06 -1.0742e-05 0.38455 0.00078893 -0.0013123 -2.6573e-06 -0.00020495 0.22339 -0.0001263 -6.3181e-06 1.4059e-05 -0.00010671 0.00054733 -0.00012599 -1.0383e-05 -0.00011998 -0.00017238 -0.00010747 -5.089e-05 0.41003 8.9456e-05 0.00085669 -1.6753e-05 0.00020224 5.1345e-05 0.00042578 6.6391e-05 8.1391e-05 1.2074e-05 0.00010212
