-1.1584e-05 -6.2053e-06 0.33987 3.7892e-06 -6.1737e-06 0.46644 -1.7021e-06 7.6655e-07 2.242e-05 -2.1131e-07 -1.6456e-06 -1.6605e-05 -6.6382e-05 -2.7636e-06 -1.1401e-05 -3.1584e-05 9.0859e-06 -3.9115e-05 -1.2949e-05 7.6003e-05 1.1055e-06 -1.5261e-05 -0.00035609 4.9659e-06 9.029e-05 0.2892 -8.7577e-05 -7.6778e-05 -3.0812e-06 -0.00014329
3.7937e-07 6.0613e-05 9.5869e-07 1.1485e-06 0.00012356 -4.3734e-06 1.1552e-06 -3.2282e-06 2.9934e-05 -1.8388e-06 -3.1237e-05 -1.497e-05 3.0779e-05 -2.3698e-05 0.50964 7.1373e-06 1.1583e-05 5.0037e-06 -3.3403e-05 -8.7192e-06 5.3897e-07 0.001467 -0.00012735 1.2706e-05 4.1311e-05 0.00042083 0.00022309 -8.6632e-06 4.8026e-06 -3.706e-05
5.7036e-06 9.6566e-05 1.3418e-06 0.25144 0.17843 -6.647e-06 -5.8694e-06 -4.2435e-07 -3.7564e-06 -1.8291e-05 9.4474e-05 0.00060659 0.00017183 0.00071989 4.784e-06 -5.7815e-05 0.00049092 -3.3586e-05 -4.7859e-06 0.23778 -1.1386e-05 2.4224e-05 1.4133e-05 0.0018776 0.00068929 0.00035962 -0.00016453 0.0010729 -2.8227e-05 0.00023056
-2.6565e-06 7.2409e-07 3.7494e-05 -7.4313e-05 -1.575e-06 -7.1077e-06 1.5046e-06 1.8156e-06 2.2935e-05 1.0456e-06 0.00023136 8.5305e-05 0.00057354 -5.3878e-06 -5.8134e-06 -0.001242 -0.00015709 0.0099063 -2.0691e-06 0.00028267 1.2153e-06 -5.3021e-06 0.00038097 -1.6357e-05 -0.0005551 0.0013275 3.5408e-05 0.25933 -4.0718e-05 0.0011409
-6.7266e-06 -2.2616e-05 5.6725e-06 -6.9459e-06 1.8417e-05 0.31251 5.2222e-06 1.6504e-06 1.3209e-05 -1.4802e-05 -7.4663e-06 -0.00020241 1.0807e-07 1.0641e-05 8.945e-08 0.39462 -2.7178e-06 0.0010237 1.2271e-05 4.1933e-05 -2.3654e-07 -2.6096e-05 2.0645e-05 1.5651e-05 0.00040495 -3.0225e-06 -0.00024182 2.0247e-05 1.5705e-05 -1.7068e-05
-2.1399e-06 0.17306 6.4705e-05 -4.852e-06 -5.7452e-05 -3.7071e-07 4.1747e-06 3.6455e-05 2.0165e-05 1.5948e-05 -1.9639e-05 2.6593e-05 0.007378 -0.00022166 0.40611 -0.00019682 0.00016679 0.0023143 0.7577 -5.3836e-05 2.1931e-06 0.41771 -0.00029987 0.00064902 -0.00020196 5.3844e-05 0.39626 0.00074532 -1.8905e-05 2.3684e-05
8.1992e-06 4.479e-05 9.3426e-06 2.5468e-06 0.00011306 -1.5542e-05 -1.1194e-05 3.3002e-06 -3.7663e-05 0.0014435 9.9048e-06 -0.00015684 -1.1322e-05 0.00031412 3.652e-06 -6.7832e-05 0.0011387 -4.6892e-05 -1.622e-05 -0.00014753 2.0712e-05 0.00024648 0.00079912 0.00037102 0.00095186 0.00074739 0.0024713 1.1092e-05 -7.062e-07 -7.4937e-05
7.3499e-08 -7.8638e-07 1.5567e-05 3.0681e-06 0.00036924 4.9283e-05 1.4906e-07 -4.2594e-06 3.806e-07 -7.6508e-06 0.00025491 4.1515e-06 -8.3079e-06 -9.7742e-06 -1.3161e-06 0.00091428 1.1299e-05 7.514e-05 -3.7368e-06 2.6177e-06 1.2945e-06 -7.9856e-06 -3.2835e-06 2.3261e-06 -7.5489e-05 -4.1517e-06 0.00067309 4.5631e-05 1.3475e-06 -7.7717e-05
3.8066e-06 0.00024765 0.00032257 0.00014478 5.2066e-05 -4.0219e-05 -2.3655e-05 -1.1463e-06 2.0172e-05 0.0010133 7.5913e-05 0.00069566 0.00017924 0.38055 1.4178e-05 -7.9481e-05 0.00073667 0.00035585 -1.8638e-05 0.0058643 7.3732e-05 -8.3473e-05 0.095753 0.0015295 0.0012513 0.15799 0.0022398 0.0015552 0.00023233 -0.00016792
2.416e-06 0.1578 -1.0315e-05 1.7565e-05 -1.0273e-05 1.7942e-05 4.2184e-05 -5.3532e-06 -1.8159e-06 -2.2097e-05 3.1121e-05 -3.4686e-05 -1.3517e-05 -4.2706e-05 -5.5627e-06 -1.9466e-05 -0.00016264 0.00014633 -1.718e-05 -0.00050882 3.7417e-05 0.00030966 0.43067 -5.4154e-05 -7.9121e-05 0.1734 0.00020527 -0.00010847 7.3187e-05 4.1946e-05
4.6507e-06 1.259e-05 2.6079e-07 3.8594e-05 -1.3524e-05 -5.9046e-06 -2.6381e-06 -6.5707e-06 0.00019548 0.00046784 2.2208e-05 0.0018133 0.00016522 -5.109e-05 -1.1735e-05 0.0036404 -0.00012111 -0.00047077 -2.0178e-05 0.0010419 -9.7304e-05 3.8142e-05 -2.4104e-06 -4.8707e-06 -4.815e-05 0.0017413 0.0019721 0.00057613 8.3188e-07 -5.2134e-06
-7.7695e-06 0.44245 -2.0516e-05 -1.1094e-05 -2.0869e-05 -1.2045e-05 1.0556e-06 8.2547e-05 0.00016019 0.00028061 -1.4677e-05 0.0011164 -0.0008412 -0.00022663 3.8272e-05 -0.00024009 0.00019967 -5.6093e-05 -8.1937e-05 -0.00023356 -9.0684e-06 0.0046516 -0.00026466 0.00077545 -0.00020134 0.0016221 0.49853 6.5673e-06 -1.3446e-05 5.7943e-05
-3.856e-07 2.5416e-05 2.5853e-05 4.5561e-06 0.0001518 -1.1657e-05 -1.2422e-06 -1.3895e-05 6.3141e-06 5.6409e-06 -5.5906e-06 -8.0747e-05 0.59757 -9.3886e-05 0.00014476 0.0010009 0.00060965 -0.00021932 0.00073159 0.0012436 1.9561e-06 0.00032169 -8.0578e-06 0.0030452 -0.00014033 0.00061573 0.0074175 -3.1291e-05 1.4235e-05 -1.4866e-05
0.22036 0.00050697 0.31425 3.6239e-05 0.00026297 0.00013671 0.0076457 -3.3073e-06 0.0015839 0.00089204 0.00024353 0.00032474 0.00051277 0.0012684 -1.9112e-05 0.0028404 0.0007203 0.0010574 -4.8803e-05 0.00506 -1.9101e-05 0.00014866 0.00030722 0.001564 0.24685 0.13625 0.0024305 0.0020731 -0.00016374 0.002938
0.00076067 0.00053206 0.00042521 5.5246e-05 0.0004924 0.00040163 6.8136e-06 4.133e-06 0.0016373 -5.2815e-06 2.9517e-05 0.00074033 0.3438 0.0020783 0.00057692 0.0034447 0.0014611 -0.0002087 0.00055644 0.0050322 -1.0466e-05 5.3553e-05 -8.6457e-05 0.0032624 0.00083192 0.0038764 0.010924 0.0017879 1.4985e-05 -0.00035597
0.31634 -3.8656e-05 0.21951 -8.319e-06 3.0028e-06 -4.0506e-06 0.32399 -2.1857e-07 -7.3045e-05 0.00013235 1.6239e-05 6.8403e-05 -2.2456e-05 -6.6808e-07 1.8553e-06 -4.6332e-06 1.0667e-05 -0.0003309 -8.0505e-07 0.00012555 0.63198 -0.00015114 0.33867 7.455e-06 1.173e-06 -0.0015727 -0.00049875 -4.2899e-06 0.00019264 0.0013972
0.30459 -3.5538e-05 0.21069 -2.8356e-05 0.2118 -1.3485e-05 0.31116 7.1163e-07 -5.5807e-05 -6.4488e-07 -8.7392e-07 1.7606e-06 -4.1566e-05 4.9588e-05 -8.0993e-06 -6.7047e-05 9.1836e-07 -2.1465e-05 -9.9004e-06 -1.3518e-05 2.7538e-05 3.8826e-05 -0.00027433 -2.7839e-06 -7.0299e-05 0.0004858 -8.3135e-05 -4.3443e-05 0.03915 0.55876
2.0022e-05 0.00021227 2.4378e-05 0.25736 -9.1738e-06 -4.6965e-05 8.1818e-07 2.0241e-05 1.2244e-05 -9.2094e-05 2.5946e-05 0.25082 8.5282e-05 0.00068952 -1.7124e-05 -0.00016481 0.30092 0.00029639 -2.2565e-06 0.24408 2.4318e-05 8.5398e-06 -0.00020578 0.3069 0.30966 0.15572 -0.00013475 0.24417 2.243e-05 -0.00013315
-1.6727e-06 9.4417e-06 3.5829e-05 1.2093e-06 8.9594e-05 0.00026126 -1.7721e-05 1.8449e-05 3.5097e-05 -8.5766e-06 4.6641e-05 3.0266e-05 0.00051491 0.34719 3.8205e-05 -2.8315e-05 5.0298e-05 0.00059389 0.00020259 -7.1639e-05 1.3452e-06 1.638e-05 0.00021717 0.00047093 6.8024e-05 0.0022324 0.00038705 0.00094121 -1.1526e-05 6.7803e-06
3.7502e-06 6.641e-05 2.9851e-05 -3.4511e-07 0.2753 0.00020621 -1.3992e-05 3.5609e-05 2.1441e-05 0.0022225 0.0021233 -0.00020138 -5.8492e-05 4.3206e-05 0.00038828 -0.00024395 0.00027783 0.00080506 9.3373e-05 -5.9475e-06 2.4684e-05 -0.00019838 0.072449 0.00086681 0.00054288 0.0034858 0.26382 0.00062034 -1.9653e-05 0.0017969
-2.2741e-05 9.0742e-07 0.29787 -1.5292e-05 -3.6174e-06 -1.0008e-05 3.3939e-06 -8.2673e-06 -1.6525e-05 -7.1797e-06 0.00010719 0.00045807 0.42985 0.00024365 1.6815e-05 -0.0017122 0.0011814 0.01942 -5.5822e-05 -1.336e-05 8.1829e-06 0.000104 0.0004195 0.00018391 -0.0010833 0.0009297 -0.00079177 0.0016005 -0.00012368 8.724e-06
-3.0293e-06 0.22108 8.2318e-06 1.9501e-06 -1.945e-05 -3.2167e-05 -1.6351e-06 -1.6741e-05 6.6331e-05 3.4888e-05 3.02e-05 2.2331e-05 -8.7331e-05 -0.00011422 -1.7126e-05 0.0006584 0.00081651 -7.2808e-05 -0.00014484 -0.00034029 -9.3265e-06 0.51792 -0.00032073 0.0029902 1.5096e-05 0.22816 0.0084946 -9.7125e-05 5.0865e-06 -9.8044e-05
0.476 -2.7294e-05 0.33072 -5.1323e-06 -1.2058e-05 -1.9337e-05 0.48868 9.4277e-07 -0.00011514 1.1258e-06 -1.7986e-06 -2.8233e-06 -3.1187e-05 1.7433e-05 4.5437e-06 -4.0605e-05 -4.193e-07 -4.0755e-05 -8.2287e-06 4.0834e-06 -1.1111e-06 -1.8218e-06 -2.0598e-05 2.9197e-06 -5.5281e-05 5.4967e-05 -1.0237e-05 -3.1606e-05 0.51418 0.0046911
4.0141e-07 -4.2563e-06 2.6899e-05 1.3576e-06 0.00027877 1.5992e-05 1.8164e-07 -1.2327e-06 1.1486e-06 6.2323e-07 7.1031e-05 5.2081e-05 0.0038456 4.6867e-06 -9.8494e-06 0.0013254 1.7093e-05 0.0011102 -2.3277e-05 9.1539e-05 5.1205e-07 -1.1791e-05 -3.2905e-05 1.9513e-05 3.3383e-05 0.00014083 0.0023538 0.00014185 4.7217e-06 -2.7391e-05
5.489e-06 0.00014223 -2.3546e-06 8.3615e-05 1.1495e-05 -5.7328e-09 -2.9334e-06 -6.4035e-06 -2.2799e-06 -9.062e-06 0.38936 0.00089224 0.00058204 0.0010523 -3.7859e-05 -6.5674e-05 0.0008577 -5.7895e-05 -6.0426e-07 0.33217 -1.5504e-05 -1.8282e-05 0.00013026 0.0026041 0.00090246 0.0019202 -0.00017731 0.0066671 -8.1466e-07 -2.5639e-05
-8.4855e-09 -8.155e-07 -1.0923e-05 4.9808e-06 0.0002068 2.5552e-06 4.4025e-07 0.00011682 4.1252e-06 0.38508 0.49109 -0.00069994 -2.0633e-06 2.904e-05 -5.527e-05 -6.2109e-05 4.7145e-05 -0.00012733 -1.0571e-05 -1.7742e-05 0.00018426 -3.2159e-05 0.00030304 -1.6867e-05 9.5984e-05 -7.196e-06 0.0012616 1.3881e-05 6.8776e-06 -4.0112e-05
2.7726e-06 0.00018015 5.9292e-07 4.1708e-05 0.00031741 5.9707e-06 -3.8109e-06 7.6055e-06 -1.5613e-05 0.0026587 0.0026829 0.00037233 0.00057951 0.0005766 2.6184e-05 -5.708e-05 0.00091652 -7.3077e-05 0.00075823 0.0045116 -8.0871e-05 -6.2574e-05 0.00012969 0.0012964 0.00086719 0.00080248 0.00097341 0.0009716 4.0564e-06 -4.866e-05
5.2756e-06 0.00012384 0.000159 3.8363e-05 0.00014157 0.00023513 2.0767e-05 9.6892e-06 3.1295e-05 -1.4619e-05 0.00014359 0.0007046 0.00069007 0.001118 3.9478e-05 -0.00011638 0.00046759 0.00086684 0.00016471 0.0069109 -6.9346e-06 0.00015322 0.00019774 0.0018409 0.0010373 0.0030908 0.00099222 0.20401 0.00019007 -4.0357e-05
-1.3471e-07 2.2544e-05 -5.309e-07 -3.6773e-06 -1.0622e-05 -5.7478e-06 -2.0374e-07 2.5077e-05 -5.6051e-06 2.9752e-05 0.0004192 8.2981e-05 5.7677e-06 -2.0731e-05 -7.3104e-06 -8.2947e-07 1.6341e-05 -4.3629e-06 -3.2941e-06 -0.00015272 -1.0441e-05 0.00014096 4.015e-05 2.4636e-05 2.4497e-05 0.0016662 0.00033495 0.00016614 -2.6296e-05 1.4807e-05
-2.7967e-05 0.25382 -1.982e-05 4.2328e-05 -2.9989e-05 -5.8744e-05 -4.3919e-06 2.1575e-05 0.69519 0.18784 5.0352e-06 0.20967 -0.00053109 -0.00021822 3.841e-05 0.0029601 5.1448e-05 -0.00043903 -3.621e-05 0.00088089 6.232e-05 -0.00017772 -0.00014189 0.00046289 0.0003484 0.0010322 0.28873 0.00048587 4.4976e-06 3.5635e-05
1.0654e-05 2.1966e-05 1.0842e-05 8.8848e-07 0.00029694 -3.3466e-05 -9.8451e-06 2.313e-05 3.4522e-06 0.0010049 0.00021926 0.00011333 -0.00038773 5.5556e-05 4.6019e-05 0.00018831 0.23583 -4.4184e-05 -2.8672e-05 -0.00020905 1.3722e-05 -0.00016363 0.00036579 0.038944 0.0047284 0.0024682 0.31849 0.0015059 3.5575e-06 -0.00011142
-8.8365e-06 -5.2356e-06 4.2985e-05 -8.5653e-06 3.1755e-06 -1.4111e-05 7.0554e-06 1.4083e-06 -3.4677e-07 -2.5891e-05 0.00064827 -0.00017193 -3.0288e-05 1.6657e-05 3.7168e-06 0.46127 6.8201e-05 -0.00018727 1.6648e-05 2.3874e-05 2.1658e-06 1.8869e-05 1.4516e-05 1.2832e-05 -0.00037996 -2.903e-05 -0.00024347 8.3353e-05 -1.5312e-05 -3.1089e-05
1.5538e-08 -1.1813e-07 2.4947e-07 -3.4542e-07 -4.9109e-07 1.6617e-06 -4.7629e-08 0.85754 1.0501e-07 1.2654e-07 -1.2856e-05 1.3824e-06 -9.5213e-06 -8.3311e-07 9.1573e-07 2.9884e-06 1.8114e-06 6.7214e-07 1.8606e-06 -3.8406e-06 1.6828e-09 -3.3423e-07 -7.6276e-06 -3.1844e-06 5.3824e-06 -7.4362e-07 7.6421e-05 2.3488e-05 3.5735e-06 -9.2315e-08
-2.1029e-05 0.10384 0.12449 0.17537 5.464e-05 0.00010053 -3.8923e-06 2.6249e-05 0.28272 -2.5455e-05 2.742e-05 0.00045719 0.0005095 0.00071722 0.00010179 -3.121e-05 0.00034502 -5.1854e-05 0.00014735 0.16681 -2.2214e-07 -6.1348e-05 0.00064841 0.0017055 0.00054287 0.0022821 0.00026985 0.16661 -0.00023107 0.00075488
6.2375e-05 0.17532 -1.1809e-05 1.5993e-05 0.0019012 5.176e-06 8.4391e-05 -3.9937e-06 -4.2415e-05 -2.4552e-05 3.5163e-05 -3.5142e-05 -2.9634e-05 0.00026843 -6.4004e-06 -2.8343e-05 -0.00016604 0.00015894 -1.7049e-05 -0.00054311 2.6432e-05 0.00026073 0.47992 -6.9014e-05 -4.7822e-05 0.19079 -3.6964e-05 -0.00014183 -0.0093835 0.05626
3.1462e-07 9.1484e-05 1.1612e-05 -8.6994e-07 0.0002145 0.00015473 2.7656e-06 0.00023449 2.59e-06 1.9504e-06 0.00011595 -8.7932e-05 0.00061615 0.0016717 0.0014907 -3.6514e-06 0.01313 -9.0616e-06 -6.1775e-05 -0.0011052 3.7224e-06 0.0010426 -0.00010427 0.0031953 2.2919e-05 0.00036886 0.0070577 0.00015371 5.5318e-06 -9.1527e-05
-7.1276e-07 0.3064 -1.3285e-05 2.7191e-05 4.6572e-06 3.1416e-05 -4.81e-06 -2.2281e-08 0.00013923 3.4504e-07 -1.11e-05 -4.8395e-05 -2.4148e-05 -1.9725e-05 -8.4389e-06 -1.3043e-05 -9.5758e-05 -6.4341e-06 -2.5049e-05 -0.00044355 -3.0863e-05 0.00029983 0.0064469 -9.5005e-05 -3.4208e-05 0.31682 -0.00021406 -0.0001733 -5.781e-06 -0.00010701
3.16e-07 0.00016391 9.4477e-06 -5.356e-06 6.9248e-05 0.001715 2.1594e-06 0.00022334 -3.6655e-05 1.7632e-06 0.00010863 -7.8752e-05 0.00058189 0.0016081 0.00053182 -1.4512e-05 0.016765 -5.1262e-06 -3.3569e-05 -0.0017046 3.2599e-06 0.0019823 -1.8314e-05 0.0043248 3.2231e-05 -2.1206e-05 0.0068948 0.00015329 2.3269e-07 -1.4436e-05
2.5295e-07 2.5791e-06 1.7468e-07 5.2424e-06 9.1202e-05 2.2941e-05 2.9164e-06 -8.2275e-06 -1.1794e-07 -5.3358e-08 -1.6005e-07 -1.328e-05 0.00072186 0.0018973 0.00076067 -7.7519e-06 0.0011919 -3.4808e-06 -1.7154e-05 -0.00012775 1.3174e-06 -2.0273e-05 -8.53e-06 0.001847 2.1052e-05 -2.0014e-05 0.0078856 2.4052e-05 1.9828e-06 -1.5995e-05
7.7956e-09 -8.7952e-06 1.9463e-05 -1.6362e-06 0.31412 -4.2428e-07 3.5017e-06 8.7465e-05 -4.4751e-06 -4.0462e-06 0.001012 -2.5997e-05 -3.9554e-05 -9.0834e-05 0.00035097 -2.6912e-05 0.00046452 1.8505e-06 -3.5303e-05 -1.0071e-05 5.2522e-07 2.0432e-05 0.00031209 0.00019606 3.8207e-05 -9.6728e-06 0.0037761 6.0417e-05 -0.00036263 0.002401
5.6025e-09 0.14979 0.00024189 4.7256e-06 0.17997 0.00024362 -1.3252e-06 3.5362e-05 9.9087e-05 -6.5857e-06 1.8817e-06 5.5288e-05 0.001464 1.0318e-05 0.0014617 0.00046973 0.00012436 3.2759e-05 7.875e-05 0.00051037 -3.1691e-06 0.34934 -0.00045722 0.00068749 7.4313e-05 0.15777 -6.9429e-05 0.00095292 -3.3925e-05 0.00018885
-1.6978e-19 -4.0101e-20 -7.7642e-20 5.6361e-22 -2.464e-18 2.2273e-20 4.5054e-19 -1.9917e-21 2.7304e-20 7.0195e-22 -3.9872e-20 5.2149e-20 4.3395e-20 -8.7294e-21 -9.8424e-21 -8.6388e-21 1.4612e-20 3.8913e-21 -3.5052e-21 1.3848e-19 -5.5527e-20 1.309e-19 -1.3441e-19 -4.204e-21 -8.6007e-19 -3.2851e-18 1.9842e-19 6.8839e-20 -4.4437e-16 9.738e-16
7.6459e-06 0.00015084 1.1296e-05 0.3763 9.5554e-06 1.5292e-06 -4.462e-06 -1.2514e-06 9.2529e-05 -2.6388e-05 5.6968e-05 0.00087525 0.00028688 0.0011156 9.4251e-07 -6.2883e-05 0.00055574 -4.7239e-05 -6.8569e-07 0.35962 -1.8991e-05 -1.8245e-05 5.0149e-05 0.0028092 0.0010117 0.00035869 -0.00018794 0.0022572 -5.8712e-06 -1.8817e-05
-1.5605e-05 6.9621e-05 0.21505 6.8723e-05 0.00052419 0.00029154 9.4406e-07 2.4373e-05 0.00013455 -1.5219e-06 2.4427e-06 -3.5826e-05 0.000662 0.00018046 0.00010962 5.1758e-05 0.013441 -5.9943e-05 0.00023669 -0.00013463 3.3881e-06 -1.8805e-05 0.00033243 0.0020253 0.00013525 0.0028746 0.001071 0.28541 -0.00014001 -9.3321e-05
4.8453e-06 -6.1516e-06 3.6229e-06 9.9893e-07 0.48213 -1.4003e-05 -4.2241e-06 -5.0257e-06 7.1778e-07 -2.2602e-06 -8.372e-06 -4.7784e-06 -4.779e-05 -0.00025834 0.2362 -9.3897e-05 0.00044736 -2.6949e-06 0.00030036 5.1014e-05 1.3587e-06 -2.004e-05 -2.7104e-05 0.000143 -3.8228e-05 -1.6359e-05 0.00093354 9.707e-05 -6.7362e-05 0.00071267
0.0015302 0.26495 0.00080295 2.1719e-06 6.4521e-05 0.43438 2.0601e-05 7.4833e-08 0.0033918 1.4683e-05 4.2331e-06 -6.5331e-06 6.1348e-05 -1.1305e-05 0.00037383 0.0038968 -1.3381e-05 4.4576e-05 -1.1317e-05 -8.174e-05 -6.7577e-06 7.9363e-07 -0.00029506 1.9883e-05 0.00019549 0.26996 -7.2652e-05 -4.735e-05 -7.3443e-06 -0.00076533
-2.7948e-06 -4.6706e-07 -1.8498e-05 -7.8346e-06 -9.6063e-06 -1.0474e-05 -4.4734e-06 3.3409e-06 -8.877e-08 -5.2247e-06 7.2041e-05 0.00011804 0.00059558 0.0011439 -8.3307e-06 -0.0007033 -0.00010067 0.63075 -0.00016777 0.0002004 2.8985e-06 -7.0075e-05 -0.00028583 -4.1543e-05 -0.00099485 2.4197e-05 -0.00016277 0.40592 -4.1654e-05 6.0469e-06
9.9927e-06 2.3937e-06 -1.5684e-07 -1.0166e-06 -8.5146e-06 3.1935e-05 -4.7588e-06 0.00044371 -7.2019e-08 -1.9534e-06 0.00021041 -4.1163e-05 0.00036766 -1.6148e-05 -4.6095e-06 -5.8572e-06 6.7908e-05 -6.8863e-06 -4.7575e-06 -4.7485e-05 6.5112e-07 -6.1281e-06 -4.6108e-05 1.1713e-05 8.1951e-05 0.0014505 0.00091943 0.00019268 9.8003e-07 1.4341e-06
1.8702e-06 3.686e-05 0.00021544 -4.5937e-05 1.7035e-05 8.7833e-06 7.3379e-05 6.5293e-07 -5.4422e-06 1.8582e-05 0.0018627 5.1894e-05 2.2098e-06 -3.9616e-06 -6.4833e-06 -0.00033357 -0.00018858 0.0021855 -7.9261e-06 1.1687e-05 -7.0665e-06 0.00010413 5.8032e-05 2.8444e-05 2.4405e-05 0.0018079 0.00025448 0.0025296 3.4257e-06 -1.2867e-05
2.3195e-05 0.00013542 1.3679e-05 0.29241 -1.4495e-05 -3.7456e-05 5.6738e-07 3.0232e-06 4.2309e-06 -9.1998e-05 2.3065e-05 0.28629 9.6918e-05 0.00075788 -1.8928e-05 -0.00012562 0.34167 0.00012196 1.0115e-06 0.2773 2.5972e-05 -2.4045e-06 -0.00019316 0.34801 0.35873 0.17798 -0.00023076 0.27543 1.5731e-05 -0.00017436
-8.8207e-06 4.3507e-05 0.00037332 9.2578e-06 0.00035005 -4.2043e-05 5.0264e-06 -5.5965e-06 3.4582e-05 2.8433e-07 -2.5977e-05 -2.2134e-06 5.9692e-06 9.1497e-05 0.40445 -1.1847e-05 3.8101e-05 -1.6671e-05 1.0651e-05 4.2798e-05 4.4434e-07 -9.3882e-05 0.00019455 -1.0695e-05 -8.894e-05 -1.7349e-05 0.00093015 0.0006069 -0.00061017 0.0025654
-3.6912e-06 -1.7481e-06 0.00023518 7.3743e-07 0.00031045 -7.5439e-06 1.9439e-06 3.8494e-06 6.1397e-06 1.7149e-05 0.00025104 6.7239e-06 -3.8956e-05 1.7474e-06 6.5218e-05 -4.2071e-06 -3.2833e-06 0.00022664 0.65259 6.9544e-05 -2.6734e-06 -0.0001972 -5.7378e-07 7.4094e-06 7.4088e-05 -1.1141e-05 -0.00025463 0.24027 5.6783e-06 -2.7578e-05
4.8924e-27 2.1841e-26 9.8145e-26 -1.1188e-25 -8.0001e-27 9.9931e-27 6.4824e-25 -3.5148e-27 1.9762e-26 -2.756e-25 1.5197e-27 4.4535e-23 7.1546e-27 -2.196e-27 2.3145e-27 3.4283e-24 -7.2769e-25 7.296e-25 -4.4467e-27 -6.1435e-25 -7.4333e-26 -1.8941e-26 -9.3157e-27 -5.1348e-25 -3.6632e-23 -4.9391e-28 -3.7708e-25 1.4955e-24 -2.1672e-23 -1.4503e-24
2.091e-05 6.1309e-08 -1.3813e-05 4.034e-05 0.00019242 0.00017047 5.6854e-06 -9.2289e-06 0.00023184 0.00051575 0.0002991 0.0019731 -2.8193e-05 -2.7475e-05 -7.2562e-06 0.36854 -0.00014074 0.00043306 -1.7048e-06 0.0014438 -0.00011667 -6.2104e-05 0.0002759 5.7455e-06 0.0013702 5.5074e-05 0.0016198 0.00060963 -0.00033921 0.0030312
0.476 -2.7294e-05 0.33072 -5.1323e-06 -1.2058e-05 -1.9337e-05 0.48868 9.4277e-07 -0.00011514 1.1258e-06 -1.7986e-06 -2.8233e-06 -3.1187e-05 1.7433e-05 4.5437e-06 -4.0605e-05 -4.193e-07 -4.0755e-05 -8.2287e-06 4.0834e-06 -1.1111e-06 -1.8218e-06 -2.0598e-05 2.9197e-06 -5.5281e-05 5.4967e-05 -1.0237e-05 -3.1606e-05 0.51418 0.0046911
6.5269e-06 9.1584e-05 2.1192e-05 5.1949e-06 -2.2135e-05 4.0846e-07 0.00034666 0.00033472 9.7356e-06 -4.5333e-06 0.00010184 -2.3995e-05 -1.3924e-05 -3.3046e-05 -1.2878e-05 -2.7836e-05 -4.6728e-05 0.00053574 -1.0905e-05 -0.00014771 5.3609e-05 -4.592e-05 0.12221 8.8178e-06 -2.7022e-05 0.18889 0.0014299 7.3485e-05 0.33706 0.0012598
2.4712e-06 -1.0596e-06 -1.8796e-06 -5.168e-06 0.27276 -1.7134e-05 -1.8992e-06 -7.1142e-06 5.3837e-05 1.6347e-05 5.583e-05 9.5597e-06 -0.00046664 -0.00018903 0.0050511 -0.00014331 0.00014138 -3.1735e-05 1.4822e-05 1.1829e-05 1.1129e-06 -0.0001232 -0.00015955 0.00033275 -4.4097e-05 -3.4462e-05 0.25689 -1.971e-06 -3.8841e-05 0.00047852
0.0012251 0.00071638 0.26071 -5.709e-06 0.0001531 0.00058158 2.2533e-05 2.5235e-05 0.59556 -3.3978e-05 -1.3934e-05 -0.00018741 0.00088519 7.6935e-05 8.2717e-05 0.45015 0.0010196 0.0011299 0.0002996 -3.8484e-05 -2.0982e-06 4.5593e-05 3.8088e-06 0.0038234 0.00083595 0.00479 0.0037674 0.0012459 1.2692e-05 -0.00051328
5.5978e-07 -3.0399e-05 -2.1226e-06 5.9784e-05 9.5361e-07 2.3238e-06 -9.224e-06 8.3489e-06 2.7018e-05 0.4931 -0.00011201 0.44901 -5.1071e-05 -2.127e-05 1.9072e-06 -0.00010184 -0.00026615 0.00024043 2.9529e-05 5.4682e-05 0.00082608 3.2627e-05 8.9926e-06 7.9788e-05 0.0010616 8.2349e-05 -0.0014197 0.00013159 -7.4892e-06 5.5935e-06
-3.6713e-07 8.7058e-06 -3.0754e-06 -2.0446e-05 5.8049e-05 2.1238e-05 1.1403e-08 0.00030382 -3.9877e-06 2.0527e-05 0.55022 -4.1714e-06 9.3153e-05 -4.1523e-07 0.0012587 0.00020014 7.828e-05 -7.066e-05 8.3948e-07 -1.9106e-05 2.1208e-07 -7.2045e-06 0.00017152 2.8742e-07 -0.00010969 2.3269e-05 0.00021945 0.0028519 -5.8474e-06 -3.7271e-05
-6.0286e-06 0.10463 4.5562e-06 8.8834e-07 0.2521 -6.4531e-05 -7.6043e-06 -6.0269e-06 0.28648 -1.4197e-05 9.2213e-05 -1.4408e-05 -3.7937e-05 0.00026956 1.8685e-05 -9.1761e-05 -5.8398e-06 0.00015442 -8.5513e-05 8.8009e-06 2.0522e-06 0.24481 -7.317e-05 1.404e-06 0.00020975 0.00015824 -7.3227e-05 8.2276e-05 3.8928e-05 9.0486e-05
7.0211e-06 5.6236e-05 3.4134e-05 -1.354e-05 0.00018354 0.0002651 -9.6785e-06 1.9104e-05 6.9652e-05 0.00091475 0.00017738 -6.4548e-05 0.00090571 0.00024004 3.3152e-05 4.171e-06 0.00026325 5.0825e-06 0.00016761 5.3463e-05 -6.3729e-07 0.00010706 0.0032364 0.00049852 0.00059629 0.14444 0.0019829 0.0074696 -6.1309e-06 -0.00010297
1.5931e-06 6.0764e-06 1.4966e-05 1.2128e-05 0.22024 -6.3992e-06 -1.9823e-06 1.2518e-07 -9.8017e-06 1.5966e-06 2.4682e-06 -1.5932e-05 8.6462e-05 -4.9229e-05 0.00021963 1.228e-05 -7.4467e-05 -3.1335e-06 0.00053293 0.0012559 8.8888e-07 0.00010381 -1.5793e-05 -1.2609e-05 -4.06e-05 0.00041316 -0.00010945 0.0001578 -2.2373e-05 0.0001865
-1.0305e-06 0.15965 -7.1425e-07 0.26968 1.2838e-07 -2.1727e-05 -5.9538e-06 1.0607e-05 0.00023882 0.0001481 4.9073e-05 0.2831 0.00015546 0.00074253 -1.0208e-05 0.0041227 -0.00014387 -0.00060976 -1.7843e-05 0.25792 -0.00012098 -6.7907e-05 6.6667e-05 0.0021499 0.0030078 0.00048684 0.0014833 0.25553 -6.8666e-06 1.452e-05
8.6584e-06 0.08924 1.2053e-05 4.988e-05 6.6677e-05 3.8044e-05 -7.163e-06 2.7575e-05 2.3482e-05 8.2661e-05 0.00024406 0.00091787 0.00071423 0.0016887 0.000348 -7.9086e-06 0.030008 0.0001133 -2.202e-05 0.0032859 -6.844e-06 9.2774e-05 -7.9977e-05 0.15891 0.00072031 0.0012046 0.0049287 0.14237 -1.0771e-05 -4.9337e-06
3.0658e-06 0.31295 6.37e-05 0.00012366 0.00024068 0.51449 -8.2571e-06 3.9876e-05 0.00013965 -2.8551e-05 7.3986e-05 0.0018267 0.0016029 0.0017487 0.00011601 -4.4383e-05 0.0015953 -5.6431e-05 0.00044006 0.012107 -2.1491e-05 -3.9623e-05 5.7316e-05 0.0046478 0.0018119 0.0057981 0.00091658 0.0037446 -1.2081e-05 3.3548e-05
0.40918 -2.7199e-05 2.8842e-05 0.40138 -1.7952e-05 -1.2909e-05 0.41967 5.1147e-07 -7.4435e-05 -9.0624e-06 2.3363e-06 -3.5272e-05 -1.7074e-05 0.59282 -2.2123e-05 4.6159e-05 -9.8192e-05 -3.7298e-05 6.1014e-06 -8.919e-05 -1.8284e-06 1.3093e-05 -6.7015e-05 -0.00021774 -3.1246e-05 4.1162e-05 -0.00017031 0.00020868 0.0067751 0.0017373
2.3195e-05 0.00013542 1.3679e-05 0.29241 -1.4495e-05 -3.7456e-05 5.6738e-07 3.0232e-06 4.2309e-06 -9.1998e-05 2.3065e-05 0.28629 9.6918e-05 0.00075788 -1.8928e-05 -0.00012562 0.34167 0.00012196 1.0115e-06 0.2773 2.5972e-05 -2.4045e-06 -0.00019316 0.34801 0.35873 0.17798 -0.00023076 0.27543 1.5731e-05 -0.00017436
-5.6838e-07 0.00012461 -3.7744e-08 4.419e-06 6.8834e-05 4.4698e-06 2.242e-06 0.0001813 -4.3879e-05 -9.103e-07 8.828e-05 -1.3837e-05 0.00057727 0.0013042 0.00042753 3.347e-05 0.00083487 -1.0612e-05 -1.825e-05 -9.6366e-05 1.2897e-06 -5.6494e-05 -2.9795e-05 0.0012669 -1.283e-05 2.9304e-07 0.0057965 -7.3531e-07 -2.5149e-07 6.7116e-05
-6.6552e-06 0.12769 0.00028365 5.6931e-06 3.1961e-06 -3.7434e-05 -4.9796e-07 1.4126e-06 -3.2415e-08 1.849e-05 0.00042704 4.4779e-05 -4.0257e-06 7.7477e-05 3.3665e-05 3.381e-05 8.6673e-06 0.00032652 -8.9042e-06 -1.3527e-05 -4.2815e-06 7.3576e-05 8.0734e-05 -3.9402e-05 0.00061997 0.0016564 0.00016971 0.0004722 -0.0001266 1.8354e-05
-6.6977e-06 0.00019015 0.00028735 -1.2363e-05 -8.4324e-06 -1.549e-05 1.5161e-05 8.5631e-06 -3.0504e-07 1.9597e-05 0.25039 0.00010754 0.00085002 0.00010927 -2.8126e-05 -8.9129e-06 -0.00011466 0.33134 -9.5795e-05 0.00045603 5.3783e-05 7.3448e-06 0.084301 4.3953e-06 -0.00018055 0.0017086 0.00082 0.00094067 0.00027731 -6.7637e-05
-2.8636e-06 0.19561 -7.2438e-06 3.3047e-06 0.00021903 -3.8521e-05 -2.4229e-06 -1.7333e-06 5.1443e-06 -3.656e-07 -1.336e-08 -1.4918e-05 -6.4488e-05 -1.9317e-05 4.7771e-05 1.3427e-05 5.1916e-06 -2.4766e-05 -5.1389e-05 -2.9918e-05 -1.0062e-06 0.45404 -0.00028715 1.392e-05 1.898e-05 0.20085 -0.00045165 -0.00012453 9.0367e-06 -0.00017772
5.4311e-06 7.6616e-06 6.3872e-05 9.3451e-06 0.21049 0.00033235 -1.4917e-05 1.8399e-06 6.067e-05 3.7926e-05 8.4048e-05 -9.7889e-06 0.0049399 0.43881 0.0007263 0.0018134 0.001376 6.7173e-05 -8.5463e-05 -0.00017964 7.5351e-06 -0.00020058 -0.00023304 0.0029366 0.0003112 0.0029373 0.41001 0.0011349 -1.5048e-05 0.00020258
-6.6e-06 0.13025 0.00028902 6.9177e-06 5.9312e-05 -6.8521e-05 -1.4942e-07 -1.8939e-07 -2.2188e-05 1.9084e-05 0.00063923 9.0482e-05 -7.5277e-06 7.3652e-05 3.0873e-05 -1.216e-05 1.3155e-05 0.00036689 -1.0211e-05 -1.8129e-05 -4.0174e-06 8.5561e-06 7.3943e-05 -1.5502e-05 0.0044625 0.0016756 0.0006683 0.00042629 -0.00011433 4.9828e-06
1.308e-06 -8.4413e-07 -2.6401e-06 0.00027729 0.21734 9.7657e-07 -2.3246e-06 -4.2351e-06 -7.3061e-07 -2.8542e-07 0.3418 -1.8318e-05 -3.0607e-05 -3.2089e-05 -2.2433e-05 -1.9125e-05 0.0007723 -7.6969e-05 -5.8762e-06 -1.9017e-05 1.362e-06 5.601e-06 8.009e-05 0.00027088 -3.6213e-05 2.0917e-05 -0.0001197 3.7198e-05 -2.6438e-05 0.00042125
2.0831e-05 8.153e-05 1.7243e-05 0.26608 -1.0747e-05 -3.1154e-05 8.1667e-07 2.9302e-06 1.8474e-05 -9.3989e-05 2.6355e-05 0.2593 8.7997e-05 0.00071665 -1.7611e-05 -0.00017067 0.31113 0.00027378 1.172e-06 0.25176 2.548e-05 3.2252e-06 -0.00021101 0.31729 0.32 0.16092 -0.00023392 0.2523 2.44e-05 -0.0001354
-1.641e-06 0.10467 5.3181e-05 8.3127e-07 0.00020342 0.17345 1.4075e-06 0.0001834 5.2376e-05 2.5513e-06 7.2087e-05 0.00015436 0.0011652 0.0011539 0.00044606 5.009e-05 0.21849 1.3187e-06 0.00027267 -0.001189 2.2332e-06 0.0013777 -3.8459e-06 0.21306 0.00022085 0.0034224 0.0055766 0.0013587 -6.7823e-06 1.4197e-05
1.6597e-05 0.15033 1.4793e-05 0.25406 -1.4626e-05 -5.1808e-05 1.1196e-06 1.0924e-05 0.00022588 0.00016321 3.3628e-05 0.26919 0.00012022 0.00068347 -1.0808e-05 0.0038566 0.00022539 -0.00042138 -1.4321e-05 0.24346 -0.00012395 -5.442e-05 3.1804e-05 0.0021743 0.31273 0.0019294 0.0013538 0.24025 7.4209e-06 -4.9183e-05
-2.8451e-06 0.17202 -5.6635e-06 -8.7143e-06 0.00026621 -4.8612e-06 -2.0277e-07 -4.6568e-06 -8.4985e-06 7.2503e-07 1.4859e-05 -1.1625e-06 1.3864e-05 -9.3952e-06 5.701e-06 -1.0604e-05 -3.5359e-06 -3.521e-07 6.4527e-06 -4.4313e-05 5.238e-07 -4.031e-05 7.4822e-06 4.2086e-05 -7.122e-05 -2.6557e-06 0.00087469 0.00037992 -1.9114e-06 -9.8924e-06
0.00060796 -3.0942e-06 4.626e-05 -1.4458e-06 0.00034103 3.2772e-06 8.8407e-05 9.3566e-06 2.7642e-05 3.0585e-07 0.00021575 2.8024e-06 0.00010235 1.399e-06 0.00038412 2.3584e-05 2.0624e-05 2.2964e-06 -6.017e-06 -8.5803e-06 6.1931e-06 -3.5626e-05 -1.5279e-06 1.2498e-05 -3.5053e-05 0.00044576 0.00085188 0.00049874 -0.0014212 0.2643
1.4857e-05 4.4179e-06 7.91e-05 -6.0048e-07 0.10343 3.0191e-05 -1.333e-06 -8.4437e-06 3.6557e-06 -2.9283e-06 0.16293 1.8865e-05 -1.1806e-05 0.00031659 -2.0263e-05 0.0018814 2.5908e-05 0.00081996 -2.4597e-06 9.9807e-06 5.649e-06 0.00012338 0.00016055 1.142e-05 0.003159 7.4021e-05 0.0007671 4.6023e-05 -0.00021324 0.0016489
3.1257e-07 1.4681e-06 -2.8354e-07 7.5377e-06 0.0001207 3.0925e-05 3.5044e-06 -1.0856e-05 6.1871e-07 1.4365e-07 -2.3517e-07 -1.7273e-05 0.0008439 0.0023606 0.00077465 -6.3075e-06 0.0014463 -4.8562e-06 -2.4463e-05 -0.00016087 1.5698e-06 -3.0237e-05 -1.086e-05 0.0022868 3.3294e-05 -2.9255e-05 0.0099124 -6.4563e-06 3.6711e-06 -2.1423e-05
0.00055101 0.00039568 0.00031995 4.1753e-05 0.00048138 0.00028525 4.3982e-06 -4.5139e-06 0.0011891 -3.6636e-06 1.9024e-05 0.00050658 0.49675 0.0014407 0.00052688 0.0030464 0.0012939 -0.00024846 0.0010217 0.0041563 -6.7665e-06 0.00030399 -7.0579e-05 0.0036038 0.000542 0.0030598 0.013065 0.0012827 1.9908e-05 -0.00027112
2.1291e-05 1.8565e-06 1.1241e-05 7.0009e-06 -2.9369e-05 -4.5136e-07 0.00033073 -1.2962e-07 4.9609e-08 1.1215e-07 9.1542e-08 -1.6839e-06 3.1318e-06 0.00024554 2.4999e-06 7.3957e-06 -1.5381e-06 -4.0191e-06 1.3556e-06 -4.9439e-06 4.7973e-06 2.9157e-06 2.3741e-05 -6.8741e-07 -4.0939e-06 2.226e-06 -2.4256e-05 -5.0332e-06 0.39461 0.0012417
-3.4485e-06 1.4655e-05 0.00017904 -1.2701e-05 0.13927 0.00020441 2.1901e-06 8.8159e-06 1.7537e-05 -1.2019e-05 0.00053182 -0.00013123 0.30488 -2.0296e-06 0.00010558 0.24008 -5.7145e-05 0.00043864 0.00052263 0.00080291 -2.891e-06 0.00033031 -8.0653e-05 0.00045393 6.7924e-05 0.0038822 0.004331 0.0036453 -1.2466e-05 0.00030523
9.5268e-08 -2.1867e-08 1.6057e-07 1.5349e-08 4.1313e-05 8.6103e-07 -6.3547e-08 -4.2992e-08 -1.5389e-07 -6.1854e-06 0.0033158 2.9223e-06 -2.4388e-07 4.7292e-07 -6.5905e-07 -0.00016211 -1.6786e-06 0.00056356 -1.3393e-07 2.3263e-07 6.5577e-08 -7.1211e-07 -8.5309e-06 -3.7129e-07 -2.8387e-05 1.3657e-05 -1.5026e-06 2.0058e-06 2.0692e-06 -1.3023e-05
-1.0002e-06 1.4019e-05 3.4029e-05 -9.3496e-06 0.00060409 0.00023059 -4.2354e-09 1.1595e-05 2.4172e-05 -2.6656e-06 8.1573e-05 2.206e-05 0.0093976 6.1593e-06 0.00011944 0.0016582 1.5717e-05 -7.0111e-05 0.00056665 0.00086807 -2.9108e-07 0.00022947 -2.1478e-05 0.00048756 -3.621e-05 0.0030934 0.0053678 0.0038209 6.4685e-06 3.971e-07
1.1361e-05 7.493e-05 0.00013762 0.18529 6.8093e-05 0.18042 -5.4589e-07 1.6355e-05 5.1641e-05 -7.8838e-05 9.6795e-06 0.1801 0.0018206 0.00047502 2.4208e-05 9.9448e-05 0.4334 0.00023626 0.00015963 0.1757 2.2927e-05 -2.5565e-05 -0.00015534 0.44107 0.20733 0.11479 0.00015283 0.17621 -1.044e-05 -8.1583e-05
-1.5957e-06 3.5978e-07 0.00032067 -9.5354e-08 -6.7793e-06 -2.1047e-06 -1.5286e-06 1.5142e-06 1.6519e-06 6.6051e-08 9.1397e-05 -8.6554e-06 0.0014357 0.00014843 -2.1855e-06 -0.00074479 1.6926e-05 0.0073911 -3.8362e-06 -1.7399e-05 2.0353e-06 -5.7898e-08 0.00075208 6.0484e-06 -0.00039635 0.00085148 0.00034966 0.0001113 -6.7353e-05 -1.0147e-05
-2.6049e-06 0.17508 -9.24e-06 1.958e-05 -3.8248e-05 0.28944 5.2055e-06 6.714e-07 5.4178e-05 1.6442e-06 -8.0258e-06 -3.7583e-05 5.4595e-05 -3.0043e-06 2.9454e-05 2.7215e-05 -0.00017762 -6.8511e-05 -0.00019006 0.00052501 -7.6338e-05 0.41124 0.032055 1.6357e-05 -9.2114e-05 0.0091013 -0.00091861 -0.00010154 -5.5597e-05 5.1313e-06
5.8705e-05 0.165 -1.1114e-05 1.5052e-05 0.0017893 4.8715e-06 7.9426e-05 -3.7587e-06 -3.9919e-05 -2.3107e-05 3.3095e-05 -3.3075e-05 -2.789e-05 0.00025264 -6.0239e-06 -2.6676e-05 -0.00015627 0.00014959 -1.6046e-05 -0.00051115 2.4877e-05 0.00024539 0.45168 -6.4953e-05 -4.5008e-05 0.17957 -3.4789e-05 -0.00013348 -0.0088314 0.05295
6.304e-07 9.641e-06 0.00020532 -3.0327e-05 6.5988e-06 -7.3519e-07 5.7842e-07 2.2756e-06 -1.2473e-06 -3.3992e-07 2.592e-05 9.0565e-07 0.00096938 -2.4439e-05 6.885e-10 0.00044319 9.593e-06 1.7596e-05 -1.1361e-05 -2.613e-05 -2.8864e-06 0.00020095 -5.2791e-05 0.00010602 -0.00022739 0.0012842 0.00036349 0.0043104 -1.412e-05 9.0994e-06
1.4388e-05 3.3421e-05 -2.3756e-05 -1.4403e-06 -2.9848e-05 5.687e-05 1.0259e-05 2.2841e-06 2.7025e-06 -1.3981e-05 -1.1238e-05 -0.00066311 -0.00021187 -2.6205e-05 -6.3327e-06 0.48504 7.0291e-05 0.56614 -0.00013576 0.0001767 -3.2787e-06 -4.827e-06 -0.00048496 0.00016094 0.4412 0.24068 -0.00046846 0.0005272 8.6083e-06 -0.00015488
-9.7741e-07 0.15778 -9.8251e-07 0.26651 1.2554e-07 -2.5845e-05 -5.846e-06 1.0475e-05 0.00023625 0.00014845 4.8597e-05 0.27968 0.00015362 0.00073374 -9.9833e-06 0.004077 -0.00016682 -0.00060179 -1.7489e-05 0.25492 -0.00011899 -6.7441e-05 6.5929e-05 0.0019476 0.0028803 0.00045169 0.0014675 0.25127 -6.8626e-06 1.4553e-05
-1.3964e-05 -2.5824e-05 -3.4786e-06 4.9849e-05 1.4189e-06 2.006e-06 2.8166e-05 7.1278e-06 2.3046e-05 0.42065 -9.5442e-05 0.38281 -4.3499e-05 -1.7441e-05 1.6119e-06 -8.8604e-05 -0.00023099 0.00020852 2.5067e-05 3.6876e-05 0.77498 2.8373e-05 -0.00015054 7.0304e-05 0.0009048 6.2648e-05 -0.0012117 0.00011301 2.981e-06 0.00019698
2.7958e-06 0.17524 -1.1507e-05 1.8493e-05 -1.1364e-05 2.7267e-05 4.3226e-05 -6.1909e-06 1.5789e-05 -2.5735e-05 3.4152e-05 -4.5387e-05 -2.8064e-05 -4.6047e-05 -1.1999e-05 -1.7109e-05 -0.00015669 0.00016827 -1.8767e-05 -0.00052637 4.7742e-05 0.0003599 0.47743 -7.0531e-05 -4.5075e-05 0.36863 0.00021453 -0.00014482 8.5495e-05 2.3584e-05
-2.5667e-07 2.9003e-07 -8.9761e-07 -5.921e-06 -5.7302e-06 -2.9727e-07 -1.3285e-05 8.2736e-08 3.7887e-07 -6.026e-08 1.3157e-06 1.1941e-06 2.2022e-07 0.0019466 1.3101e-06 -0.00012068 9.2313e-06 0.00054992 1.4074e-07 -8.5021e-06 4.1964e-07 -2.0304e-07 -2.3444e-06 -2.9751e-06 1.0991e-05 9.0536e-06 -3.0469e-06 0.00014738 -1.3416e-06 4.2841e-09
3.0611e-07 2.3883e-06 -1.4068e-07 4.0366e-06 6.355e-05 1.4823e-05 1.9336e-06 -5.3282e-06 3.3619e-06 6.4611e-07 0.00043368 -9.8983e-06 0.00047743 0.0012948 0.2865 -3.5494e-06 0.00080989 -3.2746e-06 1.0563e-05 -8.1926e-05 8.7223e-07 6.4866e-06 -5.9496e-06 0.0012893 1.4337e-05 -3.1739e-05 0.0055151 6.0546e-06 3.1355e-06 -1.6891e-05
0.00085448 3.8677e-05 3.1794e-06 1.2995e-06 0.4194 -4.3466e-05 0.00012715 3.4558e-06 -2.6199e-05 -1.0538e-05 0.00020116 -6.7173e-05 -0.00011144 0.43658 -3.3296e-05 0.0011957 -8.1851e-05 -0.00022277 5.9507e-06 -9.9593e-05 -1.3644e-05 -5.9749e-05 0.0018559 -0.00015474 0.0010364 0.17729 -0.0014684 -5.2429e-05 -0.01132 0.38808
-5.5514e-06 1.6095e-05 0.17677 2.8599e-05 2.789e-06 1.3913e-05 3.2876e-06 -5.3351e-07 -4.9457e-06 -8.2378e-06 8.6432e-05 -0.00018102 7.2524e-05 -3.5209e-05 -5.1721e-06 -0.00010871 -0.00017718 0.0016958 -1.37e-05 0.23142 6.6137e-08 9.2543e-05 -0.00018479 0.00027637 0.00064237 0.15146 1.8409e-06 0.00011737 -9.919e-06 -8.4561e-05
-1.2082e-05 2.6942e-05 0.00052843 -1.4139e-05 0.000127 0.00034376 6.9391e-06 2.2745e-05 6.7091e-05 -5.9502e-06 8.1784e-05 0.00012021 0.003 6.2149e-05 6.5883e-05 -0.0017238 -8.0078e-05 0.021111 0.0002475 0.0011756 4.3616e-06 9.6808e-05 0.00050622 0.00078174 -0.0014735 0.0032804 0.0006776 0.0033892 -0.00015252 0.0012731
1.1974e-06 5.93e-07 -2.4463e-05 -5.658e-05 0.00042909 -1.2197e-05 5.9559e-07 -3.2506e-06 -2.8716e-06 5.8569e-06 0.25884 0.00015411 -8.3491e-05 -1.5184e-05 -3.1671e-05 -0.0010852 -9.2489e-05 0.34208 -8.913e-05 0.00013368 2.2026e-06 -7.0052e-05 -9.9838e-05 3.6628e-05 0.0034264 1.3187e-05 0.0006059 0.0019782 6.7078e-06 -7.2085e-05
1.1201e-05 0.13252 7.6362e-06 1.9435e-05 3.8439e-05 -3.468e-05 5.1193e-06 -6.9458e-07 -1.0221e-05 2.5827e-05 0.00021399 -0.00037399 -2.9442e-05 -3.1927e-05 -5.8313e-06 -9.6875e-05 -4.8319e-05 0.00026207 -5.3468e-06 0.00017075 -8.0659e-06 8.4406e-05 3.7893e-05 9.7804e-05 0.26191 0.00092567 0.00059053 -8.9933e-05 -4.7732e-08 1.0321e-05
1.8162e-05 0.00010548 1.0808e-05 0.22944 -1.4159e-05 -3.0326e-05 4.504e-07 2.6616e-06 1.6839e-06 -6.5992e-05 1.1688e-05 0.22481 3.7604e-05 0.00053886 -1.8972e-05 -8.376e-05 0.53518 9.4954e-05 7.552e-07 0.21779 2.0234e-05 -9.3231e-06 -0.00014813 0.54408 0.28152 0.13976 -0.00024482 0.21613 1.2632e-05 -0.0001363
-1.5815e-05 8.2668e-07 0.33836 1.0663e-06 9.6719e-06 2.9585e-05 3.8924e-06 -6.7556e-06 -1.2009e-05 -1.1984e-05 0.17717 6.9209e-06 0.00058019 0.00034143 0.00026989 0.00091045 -2.3264e-05 0.23204 0.0038859 4.3708e-06 7.7713e-06 0.0010468 0.00052084 -1.0248e-05 -0.00020012 0.00040286 0.0027968 0.0001257 8.3844e-05 -1.3438e-05
0.37151 -3.9959e-05 0.25705 -8.843e-06 0.00029149 -1.0552e-05 0.38003 9.866e-07 -6.7744e-05 1.6839e-06 -4.7549e-06 8.1444e-07 -2.5529e-05 5.6232e-05 -2.7321e-06 -5.6544e-05 2.5701e-06 -2.812e-05 -5.1188e-06 -2.5784e-05 4.9505e-05 -9.8521e-06 -0.00028109 4.8257e-06 -7.2972e-05 0.00062466 -4.9756e-05 -5.7811e-05 0.44725 0.67916
-1.8532e-06 1.9903e-05 0.00020594 2.8813e-05 0.00012874 0.29149 -1.7682e-07 2.332e-05 6.9881e-05 -2.1898e-05 1.9343e-06 0.00095059 0.0028955 6.1219e-05 6.3661e-05 -0.0001232 0.0019574 -2.4013e-05 0.00025709 0.00033143 1.7088e-07 -2.3018e-05 -0.00010754 0.0023107 0.0027426 0.0047198 0.00055599 0.0017731 -1.2311e-05 -3.0872e-05
3.8189e-07 6.2263e-05 6.8416e-07 1.2688e-06 0.00012865 -4.3229e-06 1.1498e-06 -3.2229e-06 3.0892e-05 -1.9329e-07 0.00077756 -1.5644e-05 3.1775e-05 -2.3776e-05 0.52332 7.7118e-06 1.1964e-05 2.2237e-06 -2.6122e-05 -7.1352e-06 5.7453e-07 0.0015092 -0.00013168 1.3173e-05 4.2485e-05 0.00043646 0.00023896 6.1115e-06 5.3137e-06 -3.9091e-05
-8.6864e-06 -2.1387e-05 0.2101 3.077e-05 3.4198e-06 1.311e-06 4.3278e-06 -7.749e-07 8.9077e-06 -8.0099e-06 8.1245e-08 -0.00024376 5.7553e-05 -4.1853e-05 -5.8467e-06 4.1119e-05 -0.00040563 -1.0493e-05 -9.0884e-06 0.27612 4.4919e-06 0.00010966 -0.00025238 0.00036577 -8.7522e-05 0.17971 -4.503e-05 -0.00026677 5.8222e-06 -0.00010476
8.3796e-06 2.2282e-06 2.4442e-06 8.6495e-06 0.00020372 3.8921e-07 -9.906e-06 -1.4338e-06 1.2116e-05 0.62954 0.0026713 -0.0010194 -4.5801e-06 0.00031997 -2.2163e-05 -0.0001309 0.00033056 -0.00011862 -3.1052e-05 -0.00010911 0.0003888 -4.4971e-05 0.00089697 6.6402e-05 0.0010597 0.00052904 0.0034576 -3.2863e-05 -5.3935e-06 -5.9555e-05
-2.9192e-07 2.4082e-07 4.0465e-06 -5.9568e-07 3.3035e-09 1.9862e-07 1.2289e-06 -8.0426e-09 -3.291e-07 1.5257e-07 3.0352e-08 -4.0149e-06 1.6783e-06 -4.1002e-07 7.5459e-08 5.1783e-06 -2.5273e-05 1.6131e-05 -8.7488e-08 3.7192e-05 -6.4233e-08 -8.2871e-07 -1.4863e-05 -3.0862e-06 -3.9401e-06 0.00012705 2.9225e-05 4.6171e-10 -2.5194e-06 -2.1069e-06
-4.6896e-07 0.00032289 4.2957e-05 -8.0565e-06 0.00016217 0.00025215 3.8809e-06 0.51441 6.7946e-05 0.00017279 0.00097479 0.00082001 -7.3033e-06 -7.5574e-05 9.4024e-05 -9.2743e-05 0.00024085 2.78e-05 0.00017485 0.0010582 -7.7555e-06 -0.00016628 0.00056905 0.0011301 0.00031246 0.0037503 0.324 0.0012719 2.7146e-05 -5.4519e-06
