-0.00018721 8.2498e-05 0.00032046 3.8997e-06 0.46656 0.32784 7.1567e-05 -1.9211e-06 -0.00010446 0.3178
8.2016e-05 3.6089e-08 -3.2024e-07 3.8037e-07 2.6237e-06 1.7169e-05 2.6663e-05 -2.7404e-07 1.5364e-06 -7.4411e-06
0.00026413 1.28e-05 1.8364e-05 0.25092 3.3564e-05 0.00085773 0.00049938 1.2224e-05 0.0021711 5.3175e-05
5.7838e-07 -8.4102e-07 -1.8407e-05 0.00079523 5.0701e-06 0.00059082 2.2369e-05 3.6744e-07 1.4336e-05 0.00024519
-0.00015417 1.2957e-06 -7.0125e-05 -2.1816e-06 0.31238 0.0014732 0.00011071 -5.306e-06 0.00046356 5.669e-06
0.17438 -1.4141e-05 -9.3006e-06 -2.2112e-07 0.00030633 0.00080864 0.0012324 0.0002678 0.00044983 -4.107e-05
4.4934e-05 8.7299e-06 3.9333e-05 6.2566e-07 -1.0881e-05 0.00027742 -2.7902e-05 0.0014683 -6.3896e-05 9.678e-05
-4.2732e-07 -5.7155e-08 -1.7965e-06 2.6582e-06 5.0119e-05 0.00011712 2.1227e-07 1.9974e-06 1.013e-06 -6.7875e-05
0.00041149 0.00019098 0.00033805 0.00026988 -0.00014765 0.0044543 -1.3824e-05 0.0010369 0.0012742 -0.00048469
0.15849 4.722e-06 0.00010158 5.7302e-06 0.00012423 0.00049937 0.0012118 5.9374e-06 4.3943e-05 -0.00023335
1.4011e-05 -8.1073e-07 1.3626e-05 4.1623e-05 -4.2417e-06 1.8283e-05 0.00018313 0.00046095 0.0020265 6.5946e-05
0.44386 -1.6866e-05 1.2849e-05 -1.4554e-05 0.00027365 -7.4405e-05 0.0035179 0.00057743 0.001649 3.7903e-05
3.6265e-05 -1.3133e-05 -2.8181e-05 3.6925e-08 -2.8478e-05 0.0035828 1.4135e-05 -2.2424e-06 4.2482e-05 0.00092056
0.00047266 0.19545 0.13856 4.2821e-05 0.00082578 0.30615 0.0017067 0.00088046 0.0070323 0.29318
0.00049903 0.0007002 0.00012272 2.7452e-05 0.00038996 0.0030509 0.0016694 -1.3116e-05 0.0012721 0.00019218
0.00017254 0.31786 0.32136 1.0099e-05 0.00016764 0.21175 2.9164e-05 0.00070812 5.1238e-05 0.20611
2.4235e-05 0.30702 0.30863 5.6243e-05 9.5242e-05 0.21488 0.00049672 4.3888e-06 -0.00018214 0.22833
0.00039119 1.1023e-05 1.2049e-05 0.25778 0.00052612 0.0030929 -2.3616e-05 -4.9611e-05 0.25645 -0.00029761
1.4055e-05 0.00016195 0.00030454 0.00012939 0.00025768 9.2609e-05 3.2552e-05 -2.3226e-07 8.5771e-05 -3.5199e-05
0.00043924 2.3307e-05 4.53e-05 7.424e-05 0.00023158 0.0013383 0.0007667 0.0024928 0.00018102 0.0014092
-4.295e-05 4.7241e-05 0.00017484 2.593e-06 0.00032614 0.29445 0.00011553 -1.6759e-05 0.00040881 0.27664
0.22215 1.4467e-07 8.1074e-06 4.4652e-06 0.0003655 -8.8682e-05 0.0016523 2.9368e-05 0.00019588 0.0001566
-3.9566e-05 0.4781 0.48356 3.035e-05 -0.00050613 0.34409 -0.00029029 5.8085e-06 -0.00029548 0.36041
6.4645e-09 -1.4553e-06 -3.3515e-06 2.1099e-07 1.7102e-05 0.00030611 2.6551e-06 -3.0709e-07 9.4207e-05 -0.00012166
0.00030361 -1.7738e-06 -1.3701e-05 0.00045374 5.41e-06 0.00054309 2.9447e-05 0.00011783 0.0031686 -0.00014556
1.863e-06 3.3991e-06 -1.6251e-05 2.0574e-06 -8.5695e-06 0.00047727 1.1572e-05 0.38608 -0.00049269 -0.00026461
0.00019574 -1.2192e-07 3.2936e-06 2.1756e-05 6.8606e-06 0.00010871 -1.4764e-05 0.0028233 0.00070004 -5.4683e-06
0.0001412 0.00015537 9.8257e-05 0.00062667 0.00025061 0.00058012 3.4252e-05 -1.7853e-05 0.0011423 -0.00011697
2.5116e-05 5.6937e-08 -3.1022e-08 -7.1643e-07 -2.9709e-06 7.2834e-06 -6.6709e-06 3.2122e-05 0.00011788 -4.1433e-06
0.24456 -2.7909e-05 -2.4749e-05 0.00011301 0.0002014 3.2365e-05 0.69556 0.18844 0.2053 -0.00012203
0.00026186 4.7973e-06 4.0874e-05 0.00010048 1.4389e-05 0.00022204 1.0093e-05 0.0011383 0.0016726 0.0001718
-2.06e-05 -3.563e-06 -7.3476e-05 -1.4188e-06 3.32e-05 0.0022663 0.00012902 -6.2482e-06 0.00049721 9.3513e-06
1.4321e-09 -4.0689e-09 1.4611e-08 -1.8038e-08 1.0192e-07 4.2491e-07 8.8543e-09 9.6238e-08 3.8203e-07 -1.1699e-07
0.10005 1.6737e-05 7.1829e-05 0.17548 0.00021757 0.12645 0.28293 -4.7228e-06 0.001535 0.11474
0.1761 5.3902e-06 0.00011273 6.1596e-06 0.00011994 0.00060044 0.0013125 6.5688e-06 4.6279e-05 -0.00018609
9.9029e-05 -6.129e-08 -4.1492e-07 7.243e-07 0.00015571 0.00018018 1.3695e-06 -7.1382e-07 4.1663e-06 -1.6766e-05
0.30718 3.7389e-07 1.1597e-05 6.6178e-06 0.00024813 -7.2973e-05 0.0024273 -1.0106e-06 0.00010652 8.8709e-05
0.00016986 -4.3625e-08 8.6176e-07 5.2604e-07 0.0017408 0.00013111 -3.967e-05 2.598e-07 4.6063e-06 -2.9344e-05
9.1849e-07 4.4557e-08 -8.7721e-07 9.9724e-08 1.5919e-05 5.9139e-05 -9.9404e-07 2.7929e-08 1.8021e-06 0.00011403
8.5862e-05 2.0906e-05 2.7643e-05 8.4503e-05 5.3422e-05 0.0012126 0.00084655 8.7046e-06 7.5562e-06 0.0016186
0.15058 1.499e-05 2.1951e-05 5.4254e-05 0.00054084 0.0014815 0.0016532 -3.8055e-06 0.00020937 -0.00029368
7.3451e-13 -1.8604e-13 3.3215e-14 7.1332e-13 -2.1705e-11 5.828e-11 -2.4914e-13 4.3189e-12 -2.352e-10 -1.8028e-10
0.00032839 -2.0584e-06 6.3461e-06 0.37544 1.3269e-05 0.00028341 0.0001293 1.5682e-05 0.0033341 4.1326e-05
3.4729e-05 4.1167e-05 0.00018762 0.00090403 0.00044691 0.21172 0.00021925 5.8405e-07 -3.0672e-05 0.20149
0.00013494 3.7529e-05 4.0817e-05 0.00013426 7.7e-05 0.0020166 0.0012901 4.7936e-06 -3.334e-06 1.1242e-05
0.26534 0.0014444 0.00021796 1.1176e-06 0.43432 0.0021396 0.0053655 1.2216e-05 0.00012976 -0.00050891
2.6275e-06 -1.0366e-05 -0.00010562 0.0012039 2.4044e-05 0.0046 3.4828e-07 -5.0169e-06 0.0001763 -0.0016637
3.6499e-06 -1.6553e-06 2.9904e-05 2.141e-07 2.9688e-05 1.8674e-05 -5.7232e-06 -7.6619e-09 5.2142e-05 0.00015282
3.7293e-05 0.00042074 0.00026451 -4.6414e-06 1.3847e-05 0.00029874 -3.7325e-06 2.376e-05 0.00011624 0.00010487
0.00034045 1.2486e-05 1.3812e-05 0.29285 0.00060313 0.0034304 -3.5329e-05 -5.4949e-05 0.29297 -0.00031137
5.5807e-05 7.2789e-06 -4.0931e-05 1.6388e-05 -0.00014712 0.00477 2.2428e-05 2.1571e-07 -4.9274e-06 -0.0010214
0.00013028 4.7561e-07 -1.0942e-05 0.00070992 9.8381e-06 0.00042411 -2.7034e-05 2.4453e-05 9.6215e-06 2.1301e-05
1.9749e-13 1.5523e-14 1.0061e-13 -3.9618e-13 1.6763e-14 -1.9472e-12 1.5764e-14 -9.7912e-13 1.4002e-10 5.9949e-13
-1.2195e-05 4.604e-05 -4.8821e-05 5.0006e-05 0.0002037 0.001268 0.00033885 0.00051791 0.0027674 0.00043143
-3.9566e-05 0.4781 0.48356 3.035e-05 -0.00050613 0.34409 -0.00029029 5.8085e-06 -0.00029548 0.36041
0.00029003 7.6502e-06 7.2629e-05 5.1113e-06 -0.00056344 0.016939 -0.00023863 3.8753e-06 3.1582e-05 0.033798
0.00026786 2.1345e-05 2.2938e-05 7.2332e-05 1.8638e-05 0.0011769 0.00079695 0.00017648 0.000297 -5.637e-06
-0.0080111 0.001215 0.00040426 -1.57e-06 0.00098509 0.25353 0.59456 -1.9939e-05 0.00041814 0.24215
-5.5323e-05 4.0394e-07 1.4398e-06 0.00022073 4.7293e-05 -0.00023274 3.2439e-05 0.49128 0.43884 -7.3268e-05
9.3912e-06 2.3893e-06 -1.8969e-05 2.0115e-06 1.1839e-05 0.00053503 -3.9233e-06 0.00015147 -1.2264e-05 -0.00029688
0.10105 7.4629e-06 1.5497e-05 6.9429e-05 0.00021583 0.0011632 0.28732 -1.0291e-05 -7.1328e-06 -6.2846e-05
8.6806e-05 1.1299e-05 2.5992e-05 6.8223e-06 0.00025841 0.00027961 5.5648e-05 0.00093148 8.2784e-05 3.2659e-05
6.9985e-05 1.698e-05 1.4615e-05 6.8001e-05 3.4559e-05 0.0010546 0.00058529 5.1801e-06 3.4227e-07 -4.325e-05
0.16015 -7.2814e-06 1.8077e-06 0.26992 0.00015283 7.2328e-05 0.0014641 0.00023776 0.27949 -2.2383e-05
0.089461 -4.4967e-06 2.3206e-05 0.00048896 0.00011948 0.00017097 0.00069713 8.3578e-05 0.0012195 6.8687e-05
0.31352 -8.5555e-06 -1.8146e-05 6.0236e-05 0.5144 0.00060733 0.0024437 -4.1814e-05 0.0027653 0.00020593
-6.6399e-06 0.41119 0.41584 0.40032 -2.864e-05 -6.6706e-05 -6.0539e-05 9.6091e-06 -8.9741e-05 0.00034969
0.00034045 1.2486e-05 1.3812e-05 0.29285 0.00060313 0.0034304 -3.5329e-05 -5.4949e-05 0.29297 -0.00031137
0.00012684 2.7475e-07 -1.2337e-07 1.3924e-07 9.2575e-06 8.0251e-06 -4.1704e-05 2.621e-08 -1.7579e-06 -5.2968e-06
0.128 -2.0865e-07 -2.5839e-05 9.8081e-06 -2.2128e-05 0.0034848 0.0009653 1.8783e-05 5.5838e-05 -0.00071735
0.00030388 0.00016918 3.426e-05 -9.41e-07 -3.5676e-05 0.0043816 -1.5456e-06 8.724e-05 0.00019351 -0.0020229
0.19655 2.2253e-07 7.5069e-06 4.9608e-06 0.00032108 -5.6595e-05 0.0014183 1.1677e-07 6.852e-05 7.1339e-05
0.00038494 0.00021963 0.00041159 0.00021792 0.00034323 0.0012574 0.00062935 0.00026651 0.00060341 -0.00016099
0.13056 -1.7093e-07 -2.6953e-05 1.076e-05 -3.5778e-05 0.0035365 0.00096127 1.9183e-05 5.431e-05 -0.00073335
5.8758e-05 1.8542e-05 5.1124e-06 0.00033978 3.4472e-05 0.0012627 0.00058525 9.8948e-05 -2.9941e-05 -0.00020096
0.00026263 1.1297e-05 1.3267e-05 0.26652 0.00056014 0.0031223 -1.7516e-05 -4.9266e-05 0.26508 -0.00027075
0.10486 -2.3869e-06 -9.1685e-06 0.00013879 0.17348 0.00032549 0.00081903 -4.0861e-05 0.0011106 -1.7438e-05
0.15084 -6.3199e-07 1.2808e-05 0.25426 0.00055278 0.0030117 0.0013342 0.00021993 0.27457 -0.00033093
0.17242 -6.5046e-06 5.0636e-06 -2.7888e-06 0.000125 -3.9941e-05 0.0012947 9.5027e-07 -4.1142e-07 2.0287e-05
1.4607e-05 0.0018412 0.00026512 3.3978e-06 -3.529e-05 0.0012016 -1.5295e-05 -7.1199e-09 1.5115e-06 0.00042798
3.6739e-05 3.0563e-05 -2.7865e-05 2.9552e-05 4.6926e-05 0.0016908 0.00028252 4.6448e-05 1.3691e-06 2.8029e-05
3.9636e-07 4.1698e-07 -6.1361e-08 5.1855e-09 2.8457e-05 3.7001e-07 2.351e-08 -9.3288e-09 2.3301e-06 -3.8423e-07
0.00037891 0.00050202 7.7462e-05 1.9942e-05 0.00027029 0.003671 0.0012143 -1.0363e-05 0.00093969 0.00051864
2.1219e-05 -1.8943e-06 0.00011408 8.7193e-06 -0.00064919 0.019038 -0.0002489 -1.452e-07 -3.8806e-05 0.039177
5.3203e-05 4.5589e-06 -2.8466e-05 3.7658e-05 0.00024278 0.0036719 0.00047318 -5.2832e-06 0.00039556 0.00015743
1.0655e-08 2.5198e-10 -3.1172e-08 3.91e-10 6.5786e-07 1.9096e-06 1.1751e-07 8.0134e-08 6.4983e-07 -7.2928e-07
2.3582e-05 2.725e-07 -3.106e-06 1.6034e-06 0.00022919 0.00020174 2.3935e-05 3.2417e-07 8.5337e-05 -7.3365e-05
0.00013466 9.6209e-06 -8.6487e-06 0.18573 0.18072 0.0027989 8.5443e-06 -0.00010645 0.18439 -0.00041895
1.5099e-06 3.3316e-06 -3.4936e-05 2.9567e-07 -1.633e-05 0.0030357 3.8941e-06 -5.018e-08 2.9023e-05 -0.0012193
0.17583 -5.0113e-06 -1.8142e-05 2.0537e-06 0.28962 0.00018432 0.0013163 9.1114e-07 9.7391e-06 6.5957e-05
0.16574 5.073e-06 0.0001061 5.7972e-06 0.00011289 0.00056511 0.0012353 6.1823e-06 4.3556e-05 -0.00017514
7.5506e-06 2.5503e-07 1.8735e-06 1.6278e-07 -2.2658e-08 0.00060449 1.5763e-06 -3.2396e-07 3.917e-05 -0.00027407
0.00011074 2.0052e-05 -7.8621e-05 2.3794e-05 0.00069864 0.0089618 6.5484e-05 -4.4063e-05 0.01174 -0.0020736
0.15828 -7.2161e-06 1.916e-06 0.26674 0.00014656 7.1442e-05 0.0014472 0.00023691 0.27609 -2.1251e-05
-4.7411e-05 2.9705e-05 0.00036354 0.00017473 4.0334e-05 -0.00024695 2.6459e-05 0.41963 0.37433 0.00022903
0.17603 1.2124e-05 0.00011424 1.0296e-05 0.00014161 0.00055187 0.0013353 4.9991e-06 0.0001178 -0.00022194
-1.7766e-10 8.5342e-08 -4.4321e-10 1.1011e-07 7.6544e-08 6.2088e-07 2.3464e-08 7.5778e-10 3.6603e-07 -2.2548e-06
7.0856e-06 2.2918e-07 -1.4788e-07 -7.1787e-08 1.7346e-05 1.5439e-06 1.3166e-06 7.2239e-08 1.9087e-06 1.5303e-06
0.00021298 0.0026046 0.00075503 0.00027284 -2.6257e-05 0.0031189 0.0010238 5.3268e-07 8.246e-05 0.0013159
0.00011794 2.734e-05 0.00015084 0.00029607 0.0002264 0.17079 6.3525e-05 2.5906e-05 0.00097492 0.16515
3.2285e-05 -2.6093e-06 -0.00011422 1.1792e-05 0.00032102 0.0050986 6.2759e-05 -1.4352e-06 9.4595e-05 -0.0013142
3.7669e-06 6.1168e-07 -3.6517e-05 3.6283e-06 -5.6753e-06 0.0022912 1.1945e-06 6.8839e-05 8.4763e-05 -0.0012256
0.13286 1.0287e-06 1.0425e-05 2.9689e-05 0.00044371 0.0025769 0.00095532 -1.3441e-05 0.0064336 -0.00027136
0.0002673 9.763e-06 1.0956e-05 0.22995 0.00052681 0.0026932 -2.7616e-05 -9.5078e-05 0.23115 -0.00024671
-3.3539e-05 6.1213e-05 0.00027661 -1.0378e-06 0.00028763 0.33001 9.1948e-05 4.8824e-05 -0.00019382 0.31614
-1.884e-05 0.3745 0.37643 1.7584e-05 -0.00057632 0.28126 -0.00032732 4.6768e-06 -0.00025579 0.31674
-8.5588e-05 1.9868e-06 -2.4408e-05 2.7473e-05 0.29131 0.00103 3.3045e-05 -2.886e-05 0.0013961 -0.00034591
8.4994e-05 3.7427e-08 -3.2992e-07 3.9449e-07 2.7576e-06 1.812e-05 2.7635e-05 -2.6131e-07 1.5591e-06 -7.7951e-06
9.2869e-05 5.1289e-05 0.00019411 0.00035166 0.00024809 0.20238 8.1689e-05 3.0874e-05 0.00115 0.19864
2.3101e-06 1.0907e-05 4.0814e-05 3.0468e-06 -1.1748e-05 0.00027262 8.5245e-06 0.63084 -0.00056852 9.4926e-05
5.5767e-07 -7.6145e-06 -3.4216e-05 1.2406e-07 2.6771e-06 0.00015878 -2.2432e-06 -1.8338e-08 6.8915e-07 0.00010249
0.00058173 6.3907e-07 -2.307e-06 -2.9497e-06 0.00023237 0.00027985 7.7201e-05 0.00037582 0.0012536 -0.00012609
