-2.4946e-06 -2.0375e-06 0.34011 1.3042e-06 -2.3841e-05 1.4557e-05 0.46671 -1.1727e-06 9.0655e-06 -1.948e-06 -4.4902e-06 7.7445e-06 -2.0728e-05 -5.326e-07 1.6091e-06 -5.7306e-06 -1.4894e-06 -8.5605e-06 1.8875e-06 -2.4374e-06 -2.3938e-05 5.2606e-05 -1.3782e-06 4.356e-05 -6.8548e-06 -2.4486e-05 -7.5505e-06 -2.3952e-05 9.4498e-07 -6.9258e-05 1.8482e-05 5.606e-05 -2.2973e-06 -3.3648e-05 -9.9211e-07 -2.2028e-05 -8.8266e-06 1.4077e-06 2.2076e-05 0.29289 -1.9727e-05 -2.0518e-05 6.8169e-08 -2.552e-05 -7.2639e-06 -1.0721e-05 -1.9401e-05 -7.061e-05 -2.5825e-05 2.2609e-07 -1.8448e-05 1.3084e-05 0.00016366 -1.0988e-05 -3.8951e-06 6.8661e-05 -2.2566e-05 3.9677e-06 2.9336e-06 1.7967e-05
1.9534e-07 6.089e-05 -3.0276e-06 2.0819e-06 7.1907e-07 0.00012179 -3.1135e-06 -3.2662e-06 3.0345e-05 -2.9391e-05 3.4159e-07 -2.0003e-05 -9.3124e-05 -1.9378e-05 3.7446e-08 -4.8785e-07 1.4907e-06 0.50995 -4.7258e-05 2.7348e-05 0.0058408 -2.6928e-07 1.9522e-07 -6.4482e-05 -2.6743e-06 0.0013684 1.8354e-06 -6.8945e-05 -5.3914e-05 -3.5311e-05 7.0402e-06 0.0001063 -5.3071e-06 -4.8713e-05 1.3702e-05 -4.4875e-05 2.3384e-06 -2.2083e-05 3.4047e-05 0.00032112 0.00017991 9.547e-06 -2.0221e-05 -5.2768e-07 -1.9948e-05 5.6085e-07 2.3885e-06 -0.00016214 -1.5807e-05 -9.3094e-08 0.00049043 3.9877e-05 -0.00013479 8.1758e-06 -3.7071e-05 -0.00019395 2.7015e-05 0.00023648 -0.00036363 -0.0003954
-1.1083e-05 -4.264e-06 9.1646e-07 0.25152 1.0217e-06 0.17841 4.4018e-06 -8.7761e-07 4.5235e-07 5.6887e-05 -3.7352e-06 7.4021e-06 -2.3968e-05 -2.061e-05 1.3163e-05 1.4172e-06 0.54114 3.8165e-06 -4.274e-06 -6.6261e-07 8.2666e-06 0.23765 -2.4524e-06 0.00018363 -1.2829e-05 2.818e-05 1.7578e-05 8.7549e-06 -8.2471e-06 -1.0139e-05 0.00018837 -1.417e-05 -7.9323e-06 -2.4439e-05 -2.7216e-06 -3.1198e-05 -9.7677e-06 -2.8594e-05 -9.3958e-06 4.876e-05 -0.0001003 -5.928e-05 -6.7166e-05 2.1192e-05 -2.5729e-06 -3.35e-05 -2.2768e-06 -3.9836e-05 -6.4026e-05 1.9571e-06 -2.2988e-05 3.9019e-05 -5.01e-05 -1.0412e-05 0.19861 -0.00018444 0.00086429 6.6643e-05 4.9813e-05 -1.0593e-05
1.5393e-06 -1.6406e-06 1.923e-05 -6.9539e-05 -3.4336e-07 -5.6555e-06 -3.5196e-05 4.7222e-06 2.9345e-05 0.0002344 5.697e-07 7.0534e-05 0.00038701 1.9944e-06 -1.2106e-06 -1.523e-06 1.7662e-06 -5.2361e-06 -0.001234 0.0091718 0.0014802 0.00019218 -6.2676e-06 0.00011659 7.8097e-07 4.8347e-06 -7.5686e-05 0.0049932 -3.8967e-05 -0.00022863 -8.7725e-05 -0.00057001 7.973e-06 0.012318 -6.9541e-06 0.0028631 -0.00015373 0.00023523 -3.3165e-05 0.00078131 -6.751e-05 0.26086 7.3145e-05 -7.2641e-05 0.0014666 -1.0543e-06 -5.6665e-05 -0.00024649 1.1776e-05 1.0735e-06 -5.2414e-05 -9.5468e-05 0.0050543 2.7724e-05 0.00086814 -0.0004538 -1.5457e-05 -0.00027746 1.5612e-05 -0.00019684
2.0599e-06 -1.504e-05 1.2153e-05 -1.5435e-06 1.0771e-05 3.8485e-05 0.3127 -2.7389e-07 1.0737e-05 -5.3797e-06 5.2606e-06 -2.0592e-05 1.0644e-05 2.8755e-06 3.0489e-06 -3.8103e-05 1.575e-05 2.2889e-06 0.39636 0.00064855 4.8233e-05 -5.8974e-06 7.9327e-07 1.5041e-05 -4.1521e-06 -5.0511e-05 -7.3658e-06 -1.0436e-05 1.0933e-06 4.5984e-06 -7.9629e-06 0.00013732 8.616e-06 1.8494e-05 -1.0549e-05 1.7587e-05 3.8654e-05 0.00040994 -5.7978e-05 6.6703e-06 7.3002e-06 4.0498e-06 1.2461e-05 1.8149e-06 -0.00018154 -7.7456e-06 2.0606e-06 0.00015123 -1.785e-06 -6.3086e-06 -1.4011e-05 -4.3131e-06 0.001379 6.7773e-05 8.5493e-06 0.00033566 7.508e-05 -0.00012236 -6.7599e-06 8.6684e-05
2.3165e-06 0.17315 3.7416e-05 -4.7286e-06 4.7782e-06 9.2429e-06 -1.1376e-05 1.5112e-05 9.6396e-06 -2.6616e-05 -1.0148e-05 3.2693e-05 0.0063476 -0.00019283 1.6342e-06 1.8152e-05 -1.1681e-06 0.40511 0.00011202 0.00029386 0.00027873 -7.7291e-06 -5.7882e-08 -6.2206e-05 -5.045e-05 0.4138 -0.00029867 -4.3809e-05 7.7989e-05 -1.4022e-05 -0.00045405 -2.1812e-05 -5.4838e-05 0.01102 -7.8808e-07 -5.0655e-06 0.00013083 2.7624e-05 0.77307 -7.4791e-05 0.39378 0.00060275 -0.00027567 1.3148e-05 -0.00050838 -6.5233e-05 2.6012e-05 0.86129 2.599e-05 9.8803e-08 2.6279e-05 -5.7478e-06 0.0010295 2.3978e-06 -1.1037e-05 0.0012291 3.8697e-06 -6.8009e-05 0.0002802 0.00027663
-8.7307e-07 1.3707e-05 8.7315e-06 -1.098e-06 3.1248e-05 9.6671e-05 4.6643e-06 2.8589e-06 -1.4921e-06 -0.00023153 0.0011673 -8.5357e-05 -9.5597e-06 0.0003086 -0.00043267 0.00012386 1.7656e-06 -1.6945e-06 -0.00011454 -4.7897e-05 -2.8436e-05 -0.00024174 1.4768e-05 0.00019951 -4.7843e-06 0.00011325 0.00060587 0.00046143 0.00010048 -0.00027177 0.00095741 0.00090654 0.73413 0.0003214 -2.3357e-06 0.00021057 0.00078849 -3.2723e-05 5.0659e-05 0.00054222 0.002272 -1.0669e-05 0.0070251 -3.5329e-05 1.6551e-07 -1.0712e-06 -2.6203e-05 -0.0002558 2.1995e-06 -3.9129e-06 6.5754e-06 -0.00026325 -5.0905e-05 0.0001034 0.0014503 -0.00059858 -0.00019629 -7.3892e-05 -0.00024169 -0.00071042
-4.1713e-07 -1.839e-06 1.3712e-05 7.8666e-06 6.4566e-07 0.00038737 4.9591e-05 -4.4294e-06 1.076e-06 0.00024182 8.4184e-07 8.9167e-06 -8.8106e-06 -1.1869e-05 -3.1991e-06 -1.455e-06 0.16199 -2.7177e-06 0.00091539 3.5108e-05 -4.8655e-06 3.5244e-06 8.0318e-07 -4.2975e-06 0.00042928 -2.9451e-06 7.0753e-07 -1.3625e-07 -2.9066e-06 7.641e-07 -9.3372e-06 -7.3996e-05 3.6186e-06 -2.6427e-05 -1.1298e-05 2.8099e-06 -6.5e-06 -0.00011961 4.9859e-06 -1.7723e-05 0.00069326 1.1332e-05 -8.0637e-05 1.8118e-06 -0.00013878 -2.1555e-06 2.2233e-06 7.2404e-05 -3.4599e-05 -1.567e-05 8.1846e-05 4.7405e-06 0.001275 6.4332e-05 0.00036078 -0.00017344 -0.00018075 3.6689e-05 -1.2334e-05 -0.00016273
-4.4773e-06 4.4988e-06 1.0916e-05 4.64e-05 1.0463e-05 -0.00017018 -6.8378e-06 -7.1884e-06 1.2363e-05 -0.0001691 0.00082715 -3.8984e-05 -3.4506e-05 0.37979 -0.00031177 8.2039e-05 -3.569e-06 -4.6938e-05 -5.4654e-05 -9.5766e-05 -2.4239e-06 6.4123e-05 -9.8352e-06 0.37203 -1.2753e-05 -1.4292e-05 0.0001512 0.34317 -2.5331e-05 -0.00061564 1.2288e-05 0.00061821 0.00087717 0.0013255 1.9922e-05 9.7119e-05 0.00055223 8.1997e-06 4.7068e-05 0.15864 0.001165 4.9535e-05 0.0047607 -0.00016015 6.748e-05 -2.4802e-05 -0.00011433 -0.00015137 4.2246e-06 -2.0594e-06 -0.00013939 -9.7408e-05 -0.00039638 6.1932e-05 0.20232 -0.0007881 4.7503e-05 -1.1368e-05 -0.0001384 -0.00048194
1.0373e-05 0.15768 1.1226e-06 2.7139e-06 1.0605e-05 -1.2848e-05 -1.7765e-06 -1.0275e-05 -2.4842e-06 1.1461e-05 -4.9366e-06 -1.798e-06 1.3733e-05 -2.7893e-05 -5.6714e-07 -5.9011e-07 -1.4614e-06 -3.8195e-07 -3.3052e-06 -3.1151e-05 -2.2877e-05 -0.00018527 -0.0001036 -7.0078e-07 1.0097e-05 0.00016609 -1.6786e-05 0.34959 -1.333e-05 0.41512 1.1782e-05 -5.0869e-06 -3.17e-05 -0.00026805 -1.2107e-05 0.31167 -8.4954e-06 1.2561e-05 -6.3694e-06 0.16848 -7.6312e-05 -4.1707e-06 -1.6743e-05 0.46809 1.4388e-05 4.0337e-06 -2.5081e-05 1.4093e-05 -1.2475e-05 -6.8838e-07 -0.0001099 -8.4717e-05 -9.5742e-05 2.3579e-05 -0.00014848 0.00016449 -0.00014093 0.00010463 -0.00031345 1.3226e-05
4.1047e-07 -1.1671e-05 5.4755e-07 3.3923e-06 4.6051e-06 -8.7444e-06 -4.9434e-07 5.9801e-06 2.3503e-05 -1.3882e-05 -0.00016537 8.0199e-05 0.00014702 -1.5238e-05 3.137e-05 2.8443e-05 1.1531e-06 -3.4909e-07 -0.0012066 0.00013585 -3.4338e-05 -0.00013545 -4.3039e-06 -1.9681e-05 -1.8284e-05 -7.9773e-07 3.811e-05 -2.8396e-05 -0.00010446 1.4999e-05 -1.3164e-09 5.6302e-05 7.2205e-07 0.00019536 -4.98e-05 -1.0123e-05 6.9024e-05 0.377 2.7883e-08 0.00051675 1.082e-05 2.0801e-05 2.2807e-05 -1.5128e-05 -2.1636e-05 -3.6509e-07 2.4616e-06 4.399e-05 4.7945e-07 1.8881e-05 0.28767 -5.8168e-05 0.00024099 -0.00041965 0.0040482 0.00010376 -0.00034932 -0.011133 -0.0008307 -0.001663
7.5736e-06 0.44273 -3.4619e-06 -1.6504e-05 1.0955e-05 2.8256e-06 6.812e-07 7.9853e-05 0.00013771 3.4266e-06 0.00026102 0.0012099 -0.00054179 -0.00018168 -2.2693e-05 3.2185e-07 -1.0496e-06 2.9288e-05 -8.135e-05 7.7083e-06 1.2256e-05 -5.2908e-05 -1.0505e-05 -7.112e-05 -4.0949e-05 0.00024081 -0.00044713 -1.7101e-05 0.0012459 6.3389e-05 -0.00056818 -0.00012713 -1.3871e-05 9.6517e-05 -1.274e-05 -4.3906e-06 -0.00011194 0.0012614 -6.8383e-05 6.7742e-05 0.4986 4.2217e-05 -0.00031585 2.4086e-05 -5.5877e-06 -0.00010937 1.1966e-05 -0.00089214 -3.5413e-06 -5.2112e-06 0.0025575 -6.1493e-05 8.8849e-06 8.8933e-05 -9.6582e-05 -0.00017902 -4.7082e-05 -0.0026879 0.70773 0.0010263
-6.2734e-07 7.7995e-06 1.5148e-05 6.4104e-06 -6.1683e-07 0.00019498 -1.1528e-06 -6.8883e-06 -9.0522e-06 -4.4514e-06 1.0064e-05 -5.7049e-06 0.60134 -8.4392e-05 1.2659e-06 8.9232e-05 2.4869e-07 9.7308e-05 0.00028089 -1.6768e-05 0.0011326 0.00089952 5.9205e-07 -2.7927e-06 -3.4975e-05 0.00019233 -0.00014842 2.3214e-06 1.6382e-05 -6.0598e-06 0.00074701 -4.109e-05 2.7917e-06 -6.999e-05 -1.7332e-05 0.00051298 0.54688 -1.784e-05 -0.00069491 0.00040817 0.0035834 2.4128e-05 -5.5688e-06 -4.1794e-05 -4.7225e-05 -5.3001e-05 4.6755e-06 0.0099148 -9.7976e-06 -8.8242e-08 2.5382e-05 -2.6949e-05 2.8343e-05 -2.3108e-06 0.0024614 0.0043482 -0.0001232 -4.9909e-05 -0.00017713 8.981e-05
0.22373 -5.7538e-06 0.31404 -2.1394e-05 0.060628 0.0002538 -3.7519e-06 -4.3646e-06 2.2557e-05 3.1868e-05 0.00071577 -3.5956e-05 0.00019806 0.00052776 -0.00026833 0.32821 -2.5571e-06 -2.3469e-05 0.00079817 0.00062949 -0.00010041 -0.00016114 -5.9432e-06 9.2107e-05 -3.5287e-06 0.00015777 0.00016118 0.00025223 -1.3296e-05 -0.00018375 3.4833e-05 0.25694 0.00073634 0.00053021 3.5943e-05 0.00011732 0.00059748 0.00032309 6.5847e-06 0.13674 0.00225 0.00098613 0.0042769 -5.3911e-05 -0.00014678 -1.3029e-05 -3.9777e-05 -0.0001024 4.1695e-05 -0.00013902 0.0092744 6.2106e-05 0.0034777 0.0022214 0.18284 0.00037902 -0.0012229 -0.00042545 -0.0014332 -0.0010935
-0.00026135 2.8578e-05 3.5653e-05 5.0645e-06 -0.00061368 0.00012666 8.0675e-05 -4.1791e-06 2.0971e-05 -5.8168e-06 -8.8096e-06 -0.00014442 0.34083 0.001264 2.5246e-06 0.32518 -4.0083e-06 0.00055709 1.4874e-05 -4.1713e-05 -4.3264e-05 -0.00099222 -1.2587e-06 -1.0892e-05 0.00017784 3.2595e-05 0.00011339 -5.4253e-05 -1.1071e-05 3.4235e-05 0.0022473 5.7449e-05 7.5517e-06 0.18436 -0.00010771 -0.00011405 0.00088989 -3.2797e-05 -0.00040034 0.00026593 0.0080664 0.00041003 3.4173e-05 -4.8108e-06 -0.00017682 0.00045098 4.3522e-06 0.0062384 -7.6983e-06 4.7458e-06 0.0033883 -0.00020589 -0.00026529 -7.548e-05 0.1933 0.42656 -0.00049141 -0.001115 -0.00062385 -0.00043908
0.31595 6.4617e-07 0.21962 1.0048e-05 0.32358 -2.7595e-05 8.6731e-06 1.8692e-06 8.5918e-06 -4.0939e-06 -0.00013102 -1.7684e-05 -1.1886e-05 1.9495e-06 4.9616e-05 -0.0001475 4.7456e-07 1.9982e-07 9.4718e-06 1.8504e-05 -3.2559e-06 2.7469e-05 0.63226 2.2114e-05 -1.9431e-06 -0.00013043 1.7288e-06 3.0122e-05 2.2936e-07 0.45847 2.3592e-06 5.1839e-06 -2.6974e-06 5.6473e-05 -2.8488e-07 -0.00024742 2.8794e-07 -2.4604e-06 1.0173e-05 -0.00046137 4.0944e-05 -3.793e-07 8.2011e-05 0.00013745 -3.5234e-06 6.7029e-08 8.4058e-05 -3.1813e-05 -4.5808e-08 -5.6027e-07 1.274e-05 1.4629e-05 0.00025092 -8.1411e-06 2.1023e-05 -1.7639e-05 3.3521e-05 0.00013555 2.5423e-05 8.2256e-05
0.30505 1.4374e-06 0.21083 -1.1676e-05 0.31074 0.21172 7.6815e-06 -3.5217e-07 -3.5797e-06 3.2893e-06 6.5812e-08 6.3827e-07 -7.7841e-06 6.6672e-05 -1.3723e-06 -0.00022395 4.5901e-06 -4.0287e-06 -6.5372e-06 -2.1364e-06 -1.0373e-08 -2.673e-05 -3.8104e-05 0.00020612 -8.2869e-06 4.4665e-05 -4.136e-06 -9.3676e-06 6.82e-06 -2.8017e-05 4.7715e-06 -2.0076e-05 -9.8378e-06 -3.3303e-05 1.3561e-06 -4.7408e-05 6.9764e-06 -2.0713e-06 8.8639e-06 0.0014892 -3.9964e-05 -4.2361e-05 -2.4619e-05 -4.3251e-05 1.9961e-06 -3.014e-05 -0.000373 -7.0513e-05 0.6371 -1.626e-06 -2.6419e-05 -6.5823e-06 0.00017031 -1.4392e-05 -4.8279e-05 4.218e-05 -8.6134e-06 2.1852e-06 -3.1862e-05 -5.9074e-06
1.81e-05 0.00012028 6.7165e-06 0.25652 4.7783e-05 -7.3299e-06 -2.6566e-05 1.8674e-05 3.5969e-06 -8.4986e-06 -9.6789e-06 0.25543 -6.144e-05 -4.1157e-05 0.00052508 -1.5728e-05 -4.7031e-05 -1.2114e-05 -5.733e-06 9.2642e-05 -2.3412e-05 0.24365 3.0974e-05 -5.0042e-05 2.8333e-06 5.5841e-06 0.29736 8.2525e-06 0.00013471 -1.907e-05 0.30426 0.30068 -1.9768e-05 0.0003892 0.69526 -5.6333e-05 -9.5161e-05 0.00065067 1.816e-05 0.15645 -0.00013939 0.24156 -3.7171e-05 4.2199e-05 -8.8647e-05 -1.7726e-05 3.9096e-06 -1.3939e-05 7.5929e-06 1.2474e-05 -6.7626e-05 0.6953 0.00037727 -6.4084e-05 0.20276 -0.00018848 0.001351 0.0048303 2.0401e-05 -8.9442e-05
-3.3081e-06 1.1929e-05 2.5534e-05 -1.2259e-05 -2.6647e-05 -1.4595e-05 2.737e-05 3.594e-06 5.0539e-06 5.4737e-05 -7.0625e-06 -1.0804e-05 -5.8556e-05 0.34732 3.6549e-06 7.0029e-07 -6.9097e-07 3.3205e-05 -7.0972e-05 0.00044861 -0.00010372 1.0961e-05 1.6477e-06 -4.067e-06 -1.023e-05 -3.8955e-07 1.5094e-05 0.00041143 -2.5469e-06 -6.8462e-05 1.1375e-05 -2.1055e-05 4.4763e-06 0.19462 1.8939e-06 -6.6397e-05 0.00010743 -9.5238e-06 -0.00014733 -0.00015501 2.8948e-05 0.00051885 -4.0488e-05 -2.9326e-05 -0.00036599 -2.6582e-05 -1.0907e-05 0.0008916 1.2811e-05 -5.3543e-06 0.00023342 2.0816e-05 0.0085293 2.7612e-05 -0.00025645 0.0013493 1.6945e-05 2.9281e-05 2.2642e-05 6.8333e-05
-6.3935e-06 7.2471e-06 2.8951e-05 -1.652e-06 1.7631e-05 0.27515 6.9473e-06 1.579e-05 -7.252e-06 0.00014081 0.00057343 -6.4967e-05 -0.00032311 -3.2654e-05 -0.00011884 7.1827e-05 8.8743e-07 0.00032065 -0.00013536 0.00049993 0.00034959 -3.5416e-05 -6.0371e-06 0.014974 -6.2373e-05 2.8928e-05 -0.00011188 0.25179 0.35711 -0.0004698 -0.00030697 0.0003924 0.0011438 0.16465 1.6962e-05 -1.7645e-05 0.00070339 -0.00010614 -8.0101e-05 0.00080024 0.26313 0.00021349 0.29186 -6.1425e-05 4.6297e-05 -0.00010378 2.9871e-05 -0.00053721 -0.00012813 -0.00022086 -0.00028293 -0.00012359 -0.00035664 0.00036113 0.00012481 -0.0018251 3.0552e-06 2.4756e-05 -0.0006107 -0.0015367
-1.4137e-05 3.176e-06 0.29757 3.8247e-06 -1.5567e-05 1.1618e-05 -4.6653e-06 -2.2516e-06 8.1013e-06 2.0547e-05 -1.374e-06 0.00041124 0.42975 0.00022094 -5.0125e-05 -3.5028e-05 1.066e-06 -5.0596e-05 -0.00012831 -0.00064402 0.32254 -5.35e-05 1.7191e-06 -4.4862e-06 -2.1199e-05 4.8566e-05 0.0013773 -9.7458e-05 -1.118e-05 3.7822e-05 0.00012752 0.00054704 -9.0477e-06 0.009848 3.8672e-06 -4.6792e-05 2.5203e-06 -1.731e-05 -0.0008486 8.3223e-05 -0.00035069 1.2562e-05 -1.0752e-05 2.1042e-05 0.46926 -3.3201e-05 -2.1322e-05 -0.0023512 -6.3234e-06 -3.1147e-06 -0.00023477 -1.474e-05 0.48243 0.00014988 -0.00026086 -0.0034009 -6.2873e-05 -0.00084798 6.0327e-05 1.3045e-05
1.035e-05 0.2212 1.8538e-08 -1.7882e-07 2.1014e-07 -3.8578e-06 -2.5175e-05 1.781e-06 2.0264e-05 -3.5669e-06 1.1307e-05 3.4915e-06 3.2822e-06 8.1612e-06 2.6633e-06 1.157e-06 -1.5475e-06 5.8683e-06 -3.2173e-05 3.3511e-05 -2.7725e-07 3.0779e-05 -1.2224e-06 1.8282e-05 -7.8615e-06 0.51583 5.1238e-05 9.9105e-06 -0.00014939 -8.9072e-05 0.00084352 2.1658e-06 1.9652e-05 -7.0261e-05 2.5578e-07 -3.2347e-05 0.5233 -3.5479e-05 0.00026922 0.2279 0.00019207 1.4738e-05 -4.6964e-07 2.1319e-05 -3.3595e-06 5.445e-06 -3.6816e-07 -0.0015717 -2.5228e-05 1.5315e-05 0.43925 3.1596e-05 -1.3512e-05 -0.00017653 -0.00030542 1.878e-05 3.2063e-05 2.2287e-05 0.70647 5.8395e-05
0.47525 -6.1661e-07 0.33092 2.0243e-05 0.48767 -2.4067e-05 1.0483e-06 9.7409e-07 2.0128e-06 -3.0272e-06 -1.1545e-06 -2.1542e-07 -1.7543e-05 1.7073e-05 -2.6242e-06 2.001e-05 5.9724e-07 -3.4327e-07 4.0417e-06 9.3037e-07 -3.4817e-06 -2.5615e-06 -1.217e-05 3.1064e-05 2.9264e-07 3.5254e-06 -6.886e-07 7.1438e-05 -4.8909e-07 -1.417e-05 1.1788e-06 -1.7946e-05 -7.5773e-08 -3.4821e-06 -1.1216e-07 4.8423e-06 -3.7636e-07 6.1547e-07 1.9887e-05 8.0203e-05 8.5916e-06 -1.0953e-05 1.5951e-05 2.9149e-06 -1.1187e-06 2.5476e-07 0.52518 -6.3525e-05 0.00047055 -2.2255e-06 -1.0956e-05 3.2291e-06 0.00015347 -5.8582e-06 -6.4952e-06 1.2619e-05 3.1751e-05 4.6564e-07 1.5466e-06 1.0107e-05
1.4024e-06 2.0838e-06 3.6179e-05 9.172e-07 1.4484e-06 1.5391e-05 3.0802e-05 -3.3175e-07 4.3402e-06 5.8752e-05 -1.1163e-06 5.1935e-05 0.00012758 5.1523e-06 -6.9766e-06 0.00018995 -1.084e-06 9.3197e-06 -0.00015885 0.0012293 0.00010334 0.00016628 6.1924e-07 3.6312e-07 -5.6036e-06 -8.214e-08 5.331e-05 -9.7702e-06 3.1272e-06 -5.6539e-06 5.5467e-06 7.538e-05 1.032e-05 0.0012812 -2.2153e-05 -3.0206e-05 6.0675e-05 1.0623e-05 -1.3318e-05 1.1353e-05 0.00011878 7.4638e-05 0.00013509 2.4764e-06 -4.7936e-05 -1.3711e-05 -7.4574e-06 0.00024401 1.2986e-06 -3.9987e-05 -1.2827e-05 -6.2109e-05 -5.9801e-05 0.0006244 0.001698 0.41264 -5.3269e-05 -0.00034887 2.3572e-05 2.5476e-05
-1.3166e-05 -5.3769e-06 -5.4098e-06 -2.801e-05 1.0679e-07 -1.3307e-06 -3.1079e-05 -2.4261e-06 1.0647e-05 0.39018 -1.9403e-06 2.6896e-05 0.00014275 2.3445e-05 8.0447e-06 -1.8821e-06 -1.8128e-06 -3.9441e-05 -4.8257e-06 3.7252e-05 0.0012593 0.33233 -5.1031e-06 1.8685e-05 -5.7111e-06 7.2907e-06 0.00015073 -6.37e-05 -0.0001284 -2.7238e-05 0.00032876 -6.9405e-05 1.9149e-05 0.011952 1.1338e-06 0.0038257 -0.0002426 3.1015e-05 1.0389e-05 0.0009594 -0.00015329 0.0048955 0.00016234 -6.9881e-05 -7.1204e-05 -1.053e-05 -9.237e-07 -3.3443e-05 -3.7371e-06 -7.3442e-06 -0.00013909 -4.3902e-05 -7.3241e-05 5.4861e-05 0.27614 0.00016359 2.9272e-05 -2.9241e-06 4.3819e-05 1.4417e-05
7.9755e-07 3.2662e-06 -3.435e-06 -7.2637e-07 5.2448e-07 6.367e-05 -2.1273e-06 0.0001216 -5.8318e-06 0.4889 0.41484 2.2786e-05 3.2056e-06 5.4432e-06 6.9406e-05 -1.1952e-05 -2.2488e-06 -5.7742e-05 -6.9492e-06 -1.1325e-05 1.0111e-05 -7.9923e-07 3.4677e-05 -0.00030411 1.5954e-06 1.0171e-05 -2.4622e-05 9.8788e-05 0.0038776 3.1742e-05 -2.0418e-06 -9.5151e-05 -0.00012854 -0.00010166 -8.4895e-06 4.9764e-05 -1.182e-05 3.1695e-05 3.1208e-05 -3.3659e-05 -0.00040762 3.0013e-05 0.6177 3.9645e-05 -1.0212e-05 2.3397e-06 9.566e-06 -7.9357e-05 -8.864e-06 6.1743e-06 -1.5212e-05 8.0229e-06 3.1911e-05 6.2099e-06 -0.00013911 0.0003237 4.0211e-05 1.3666e-05 8.6542e-05 0.00011668
-4.3572e-06 7.7403e-05 4.0779e-06 -1.3429e-05 -5.2904e-08 0.00015827 7.1849e-06 1.0699e-05 1.6488e-06 2.4807e-05 -0.0001738 -6.9534e-06 0.00021221 6.442e-06 0.00013544 0.0001665 4.1947e-07 1.2312e-05 -4.2403e-05 -9.1872e-07 -5.7167e-05 0.00028655 3.9346e-06 -0.00027733 -1.2831e-06 -0.00017457 0.00020708 -6.643e-05 4.622e-05 1.741e-05 0.00055663 3.7254e-05 0.00023792 0.0013908 2.8188e-05 9.55e-05 -1.5615e-05 0.00035324 -0.00069304 0.00040224 -0.0010095 0.00024977 0.52083 4.8125e-06 -8.997e-06 -4.0383e-06 2.5708e-06 0.007445 -2.3967e-05 -9.4639e-07 -4.1005e-05 2.3569e-05 0.00026858 1.6425e-05 0.14463 0.0056424 -2.2529e-05 0.00068398 0.00023528 0.00015101
4.3674e-05 -1.2322e-06 0.00015471 -3.2373e-05 0.00012912 4.1378e-05 1.7227e-05 -4.8304e-06 2.0055e-05 0.0001165 -4.74e-06 -0.00012908 -9.8785e-05 0.00028483 6.1299e-06 1.7652e-06 -4.9549e-06 3.2997e-05 -0.00010539 0.00071079 -7.6528e-05 0.00052335 1.4868e-06 -3.5671e-05 -5.5971e-06 0.00015515 -0.0001047 -3.8985e-05 9.6106e-08 -3.0314e-06 5.975e-05 0.00010119 -2.1642e-06 0.17741 -5.3559e-05 -0.00010219 7.6857e-05 -0.00015963 -0.0001581 0.00054681 0.00073338 0.20417 -8.5646e-05 -7.6283e-07 -7.6334e-05 -1.6702e-05 0.00020329 0.00091409 -1.7467e-05 -7.9398e-05 0.0028308 -6.0869e-05 0.0023203 0.0014889 0.19537 0.0021103 -0.00051309 -0.00085882 -0.00065473 -0.00016882
-1.2911e-08 1.5574e-05 -2.1122e-07 -9.0228e-06 -2.2173e-06 -5.7613e-06 -9.522e-08 2.5303e-05 -9.1956e-06 0.00035993 2.045e-06 -2.1251e-05 -2.2544e-05 1.6502e-06 -2.2206e-06 -2.7384e-06 3.1676e-07 2.0528e-06 -7.3065e-07 -1.097e-05 8.2864e-05 -3.8238e-05 5.8541e-08 1.0064e-05 -3.3581e-05 2.6946e-05 -2.1469e-06 2.5707e-05 0.0036083 1.0446e-05 0.00012939 -7.8125e-06 1.6842e-06 6.953e-05 -2.4729e-06 5.2675e-06 -6.8066e-05 -0.00031721 -1.3896e-05 -8.6913e-05 1.2931e-05 0.00019481 -0.00010874 3.1856e-07 1.8721e-05 -8.5742e-07 2.0782e-06 2.1307e-05 2.5976e-06 4.3005e-05 0.49971 1.9536e-05 -0.00011654 -0.00088757 0.00021128 -9.3282e-05 7.9442e-05 5.0528e-06 -0.00010228 0.00013663
1.2059e-05 0.25392 -2.3217e-06 2.8609e-05 2.4607e-05 -2.9495e-05 -2.0454e-06 5.0415e-05 0.69539 -4.1253e-06 0.20319 0.21402 -0.00030762 -0.00010272 0.00030566 -1.8974e-05 -1.7017e-06 2.3503e-05 -0.00040992 3.6546e-05 -2.7459e-06 6.5332e-05 2.1687e-05 -3.0443e-05 -5.1485e-05 3.207e-05 -0.00024444 -3.998e-05 0.00060851 3.4941e-05 -0.00028707 0.00036895 -1.48e-06 3.1412e-05 0.00015468 -4.378e-07 -3.34e-05 0.33017 -5.4267e-05 1.9268e-05 0.28668 4.3709e-05 -0.00021391 1.6048e-05 5.2602e-06 -6.2495e-05 9.2605e-06 -0.00062498 2.3134e-06 1.3713e-05 0.25382 -5.6463e-05 -7.5757e-05 -0.00021085 8.3563e-05 -6.7896e-05 0.00018569 0.0043865 0.00096609 0.99998
-6.0058e-07 8.9187e-06 -1.7329e-06 -4.1038e-06 2.8573e-05 0.0002972 -3.0752e-05 1.3839e-05 -3.7281e-07 3.1039e-05 0.00077391 -7.6396e-05 -0.00023241 1.7642e-05 -0.00027418 0.00012281 1.1448e-06 1.9264e-05 -0.00018102 8.6894e-09 0.0010152 -6.012e-05 1.0124e-05 0.00041139 -5.977e-05 4.896e-05 0.27126 0.00032189 9.4005e-05 -0.00017445 0.015167 0.0050048 0.0015161 0.00054428 -0.00010711 8.2308e-05 0.33596 7.5974e-05 0.00031509 0.0020634 0.31947 0.0015121 0.0045896 -3.0609e-05 -5.5342e-05 -7.4264e-05 3.0183e-06 -0.0010448 -2.2894e-05 -0.00085285 0.0058303 -0.0007776 0.00037204 0.0017291 0.0047588 -0.0004051 -0.0014392 -0.00032957 -0.00094421 -0.00058499
1.7572e-06 4.7125e-06 5.0056e-05 -1.5189e-06 1.0134e-05 9.1235e-06 -7.591e-06 -6.9518e-07 1.7466e-05 0.00063989 9.1077e-06 -3.5689e-07 -3.7392e-05 7.6314e-07 2.6428e-07 -8.6027e-05 -2.9977e-06 7.9155e-06 0.46371 -0.00062407 -1.8003e-05 -4.0788e-05 2.7061e-06 5.5982e-06 1.2676e-06 -3.062e-06 -9.2032e-06 8.3809e-06 7.0996e-06 9.7724e-07 0.00014304 -0.00073876 2.9209e-06 0.00014742 -5.7821e-05 3.3427e-06 0.00011244 -0.0011849 -0.00011278 -2.6327e-05 4.9446e-05 3.0706e-05 -3.2269e-07 6.1198e-07 0.00011389 -2.1793e-08 -2.7674e-05 0.00017356 -5.9591e-06 3.5884e-05 6.3863e-05 2.4584e-05 0.00059225 0.0011906 0.00033503 0.00018274 0.00024769 0.0014739 -4.3012e-05 0.00030802
-5.3519e-08 -1.3602e-07 9.4383e-08 -4.1419e-09 1.3774e-08 -2.1947e-06 -3.5991e-07 0.85756 -2.5283e-07 -1.3237e-05 -1.7652e-06 4.9753e-07 -4.496e-06 3.3903e-06 -1.8288e-06 -2.584e-07 8.3007e-08 3.0035e-07 -5.5749e-07 5.0522e-07 1.0671e-06 -2.5847e-06 1.7803e-07 1.0709e-06 4.5503e-06 2.2009e-07 -3.5826e-06 -5.211e-05 -8.0602e-06 7.4963e-06 -5.6693e-07 2.2327e-06 8.4612e-07 -9.8732e-06 5.4416e-07 1.1336e-06 9.1543e-07 3.4692e-05 -9.9839e-06 -7.9047e-06 2.8691e-05 1.4032e-05 -1.5646e-05 2.7533e-06 -2.0945e-06 2.2028e-06 4.201e-06 8.1888e-06 -1.0556e-06 -3.6478e-07 2.7959e-06 6.5978e-06 4.9139e-06 6.7044e-07 -7.3805e-06 -4.7907e-07 5.9246e-07 3.8709e-06 1.714e-05 3.5157e-05
-5.7142e-06 0.10374 0.12411 0.17553 1.2583e-06 -0.00032343 -3.6326e-07 1.5239e-05 0.2835 4.185e-06 -3.6347e-06 -4.7048e-05 -6.9157e-05 -2.8055e-06 1.7199e-05 9.6285e-06 -2.6979e-05 5.1923e-06 3.3495e-05 -9.7625e-05 -0.00010155 0.1665 -6.3823e-06 0.50963 2.8075e-05 -1.0694e-05 -0.00010645 0.0069751 7.3608e-05 -0.00025705 0.00020307 -0.00011629 -1.5029e-05 0.14538 -5.1337e-06 -0.00010241 6.1525e-05 0.00025246 -5.6673e-05 0.00015623 -9.2981e-06 0.16587 -0.00043875 -3.0391e-05 0.0025888 -4.1014e-06 -0.00010952 0.00052232 -3.9687e-06 9.5928e-07 -0.00017879 0.00010794 0.0016261 -5.3314e-06 0.14012 0.00096535 0.00042791 0.0010154 1.5797e-05 0.00013403
1.1425e-05 0.17519 9.3206e-07 4.4551e-08 1.1543e-05 0.0022088 -2.4288e-05 -9.3379e-06 -5.5934e-05 1.2234e-05 -5.1661e-06 6.3471e-07 1.0427e-05 0.00028205 -8.4299e-07 -2.114e-06 3.0049e-06 -3.1784e-07 -1.0246e-05 -2.6973e-05 -2.0476e-05 -0.00018945 -0.00016242 -3.5784e-05 -1.5994e-05 0.0001003 -1.1696e-05 0.38759 -1.8405e-05 0.46306 1.3681e-05 5.7665e-05 -2.4307e-05 -0.00031242 -3.8381e-05 0.34677 -9.4593e-06 1.3303e-05 -3.7027e-06 0.18561 -0.00034023 -2.1794e-05 -1.6766e-05 0.52117 1.9247e-05 4.3611e-06 -0.00070537 7.7156e-05 0.0048517 -3.7724e-06 -0.00010168 -0.00026588 -0.00012687 1.6635e-05 -0.00019294 5.5162e-05 -0.00018239 9.4793e-05 -0.00030564 2.2252e-07
2.818e-06 9.2121e-05 9.0666e-06 -2.9082e-07 -4.938e-06 0.00020373 0.00014687 0.00023496 -1.096e-06 0.00011469 -9.3498e-07 -9.2535e-05 0.00045093 0.0016447 5.6855e-06 0.00010918 1.0731e-06 0.0014977 -8.9902e-05 1.8096e-05 0.004322 -0.0011354 3.2721e-06 6.1583e-05 0.00027721 0.001015 0.012174 -6.2771e-05 2.9443e-05 -2.4959e-05 0.0045344 4.7698e-05 -1.9114e-06 0.0013094 -8.2704e-05 -2.0174e-05 0.0004082 -1.1014e-05 2.3998e-05 0.00021262 0.0070991 0.00015068 -7.3428e-05 4.7989e-06 -3.2006e-05 0.00061963 3.6496e-06 -0.00038722 -5.1062e-05 -1.6949e-06 1.2425e-05 -0.00014562 -0.00020074 -2.8028e-05 0.0014549 0.00025428 -0.00024875 0.00033842 -0.0007686 -0.00071526
1.6397e-05 0.3065 -2.6035e-07 1.7266e-06 -5.1412e-07 -1.7209e-05 6.8468e-06 -9.0427e-07 3.637e-05 2.775e-05 -5.9952e-06 4.3892e-06 -9.518e-06 1.0097e-05 1.064e-06 4.8966e-06 -1.6133e-06 -3.5923e-06 9.8924e-06 -1.2005e-06 -4.47e-05 5.2361e-06 7.2961e-06 -3.0627e-06 2.3376e-05 -2.7012e-05 1.9158e-06 -5.3908e-06 -1.7604e-07 -0.0002796 5.1807e-05 -9.706e-06 -8.3177e-06 -0.00022585 4.7385e-06 0.60212 -1.2916e-05 1.1327e-05 -2.2325e-05 0.3155 -1.293e-05 -5.379e-05 -3.88e-05 6.3741e-05 2.4481e-07 5.5262e-06 -8.6709e-07 4.6894e-05 -3.3964e-05 -5.4755e-07 9.7475e-06 2.5651e-05 -1.0233e-05 3.1087e-05 -6.3345e-05 -2.6826e-05 -6.5413e-06 -7.1553e-06 6.9214e-05 -3.3866e-06
2.6534e-06 0.00015987 1.0091e-05 -8.955e-06 -4.5299e-06 6.0242e-05 0.0017173 0.00022409 -3.4454e-05 0.00010578 -3.7934e-06 -8.2283e-05 0.00050735 0.0015766 3.6205e-06 2.1986e-05 2.6206e-06 0.00052525 -5.6276e-05 6.6861e-06 -3.1043e-05 -0.001839 3.708e-06 6.6166e-05 0.00026448 0.0019607 0.014103 -1.7063e-05 9.967e-05 1.2624e-05 0.0081545 0.00010325 0.00048301 0.0015887 -9.7801e-05 0.00076394 0.00039514 -1.0172e-05 3.9745e-05 -0.00013048 0.0068585 0.00013694 -2.9145e-05 -2.74e-05 -1.0733e-05 0.00059463 -4.5679e-07 -0.00031559 -6.6581e-06 -1.8873e-06 2.3645e-05 -0.00021414 -8.8742e-05 -2.3772e-05 0.0031448 0.00041327 -0.00035429 0.00016804 -0.0011992 -0.00062473
2.8928e-06 2.6354e-06 -3.9079e-08 8.9736e-06 -4.9705e-06 8.3092e-05 1.7844e-05 -8.1079e-06 -6.6809e-08 -9.6868e-07 -8.4622e-07 -2.4298e-05 0.00063122 0.0018659 -2.3062e-07 1.941e-05 -7.5156e-08 0.00075521 -4.7004e-05 9.2261e-06 -1.2835e-05 -0.00029514 1.0246e-06 -1.0031e-05 0.00028513 -1.0837e-05 8.4014e-05 -1.7653e-05 -3.8397e-05 4.8915e-06 0.0033051 2.0335e-05 -2.5896e-07 0.00044659 -1.7018e-05 7.2827e-06 0.00048007 -5.2101e-05 5.3325e-05 -4.5854e-05 0.0078499 1.2247e-05 -5.2013e-05 2.7719e-06 0.00046723 0.00070039 2.6012e-06 -0.00025349 -7.8629e-06 -1.6049e-07 2.2699e-05 -8.5181e-05 0.00022948 1.1845e-05 0.0022375 0.00054821 -0.0001125 -2.0244e-05 -0.00045603 -0.00066457
-3.9404e-06 -6.8637e-06 2.7414e-06 1.8411e-06 7.909e-07 0.31413 1.4098e-05 7.141e-05 -7.6913e-06 0.00088915 -7.4884e-06 -1.0624e-05 7.5456e-06 -8.0106e-05 1.0115e-05 -3.1933e-07 3.1358e-07 0.00031591 -1.395e-05 -1.2854e-06 -7.0362e-06 -0.00010151 1.6625e-06 0.017292 -1.6239e-05 -2.3619e-06 0.00026602 0.00044044 0.8188 -8.5613e-05 0.00060457 3.5455e-05 0.00046194 0.0018974 8.8704e-06 -1.7773e-05 -2.2943e-05 -7.4088e-05 2.8391e-05 -4.4153e-05 0.00039259 3.8278e-05 0.0047056 -1.2487e-05 2.1239e-05 -4.4681e-05 2.2075e-05 -0.00012964 -7.2629e-05 -2.6167e-05 0.0015823 -6.1218e-05 6.5119e-06 0.00049013 0.00033318 -0.00052835 1.6468e-05 -4.4773e-05 -0.00033972 -0.00041951
3.7088e-06 0.14987 2.7908e-05 4.852e-06 3.52e-07 0.17986 -9.3244e-06 1.8389e-05 4.8916e-05 1.1791e-05 -7.4263e-07 -6.8081e-05 -0.0003102 -3.0206e-05 7.8393e-06 -1.0247e-05 1.6046e-06 0.0013456 -9.438e-05 5.9159e-05 0.57861 0.00039294 1.2829e-06 0.00016144 -3.6454e-06 0.35088 -1.8894e-05 -4.775e-05 0.00019626 -0.00011639 8.8664e-05 4.3508e-05 0.00068847 0.20766 6.2283e-05 -0.00027223 0.00058847 0.00050056 0.00012731 0.15573 0.00013539 0.00036522 1.1404e-05 5.7876e-05 -9.138e-05 -2.5962e-05 2.4469e-06 -0.00071485 -6.8871e-05 5.0489e-07 5.5059e-07 0.00014303 1.9081e-05 -4.5994e-07 0.0011424 0.0019327 6.872e-05 0.0022204 -0.00012726 -0.00031041
1.0002e-13 8.8741e-14 -1.1052e-13 2.8908e-12 -5.2008e-14 5.3189e-14 7.6363e-13 1.3275e-14 -2.7239e-14 -2.6881e-15 4.3138e-14 -3.8974e-11 1.9795e-13 3.105e-14 9.6737e-13 -1.3143e-14 -2.9666e-14 3.6285e-15 5.1896e-12 9.4383e-13 -3.3026e-14 -5.0731e-12 4.8296e-13 -1.596e-13 2.8455e-14 -1.7381e-13 -6.7526e-13 1.7478e-13 -7.0932e-14 5.0684e-13 -1.911e-12 -3.8373e-10 2.4493e-13 4.3632e-13 9.3103e-10 2.5699e-13 4.041e-14 -7.1165e-13 1.1094e-13 -1.2739e-11 6.105e-13 3.1992e-12 6.6208e-14 3.9773e-13 8.633e-13 3.8723e-14 -5.238e-13 -6.5958e-13 3.9551e-13 -6.7789e-14 1.0187e-12 8.5609e-09 -2.7879e-13 1.2823e-13 -3.2177e-12 -3.9222e-13 3.2027e-10 1.0665e-10 5.2469e-13 3.1712e-12
-1.3837e-05 -1.8572e-05 9.3155e-06 0.37661 4.5957e-06 -1.5435e-06 -1.5283e-06 -1.1132e-06 0.00010476 5.6421e-06 -6.1436e-06 -0.0001336 -0.00011122 -0.00012261 1.0861e-05 -1.7916e-06 -5.98e-05 -2.7822e-06 3.6093e-05 8.0406e-06 6.8689e-06 0.35788 -4.9622e-06 0.00023378 -6.3014e-06 4.716e-06 -0.00017256 -1.4811e-05 -1.4352e-05 2.5353e-05 0.00048405 -0.00031589 -3.6299e-07 0.00011359 -9.8894e-05 -1.4891e-05 -1.0881e-05 -0.00016079 4.4428e-06 -0.00012521 -8.9398e-05 0.00052999 -4.3214e-05 8.4396e-06 5.0733e-05 -1.2509e-05 -1.0428e-06 -5.5466e-05 -3.2297e-06 3.5959e-07 -0.00011817 -9.2754e-05 -9.3467e-05 -1.9261e-05 0.33129 -0.00070538 0.00010251 -0.0010803 5.2486e-05 -5.9697e-05
-7.4552e-06 2.6401e-05 0.21482 5.043e-05 -1.6656e-05 0.00013144 4.448e-05 4.5628e-06 8.7535e-05 2.5562e-05 -2.5438e-05 -9.65e-05 -3.484e-05 9.9684e-06 1.7008e-05 7.2162e-06 4.4678e-07 1.8791e-05 1.087e-05 -3.7131e-05 -0.00013384 -0.00012353 1.5848e-06 0.44552 -1.2353e-06 1.8735e-05 0.01351 0.00034086 7.0733e-05 -3.4432e-05 0.0013389 3.4367e-05 -1.2713e-05 0.25136 -5.6129e-05 -9.5396e-05 0.00013724 -5.5031e-06 -6.2572e-05 -0.00017228 0.0006201 0.28635 0.00079939 -1.5344e-05 6.2904e-05 -5.6277e-06 7.9758e-06 0.00079494 -0.0001686 8.5202e-07 -0.00012876 -0.00010555 -0.00010261 -1.2304e-05 -0.00010225 0.0019888 -0.00011436 0.00018737 -4.5159e-05 -0.0001091
-7.4434e-06 -8.4414e-06 2.4313e-06 5.8146e-06 -2.4944e-06 0.48216 1.4202e-05 -6.923e-06 -5.9775e-06 -7.9779e-06 9.188e-07 -2.6426e-06 1.0836e-06 -0.00026426 6.7568e-07 6.7233e-05 0.00010066 0.2363 -6.5214e-05 -6.9957e-06 -5.2594e-05 1.6481e-05 2.2681e-06 0.00041956 3.3652e-06 -7.665e-05 0.00022471 1.9595e-05 0.00010068 -5.0524e-05 0.00045773 -3.381e-05 0.00031938 1.4628e-05 -5.0429e-06 -3.9956e-05 -4.0264e-06 -4.0055e-05 -0.00026967 -3.261e-05 0.00083663 0.00010477 -7.5051e-05 4.105e-05 1.558e-05 -7.0697e-05 -1.732e-06 0.0019373 -0.00012618 4.7063e-06 1.1798e-08 -1.0875e-05 1.5872e-05 -5.1985e-05 0.00034739 -4.4159e-05 1.9591e-06 2.7904e-05 7.4697e-05 -5.8649e-05
-0.00050962 0.26428 -6.6083e-07 7.5091e-07 -0.00125 8.8162e-05 0.43437 -1.3516e-06 3.8643e-05 6.637e-06 -9.1021e-06 1.0594e-05 4.7385e-06 -5.3862e-06 2.3687e-06 0.66053 -2.2476e-06 0.00037583 7.5353e-05 7.8879e-07 -1.9833e-05 2.3437e-05 -3.6315e-06 -9.3625e-07 1.4749e-05 -2.841e-05 -1.1119e-05 9.2529e-06 -4.9743e-06 -2.9509e-05 3.4245e-05 5.1207e-05 -6.6764e-07 -1.6702e-05 -1.8925e-06 2.7571e-05 -1.7446e-05 5.0445e-06 3.2282e-06 0.27221 -1.6381e-05 -1.4092e-06 -1.8063e-05 1.0652e-05 -1.8928e-06 -4.0162e-06 2.1889e-06 1.1473e-05 -6.6895e-05 -7.889e-07 -9.115e-07 1.0669e-05 2.0393e-05 1.9755e-05 -1.7032e-05 -6.2573e-05 -2.5011e-06 -6.8145e-06 4.8064e-05 4.9389e-05
1.1311e-05 -1.1616e-06 -1.0874e-05 1.4784e-05 -1.2222e-05 -6.573e-06 3.793e-06 6.0157e-07 2.8291e-06 4.7667e-06 5.5077e-07 -8.3142e-06 0.00012037 0.0011632 1.1977e-05 -5.4291e-06 5.5969e-07 -6.213e-06 0.00013183 0.62268 -8.2144e-05 2.5045e-05 -3.1538e-08 -2.7142e-05 3.1731e-06 2.2929e-05 1.8927e-05 -1.9331e-06 -4.8126e-06 7.951e-06 2.9499e-05 0.00011605 3.3521e-06 0.0031434 1.5795e-05 -4.5954e-05 9.935e-06 -8.7116e-05 0.00052228 3.8052e-05 -2.7422e-05 0.40662 -1.0071e-05 1.0572e-06 0.71722 -2.229e-07 2.8153e-06 -0.00082243 -3.5272e-06 3.7055e-06 -4.8782e-06 5.3666e-05 -0.00019421 -0.00021726 -1.5927e-05 -0.00094045 -9.0604e-06 3.9635e-05 2.4429e-05 3.6546e-05
1.2057e-06 -1.8752e-06 8.8023e-08 3.2535e-06 1.1295e-05 -1.3276e-05 2.8995e-05 0.00044424 4.9636e-06 0.00018773 -2.5832e-07 -0.00015058 0.00028918 -5.1083e-05 5.7918e-06 6.8851e-05 -2.029e-07 -5.22e-06 -6.9316e-06 -1.7569e-05 -8.8077e-05 -0.00020784 8.9326e-07 -1.9997e-05 5.0096e-05 -2.5243e-06 7.6373e-05 -2.8117e-05 8.8714e-05 -4.8949e-06 5.2399e-07 1.8196e-05 -6.6352e-08 0.00049289 -9.7714e-05 -2.9286e-05 0.00014461 6.4583e-05 1.4876e-05 0.0011754 0.00085244 6.0758e-05 -6.6885e-05 -4.0695e-05 -4.0396e-05 2.4304e-06 3.7946e-06 -4.2788e-05 -4.3813e-07 -2.0401e-06 0.0070609 -0.00010638 0.00094938 -8.8254e-05 0.0089584 3.7492e-05 -0.00037762 -0.00044131 -0.00087818 -0.00022119
0.00013627 3.9594e-05 0.00022046 -4.17e-05 0.0003532 -8.1643e-06 1.2239e-05 2.0788e-07 -8.0465e-06 -0.0001259 -6.2121e-06 -3.1936e-05 5.7685e-06 -3.1942e-05 2.0545e-06 1.001e-05 7.715e-07 1.872e-06 -0.00022649 0.0016167 -2.2897e-05 3.1701e-05 -8.4212e-07 5.1866e-05 0.0010884 1.1217e-05 -8.0565e-05 2.3492e-06 -0.00010692 7.5674e-06 -7.1886e-05 -2.8449e-05 2.5741e-06 6.7078e-06 -2.3732e-05 1.5329e-05 -1.2594e-05 -0.00034602 -3.0319e-05 0.000357 4.0037e-05 0.002455 1.205e-05 -5.4078e-05 -0.00072482 -5.6849e-07 5.1437e-06 -9.9615e-06 1.1007e-06 -0.00035821 0.35817 8.4718e-06 0.00043764 0.44566 0.00010849 -6.2871e-05 -4.3922e-06 0.0001588 -0.0021891 -0.00096767
2.1055e-05 3.1291e-06 -8.4005e-07 0.29234 4.3589e-05 -1.4963e-05 -2.917e-05 6.6876e-07 5.9372e-06 -7.9615e-06 -8.9409e-06 0.29091 -6.975e-05 -3.9307e-05 0.00055699 1.3877e-06 -7.7799e-05 -1.4078e-05 -5.5956e-05 2.198e-05 -5.0497e-05 0.27683 3.4109e-05 -5.6717e-05 2.4109e-06 1.2391e-05 0.33855 -9.2204e-06 -3.1352e-05 -3.7271e-05 0.34699 0.35029 -2.3586e-05 -8.6311e-05 -0.00026329 1.7043e-07 -6.6415e-05 0.00046934 2.0456e-05 0.17937 -0.00024448 0.27579 -4.6086e-05 -4.615e-05 -5.1802e-06 -1.9488e-05 9.2144e-06 2.2766e-05 -9.0203e-06 1.3896e-05 -8.4878e-05 -0.0016953 -0.00014278 -6.3198e-05 0.22961 -0.00017713 0.5446 0.003591 -3.0339e-05 0.0001259
5.532e-07 -7.3014e-06 -2.9415e-05 8.4354e-07 1.5748e-06 0.00011782 8.4811e-06 -2.8379e-06 8.5468e-06 -2.967e-05 2.9409e-06 4.6187e-06 1.968e-05 -8.0823e-05 -1.0528e-07 -3.1386e-07 -2.3976e-06 0.4045 9.871e-06 -9.8438e-06 -6.2332e-05 5.1708e-06 6.1665e-07 0.44311 5.3139e-05 -9.6401e-05 6.0222e-06 1.6279e-05 0.002438 6.4141e-06 -9.9254e-06 -1.5149e-05 -1.2324e-05 -0.00020227 -1.3034e-07 3.6422e-06 -1.1951e-06 8.5189e-06 -7.0228e-05 -1.1801e-05 0.00061569 1.1766e-05 0.0041018 -1.6395e-05 -4.1396e-07 3.7425e-06 6.1374e-06 0.00013701 8.3796e-05 -3.3174e-06 -0.00038374 5.6104e-06 3.0272e-05 8.2694e-06 -0.00035754 2.8587e-05 4.568e-05 4.3834e-05 1.65e-05 -0.00016802
-4.2293e-08 -9.7173e-06 0.00022022 -2.3989e-06 -5.0407e-06 0.0002935 4.3654e-07 1.525e-06 7.0182e-06 0.00024435 -0.000138 9.4301e-06 -0.00070967 2.1848e-05 2.6825e-05 -2.1161e-05 5.3686e-07 -0.00034369 1.0304e-05 -0.000287 4.2997e-05 2.6874e-05 1.2261e-06 1.3883e-05 5.254e-05 -0.00067518 3.6386e-05 4.6534e-05 6.2271e-06 2.9547e-06 1.9179e-05 8.5633e-05 2.0499e-05 -0.00029766 -1.2502e-05 -3.0441e-05 6.2602e-05 1.9064e-05 0.63403 -1.0052e-05 -0.0014119 0.2421 0.0022085 7.0658e-06 0.00044068 1.5111e-05 1.8714e-05 0.4878 -3.831e-05 -1.1678e-05 8.2035e-05 4.8361e-05 -0.0016824 -4.7001e-05 0.00026162 0.00022577 -5.9462e-05 -4.8313e-05 0.00045735 0.00047531
-1.2162e-28 -1.2459e-26 -1.0507e-27 -1.8525e-26 1.0032e-27 3.9487e-28 1.1088e-28 -3.0486e-28 -1.114e-26 3.3946e-28 -8.027e-28 5.8824e-24 1.7594e-27 -2.4646e-27 -6.0551e-26 -2.1166e-27 -4.5267e-28 4.454e-28 -2.9606e-25 1.4682e-26 -3.2397e-27 9.0997e-26 -1.4883e-26 -1.7079e-27 -1.9203e-28 4.5615e-27 -5.732e-26 -3.1853e-29 5.2409e-27 -1.8819e-27 -4.9303e-26 3.1507e-25 -5.5883e-28 -2.1617e-26 -1.4981e-25 -1.8369e-27 4.1098e-27 -1.8564e-25 5.5284e-27 6.5217e-26 -6.0919e-26 2.3711e-25 3.6602e-27 1.5217e-27 -1.0027e-26 -6.1876e-29 8.4079e-28 4.1351e-27 -1.1581e-28 -9.9822e-28 9.6905e-26 -5.4169e-25 1.1472e-26 9.0398e-27 7.5048e-25 -8.1944e-27 -9.3179e-26 -6.8075e-23 4.1773e-25 3.131e-24
5.2562e-05 -7.415e-06 -9.0876e-06 -3.0078e-05 -2.0182e-06 0.00022513 0.00018093 7.7124e-06 1.4197e-05 0.00028065 -5.8429e-05 5.8565e-05 7.6204e-06 9.2726e-06 2.5899e-05 6.968e-05 2.2301e-07 2.5332e-06 0.36446 0.00079708 2.9622e-05 -4.8533e-05 -3.8844e-06 1.1619e-05 2.3187e-06 -3.2095e-06 2.8577e-05 0.00059224 -2.4085e-05 -0.00010856 5.2851e-06 0.0013827 5.1608e-06 -1.3207e-05 3.0748e-05 -4.7287e-06 1.3582e-05 0.50535 -6.2995e-05 1.801e-06 -0.00021975 8.0354e-05 8.394e-08 2.6327e-06 -0.00030661 3.9756e-07 -1.5753e-05 8.0311e-05 8.4322e-05 -8.5474e-05 -0.0015235 -0.00031545 0.0007993 0.00086984 0.00011478 0.00018159 -0.00050263 -0.0073384 3.2455e-05 -0.0044714
0.47525 -6.1661e-07 0.33092 2.0243e-05 0.48767 -2.4067e-05 1.0483e-06 9.7409e-07 2.0128e-06 -3.0272e-06 -1.1545e-06 -2.1542e-07 -1.7543e-05 1.7073e-05 -2.6242e-06 2.001e-05 5.9724e-07 -3.4327e-07 4.0417e-06 9.3037e-07 -3.4817e-06 -2.5615e-06 -1.217e-05 3.1064e-05 2.9264e-07 3.5254e-06 -6.886e-07 7.1438e-05 -4.8909e-07 -1.417e-05 1.1788e-06 -1.7946e-05 -7.5773e-08 -3.4821e-06 -1.1216e-07 4.8423e-06 -3.7636e-07 6.1547e-07 1.9887e-05 8.0203e-05 8.5916e-06 -1.0953e-05 1.5951e-05 2.9149e-06 -1.1187e-06 2.5476e-07 0.52518 -6.3525e-05 0.00047055 -2.2255e-06 -1.0956e-05 3.2291e-06 0.00015347 -5.8582e-06 -6.4952e-06 1.2619e-05 3.1751e-05 4.6564e-07 1.5466e-06 1.0107e-05
5.9263e-06 -1.0662e-05 4.2738e-05 -5.6436e-07 -5.5236e-06 -1.124e-05 -1.0728e-06 0.00032636 3.1157e-06 5.9973e-05 -1.2483e-05 -8.6186e-07 2.2618e-05 -4.8843e-05 3.2221e-06 -4.1017e-06 -1.4291e-06 -1.4712e-05 4.8611e-06 -8.559e-05 -2.7535e-05 -8.7219e-05 2.0615e-05 -2.0211e-05 8.6819e-07 -3.6187e-06 5.3259e-07 0.4177 2.2871e-05 -0.0045616 5.7081e-06 1.5673e-05 -1.8397e-06 0.00039352 -4.7547e-06 -0.00043456 1.3065e-05 4.3499e-06 3.952e-05 0.18999 0.00026199 7.1915e-05 -3.1913e-05 -0.00035775 4.5062e-05 1.5472e-06 0.34415 0.000134 0.00025725 -3.4486e-07 -0.00016295 -9.7705e-06 -0.0007343 -2.3169e-06 -0.0001939 -9.9655e-05 -5.5141e-05 5.1058e-05 -0.00014762 5.5152e-05
-4.4851e-06 -5.6363e-06 5.6772e-07 -3.1001e-06 -1.4724e-07 0.27279 3.9953e-06 -1.7197e-05 5.4629e-05 5.8442e-05 -1.8907e-05 -1.3091e-05 -0.00028621 -0.00022924 6.9824e-06 4.1676e-07 1.4008e-05 0.0050594 -1.6267e-05 -3.8982e-06 3.878e-05 2.0288e-05 9.9316e-07 0.00021877 0.00030109 4.4747e-05 -0.00021308 -4.2303e-05 4.5445e-06 -5.1376e-06 -0.00030429 -4.9472e-05 -2.1021e-05 -5.7882e-05 3.3734e-06 -2.464e-05 -8.382e-05 -2.8049e-05 -1.1352e-05 -1.9507e-06 0.25981 4.8559e-06 -0.00023164 2.9684e-05 6.7693e-07 -0.00010166 5.8959e-06 -0.00055526 -2.5294e-05 7.6581e-06 -1.1777e-05 1.8714e-05 3.6251e-05 0.00053603 -0.00013824 -0.00030879 2.4793e-05 4.3948e-05 -0.00026482 -0.00048186
-0.00043503 -1.7039e-05 0.26023 -4.0626e-06 -0.0010191 -1.1319e-06 3.8129e-05 3.2283e-06 0.59456 -2.8679e-06 7.3162e-06 -4.9246e-05 -2.9561e-05 2.868e-05 1.1268e-05 0.54285 -3.5397e-06 6.9644e-05 0.44834 0.00076802 -4.5677e-05 1.1516e-05 -3.1508e-06 2.8373e-05 -9.8427e-06 -1.2358e-05 4.5175e-05 -3.775e-05 1.5416e-05 3.9118e-05 0.00090844 0.00032421 1.9347e-06 0.30089 5.6212e-06 -0.0001024 0.51414 0.00018503 -0.00017748 -7.2821e-05 0.0004233 0.00058811 -9.2031e-05 1.0056e-05 -3.7039e-05 -1.0892e-05 -1.6657e-05 0.0010999 -1.0285e-06 5.4368e-07 7.655e-06 -4.3024e-05 -0.00019827 -5.2826e-05 -6.3461e-05 0.0035098 2.4152e-05 0.00028483 -2.5051e-05 0.00063059
-1.7509e-06 2.6994e-06 -6.7239e-07 0.00010169 -4.8027e-06 6.561e-07 2.8344e-06 -1.4073e-06 1.0026e-06 -8.0923e-07 0.43269 0.45515 -1.1452e-05 -5.535e-06 0.76105 -5.1268e-07 -1.8362e-06 8.9613e-07 -9.9965e-05 -3.3358e-05 -2.2766e-05 0.0001427 7.8083e-05 -6.8093e-07 2.5386e-06 -1.5769e-06 1.1318e-05 -2.2786e-05 -1.5056e-05 1.1305e-07 1.3415e-05 0.00093836 2.0427e-05 -2.5195e-05 0.0003275 -5.0845e-06 2.7765e-05 0.00027776 1.2312e-05 4.21e-05 4.1257e-05 -2.7344e-07 4.8145e-06 2.6511e-06 2.6193e-06 1.1896e-06 3.0112e-08 1.2373e-05 3.6878e-07 8.8806e-08 2.3938e-05 -6.9315e-05 -1.5996e-05 8.268e-06 0.00073737 5.5929e-05 0.00044608 0.004518 -0.00010242 2.7527e-05
2.2581e-07 7.4054e-06 -3.031e-06 -2.4012e-05 3.6729e-07 5.5977e-05 1.7289e-05 0.00030459 -7.3133e-06 0.55144 4.5886e-06 -1.3198e-05 6.6194e-05 -6.9137e-06 -3.1154e-07 6.2575e-05 -1.5311e-06 0.0012684 0.00020067 -2.5577e-05 0.00042252 -5.0348e-05 6.4657e-08 -4.5138e-06 3.572e-05 -7.7549e-06 1.1124e-05 -3.6358e-06 0.0015047 -1.9264e-06 0.00014761 -9.6049e-05 1.9745e-05 0.00025925 -7.4766e-06 9.7615e-05 -2.6914e-05 -7.4721e-05 8.2134e-06 2.7342e-06 0.00020086 0.0029509 8.3996e-05 -7.305e-06 -7.507e-06 2.5919e-06 1.6875e-06 4.1792e-05 -2.0812e-05 6.6261e-06 0.0013218 -4.223e-06 -2.1797e-05 -0.00035795 0.00056505 0.00035056 -1.3601e-05 4.6741e-05 -0.00026992 3.7794e-06
3.098e-06 0.10467 1.5579e-05 2.2898e-06 9.5859e-06 0.25211 -3.1812e-05 -6.5165e-06 0.28732 8.6717e-05 5.5394e-07 -8.9682e-06 -2.8252e-06 0.00025521 4.6551e-07 -4.0311e-05 1.3871e-06 -5.3412e-07 -8.2766e-05 0.00010352 1.2448e-05 -2.4943e-05 2.1308e-06 0.00021444 5.164e-05 0.2461 -7.9533e-07 -1.4253e-05 -3.0611e-06 -5.6694e-05 1.9356e-07 0.00021227 -4.2286e-05 -1.5252e-05 -2.1786e-06 -4.751e-05 -1.2128e-05 -9.9129e-06 0.00012686 0.00010352 0.00014899 6.8196e-05 -7.5398e-05 2.2207e-05 0.00014387 -3.4582e-05 6.1672e-05 -0.0011097 -0.00034129 -1.1138e-06 4.9199e-05 -7.9897e-06 0.0019356 0.0001515 0.00048286 0.000691 -0.00011903 -8.1859e-05 -0.00031492 0.00043852
2.0284e-06 1.3236e-05 2.7114e-05 -2.4244e-05 1.549e-05 6.5492e-05 -1.2646e-05 1.0004e-05 9.7445e-06 4.2825e-05 0.0007221 -6.1746e-05 0.00019747 0.00021785 -0.00027663 8.2925e-05 1.2263e-06 2.3888e-05 -5.5038e-05 1.4354e-05 0.0015033 0.00013317 1.2899e-05 0.00013302 -1.7895e-06 -1.7425e-05 0.00018359 0.00014213 -5.3415e-05 -0.00038911 -7.9365e-05 0.00048923 0.00078309 0.20562 -4.7992e-06 0.27015 0.00032237 -7.2644e-06 -9.7968e-05 0.14074 0.0015868 0.0066388 0.0051307 -0.00014059 -5.1187e-05 -8.9001e-06 -2.0563e-05 0.00055713 -1.6218e-05 -5.1202e-07 -6.2457e-06 -0.00018586 -0.00019072 9.7077e-05 0.00089985 0.0015667 -0.00014781 -0.00010359 -0.00014379 -0.00044126
-2.8538e-06 3.1446e-06 1.2412e-05 1.4017e-05 -1.6453e-06 0.22026 6.5608e-06 -1.0409e-06 -1.1434e-05 1.3435e-06 4.4228e-06 -1.004e-05 4.7285e-05 -5.5294e-05 -8.8771e-08 1.6349e-05 0.00017252 0.00020871 5.4394e-06 -2.2484e-05 0.00023842 0.00085901 1.0907e-06 0.00019537 -1.2457e-05 7.745e-05 -2.5142e-05 -1.4691e-05 2.7965e-06 -2.8459e-05 -6.389e-05 -2.2608e-05 -8.2766e-06 0.00010247 -2.7824e-05 0.00037708 0.00023229 -4.131e-05 -0.00022574 0.00032446 -0.00025834 0.00014661 -2.4577e-05 -1.3483e-05 0.00014389 -3.2618e-05 7.9772e-06 0.003244 -0.0001176 3.5452e-06 -2.8121e-05 -5.183e-05 0.00043721 -3.2364e-05 0.0016718 0.0035942 -8.4592e-05 -8.6209e-05 8.7945e-05 -2.1157e-05
-2.1167e-06 0.15961 4.3198e-06 0.26993 2.3931e-07 -1.001e-07 -1.914e-05 2.358e-05 1.8013e-05 1.4706e-06 2.0871e-06 0.26813 -1.8545e-05 1.3821e-06 0.00036917 -1.1052e-05 -5.0904e-05 -3.9536e-06 -0.00017134 2.2563e-05 2.4937e-05 0.25565 1.1587e-05 1.1459e-05 1.0631e-05 1.3606e-05 5.2134e-05 1.1035e-05 9.3094e-05 3.391e-05 0.00045783 0.00096968 1.9355e-06 0.00039253 0.00025501 -6.4467e-05 -3.9966e-05 0.41512 8.5554e-06 0.00016701 -6.9371e-06 0.25529 1.1796e-05 1.5306e-05 -3.6543e-05 -3.687e-06 -1.7807e-06 -3.4168e-05 -3.7888e-06 2.247e-06 -0.00018005 6.0184e-05 0.00040455 -4.7764e-07 0.21404 -5.9696e-05 0.0011274 0.59114 -4.0596e-05 0.00052859
1.1912e-06 0.089211 1.4032e-05 7.2878e-06 6.0255e-06 5.8002e-05 4.0367e-05 2.6721e-05 3.7754e-05 0.0001306 0.00011368 0.00035788 0.00044305 0.0011156 -5.3255e-06 4.6928e-05 -1.456e-06 0.00034544 -4.4289e-05 7.2372e-05 -6.014e-05 -0.0010854 -1.9624e-06 -2.8114e-05 0.00079261 0.00010792 0.0038726 -5.848e-05 0.0019185 7.2498e-06 0.17427 0.00025686 0.00030864 0.00080654 -0.00010068 -3.3597e-05 0.00012448 0.00036483 -3.7079e-05 0.00070035 0.0049354 0.14282 -0.00014168 -1.7289e-05 9.66e-05 0.00034338 3.7751e-06 -4.154e-05 -8.0176e-06 -0.00030163 0.0096069 -0.00026905 0.0021074 0.0041715 0.1322 0.0010978 -0.00041911 -0.0016829 -0.00069837 -0.00042223
-1.1146e-05 0.31288 6.1184e-05 -4.4682e-05 1.15e-05 2.0717e-05 0.51426 3.6574e-06 4.5499e-05 2.0137e-05 -1.025e-05 3.9405e-05 -0.00012968 7.3914e-05 7.1999e-06 6.5337e-06 -9.3371e-06 9.6139e-05 1.6907e-05 -3.8835e-05 -0.00012789 0.00026329 -4.6824e-06 2.8973e-05 -3.5134e-06 -4.6071e-05 4.6293e-05 5.2187e-06 1.7444e-05 7.2372e-05 0.0003228 5.1404e-05 7.7767e-07 0.4333 4.1901e-05 -0.00013967 0.00025645 3.1868e-05 -0.00021177 -0.0001116 0.00043404 0.00084688 -0.00015607 2.2428e-05 5.0648e-05 -4.307e-05 -8.5977e-06 0.0015995 -2.3611e-06 -1.3342e-08 -0.0001842 -2.7423e-06 -0.00045188 1.324e-05 0.41347 0.0041208 0.0003041 0.00010321 5.6386e-05 4.0966e-06
0.40852 5.2216e-07 9.6156e-06 0.40184 0.41929 -4.2411e-05 1.3734e-06 2.3204e-06 1.2283e-06 -1.3327e-06 -9.2023e-06 1.6911e-05 -1.2901e-05 0.59308 5.0467e-06 1.5855e-05 -5.5212e-05 -1.7071e-05 4.2084e-05 -3.7255e-05 4.5077e-06 3.1014e-05 -6.537e-06 2.2006e-05 -1.3251e-05 8.47e-07 1.0146e-05 -2.1498e-05 -4.8386e-07 -3.4004e-05 -7.9348e-05 -5.5237e-06 1.0244e-05 8.4108e-06 -4.9464e-06 3.2962e-05 -4.0352e-06 2.7408e-05 -1.9388e-05 6.3799e-05 -0.00029455 0.00010505 2.9423e-05 -4.9127e-05 -9.2722e-06 -3.1754e-05 0.0064825 6.0372e-05 -0.0010842 2.7458e-07 -2.4185e-06 9.2199e-05 -7.966e-05 -6.5266e-06 -0.00011131 2.2703e-05 0.00077601 2.7354e-05 4.8686e-05 5.1338e-05
2.1055e-05 3.1291e-06 -8.4005e-07 0.29234 4.3589e-05 -1.4963e-05 -2.917e-05 6.6876e-07 5.9372e-06 -7.9615e-06 -8.9409e-06 0.29091 -6.975e-05 -3.9307e-05 0.00055699 1.3877e-06 -7.7799e-05 -1.4078e-05 -5.5956e-05 2.198e-05 -5.0497e-05 0.27683 3.4109e-05 -5.6717e-05 2.4109e-06 1.2391e-05 0.33855 -9.2204e-06 -3.1352e-05 -3.7271e-05 0.34699 0.35029 -2.3586e-05 -8.6311e-05 -0.00026329 1.7043e-07 -6.6415e-05 0.00046934 2.0456e-05 0.17937 -0.00024448 0.27579 -4.6086e-05 -4.615e-05 -5.1802e-06 -1.9488e-05 9.2144e-06 2.2766e-05 -9.0203e-06 1.3896e-05 -8.4878e-05 -0.0016953 -0.00014278 -6.3198e-05 0.22961 -0.00017713 0.5446 0.003591 -3.0339e-05 0.0001259
2.077e-06 8.8418e-05 -1.58e-06 6.2049e-06 -3.3467e-06 5.1654e-05 1.6338e-05 0.00018436 -2.621e-05 8.7725e-05 -1.6122e-06 -1.4598e-05 0.00046165 0.0012709 2.7485e-07 1.6733e-05 2.1355e-06 0.00042118 -3.3922e-06 -2.2297e-06 1.4579e-05 -0.00020947 6.4562e-07 0.00013584 0.70316 -1.7609e-05 6.7992e-05 -1.7718e-05 1.7124e-05 -1.2718e-06 0.0022462 1.2818e-05 -1.121e-06 0.00038504 -1.1702e-05 7.5981e-06 0.00031975 -5.9782e-05 1.9499e-05 -4.3786e-05 0.0055617 8.1615e-07 -5.6747e-05 -2.9712e-06 -4.9012e-07 0.0004463 7.919e-07 -0.00013318 5.4152e-07 3.6399e-05 0.00041098 -6.5824e-05 -5.2848e-05 -0.00018559 0.0011748 0.001181 -6.0443e-05 6.9717e-06 -0.00041046 -0.00041427
1.644e-06 0.12774 1.2765e-05 2.4861e-06 2.7449e-06 -0.00018009 8.2609e-06 2.1101e-06 -3.0781e-05 0.00038511 1.1559e-06 -4.8672e-07 3.8143e-06 -5.3349e-06 -2.4291e-07 -6.5225e-05 4.5251e-07 -2.5098e-05 4.1186e-05 0.00027243 9.8597e-06 8.4411e-05 -9.2583e-07 0.32373 -8.8104e-06 2.4345e-05 1.2424e-05 4.0273e-05 0.0013171 2.1338e-05 -6.1303e-05 0.00084671 -1.0294e-05 1.3454e-05 -6.1534e-05 -4.6574e-06 0.00062551 -7.2111e-05 3.2656e-05 0.00051034 -6.75e-05 5.5249e-05 -0.00030196 -9.764e-05 -0.00012558 5.5517e-06 2.7097e-05 -4.8711e-05 2.8485e-06 6.0212e-06 0.25847 -6.761e-05 -1.4604e-05 0.00033533 -0.00025546 6.5251e-05 0.00011129 0.00010998 -0.00066818 -0.00015669
5.7969e-05 0.00010987 6.9629e-05 -1.7136e-05 0.00013561 -4.0087e-06 -1.6705e-05 2.0911e-06 -1.6796e-07 0.25085 -7.2248e-06 -3.0453e-05 -7.9242e-05 6.9333e-05 1.271e-05 2.4716e-06 7.6899e-07 -2.198e-05 0.00029456 0.33004 -3.9781e-05 0.0003568 -6.0687e-06 1.1841e-05 -1.6038e-05 3.4208e-05 -4.9282e-05 0.2977 7.529e-06 -0.00047152 -4.4378e-05 -6.5841e-05 1.1126e-05 0.00030137 5.6437e-05 -1.5231e-06 -3.4215e-05 0.00018375 7.542e-05 -8.269e-05 -3.9508e-05 0.00092987 2.2537e-05 1.7583e-05 -0.001451 1.5054e-06 -9.8168e-06 -0.0020096 6.8118e-06 -5.8297e-05 0.27061 0.00011902 0.38782 0.0009379 0.00076322 -5.9454e-06 0.00012669 0.0016563 -0.00047416 -0.00034188
9.4906e-06 0.1957 -1.7801e-06 5.4787e-07 8.2374e-07 0.00020698 -1.7518e-05 -1.6368e-06 1.5866e-05 6.6403e-06 -1.2306e-06 5.2501e-06 -4.3114e-06 -1.2994e-05 1.0237e-05 6.0204e-07 -1.9832e-06 1.3971e-05 3.365e-06 3.2998e-05 0.00073304 3.7732e-05 -8.6279e-07 -1.6168e-05 8.5711e-06 0.45638 2.8276e-06 4.1956e-05 2.2886e-05 -8.8035e-05 8.2949e-06 -3.3887e-05 0.67901 0.00019239 -5.5569e-06 -0.00010009 0.00064823 1.2449e-05 0.00023445 0.20321 -5.3412e-05 -0.0001513 -2.1096e-05 1.9649e-05 -9.7371e-06 6.2703e-06 4.848e-06 -0.0014693 -3.0849e-05 -8.048e-07 3.0469e-05 -4.905e-06 4.1727e-05 2.0534e-05 -3.2877e-05 -2.7602e-06 -9.5899e-06 -8.2776e-06 0.00022728 2.4739e-05
-1.9984e-06 1.4339e-05 6.6871e-05 -4.9417e-06 -2.6938e-05 0.21003 6.2002e-05 -2.8162e-05 1.9497e-05 8.576e-05 -3.1663e-05 -5.596e-05 -0.00010893 0.43885 1.1973e-05 -2.9736e-05 -1.3462e-06 0.0006923 -0.0001691 6.1643e-05 0.00012564 -0.00030248 4.8153e-06 0.00014244 0.00018419 0.00014186 -0.00023184 -6.1841e-05 5.5744e-05 -5.3757e-06 0.0027876 0.00029543 -8.3026e-06 0.24248 -4.0067e-06 -9.1842e-05 0.00041295 -6.687e-05 0.00061192 -3.5103e-05 0.41088 0.00054659 -0.00025355 2.1455e-06 0.00029761 0.00051342 7.6279e-06 -0.0021891 -0.00010117 5.6139e-06 -2.9624e-06 -7.5481e-05 0.0029918 0.00015258 0.0011384 0.53371 -0.00018324 3.0785e-05 -0.0018735 -0.0014273
2.0101e-06 0.13029 1.1022e-05 -2.2832e-07 3.2326e-06 -0.00012102 -2.439e-05 5.4366e-07 -5.8853e-05 0.00057358 2.1799e-06 2.4463e-05 4.1101e-06 -1.4763e-05 2.6167e-06 -7.3442e-05 3.883e-07 -2.5495e-05 -7.5023e-06 0.00030135 1.8489e-05 7.8711e-05 -3.0278e-07 0.31872 -2.3218e-05 -3.6253e-05 2.4372e-05 2.0572e-05 0.0013335 2.1659e-05 -3.5357e-05 0.0049576 5.9413e-06 -7.123e-05 -0.00011059 -1.4841e-05 0.00073632 -5.5957e-05 -5.4366e-06 0.00055734 0.0003934 -4.9391e-05 -0.00034188 -7.7219e-05 -0.00013142 4.3491e-06 1.141e-05 -0.00011854 -1.452e-05 -0.00079862 0.26605 -0.00067919 -9.8448e-06 0.0019054 -0.00021755 3.9286e-05 -0.00090579 0.00019012 -0.00094085 -0.00036961
-2.3546e-06 -2.9944e-06 -2.607e-06 9.3161e-05 9.9517e-07 0.21733 1.3839e-05 -4.9781e-06 -2.453e-07 0.34255 2.01e-06 5.9831e-06 -2.4731e-06 -4.1873e-05 -2.83e-06 1.324e-06 0.82518 -2.0066e-05 -1.9213e-05 -4.8486e-05 4.6208e-07 -7.9841e-05 9.2764e-07 0.00020087 -4.5527e-06 -8.5129e-06 0.00032953 7.2099e-06 1.25e-05 -2.7618e-05 0.0008416 -2.1808e-05 0.00061589 -5.6808e-06 -1.1671e-05 3.9151e-05 -1.0897e-06 -1.87e-06 -1.3106e-06 -2.7559e-05 -9.4556e-05 1.8422e-05 -0.00013988 1.6789e-05 -2.0719e-06 -3.2487e-05 -3.7394e-08 1.7944e-05 -3.3318e-05 -4.6768e-06 -5.0461e-05 -2.105e-05 -2.9356e-05 -0.00048972 0.00060028 -0.00011243 9.5704e-05 2.1014e-06 2.5688e-05 -6.0625e-06
1.8841e-05 -5.455e-06 7.2447e-07 0.26521 4.9424e-05 -9.1541e-06 -4.2181e-06 1.6935e-06 5.4895e-06 -8.8999e-06 -8.4618e-06 0.26411 -6.7406e-05 -3.3859e-05 0.00053762 -6.0572e-06 -4.8962e-05 -1.2292e-05 -6.9446e-06 6.935e-05 -4.4405e-05 0.25151 3.1211e-05 -5.3739e-05 1.9028e-06 2.6325e-07 0.30745 -6.8071e-06 -3.0894e-05 -2.7202e-05 0.31458 0.31079 -2.0735e-05 -5.5758e-05 0.71876 -3.8889e-05 -6.2023e-05 0.00015102 1.329e-05 0.16171 -0.00022223 0.24963 -5.1853e-05 2.8923e-05 -4.5944e-05 -1.8087e-05 6.5118e-06 1.4831e-05 7.2595e-06 1.2804e-05 -8.0065e-05 0.71871 -0.0001524 -6.119e-05 0.20839 -0.00016177 0.0013027 0.003061 2.6336e-05 5.0357e-05
1.9638e-06 0.10474 4.8862e-05 -1.0547e-05 -1.4641e-06 5.0317e-05 0.1732 0.00016048 -1.3046e-05 8.1336e-05 -7.5928e-06 -6.635e-05 0.0002964 0.001106 1.0152e-05 2.152e-05 -1.5191e-06 0.00043017 -2.8062e-05 -1.6659e-05 -0.00012181 -0.0012657 2.3951e-06 3.9923e-05 0.00018469 0.0013553 0.21526 -3.1448e-05 8.0443e-05 3.6621e-05 0.21564 8.1491e-05 0.00034576 0.29086 -8.004e-05 0.00045344 0.00041543 -1.368e-05 -0.00011123 -0.00019477 0.0051064 0.00066459 -0.00010238 -1.0835e-05 2.4097e-05 0.00039676 -5.5236e-06 0.00088259 -5.5247e-06 -1.9894e-06 1.2381e-05 -0.00015421 -0.00028786 2.1773e-07 0.0020534 0.0032906 -0.00024015 0.00010708 -0.00083406 -0.00043452
1.752e-05 0.15027 5.2736e-06 0.254 4.406e-05 -1.2863e-05 -4.6638e-05 2.2626e-05 1.8318e-05 -7.0824e-06 8.7376e-07 0.25278 -1.6578e-05 -3.4895e-06 0.00032345 -7.5585e-06 -7.1685e-05 -3.8566e-06 -0.00015913 6.6081e-05 1.1192e-05 0.24073 2.0741e-05 -4.9374e-05 1.3421e-05 2.1891e-05 4.2572e-05 5.6314e-07 8.7486e-05 2.8917e-05 0.00029267 0.30443 -1.7146e-05 0.00031844 -0.00019706 -3.2762e-05 -3.132e-05 0.39099 1.5773e-05 0.0012123 -6.9626e-05 0.23973 -1.4507e-05 -3.5139e-05 -3.5517e-05 -5.4055e-06 5.0405e-06 1.1804e-05 3.8682e-06 1.2166e-05 -0.00017268 -0.0014587 0.00035735 -3.3683e-05 0.20187 -6.5124e-05 0.47351 0.55626 -5.2591e-05 0.00051243
2.859e-06 0.17211 -7.3582e-07 -6.2428e-06 4.5817e-06 0.00025574 1.2807e-05 -2.2879e-06 -9.5648e-06 -0.00012548 -1.1538e-08 3.5506e-06 -1.6162e-05 -1.8065e-05 -1.9022e-06 4.5058e-07 2.2325e-05 1.4711e-06 1.0455e-05 1.8729e-06 9.8942e-08 1.5547e-06 -1.2427e-07 1.2967e-05 0.71103 -7.8526e-06 3.8131e-06 1.278e-05 -5.5325e-06 1.6077e-05 1.7129e-05 -5.2193e-05 4.9328e-06 -5.133e-06 -2.7542e-05 1.242e-05 -6.363e-06 -0.00010681 2.2745e-05 -4.019e-05 0.00071539 0.00036 -5.9217e-05 -2.2037e-05 -2.2216e-08 -3.2283e-05 1.6773e-06 5.2824e-05 -1.2274e-05 -0.00049217 0.0058655 1.2359e-05 -2.0914e-05 0.0077301 0.00024809 -9.0718e-05 1.1281e-06 2.8448e-05 -0.00068547 -0.00060164
0.0016842 8.9277e-06 1.7165e-05 -3.3713e-06 -3.8535e-05 0.00040227 4.0905e-06 1.2874e-05 1.0421e-05 0.00020422 1.2812e-06 -1.6819e-05 6.8997e-05 -3.9788e-06 3.5227e-07 -0.00018097 -1.3047e-06 0.00037266 5.4597e-05 -9.5847e-05 -4.7208e-05 -4.7464e-05 -1.3324e-05 0.011114 4.6258e-06 -2.7714e-05 -9.5331e-06 6.0851e-05 0.0041637 -1.6851e-05 6.5766e-05 7.653e-06 -2.6218e-06 0.00097896 -1.6013e-05 -1.5828e-05 -2.5358e-05 -0.00010544 -8.9888e-06 0.0011393 0.00066791 0.0003848 0.0035245 -4.1805e-05 0.003349 -1.2055e-06 0.00040526 -3.5466e-05 0.012281 -2.0253e-06 0.0017854 -1.4713e-05 0.0020053 -0.00018077 0.00039195 0.00059625 -3.4962e-05 2.8812e-05 -0.00033785 -0.00026198
2.6802e-05 5.4699e-06 6.8909e-05 -1.9467e-06 -9.7649e-06 0.10343 3.7031e-05 -7.8722e-06 2.1316e-06 0.16232 -7.8419e-07 1.1428e-05 -3.9493e-05 0.00030337 1.9244e-06 3.0048e-05 1.7366e-05 -2.1571e-05 0.0018998 0.000467 8.3685e-06 -3.7345e-05 6.3249e-06 0.00045245 -2.0534e-05 0.00011193 -5.1876e-07 0.00025506 0.00091148 -5.5225e-05 8.0911e-05 0.0033586 1.5882e-05 6.5044e-05 -1.3204e-05 1.9105e-05 6.9371e-05 2.4279e-05 -0.00010332 2.9659e-05 0.0006533 1.6434e-05 -4.2276e-05 1.2663e-05 -0.00030002 -1.6157e-05 -2.3021e-05 0.0003148 5.4958e-06 -0.00069529 0.0025489 -0.00054253 0.0086026 0.22385 0.00068289 0.00082076 -0.00092259 1.1324e-05 -0.00035779 -0.00043665
3.4493e-06 5.6998e-06 -6.3288e-08 1.1637e-05 -5.7685e-06 0.00011893 1.6451e-05 -9.1216e-06 -1.4687e-07 -1.3291e-06 -1.4814e-06 -2.7246e-05 0.0007019 0.0022976 -6.9847e-07 2.5111e-05 2.3104e-07 0.00077004 -6.4537e-05 7.2534e-06 -1.5846e-05 -0.0003612 1.205e-06 -3.0529e-06 0.00031915 -6.4871e-06 0.0001073 -1.3621e-05 -4.5075e-05 3.9697e-06 0.0040097 2.0922e-05 -3.1522e-07 0.00052285 -2.0003e-05 9.1134e-06 0.00059636 -6.4188e-05 5.0259e-05 -6.2008e-05 0.0096668 -1.4253e-05 -5.9574e-05 3.34e-06 -1.7727e-06 1 2.1017e-06 -0.00023477 -7.9494e-06 2.1537e-07 2.4704e-05 -0.00010839 -9.7024e-05 -9.3574e-07 0.0021673 0.0006342 -0.0001105 -4.0409e-05 -0.00056974 -0.00075384
-0.00018966 2.2821e-05 3.3124e-05 6.7569e-06 -0.000445 0.0002348 5.6246e-05 -7.3695e-06 9.8691e-06 -6.8724e-06 -3.4255e-06 -0.00010154 0.4961 0.00085557 2.6678e-06 0.23568 -3.0024e-06 0.00047742 0.00025897 -4.8954e-05 0.00058292 -0.00036267 -6.9542e-07 -9.1127e-06 0.0001139 0.00015419 1.0378e-05 -4.561e-05 3.0582e-06 2.3537e-05 0.0019184 1.9837e-05 6.332e-06 0.13357 -8.6113e-05 0.00012915 0.22331 -4.0778e-05 -0.00060492 0.00035849 0.0090663 0.00030834 2.9302e-05 -2.0443e-05 -0.00021896 0.0003041 8.0575e-06 0.013246 -1.5736e-05 3.6254e-06 0.0024843 -0.00015925 -0.00035531 -5.6337e-05 0.14132 0.31104 -0.00040921 -0.00082838 -0.00057527 -0.00028908
4.66e-06 4.5262e-07 5.8455e-06 4.9709e-06 -3.1619e-05 -1.8244e-05 -1.0623e-07 -8.2754e-08 1.7112e-07 -6.2007e-07 -7.9744e-08 -1.3158e-06 3.0361e-06 0.000246 -2.0389e-07 -1.2758e-06 -2.8678e-07 3.2303e-08 3.2089e-07 1.3173e-06 -3.4481e-07 -2.743e-06 3.9018e-06 -6.6518e-06 -2.3796e-07 2.116e-07 3.4668e-06 5.2491e-06 -1.2941e-06 -3.3659e-06 -2.3946e-06 3.7581e-06 1.0622e-06 1.9856e-06 1.0422e-06 -6.3544e-07 1.3851e-07 2.9202e-06 -2.9407e-06 -2.4076e-06 -2.1076e-05 -4.4685e-06 4.1745e-07 2.4804e-07 5.1307e-07 -3.1874e-07 0.40347 1.8975e-05 -0.00099584 -9.2027e-07 1.1795e-06 7.8786e-06 1.1921e-06 2.2759e-06 5.492e-06 -1.864e-05 4.2908e-05 2.8073e-07 9.6797e-06 -7.6968e-06
-2.4981e-06 1.764e-05 2.2547e-05 -8.515e-06 5.9876e-06 0.13899 1.2649e-05 8.0298e-07 2.8453e-06 0.00053811 -4.3161e-07 -2.9303e-05 0.30224 -2.6138e-05 3.0637e-06 4.0082e-05 -2.2579e-06 8.1552e-06 0.23958 0.00035396 0.46279 0.00055846 5.0989e-07 0.00014468 -2.4617e-05 3.6309e-05 -6.8338e-05 -2.0472e-05 7.5984e-06 -2.9419e-05 -7.0391e-05 4.1635e-05 -8.7177e-06 0.16734 -5.8576e-06 0.0022681 0.0003093 7.862e-05 -0.00043198 0.00051672 0.0021702 0.0030303 -2.5947e-05 -2.6306e-05 -0.00020814 -6.4352e-05 1.8585e-06 0.0058615 -1.5931e-05 1.5115e-05 2.4184e-05 -5.9767e-05 -0.00035569 -0.00021619 0.00099128 0.35548 -5.422e-05 0.00034327 -6.7482e-05 0.00010079
1.302e-06 6.3155e-06 -6.1303e-07 1.2023e-07 -4.0602e-06 -5.6117e-06 -1.0409e-06 -4.2136e-09 -5.0711e-07 1.8485e-05 -1.046e-06 6.7041e-06 4.5389e-07 2.3188e-07 -1.6403e-07 -2.9699e-06 1.2659e-06 1.8888e-06 -4.7892e-05 -4.7007e-05 4.404e-07 -6.1011e-07 -3.3835e-08 5.3671e-06 -8.1965e-05 -5.7412e-07 2.7394e-06 8.092e-07 -2.8616e-06 -6.4781e-07 6.7445e-07 -2.6397e-05 -9.8858e-07 4.774e-06 1.3929e-07 7.8717e-08 -3.3959e-07 1.2993e-05 8.9354e-07 -1.0484e-05 -2.2214e-05 -2.4425e-05 -2.0341e-05 1.8222e-06 -1.7256e-05 4.1804e-08 2.4323e-06 6.7996e-06 6.4012e-07 1 -0.00027989 3.1693e-06 -4.1547e-05 0.79371 -6.7753e-05 -6.8297e-05 1.3821e-05 3.3353e-06 0.00012528 3.962e-05
-1.6208e-06 1.6621e-05 3.267e-05 -1.0896e-05 1.0632e-06 0.00028358 1.0869e-05 1.757e-06 5.5982e-08 8.4778e-05 -4.7465e-06 3.213e-06 0.0056323 -1.5029e-05 1.1584e-06 -7.0614e-06 -7.0535e-07 0.0001072 0.00037135 -3.5702e-05 0.0012084 0.0005699 2.5178e-07 8.6848e-06 -2.2442e-06 0.00012718 -5.7052e-05 -2.4167e-05 8.1601e-05 -2.7269e-05 2.2849e-05 -7.1903e-05 9.7058e-06 0.176 -1.5579e-05 0.0024212 0.00012705 -8.3845e-06 -0.00015404 0.00061901 0.0027243 0.0032279 4.8934e-05 -5.1981e-05 -3.1364e-06 -2.0821e-05 -1.6082e-06 0.0069495 -3.8513e-05 4.2829e-06 3.7763e-05 -5.3909e-05 -3.4818e-06 4.071e-05 0.0013049 0.3735 -8.1084e-05 3.8866e-05 -9.3388e-05 7.2958e-06
2.4966e-06 7.3133e-06 0.00010746 0.18546 3.3965e-05 -1.8741e-05 0.18031 4.2887e-06 3.658e-06 -3.5061e-06 -1.1148e-05 0.18489 0.00096248 -3.8638e-05 0.00031322 0.00011549 -3.2508e-05 2.1366e-05 -7.5611e-05 -0.00011678 0.001009 0.17584 1.562e-05 -7.9447e-05 -6.4649e-06 -2.9735e-05 0.43035 -0.00011881 -4.7113e-05 -6.2426e-06 0.44075 0.21561 -1.9319e-05 0.16251 0.00018861 -0.00010494 6.0083e-05 0.00016024 -7.9018e-05 0.11377 -0.00018355 0.17604 -7.7607e-05 1.7445e-06 7.0545e-05 -3.2034e-05 -6.1188e-06 0.00058028 -1.1707e-05 9.1816e-06 -7.5379e-05 0.00016098 0.0040493 -3.9377e-05 0.14732 0.0045908 -0.00053112 0.0011739 1.6552e-05 3.2684e-05
2.1244e-07 -3.835e-06 -0.00016995 1.6899e-06 9.9763e-06 -7.1879e-06 -4.6969e-07 2.075e-06 4.5621e-06 5.3901e-05 -3.0664e-07 -9.6169e-05 -0.00024556 9.2968e-05 3.5784e-06 4.535e-05 1.3435e-06 -2.6446e-06 5.1894e-05 -0.00038481 -0.0001057 -0.00011728 1.4101e-06 -1.8253e-05 7.3497e-07 2.7602e-05 8.8773e-06 0.00059646 -7.9061e-06 -4.9067e-05 -6.5844e-06 -9.7575e-06 6.5543e-07 0.00031012 -5.8469e-05 -2.2871e-05 9.8932e-05 -2.0473e-05 -0.00018147 0.00066247 0.00031631 8.8791e-05 1.8064e-06 -2.3924e-05 -0.0012404 7.7594e-07 3.6743e-05 -0.002149 8.6159e-06 -4.0943e-06 0.0045453 -7.1638e-05 0.52215 2.2801e-05 0.0052427 0.000239 -0.00022691 -0.00033578 -0.00042253 -0.00011133
5.5815e-06 0.17514 1.5341e-06 6.2131e-06 5.5883e-06 -4.2e-05 0.2896 -1.2512e-07 -1.3839e-05 1.6878e-05 6.6636e-07 -1.055e-05 5.2132e-05 4.2131e-06 -2.2877e-06 2.1965e-05 4.612e-07 -2.0189e-06 5.1116e-06 2.8124e-06 0.00018301 0.00045707 -0.0001025 -1.0791e-05 6.2214e-07 0.41317 -3.0242e-06 0.0037316 -1.0681e-05 0.025104 -3.8069e-05 -6.2778e-05 -0.00010149 -0.00010732 -1.3296e-05 0.34751 0.00020737 1.5537e-05 0.00036551 0.0060144 -0.00030325 -2.9411e-05 -1.0974e-05 -0.00012301 0.00011828 -1.2023e-07 -3.3403e-05 -0.0023521 2.8919e-06 -4.1973e-07 -0.00016743 -6.2901e-05 0.00030942 2.1088e-05 0.0013214 0.0036283 -0.00017593 6.3846e-05 -0.0014862 2.6339e-05
1.0753e-05 0.16489 8.7722e-07 4.193e-08 1.0864e-05 0.0020789 -2.2859e-05 -8.7885e-06 -5.2643e-05 1.1515e-05 -4.8622e-06 5.9736e-07 9.8137e-06 0.00026546 -7.9339e-07 -1.9896e-06 2.8281e-06 -2.9914e-07 -9.6436e-06 -2.5386e-05 -1.9271e-05 -0.0001783 -0.00015287 -3.3679e-05 -1.5053e-05 9.4403e-05 -1.1008e-05 0.36479 -1.7322e-05 0.43582 1.2876e-05 5.4272e-05 -2.2877e-05 -0.00029404 -3.6123e-05 0.32637 -8.9028e-06 1.252e-05 -3.4849e-06 0.17469 -0.00032021 -2.0512e-05 -1.578e-05 0.49051 1.8115e-05 4.1045e-06 -0.00066387 7.2617e-05 0.0045662 -3.5505e-06 -9.5698e-05 -0.00025024 -0.00011941 1.5656e-05 -0.00018158 5.1917e-05 -0.00017166 8.9216e-05 -0.00028765 2.0943e-07
1.5151e-07 3.9164e-06 -1.3686e-05 -3.0827e-05 4.355e-07 -2.7165e-06 -1.5849e-06 2.2482e-06 -6.7355e-07 2.5567e-05 4.2333e-07 -2.2589e-05 -0.00018512 -2.3534e-05 3.0611e-07 -6.9243e-07 1.0639e-07 -0.00010683 -0.00010605 2.4805e-05 0.58898 -1.3268e-05 5.651e-08 1.2923e-05 4.3523e-07 -0.00013271 1.805e-05 2.9578e-05 2.6097e-05 4.2125e-06 7.3397e-05 -9.0098e-05 -1.7215e-05 -0.00033185 3.8474e-06 -2.7277e-05 4.9883e-05 2.143e-05 6.1907e-05 -0.00010759 0.00039803 0.0044247 1.5787e-05 1.8531e-05 -0.00013748 3.9158e-06 4.4109e-07 -7.3959e-05 -7.9548e-07 -1.7564e-06 0.00032035 -2.4593e-05 -0.00040099 -4.8669e-05 5.5708e-05 -0.00028303 -1.8691e-05 8.2114e-05 -0.00034429 -0.00028935
2.481e-05 5.1267e-05 1.7355e-05 1.1466e-05 8.6228e-05 -1.9569e-05 3.332e-05 -2.4361e-07 -3.3377e-06 -1.4252e-05 2.603e-07 0.00025734 4.8159e-06 -2.6046e-05 5.3652e-06 -6.3265e-05 -3.4864e-06 -1.8101e-06 0.48644 0.57423 4.0877e-05 0.00017875 1.9662e-07 0.00056938 5.5005e-06 4.998e-05 1.8877e-05 -2.5041e-05 1.1367e-05 -4.9963e-05 -0.00011134 0.46014 -4.0318e-05 -6.761e-05 1.7023e-05 -1.7283e-05 5.0151e-05 9.8899e-05 0.0006114 0.24346 -8.9967e-05 0.00022977 -7.3018e-05 -0.00015814 0.00041771 -6.9981e-06 1.1136e-05 -0.0014708 -2.3811e-05 2.3057e-05 0.00075981 0.0006679 0.00023501 -0.00027364 0.00027946 0.00031878 -0.00075981 0.0006148 -0.00049937 2.2318e-05
-2.1134e-06 0.15774 3.9999e-06 0.26676 3.3896e-07 -7.3772e-08 -2.3224e-05 2.3307e-05 1.7935e-05 1.7258e-06 2.448e-06 0.26495 -1.9494e-05 1.1701e-06 0.00036938 -1.1066e-05 -4.9505e-05 -3.7441e-06 -0.00017049 2.3034e-05 2.4574e-05 0.25266 1.1732e-05 1.4436e-05 1.0328e-05 1.3243e-05 2.1691e-05 1.0053e-05 9.2113e-05 3.3631e-05 0.00030248 0.00087922 1.8505e-06 0.00038537 0.00027556 -6.29e-05 -3.8896e-05 0.41022 9.5982e-06 0.00013234 -8.1626e-06 0.25105 1.223e-05 1.6277e-05 -3.6686e-05 -3.638e-06 -1.7797e-06 -3.3764e-05 -3.756e-06 2.1009e-06 -0.00017746 0.00010573 0.00039943 -2.7222e-07 0.21164 -6.0466e-05 0.0013324 0.58362 -3.7847e-05 0.00050473
-4.1418e-06 2.3102e-06 -3.3828e-06 8.4266e-05 -1.6924e-05 1.5747e-06 2.4141e-06 -1.1255e-06 9.0826e-07 -7.076e-07 0.36882 0.38794 -9.7312e-06 -5.0965e-06 0.64869 -4.94e-06 -1.4995e-06 7.1267e-07 -8.5871e-05 -2.8469e-05 -1.9338e-05 0.00011621 0.77475 -5.1532e-07 2.1928e-06 -7.0441e-07 9.428e-06 -3.9385e-05 -1.3342e-05 7.9833e-05 1.0284e-05 0.00080178 1.6401e-05 -2.2534e-05 0.00027578 9.3779e-06 2.4511e-05 0.00022972 1.0348e-05 3.2041e-05 3.4862e-05 2.1701e-07 1.8483e-06 1.2165e-05 2.2938e-06 1.0049e-06 1.5877e-06 8.9615e-06 -5.1584e-06 7.3601e-08 1.724e-05 -6.0292e-05 -1.4432e-05 6.9995e-06 0.00061571 4.7364e-05 0.00036373 0.0038262 -8.7298e-05 1.6892e-05
1.6562e-05 0.1751 1.3189e-06 1.9852e-07 8.1455e-06 -1.4032e-05 5.4958e-06 -1.2047e-05 7.3341e-06 1.3054e-05 -7.0222e-06 1.6009e-06 1.291e-05 -3.1049e-05 -5.7105e-07 -3.0266e-06 -2.2837e-06 -5.2583e-06 -3.9553e-07 -2.3974e-05 -3.2439e-05 -0.00016888 -0.00011253 -6.8077e-07 1.4682e-05 0.00019358 -1.1994e-05 0.38745 -1.7846e-05 0.46093 2.8282e-05 -2.9328e-06 -1.5249e-05 -0.0003407 2.9489e-06 0.34606 -1.2627e-05 1.6955e-05 -7.4508e-06 0.36575 -7.0436e-05 -1.9194e-05 -2.7341e-05 0.51833 1.6573e-05 4.714e-06 -2.2198e-07 1.823e-05 -2.8897e-05 -2.9142e-09 -9.6061e-05 2.3166e-05 -0.00011879 2.1682e-05 -0.0001395 0.00015156 -6.7435e-05 0.00010089 -0.00027979 1.4752e-05
-2.4812e-06 3.8337e-07 -7.1478e-07 -6.2442e-06 -5.8153e-06 -6.9533e-06 4.9458e-06 -4.4741e-08 8.7384e-07 1.4237e-06 -2.5547e-08 -2.7078e-06 -1.7507e-06 0.0019624 2.2832e-07 -5.4989e-06 4.5427e-09 1.3645e-06 -0.00011388 0.00052153 -2.9663e-05 -7.4324e-08 3.627e-07 -5.4989e-06 -4.5294e-08 -6.8378e-07 1.1516e-05 -6.1432e-06 -3.9455e-06 8.5167e-07 2.0804e-06 9.1006e-06 -3.2345e-08 0.0028496 -2.3554e-06 -3.0009e-06 1.8886e-06 -2.0872e-06 5.4065e-06 -1.6635e-05 -1.1065e-06 0.00018635 3.5793e-07 9.5745e-07 6.1577e-05 -2.0568e-07 -1.1043e-06 -2.0632e-05 -4.5304e-07 -2.3923e-06 2.3997e-07 2.5563e-05 -0.00016968 -1.5761e-05 -6.3666e-05 -0.00057833 -6.1095e-06 2.7663e-05 2.0553e-05 1.5852e-05
1.9731e-06 2.5195e-06 -3.5486e-07 6.6243e-06 -3.3971e-06 5.8015e-05 1.1827e-05 -5.2973e-06 3.3073e-06 0.00043576 -5.4749e-07 -1.6594e-05 0.00041736 0.001275 -2.6314e-07 1.3864e-05 -3.2512e-08 0.28663 -3.3589e-05 2.7747e-06 -5.0208e-05 -0.00019654 6.5991e-07 -1.7552e-05 0.00023046 -1.1193e-05 6.2651e-05 -9.9582e-06 -4.2928e-05 3.0604e-06 0.0022898 1.3138e-05 -4.3309e-07 0.00028428 -1.1293e-05 6.2569e-06 0.00033483 -3.7357e-05 1.3241e-05 -4.853e-05 0.0054339 8.6671e-06 -6.9957e-05 2.3206e-06 -8.1082e-07 0.00047941 1.6303e-06 -8.8339e-05 -5.8629e-06 1.4137e-05 2.3249e-05 -5.9061e-05 -5.2612e-05 -9.4149e-05 0.0013845 0.00039271 -7.0618e-05 -2.0716e-05 -0.00032064 -0.00049356
0.0021732 7.1578e-05 1.7305e-05 -1.4211e-05 -9.871e-05 0.41985 -2.5905e-05 3.2745e-06 -6.8708e-05 0.00018674 -8.6912e-06 -1.1975e-05 -2.0686e-05 0.43677 2.1898e-06 -0.00012673 1.4243e-05 -2.3134e-05 0.0011533 -0.00022868 -2.2546e-05 2.9318e-06 -6.7769e-05 0.00035811 -6.2433e-05 -0.00010526 -2.5397e-06 3.8568e-05 1.0831e-05 0.00191 -2.4111e-05 0.0012072 -2.684e-05 -7.392e-05 -5.3388e-06 0.00062655 -1.4766e-05 0.00046796 -3.0825e-05 0.18049 -0.0015746 -4.8422e-05 -7.9167e-05 0.0027345 2.4887e-05 -8.5019e-05 -0.00018641 0.00021214 0.020135 -8.5079e-05 -7.8008e-05 -0.00053959 -1.0306e-05 0.00090863 -0.00015394 -0.00042594 -0.0004885 -9.2482e-06 8.4858e-05 -0.00035142
-2.5248e-06 4.1539e-05 0.17689 3.0084e-05 -1.7026e-05 -1.4459e-06 1.6672e-05 -1.1665e-06 -1.05e-05 7.0104e-05 -3.1936e-06 2.9874e-06 -0.00011412 -1.1495e-05 4.235e-06 -5.5544e-05 2.6366e-07 -3.0572e-06 -0.00019924 0.0016833 0.00017451 0.23694 -1.6999e-06 0.00044797 -1.4171e-07 9.6171e-05 -1.5885e-05 -3.5381e-05 -3.0854e-06 -3.835e-05 0.00012733 0.00090332 -3.7822e-06 5.0594e-05 -9.6037e-05 0.00029888 0.00019158 -7.5554e-06 0.00010577 0.15324 -0.0001198 -6.8857e-06 -7.6553e-06 -0.00010905 -0.00011459 2.0166e-06 -1.2383e-05 -0.00022038 -1.7347e-05 -4.8181e-05 0.0004376 -0.00010718 0.00032917 0.00073774 0.0017125 0.0051992 -2.3557e-05 5.1572e-05 -0.00039177 -7.4733e-05
-2.4972e-06 2.3963e-05 8.7537e-05 5.6322e-06 3.6864e-06 -1.2368e-05 2.975e-05 2.6684e-06 2.617e-05 6.6149e-06 -2.1583e-06 -3.9464e-05 0.00032049 -1.0736e-05 1.1241e-06 1.7077e-05 7.0353e-07 5.646e-05 0.00011184 -0.00054571 0.00033998 0.00073284 -1.0015e-06 8.8862e-05 -2.7968e-06 0.00010179 -0.0001061 -9.0321e-05 -6.0211e-06 2.102e-05 1.023e-05 -0.00012492 -3.3034e-06 0.25488 -2.5224e-05 0.00030861 0.00039387 -5.2929e-05 -0.00060982 0.0001305 0.00026876 0.00095964 -8.1635e-05 3.2073e-06 0.51513 -8.8815e-06 -5.184e-06 -0.00024013 8.4009e-06 1.1358e-07 -0.00024636 -2.2296e-05 0.51944 2.467e-05 0.0016071 0.0051535 -7.2067e-05 -0.00014709 1.3756e-05 -7.9161e-05
5.8872e-06 4.1128e-06 1.4926e-05 -6.1515e-05 -1.9946e-06 0.00040185 -8.8464e-06 -3.415e-06 -6.052e-06 0.25792 1.4062e-05 0.00012502 -0.00012644 -1.8389e-05 2.3587e-06 1.1079e-05 -7.0244e-07 -3.3462e-05 -0.0014056 0.34672 3.9689e-05 0.00020676 6.9247e-07 0.00033498 -6.6285e-05 4.364e-06 -2.5928e-05 -1.8961e-05 -1.6197e-05 1.1538e-05 6.1869e-06 0.0035221 3.9059e-05 0.00012576 -4.4086e-05 5.1026e-05 0.00010569 0.00023232 0.00032648 6.6362e-06 0.00050461 0.0019488 0.00055627 2.2156e-05 -0.0020175 -1.8006e-06 1.8729e-05 -0.001254 -4.9964e-05 -0.0011197 0.0010996 -0.0006507 -0.00094252 0.34814 5.6814e-05 0.0020455 -0.00093853 -0.00015141 -0.00016035 -0.00028611
9.2625e-06 0.1326 -2.2371e-06 5.3474e-06 5.1328e-05 4.0967e-05 -5.026e-05 -1.2968e-06 -3.1323e-05 0.00017346 6.4147e-07 -0.00018317 -1.5527e-05 -1.0369e-05 9.0497e-06 -2.4638e-06 -2.8821e-07 -2.2221e-06 -0.00026426 -3.5234e-05 3.4936e-06 0.00016383 4.037e-06 0.00022563 -2.2207e-05 2.5601e-06 -3.0838e-05 9.2269e-06 -8.1525e-05 7.9167e-06 -5.9597e-05 0.27391 -7.4168e-06 -6.4559e-05 -2.5011e-05 -6.3401e-06 9.8585e-05 -2.9863e-05 -4.2282e-05 -9.5012e-07 0.00037285 -0.00029651 -7.0829e-05 8.618e-06 -3.4768e-06 -3.5767e-06 1.255e-05 -5.1493e-06 -1.3319e-05 -0.00077914 0.26586 -0.0011149 -0.00010708 0.00141 0.00021443 -3.9889e-05 -0.0030505 0.013323 -9.7882e-05 -0.00010445
1.6642e-05 1.7209e-06 -6.8254e-07 0.22937 3.407e-05 -1.2738e-05 -2.4774e-05 7.1793e-07 4.5321e-06 -8.297e-06 -9.706e-06 0.22826 -7.5949e-05 -6.7662e-05 0.00044342 -9.8974e-07 -6.36e-05 -1.4884e-05 -4.1458e-05 1.9522e-05 -4.4085e-05 0.2174 2.6788e-05 -4.9626e-05 1.0574e-06 7.5536e-06 0.53117 -7.6719e-06 -3.0691e-05 -2.8849e-05 0.54419 0.27487 -1.8302e-05 -1.4872e-05 -0.00020206 8.2481e-06 -0.00010331 0.00036421 1.84e-05 0.14076 -0.00030619 0.2164 -4.5058e-05 -3.7823e-05 -9.2742e-06 -2.3217e-05 7.6396e-06 2.38e-05 -6.386e-06 1.0535e-05 -6.0293e-05 -0.0013238 -0.00012901 -4.6978e-05 0.18005 -0.00012731 0.4273 0.0028257 -2.0175e-05 0.00012655
-4.9848e-06 4.401e-07 0.33842 6.674e-07 -2.652e-05 4.1241e-05 4.0015e-05 -6.8066e-06 1.7542e-05 0.17753 4.8313e-06 -4.5106e-06 -0.00027587 0.00034659 1.9669e-06 -8.798e-06 8.7784e-06 3.1291e-05 0.0011856 0.23087 -2.6439e-05 -3.936e-05 1.5009e-06 1.2492e-05 2.4994e-06 -0.00044539 -5.3436e-06 0.00031027 -2.5447e-05 -3.8265e-05 -9.2336e-06 9.0495e-06 1.0224e-05 -0.00012818 3.3234e-07 2.3838e-05 2.5471e-05 -0.00015012 0.019162 0.00039927 0.00022528 0.00015418 4.7351e-06 -1.0837e-06 -0.00074071 3.4292e-06 0.0001365 0.14039 -1.6747e-05 3.3545e-05 5.8485e-05 -3.3553e-05 0.27223 0.00094949 0.00019202 0.00070301 -8.4546e-05 -8.2564e-07 0.00012546 0.00019542
0.37209 4.4473e-06 0.25721 1.1495e-05 0.37895 0.00013675 1.3362e-07 4.0528e-07 -1.6545e-06 -8.4101e-07 -7.3573e-07 -5.1909e-07 -1.146e-05 7.9931e-05 -2.0788e-06 -0.00026765 1.4583e-06 -9.7963e-07 2.2982e-06 1.662e-06 -3.6898e-06 -3.7761e-05 -3.1619e-05 6.9582e-06 4.1232e-06 4.8451e-06 -5.0469e-06 4.4615e-05 6.3493e-06 -2.195e-05 6.616e-06 -1.2672e-05 -9.4115e-07 -1.0144e-05 -1.7129e-07 -3.0422e-05 2.1485e-06 2.0353e-06 1.6902e-05 0.0018113 1.142e-05 -6.3373e-05 1.2992e-05 -7.1816e-05 7.2348e-07 1.0115e-06 0.4088 -4.5494e-05 0.77039 -6.4071e-06 -2.5149e-05 -1.3521e-05 0.00011496 1.0526e-05 -5.4207e-05 3.4633e-06 -1.8406e-05 -2.6428e-06 -5.4001e-05 1.6877e-07
-2.9545e-06 1.6906e-05 0.00017204 2.7436e-05 -1.0683e-06 -1.3949e-05 0.29134 6.05e-06 -3.5269e-07 3.9196e-06 -4.5995e-06 0.00090379 0.0016712 2.7268e-05 -9.4686e-05 0.00019068 2.6382e-06 5.3971e-05 -0.00022633 -0.00026336 0.001682 0.00033976 1.0589e-06 -4.4657e-05 -8.5329e-06 -4.8222e-05 0.0018609 -0.00019329 -3.5871e-05 2.2578e-05 0.0015331 0.0029022 -1.6748e-06 0.26259 -4.9631e-05 -0.00015115 0.00023564 2.2236e-05 -0.00014449 0.0012922 0.00010352 0.0010181 -5.4843e-05 -7.6449e-06 0.00016824 -1.8247e-05 -1.2981e-05 0.00091665 7.3947e-07 2.5847e-07 -3.9018e-05 -0.00042667 0.0067381 1.3984e-05 0.0031806 0.0075997 -0.00084342 -0.0022371 9.4369e-06 -0.00010195
1.7866e-07 6.2576e-05 -3.4174e-06 2.2732e-06 7.3107e-07 0.00012688 -3.1096e-06 -3.2437e-06 3.1395e-05 0.00078253 6.9763e-08 -2.0819e-05 -9.6013e-05 -1.947e-05 -5.0762e-09 -4.628e-07 1.439e-06 0.52363 -4.8823e-05 2.5397e-05 0.0060375 2.7085e-06 2.0387e-07 -6.6697e-05 -2.5545e-06 0.0014029 1.7474e-06 -7.1186e-05 -5.4637e-05 -3.6429e-05 7.3439e-06 0.00011078 -5.7286e-06 -4.8156e-05 1.4034e-05 -4.6511e-05 2.9698e-06 -2.3665e-05 9.8699e-05 0.00033309 0.00019477 2.4902e-05 -6.9511e-05 -1.7566e-06 -2.0782e-05 8.9677e-07 2.6831e-06 -0.00020611 -1.631e-05 2.5623e-05 0.00049436 4.1643e-05 -0.00014796 -0.00016952 -4.7173e-05 -0.00020253 2.8278e-05 0.0002453 -0.00039672 -0.0004251
-4.4365e-06 6.7612e-06 0.21024 2.9349e-05 -1.9964e-05 1.6598e-06 3.1555e-06 -1.3294e-06 4.0508e-06 -8.3357e-06 -3.7556e-06 -1.2049e-05 4.2978e-05 -5.8934e-06 5.1159e-06 2.0174e-05 -4.127e-07 -4.8705e-06 2.886e-05 -6.7044e-06 0.00021163 0.28268 1.8781e-06 2.3687e-05 8.9291e-07 0.00011048 -0.00025602 -6.1901e-05 -1.2055e-05 -4.9602e-05 0.00023077 -1.1566e-05 -1.0106e-05 6.7942e-05 -2.4959e-05 0.00031558 0.00021621 -1.2181e-05 1.8916e-05 0.18185 -2.6963e-05 -0.00051758 2.2817e-06 -8.6397e-05 0.0001194 2.5098e-06 -1.778e-06 -5.402e-05 -1.3199e-05 -5.1868e-07 -3.339e-05 -7.3712e-05 0.00062787 -3.8759e-06 0.001746 0.0034623 -0.00019771 -4.9383e-05 -6.1679e-05 1.229e-05
-2.9641e-07 4.88e-07 7.3514e-06 2.6959e-07 3.2579e-05 8.1149e-05 -1.1156e-05 -5.8373e-07 9.6572e-07 -0.00018303 0.68071 -6.8804e-05 -6.0999e-06 0.0002983 -0.00036284 0.00011147 4.5131e-08 -2.9431e-05 -0.00010211 -4.9725e-05 9.5985e-07 -0.00013485 7.9476e-05 -4.671e-05 -4.3455e-07 -2.5515e-06 0.00019102 0.000391 -7.342e-05 -0.00025491 -2.9385e-05 0.00086021 0.0011116 0.00019005 3.6458e-06 0.00018994 0.00079146 1.9034e-05 6.0607e-05 0.0004386 0.0018379 -4.1729e-05 0.51168 -5.7444e-06 3.7592e-07 6.2049e-07 -2.5666e-05 -0.00033868 -2.7674e-06 -3.9781e-06 3.0146e-06 -0.00020359 -3.6919e-05 8.3669e-05 0.00066057 -0.00036699 -0.00012599 -5.4265e-05 -0.00016743 -0.00057499
7.5066e-07 7.8472e-07 4.0702e-06 -6.6152e-07 -1.5164e-06 -7.4402e-07 2.3859e-07 1.2281e-08 -3.6352e-07 7.1972e-08 -9.9813e-09 -1.3113e-06 -4.4417e-06 -4.8817e-07 -6.5231e-08 2.0746e-06 3.6535e-09 -3.5152e-08 -1.0425e-05 1.9014e-05 -3.4464e-06 2.8688e-05 -7.1137e-08 2.3927e-07 -3.3518e-08 -1.2759e-06 -1.8282e-05 -3.2952e-06 3.0502e-07 -9.7009e-06 -5.8046e-06 9.5178e-07 5.0823e-07 -8.7265e-06 -1.6265e-06 1.4745e-05 -3.6625e-07 -3.3905e-07 -4.6496e-07 0.00016465 -1.3152e-05 3.9249e-08 6.293e-07 2.5785e-06 -3.3618e-06 9.711e-09 -2.646e-06 1.5931e-07 -1.4641e-06 1.4144e-07 -1.9064e-06 -5.0841e-06 -5.8869e-06 3.3036e-06 -2.7112e-05 3.562e-05 -1.2799e-05 -1.9051e-06 -1.9799e-06 5.5566e-07
-2.699e-06 0.00030144 3.791e-05 -1.5274e-05 4.9921e-07 6.0111e-05 -4.0368e-06 0.51438 5.3692e-05 0.00089781 0.00016667 0.00070915 -0.000392 -0.00014463 3.0007e-06 -9.9632e-06 -3.5974e-07 3.7562e-05 -3.815e-05 1.6236e-05 -4.0242e-05 0.00063594 -5.1853e-07 -7.0821e-05 -2.2812e-05 4.1039e-05 -0.00030579 0.0047782 0.44942 -0.00032145 -0.00024389 6.5117e-05 8.7176e-07 0.20112 0.00011364 -0.0001943 -2.9268e-05 0.0016737 -0.00013125 0.0010842 0.32553 0.00074555 0.00030951 -0.00012997 -5.1145e-05 -7.8495e-05 7.6752e-05 -3.0597e-05 -1.0834e-06 5.7115e-06 0.0028956 0.00024993 0.00068783 -0.00027144 0.0025254 0.001686 0.00015735 0.001821 0.00056273 0.00044522
