5.5413e-06 5.117e-05 0.33994 1.8371e-05 2.0743e-05 2.8421e-06 0.46667 -1.9582e-05 -2.1295e-07 2.3699e-06 2.227e-05 -3.9727e-05 -1.2023e-06 0.00012499 0.0044761 0.00083134 0.00019353 0.0026445 0.012346 -2.3689e-05
-1.963e-07 8.0169e-05 6.0394e-07 1.8551e-07 0.00014622 6.2747e-08 7.7867e-07 2.6295e-05 7.3577e-06 -1.8015e-08 -1.2025e-05 -5.3663e-06 -3.5573e-07 -2.1986e-07 -2.2691e-06 6.1809e-05 3.0242e-05 0.00014497 0.00016715 -2.0368e-05
2.0231e-06 0.00010371 2.0656e-06 0.2509 0.17816 1.3508e-06 -1.8862e-06 -4.4498e-06 9.3531e-05 -3.9476e-06 0.00070031 0.00016902 1.9199e-05 7.3669e-06 0.23504 0.0010004 0.0006537 5.6522e-05 -0.00012827 -0.00017343
-2.7295e-06 -7.4287e-07 7.4708e-05 0.00081463 -1.6234e-05 -3.8776e-06 -3.492e-05 3.3238e-05 0.0002174 -1.256e-07 2.9289e-05 0.00045494 1.9509e-05 -5.4641e-06 0.0015071 0.0012648 0.0027988 0.013632 0.0027307 -9.3131e-06
-7.5695e-06 -4.4964e-05 6.5647e-05 -1.3486e-05 0.00017639 9.9535e-06 0.3127 0.00012148 1.0032e-06 7.7952e-06 -0.0014417 0.00050736 6.1311e-05 0.0018145 2.684e-05 3.8821e-05 0.01422 0.00034906 2.8413e-05 -2.9712e-05
2.5181e-07 0.17394 7.8208e-05 2.2783e-06 0.001082 2.6568e-06 0.00013315 0.00017857 1.968e-05 0.00025186 0.00034575 0.0082213 -0.00017137 3.1547e-05 -0.0001563 0.0023122 -0.00011144 0.010872 0.00057957 -0.00016403
5.8774e-06 4.5928e-05 8.6729e-06 7.5978e-08 0.00014012 -6.1376e-06 -1.9178e-05 -3.6302e-05 1.2145e-05 0.0014482 -9.3914e-05 -1.6384e-05 -0.00053582 0.00012519 -0.00012664 0.0014228 0.00099967 0.00047812 0.0010008 -2.3944e-05
-5.23e-07 -9.1233e-07 1.67e-05 2.4959e-06 0.00037862 1.8712e-07 4.8975e-05 1.9354e-06 0.00025617 -6.0612e-06 -3.0639e-06 -3.1933e-06 4.321e-06 2.3464e-07 1.427e-07 1.4127e-05 4.1031e-05 -2.3962e-05 2.5381e-06 -1.3693e-05
3.1121e-05 0.00037959 0.00033792 0.00031617 0.0011396 0.00093094 -7.5867e-05 -1.0435e-05 6.0427e-05 0.0010385 0.0007969 0.00016732 -0.00036856 0.00013678 0.0076721 0.0016376 0.0016684 0.0038627 0.027475 0.00021741
2.0113e-05 0.15806 6.0845e-05 4.7645e-05 -2.803e-06 0.00015431 7.3236e-06 0.00017927 4.1133e-05 -1.3456e-05 -2.0798e-05 -1.7281e-05 1.5453e-05 4.3701e-05 0.0017716 0.00017921 -5.9179e-05 0.00092731 0.36737 0.00042184
3.9903e-06 1.5726e-05 1.1846e-06 3.0848e-05 1.6292e-06 -3.9954e-06 -5.4557e-06 0.00019312 2.1644e-05 0.00059275 0.0017281 0.00017618 -0.00043307 2.9384e-05 0.0011517 -5.7603e-05 1.99e-05 0.00029828 8.6728e-05 5.0802e-07
-3.9392e-07 0.44273 -5.0067e-06 -5.8467e-06 0.0004889 2.4083e-06 -5.1601e-05 0.00081203 -1.7433e-08 0.0006534 0.0016011 8.3665e-05 -0.00024823 3.0712e-05 -0.00028922 0.0028783 -0.00029826 0.00077861 -7.8688e-05 -8.8266e-05
-8.0238e-07 3.4121e-05 2.6928e-05 5.3589e-06 0.00020512 -2.2463e-07 -1.1359e-05 1.0899e-05 -8.4359e-06 1.0679e-06 -8.9416e-05 0.59822 1.1146e-06 0.00051728 0.0011484 0.0026574 -0.00020069 0.0043534 0.00080882 1.6156e-05
0.21978 0.00014685 0.31387 5.0547e-05 0.00029496 0.0083454 -1.02e-05 -5.8164e-05 0.00023372 0.000886 0.00065815 0.00039933 -0.00031837 0.3273 0.0065493 0.0015054 0.24227 0.0020458 0.0063454 4.7427e-06
-1.1871e-05 0.00013629 2.2362e-05 4.8191e-05 0.0004291 -4.216e-05 5.0491e-05 -2.4663e-05 3.0522e-05 -1.4362e-05 0.00068931 0.34309 1.0828e-05 0.32501 0.0044388 0.0019228 0.00072593 0.1935 -0.00016166 -5.0562e-06
0.3163 0.00017837 0.21967 1.243e-06 -5.9541e-06 0.32443 3.8212e-06 1.2344e-05 -1.1775e-06 0.00092345 0.00023626 -2.3481e-05 0.00016364 -0.00016074 -0.00017018 -3.9152e-05 -9.6629e-05 -0.00022124 0.047235 -9.2903e-05
0.30505 -1.4067e-05 0.21071 -1.7327e-05 0.21242 0.31114 6.9524e-06 -2.3856e-06 2.0364e-06 5.201e-06 -4.59e-06 -3.673e-05 2.4983e-06 -0.00021265 6.6538e-06 -4.7415e-06 -9.4263e-05 -4.7534e-05 6.489e-05 0.25911
1.8495e-05 0.00026301 1.6507e-05 0.25768 -1.6144e-05 1.8735e-06 -4.7252e-05 -4.5183e-05 9.4444e-06 4.7296e-05 0.25242 1.024e-05 0.00064628 6.6755e-05 0.24671 0.30171 0.30541 0.0031713 0.0066961 5.4858e-05
1.8632e-05 1.2706e-05 3.028e-05 0.00014486 0.00093255 0.00085145 3.3561e-05 3.7128e-06 4.4883e-05 -5.7274e-06 1.4133e-06 -0.00021775 1.3731e-06 -1.8044e-05 2.8357e-05 3.2398e-05 -1.0944e-05 0.19027 0.00012201 -2.7819e-05
-1.7897e-07 0.00033411 3.9966e-05 7.6095e-06 0.27508 -5.5319e-06 -2.9274e-05 1.1003e-05 0.0021294 0.0028506 0.00012884 -0.0002363 -0.00063976 6.0204e-05 -0.00015444 0.0016744 0.00040593 0.16254 0.015592 -5.2967e-06
-1.4354e-05 4.1282e-06 0.29794 3.9822e-06 -1.3091e-05 2.7815e-06 -3.6194e-06 -8.6421e-06 7.5598e-05 2.0308e-06 0.00030536 0.43006 -4.5842e-05 -3.7526e-05 -5.4324e-05 0.0012249 0.00077476 0.018785 -4.7331e-05 -0.00014159
7.349e-06 0.22159 1.3682e-05 1.8256e-05 0.00063574 3.6519e-06 0.00019028 0.00029085 3.307e-05 4.587e-05 8.2911e-05 3.2026e-05 1.0182e-05 0.00050798 0.0032975 0.0034031 1.5411e-05 0.0066055 0.010273 -6.6041e-05
0.47584 -3.0919e-06 0.3308 5.788e-06 -0.0004583 0.48811 2.9977e-07 -2.4121e-07 -5.067e-06 1.0221e-05 -5.5629e-06 -2.9579e-05 -3.1223e-06 3.197e-05 -9.051e-07 2.6012e-06 -0.00014915 -1.9414e-05 3.8078e-05 0.4177
9.1807e-07 -1.5908e-06 2.6277e-05 1.4324e-06 0.00026378 9.1374e-07 -1.123e-05 5.1411e-06 7.325e-05 -1.1586e-06 1.7878e-05 0.0036074 -5.8751e-06 0.00040513 9.4455e-05 1.3289e-05 0.0001943 0.012953 -2.0942e-05 -1.9972e-05
4.5145e-06 0.00016434 -4.93e-06 0.00010987 1.0569e-05 -2.359e-06 -3.4514e-05 -2.4333e-06 0.38932 -1.4996e-05 0.00096428 0.00046234 3.9203e-05 8.9806e-06 0.32834 0.001607 0.0009252 0.012845 0.0031091 -4.2216e-06
-2.2945e-07 1.1903e-07 -9.975e-06 -6.6919e-08 0.00020933 2.7646e-06 -3.4975e-06 -7.0124e-06 0.49104 0.41694 -5.9932e-05 -6.8571e-06 -0.00010969 -1.0727e-05 1.4175e-05 -1.6694e-05 -4.979e-05 0.00050547 0.00032444 -8.9803e-06
2.6625e-06 0.00018472 1.2094e-06 3.8276e-05 0.00031839 -6.778e-07 4.5955e-06 -1.3343e-05 0.0026913 0.0035648 0.00055974 0.0005436 -0.00045216 0.00019676 0.0039994 0.0012296 0.00085935 0.0024864 0.00055367 -1.269e-05
3.8545e-06 0.00012908 0.00017455 0.00066599 4.1993e-05 2.8056e-05 2.7672e-05 4.8629e-06 0.00014415 -1.1028e-05 0.0007109 6.9965e-06 2.8627e-05 8.7472e-06 0.0072985 0.0017197 0.0030596 0.17398 1.7729e-05 9.9543e-05
2.1006e-08 2.5384e-05 -8.7281e-07 -5.7559e-07 -1.5402e-08 4.4698e-08 -5.6219e-06 -6.1372e-06 0.00042016 4.9515e-05 9.4892e-05 -1.4437e-06 3.029e-06 7.2133e-06 1.7356e-05 3.6665e-05 2.0766e-05 0.000145 0.00010943 2.184e-05
-1.1843e-06 0.25221 1.2556e-05 3.6966e-05 0.00027066 -1.2766e-07 -5.5903e-05 0.69646 1.9225e-06 0.20338 0.21086 2.9613e-05 -0.00018292 8.9811e-05 0.00087431 0.0016121 0.00038505 0.00044222 -0.00011051 -4.3936e-05
7.9824e-06 0.00026132 1.6754e-05 3.0265e-05 0.00064422 -7.0082e-06 -6.3861e-05 2.4787e-05 0.00022762 0.0011579 0.00034427 0.00019531 -0.00048428 0.00036182 0.0023981 0.22494 0.0048223 0.0040673 0.00074511 -6.7939e-05
-8.6132e-06 -2.6983e-05 0.00010625 -1.4344e-05 0.00015818 1.1767e-05 2.6522e-05 0.00010426 0.00064835 7.2167e-06 -0.0016212 0.00055603 7.1731e-05 0.0019837 1.0391e-05 0.00011663 0.015591 0.00054234 3.0783e-05 -6.3559e-05
6.8371e-08 9.5455e-10 1.9532e-07 -1.798e-07 4.2395e-06 1.817e-08 3.8439e-06 4.6221e-07 2.0504e-06 2.6712e-07 4.9955e-07 -9.0075e-06 -1.8046e-06 -4.6072e-06 9.5138e-07 -1.2596e-06 5.2101e-06 0.00030283 1.7549e-05 -4.9724e-07
-7.1048e-06 0.10311 0.12453 0.17551 -7.3816e-06 2.6304e-06 -8.4293e-05 0.2832 2.4378e-05 -1.015e-05 0.00050713 -6.3597e-05 2.3075e-05 -3.3545e-05 0.16582 0.0014607 0.0024758 0.14317 -0.0001674 -0.00026228
2.2711e-05 0.17562 6.7278e-05 5.4423e-05 0.0022712 0.00017006 -1.3467e-05 0.00014794 4.5178e-05 -1.4961e-05 -2.3392e-05 -3.7397e-05 1.7088e-05 4.9355e-05 0.0019707 0.00020257 -2.9075e-05 0.0010124 0.40695 0.0025941
-3.5997e-07 9.8607e-05 1.1389e-05 -5.0014e-07 0.00025966 -3.3587e-07 0.0001433 -1.4019e-07 0.0001164 -4.5055e-07 -8.204e-05 0.00058734 6.8122e-06 0.00010753 -0.0011058 0.013456 1.025e-05 0.0015741 7.0647e-05 -2.721e-05
1.2801e-05 0.30639 -2.0512e-05 5.5539e-05 -1.9272e-05 4.4213e-06 1.0657e-05 0.00046001 4.6329e-05 -2.1474e-05 1.808e-06 -1.9769e-05 1.6847e-05 8.4772e-05 0.003928 0.00055621 2.8448e-05 0.0024397 0.49043 -3.89e-05
-2.8965e-07 0.00017107 9.4092e-06 -1.8156e-07 0.00011034 -8.4451e-08 0.0017255 -3.5724e-05 0.00010836 8.6175e-08 -7.4966e-05 0.00057693 4.4684e-06 2.3122e-05 -0.0017198 0.017707 4.5015e-06 0.0016895 0.00051439 -7.8514e-06
-5.8449e-07 8.2741e-07 2.1258e-07 -1.5673e-07 0.00013406 -6.9612e-08 1.4169e-05 -1.5676e-07 5.6566e-08 5.8876e-08 -9.4614e-06 0.0007138 -2.1548e-07 2.1173e-05 -0.00018035 0.0016267 1.7866e-06 0.00062775 -1.4913e-05 -5.0093e-06
-2.09e-06 -1.4686e-05 2.2304e-05 6.6871e-06 0.31363 -3.2661e-06 -3.8125e-06 1.3488e-06 0.0010114 1.5508e-06 -1.2908e-06 -3.7354e-05 3.3991e-06 -6.1841e-07 -6.1735e-05 0.00074092 -1.7334e-05 0.0024789 0.00024772 -0.00024883
3.5713e-06 0.15015 0.00023177 1.7883e-05 0.18 7.7188e-07 0.0001503 0.00020871 6.2364e-06 -9.5165e-06 -3.7749e-05 0.000593 9.6016e-06 0.00011098 0.0028716 0.00049119 0.00013854 0.22003 0.0070994 -0.00024505
-8.521e-20 2.8903e-21 7.8154e-19 1.3951e-20 -2.5579e-18 -1.1587e-18 3.2483e-19 5.4437e-20 5.5744e-19 -4.9948e-21 2.3623e-18 2.9374e-19 -1.144e-19 -3.5453e-21 1.1324e-19 -3.4653e-20 -6.4127e-17 1.6187e-19 -1.2811e-19 2.0367e-15
6.5916e-06 0.00017344 1.1387e-05 0.3755 2.4921e-05 8.4939e-06 -5.673e-06 8.7641e-05 5.5922e-05 -4.5467e-06 0.0010058 0.00027204 1.7705e-05 1.1193e-05 0.35553 0.0013908 0.0010444 0.00030169 -0.00022477 -9.7792e-06
-1.1449e-05 7.6133e-05 0.2151 0.00093911 0.00038816 -3.1468e-06 -1.1391e-05 0.00010971 -8.3251e-07 -4.9957e-06 -1.8967e-05 -0.00026939 2.7686e-05 -4.1285e-05 0.0014603 0.014484 0.0030277 0.24675 -5.3357e-05 -0.00024216
-5.4048e-06 -2.035e-05 4.8238e-06 1.2146e-05 0.4814 -5.6761e-06 8.0108e-06 6.9378e-06 8.1442e-06 1.6658e-06 2.2201e-06 -4.406e-05 1.0452e-05 6.3277e-05 2.8598e-05 0.00052241 -7.4776e-05 2.9742e-05 5.4976e-05 -0.00046561
-2.9892e-05 0.26411 3.5219e-06 1.8138e-05 7.2784e-05 -7.5813e-05 0.43432 0.00035743 9.6132e-06 -1.0082e-05 1.0093e-05 9.1922e-06 1.0129e-05 0.65972 0.0040997 0.00077216 0.00031715 0.0024677 0.011133 -1.8961e-05
-1.4693e-05 -2.9022e-06 0.00059067 0.0012368 -1.4311e-05 -1.1221e-06 7.009e-07 5.2832e-06 0.00025253 -1.2316e-07 -0.0008023 0.00077084 0.00019376 -1.4956e-05 0.0022384 0.0021079 0.018656 0.0038411 0.00015978 -0.00011568
8.531e-06 3.9331e-06 -2.7531e-07 -1.0299e-07 -3.8198e-06 -6.9723e-06 2.8056e-05 3.3082e-06 0.00021079 -8.407e-07 -3.5307e-05 0.00035352 1.2312e-06 6.1319e-05 -2.3055e-05 9.0305e-05 0.00010818 0.00069211 7.1179e-05 9.0441e-07
5.5144e-06 3.643e-05 0.0002247 -2.4294e-06 2.2664e-05 9.0223e-05 9.5654e-06 -8.9319e-06 0.0018724 3.3257e-05 2.2131e-05 4.7356e-06 4.0318e-06 1.7644e-05 0.00010057 2.9961e-05 0.00024238 4.1852e-05 0.00012147 2.7545e-06
2.1241e-05 0.00018887 3.28e-06 0.29276 -2.2416e-05 3.1656e-06 -2.7268e-05 -6.2361e-05 3.0622e-06 5.9021e-05 0.28801 6.3672e-06 0.00067803 9.9078e-05 0.28034 0.34334 0.35435 0.0030813 0.0073585 4.3117e-05
-6.0319e-06 5.5887e-05 0.00037598 1.4427e-05 0.00041598 1.2553e-07 -6.3044e-05 3.1255e-05 1.6564e-06 2.6919e-07 -4.8906e-06 -1.8091e-05 3.6453e-07 -3.607e-05 2.3697e-05 1.7009e-05 0.00020592 0.00041038 0.00011661 -0.00010381
-4.9859e-06 0.0001293 0.0002638 0.00073259 0.00031511 -1.5261e-06 -6.1006e-06 -3.0302e-05 0.00025183 2.6531e-05 7.0125e-05 -1.7049e-06 1.0235e-05 -2.3699e-05 0.0013235 0.001266 0.0024769 0.00049188 2.901e-05 -1.561e-05
-2.9873e-28 -9.6963e-28 -3.3982e-27 2.3234e-27 -1.3843e-27 -1.1356e-26 -2.8633e-28 -1.3316e-27 -9.4877e-30 2.0157e-27 -1.3679e-24 2.6796e-28 1.9345e-26 -2.9898e-28 2.2985e-26 2.4315e-26 6.7859e-25 9.3565e-26 -2.0415e-27 7.7941e-25
3.6922e-05 -1.4611e-05 4.2301e-05 2.3903e-05 0.00036145 5.778e-06 0.00020924 0.00032401 0.00030902 0.00066174 0.00070941 0.00045786 -0.00045659 0.0017105 0.0014338 -5.5209e-05 0.013996 0.00026186 7.6804e-05 2.1839e-05
0.47584 -3.0919e-06 0.3308 5.788e-06 -0.0004583 0.48811 2.9977e-07 -2.4121e-07 -5.067e-06 1.0221e-05 -5.5629e-06 -2.9579e-05 -3.1223e-06 3.197e-05 -9.051e-07 2.6012e-06 -0.00014915 -1.9414e-05 3.8078e-05 0.4177
1.9582e-05 0.00024792 6.0241e-05 1.7506e-05 -0.00030146 0.0001301 -1.1275e-06 -2.0765e-05 8.3726e-05 3.5057e-06 2.1799e-06 -2.9661e-05 8.4589e-07 7.1681e-05 0.0027893 0.00049272 2.2824e-05 0.0024266 0.033125 0.27439
-2.5181e-06 0.0001833 3.2559e-06 2.9093e-06 0.27261 -2.6156e-06 -2.6863e-05 7.3174e-05 6.4009e-05 0.00016183 0.00023976 2.2647e-05 -0.0001081 -3.4895e-06 -0.00010003 0.0014834 -0.00012603 0.00027066 4.9136e-05 -0.00029548
-4.2789e-05 -0.0014881 0.26016 -1.3258e-05 0.0001437 -5.3791e-05 6.2979e-05 0.59363 -2.3539e-06 -1.5971e-05 -0.0016705 0.00025229 7.1439e-05 0.54445 -0.00012307 0.0027565 0.01583 0.2989 -0.0002117 -4.4791e-05
1.275e-06 -1.0033e-06 1.4708e-06 3.562e-05 6.3722e-06 -4.7021e-06 -4.7213e-06 -1.0718e-05 5.0135e-06 0.43071 0.44458 -4.0519e-05 0.76095 -3.8256e-07 -9.6492e-05 9.9555e-05 0.0014539 2.4798e-05 0.00010135 -1.0574e-06
-2.1871e-07 9.6706e-06 -4.7665e-06 2.5455e-06 6.1216e-05 -2.5802e-07 1.7015e-05 -6.7236e-06 0.55017 -1.911e-05 -5.3034e-06 8.4369e-05 3.9018e-05 6.1469e-05 -7.211e-06 8.267e-05 -5.3044e-05 0.00034461 0.00030481 1.2202e-06
1.1313e-06 0.10412 1.639e-05 8.5261e-06 0.25203 -4.3417e-06 8.1807e-05 0.28696 9.323e-05 -6.5593e-06 -2.2073e-05 1.608e-05 6.2701e-06 -3.691e-05 3.7447e-05 -4.304e-06 0.00017622 -2.0291e-05 0.00033533 -0.00043919
8.556e-06 8.8116e-05 1.8666e-05 2.3555e-05 8.3588e-05 -2.798e-06 -6.4648e-06 -6.4627e-06 0.00020785 0.00090392 -6.0341e-05 3.7007e-05 -0.00032719 9.6956e-05 0.0018715 0.00042205 0.00058622 0.20357 0.22171 -2.7318e-05
-2.3599e-06 -3.8493e-06 1.514e-05 1.6423e-05 0.21989 -2.1871e-06 2.7732e-06 -4.3389e-06 2.489e-06 4.3816e-06 -1.9378e-05 8.4522e-05 4.1599e-06 2.0815e-05 0.0011972 -0.00012169 -4.1335e-05 0.000292 0.00063389 -0.00024221
6.2014e-07 0.15964 2.6757e-05 0.26986 3.7183e-06 -1.8234e-06 -2.6458e-05 0.00045945 3.9387e-05 0.00061162 0.28395 0.00017517 -0.00061426 9.4695e-06 0.25625 0.0017457 0.0059848 0.0010029 -0.00015253 -8.096e-06
7.6806e-06 0.089225 2.4839e-05 0.00052861 9.1384e-05 -8.0721e-06 4.6996e-05 0.00015495 0.00024589 0.00013125 0.00097116 0.00069123 4.764e-06 5.7432e-05 0.0029519 0.039804 0.0033809 0.0019226 0.00012398 2.2038e-06
4.3186e-06 0.31288 5.8784e-05 0.00011505 -1.0928e-05 9.7357e-07 0.51422 0.00050598 7.8978e-05 -2.6485e-05 0.0017257 -2.1511e-05 3.9424e-05 3.7546e-05 0.010812 0.0019048 0.0017442 0.42374 -0.00023916 -1.8658e-05
0.40906 -8.9067e-06 1.3894e-05 0.40076 0.0016018 0.42094 -5.5644e-06 1.249e-06 -8.1695e-07 2.8766e-06 5.7611e-05 9.2556e-06 5.0112e-06 2.488e-05 0.00010899 9.3925e-05 2.802e-05 0.00016493 0.0008329 0.0052537
2.1241e-05 0.00018887 3.28e-06 0.29276 -2.2416e-05 3.1656e-06 -2.7268e-05 -6.2361e-05 3.0622e-06 5.9021e-05 0.28801 6.3672e-06 0.00067803 9.9078e-05 0.28034 0.34334 0.35435 0.0030813 0.0073585 4.3117e-05
-3.674e-07 0.00012692 -6.264e-09 -4.6315e-08 0.00010129 -1.0545e-07 -5.1376e-06 -4.4123e-05 8.8682e-05 -3.4669e-07 -9.973e-06 0.00056872 2.088e-07 1.9667e-05 -0.00013275 0.0011408 -2.2182e-05 0.00059476 -1.037e-05 -1.6189e-05
-4.7709e-06 0.12767 0.00028515 1.0439e-05 1.458e-05 8.1162e-07 -5.0495e-05 0.00018288 0.00042175 2.7908e-05 4.2218e-05 -1.0784e-05 4.9639e-06 9.1069e-05 0.00012213 -9.8885e-06 0.00095196 0.00028507 0.00018266 -0.00015556
-9.5862e-06 0.00027774 0.0006069 -2.1296e-07 -5.6665e-06 3.8116e-05 -3.1373e-05 -2.6959e-06 0.2505 2.1733e-05 -0.00043131 0.0009182 0.00010371 -2.7207e-05 0.00048545 -7.7945e-06 0.0075848 0.00096848 0.017629 0.00026162
6.689e-06 0.19606 -4.5938e-06 1.649e-05 0.00078372 2.8215e-06 0.00016728 0.00020466 3.1177e-06 1.0813e-06 4.7707e-06 2.8981e-05 3.8498e-06 0.00010437 0.0030612 0.00059101 2.8826e-05 0.0021365 0.0091759 -7.6171e-05
2.6133e-05 0.00031761 5.8033e-05 0.00018333 0.21173 0.0010705 -2.9289e-05 4.3316e-05 9.6287e-05 0.0002403 0.00031767 0.004528 -0.00016625 0.00021782 -0.00028617 0.003868 0.00022897 0.2523 9.1746e-05 -0.00035103
-4.6989e-06 0.13023 0.00029042 9.0246e-06 7.6709e-05 9.7349e-07 -8.6403e-05 0.00016246 0.00063427 2.8494e-05 9.2012e-05 -1.2919e-05 8.3571e-06 8.5808e-05 0.00012058 -6.7905e-06 0.0046716 0.00028445 0.00017545 -0.00014421
-2.0679e-06 -1.0549e-05 -3.0451e-06 0.00027685 0.217 -3.5801e-06 1.0585e-05 4.0917e-06 0.34178 -2.2805e-05 -1.7178e-05 -2.6925e-05 3.6799e-05 -6.2521e-07 -2.5127e-05 0.00095187 -9.0561e-05 -2.905e-05 0.00020117 -0.00020352
1.9239e-05 0.0001329 8.8901e-06 0.26641 -1.8059e-05 1.9268e-06 -2.4554e-05 -4.1831e-05 9.2451e-06 4.8979e-05 0.26095 8.4124e-06 0.00067166 7.8842e-05 0.25452 0.31194 0.31559 0.0028202 0.006916 5.8432e-05
-1.9523e-06 0.10465 4.4577e-05 0.00010128 5.9039e-05 6.0139e-07 0.17322 0.00015295 7.7449e-05 -1.7918e-05 1.5484e-06 8.2944e-05 1.2644e-05 1.2194e-05 6.3215e-05 0.2184 0.0015195 0.28493 0.00019461 -1.134e-05
1.3144e-05 0.15032 1.1484e-05 0.25421 -2.3343e-05 9.5756e-07 -8.3038e-05 0.00040493 8.927e-06 0.00057527 0.27045 5.2278e-05 -0.00060227 2.7492e-05 0.2419 0.0020917 0.30717 0.00087771 -0.00012191 2.8562e-05
-3.4599e-07 0.17198 -2.5381e-06 -3.0903e-07 0.00026109 8.3519e-07 -6.82e-06 0.00023846 1.4904e-05 5.1316e-07 -9.1752e-06 1.4489e-05 3.3889e-06 1.6679e-05 2.9629e-07 -6.6596e-06 -2.3812e-05 9.3661e-06 -3.8632e-05 -2.7754e-05
0.0013458 1.0841e-05 5.4722e-05 3.2436e-06 0.00044217 0.00019481 9.2662e-07 1.3006e-05 0.00021996 -6.5894e-08 -2.8954e-06 9.5156e-05 1.1402e-07 -0.0001685 3.6565e-06 2.0754e-05 -6.8138e-06 0.0011756 5.7431e-05 0.0075998
2.1066e-05 2.3275e-06 8.1939e-05 -8.571e-07 0.10329 -2.0134e-06 3.3878e-05 6.7391e-06 0.16293 -1.0137e-05 -1.594e-07 3.7094e-06 1.8875e-05 2.8101e-05 9.3427e-06 3.449e-05 0.0033205 0.00013565 0.00015471 -0.00011231
-7.2677e-07 3.9889e-07 -2.8193e-07 -3.2869e-07 0.00018828 -7.6191e-08 1.8523e-05 -2.8791e-08 3.6106e-08 -7.0447e-08 -1.2009e-05 0.00083423 -1.9533e-07 2.6375e-05 -0.00022577 0.0019777 2.3299e-07 0.00078239 -1.8955e-05 -5.0949e-06
-8.929e-06 0.00011501 2.8585e-05 3.7084e-05 0.00047488 -3.0668e-05 2.9196e-05 -1.6238e-05 1.8701e-05 -9.93e-06 0.0004633 0.49652 8.3319e-06 0.23573 0.0036849 0.0024826 0.00044244 0.14201 0.00021294 1.246e-06
2.5813e-05 -9.9991e-07 3.3621e-05 8.4001e-06 -0.00035075 0.00015617 -1.2956e-06 4.6261e-06 -2.3007e-07 1.3636e-07 -8.1554e-07 6.3465e-06 -4.9774e-07 -3.8009e-06 -1.8504e-06 1.8712e-06 -2.0534e-05 -9.8795e-07 -1.9288e-05 0.32022
-5.7567e-06 2.0834e-06 0.00019584 -1.5541e-06 0.13905 4.7719e-06 -3.0837e-06 5.029e-05 0.00053879 -1.802e-06 -0.00098253 0.30453 4.3739e-05 0.0013213 0.00076241 -0.00017546 0.0083706 0.18659 0.0022438 -0.00015721
2.7895e-10 -1.9429e-07 8.4212e-08 1.6416e-08 4.141e-05 3.0277e-08 -1.44e-07 -7.6141e-07 0.0033301 -6.0366e-06 -3.6425e-06 -1.8005e-07 1.0142e-06 -1.3716e-07 3.79e-07 -1.0885e-06 3.5202e-05 -4.8072e-06 7.003e-08 -3.5473e-06
-1.2187e-06 1.9908e-05 2.2579e-05 3.3606e-06 0.00051403 8.4323e-07 -2.4003e-05 8.377e-07 8.3836e-05 -5.5246e-06 -4.5994e-05 0.0085341 2.8922e-06 0.00017256 0.00080571 -0.00010597 -4.103e-05 0.18304 0.0023054 -2.6849e-05
1.0079e-05 0.00010687 0.00012255 0.18562 -2.8239e-05 5.9498e-09 0.18034 -2.1348e-05 2.0703e-06 1.6087e-05 0.18092 0.0010646 0.00039104 0.00016763 0.17892 0.43374 0.20823 0.16231 0.0045695 5.4152e-06
-2.7787e-06 1.5282e-06 0.00033383 -1.5333e-08 -1.1622e-05 -2.4463e-06 -6.3707e-06 3.8767e-06 9.6705e-05 3.2603e-07 -2.4149e-05 0.0014043 1.2378e-06 6.4555e-06 -3.1919e-06 2.5727e-05 0.00014489 0.00090795 9.8187e-05 -7.815e-05
1.8223e-06 0.17547 -6.5271e-06 2.8539e-05 0.00052578 1.7793e-06 0.28978 0.00022307 2.5653e-05 -1.4681e-05 -4.5977e-05 0.00013626 9.8455e-06 2.5964e-06 0.00053229 -0.00032309 -6.5102e-05 3.4637e-05 0.29264 -8.5546e-05
2.1375e-05 0.16529 6.3319e-05 5.1221e-05 0.0021376 0.00016005 -1.2675e-05 0.00013924 4.252e-05 -1.4081e-05 -2.2016e-05 -3.5197e-05 1.6082e-05 4.6451e-05 0.0018547 0.00019065 -2.7364e-05 0.00095283 0.38301 0.0024415
7.7198e-07 7.8831e-06 0.00020088 1.1959e-06 3.772e-06 1.4588e-07 -2.0557e-06 -1.611e-05 2.5236e-05 -7.9698e-07 -4.7233e-05 0.00082261 -7.2337e-07 4.8658e-05 -1.211e-06 2.2066e-05 5.0005e-05 0.015694 2.9992e-05 -8.2013e-06
4.0222e-06 7.1681e-05 0.00050454 -6.1065e-06 0.00012947 1.572e-05 5.1411e-05 5.2535e-05 0.00019688 6.7053e-07 -0.0024922 0.00045025 0.00021459 0.0025468 0.0038442 0.00081028 0.46204 0.0024578 0.010352 -7.5447e-05
6.7383e-07 0.15777 2.6328e-05 0.26668 3.7148e-06 -1.7328e-06 -3.0409e-05 0.00045432 3.9245e-05 0.00060541 0.28053 0.00017335 -0.00060294 9.2851e-06 0.25325 0.0016968 0.0057871 0.00098431 -0.00015368 -8.126e-06
3.8456e-05 -1.141e-06 8.7006e-05 1.7681e-05 5.1934e-06 0.00065142 -4.2079e-06 -1.126e-05 4.147e-06 0.36827 0.37925 -3.5049e-05 0.6488 -8.6449e-06 -0.00014346 5.3983e-05 0.0012634 1.6178e-05 0.00030842 -6.8886e-06
2.83e-05 0.17556 6.7892e-05 6.6353e-05 -2.6393e-06 0.00017268 1.2461e-05 0.00018594 4.7556e-05 -1.54e-05 -6.2714e-06 -2.5427e-05 1.8447e-05 0.00012575 0.004696 0.00071302 -1.5062e-06 0.0026138 0.41432 0.00045275
2.4883e-08 -9.0316e-09 -9.1484e-11 -1.1935e-08 -1.4124e-06 5.8528e-07 5.2306e-06 5.7165e-07 8.4082e-08 -1.065e-07 -1.3111e-06 -5.1819e-06 5.286e-08 -9.5774e-06 2.3247e-06 -5.779e-06 4.3556e-06 0.0026832 -5.2023e-06 -8.6785e-07
-4.7227e-07 6.9514e-06 -2.4428e-07 -4.4955e-07 0.00010143 -5.8123e-08 1.1461e-05 1.2058e-06 0.00045409 1.0348e-06 -6.4863e-06 0.0004614 3.2355e-08 1.5322e-05 -0.00011851 0.0011169 5.1809e-07 0.0004477 -3.2225e-07 -6.6349e-06
0.0017676 7.8983e-05 1.4958e-05 0.00019538 0.42051 0.0013046 -2.833e-05 -7.7288e-05 0.0002035 -1.2235e-06 -1.032e-05 -6.9798e-05 8.8992e-06 -4.9059e-05 0.0027415 0.00057051 0.0013269 0.0016084 0.0078231 0.01119
3.6639e-06 6.5459e-05 0.1768 4.3486e-05 3.9868e-06 2.6987e-06 2.0373e-05 -2.6782e-05 8.3829e-05 4.2135e-06 -0.00013074 7.1047e-05 -6.0748e-06 0.00020034 0.23169 0.00052321 0.00084225 0.0016046 0.0064685 -2.2209e-05
-1.1149e-05 2.8963e-05 0.00054574 1.4094e-05 -4.6555e-05 5.5866e-06 3.5368e-05 3.1557e-05 5.265e-05 -1.0225e-05 -6.4381e-05 0.0019887 6.9526e-06 -2.4697e-05 0.0010796 -0.00017323 0.00043482 0.25038 0.00044492 -0.00013226
-5.5723e-06 1.3514e-06 0.00029501 -7.559e-07 0.00043747 1.5719e-06 -2.4523e-05 -6.0078e-06 0.25895 -9.7453e-06 -0.00044763 1.44e-05 0.00011028 4.5819e-06 9.4069e-05 5.906e-05 0.011585 0.00013054 0.00022995 -7.7141e-05
9.4568e-06 0.1325 -1.6798e-05 -3.0891e-06 2.8345e-05 1.009e-06 -6.4291e-05 0.00015547 0.00020004 2.2749e-05 -7.4066e-05 -9.4471e-05 2.7298e-05 2.1438e-05 0.00027958 -2.1265e-05 0.25691 -3.996e-05 1.646e-05 9.113e-06
1.6519e-05 0.00014258 7.2472e-07 0.22984 -2.1905e-05 2.4038e-06 7.3438e-06 -5.0345e-05 -1.0396e-06 3.7862e-05 0.22607 -3.0708e-05 0.00053505 7.1111e-05 0.22176 0.53576 0.27994 0.003156 0.0057991 3.6274e-05
-1.0473e-05 1.8678e-05 0.33864 -3.0231e-06 5.8894e-05 3.2971e-06 2.8314e-05 7.34e-06 0.17725 -3.3585e-06 -0.00034847 0.00065663 7.1541e-05 -2.4976e-05 1.2626e-05 1.626e-05 0.0053611 0.00032903 0.00020401 -4.0418e-05
0.37205 -4.8043e-06 0.25709 -1.5819e-06 0.0010912 0.3797 1.9413e-06 -3.4716e-06 -1.7884e-06 8.0651e-06 -4.1938e-06 -2.1412e-05 -2.7719e-06 -0.00025158 2.1601e-06 2.5878e-06 -0.00010503 -9.3334e-06 3.2972e-05 0.63707
-2.5434e-06 2.0394e-05 0.00019342 2.381e-05 -1.9354e-05 -6.0409e-07 0.29132 1.3604e-05 3.8621e-06 -1.5999e-05 0.00079889 0.001746 -8.5241e-05 0.00018525 0.00037731 0.0018329 0.0029044 0.25811 -0.00019128 -1.3528e-05
-2.0671e-07 8.3079e-05 3.1236e-07 2.1042e-07 0.0001516 6.6928e-08 8.7141e-07 2.7269e-05 0.00081552 1.7573e-06 -1.2469e-05 -5.5538e-06 -6.8124e-08 -2.2979e-07 -3.3301e-07 6.3944e-05 3.0029e-05 0.00015202 0.00016578 -2.0948e-05
2.4605e-06 3.2095e-05 0.21013 4.9897e-05 4.9499e-06 2.9991e-06 3.8505e-06 -1.4256e-05 -1.1413e-06 6.1975e-06 -0.00016708 5.8657e-05 -8.5539e-06 0.00010392 0.27665 0.00049354 -7.5943e-05 0.0019024 0.008164 -7.2984e-07
6.3737e-06 3.7342e-08 6.0579e-06 -1.8089e-06 0.00022978 -1.6569e-06 -1.6308e-05 -5.1083e-06 0.0026512 0.6809 -9.033e-05 -1.6029e-05 -0.00032058 0.00011268 -2.7804e-05 0.00030629 0.0009573 0.00080396 0.00098407 -1.5416e-05
-1.9234e-07 -3.2483e-07 4.1334e-06 -7.572e-07 6.48e-08 1.4254e-06 1.2628e-07 -2.5599e-07 7.2693e-08 9.859e-08 -4.098e-06 1.557e-06 -1.1019e-07 1.1377e-06 4.4739e-05 -2.3909e-05 -7.1986e-07 4.3731e-06 1.3735e-05 -4.0605e-06
-1.5121e-06 0.00058137 4.086e-05 -2.9766e-06 0.00039232 8.7911e-07 -3.1971e-05 5.4138e-05 0.00099516 0.00041781 0.0010854 -0.00017315 -0.00017248 -2.5185e-05 0.00083566 0.001955 0.00011686 0.19761 0.00030973 -3.2059e-05
