-3.0009e-07 -2.9058e-05 0.33985 3.7591e-06 -7.4249e-06 -8.4306e-06 0.46635 0.00086564 -4.8914e-05 0.00058754
-2.8712e-07 8.4752e-05 3.6528e-07 -1.5914e-07 0.00014814 2.0099e-07 1.5998e-06 4.5167e-05 2.1086e-05 -4.5873e-06
1.6186e-06 0.0002191 2.7086e-06 0.25072 0.17813 -3.1073e-06 -2.1605e-06 4.1277e-05 0.00018764 -0.00017074
-2.6132e-06 5.8674e-07 8.3101e-05 0.00079124 -5.1331e-07 -4.4799e-06 1.7367e-05 2.4957e-05 0.00057635 1.6996e-05
-7.6194e-07 -7.9082e-05 7.0279e-05 -9.6194e-07 0.00016381 -1.081e-06 0.31251 0.00073475 0.00052142 5.284e-05
-9.7808e-07 0.17461 7.8973e-05 6.415e-06 0.0010895 -1.2403e-06 0.00018895 0.0065521 0.0084935 -6.5413e-05
2.1247e-06 4.4896e-05 1.0341e-05 4.3149e-07 0.00014356 1.5625e-05 -3.5764e-06 -6.8307e-06 2.979e-06 -5.3619e-07
-4.1667e-07 -8.642e-07 1.7676e-05 2.448e-06 0.0003789 -1.3391e-07 4.9516e-05 1.9409e-06 -3.7697e-06 -7.9135e-06
3.1963e-05 0.00041909 0.000336 0.00026721 0.0011576 0.00093825 -3.4293e-05 7.6349e-06 0.00023482 0.00041438
1.6729e-05 0.15869 8.0505e-05 9.8335e-06 -9.0802e-06 0.00014761 1.7577e-05 0.0061004 1.832e-05 0.00053329
2.5817e-06 1.8415e-05 1.6425e-06 5.144e-05 2.2969e-06 2.9052e-06 -4.7518e-06 0.00019706 0.0001881 4.4121e-06
-4.9842e-06 0.44442 -1.2929e-05 7.8732e-06 0.00049845 -2.5171e-06 -2.3164e-05 0.017089 0.00018965 -3.7969e-05
-6.1989e-07 3.3423e-05 1.2134e-05 1.6857e-07 0.00019477 -1.0196e-07 -1.2515e-05 8.1578e-06 0.59742 4.8803e-05
0.21856 0.00049659 0.31439 4.6e-05 0.00031547 0.013643 0.00051867 0.0016512 0.00058576 0.0012984
0.00074201 0.0004726 0.00042122 2.4505e-05 0.0005725 3.2053e-05 0.00040483 0.0017367 0.34387 1.5741e-05
0.31642 0.00020182 0.21962 1.0517e-05 -8.591e-06 0.32452 -1.6463e-05 -5.0138e-05 -2.4375e-05 0.00092383
0.30511 -3.1979e-05 0.21064 -7.0474e-06 0.21268 0.3114 -2.1454e-05 -6.601e-05 -5.9619e-05 0.12901
8.8205e-06 0.00048396 0.0002204 0.25791 2.6985e-05 -6.195e-06 0.00061511 1.9482e-05 0.00026899 0.0014377
2.4809e-05 1.3095e-05 3.838e-05 0.00013064 0.0010445 0.0008418 0.00026361 3.4325e-05 0.00054197 -2.8259e-05
-3.1847e-06 0.00035966 5.0727e-05 9.0449e-06 0.27515 7.8894e-06 0.00018439 4.3394e-05 0.00052671 0.00011235
-1.8206e-05 -7.5767e-06 0.29789 1.4887e-06 -6.0019e-06 -6.3256e-06 -1.2335e-05 -1.3055e-05 0.42966 0.00036587
4.6185e-06 0.22243 8.092e-06 9.423e-06 0.00064301 -1.9933e-06 0.00021016 0.0084441 5.4658e-05 -2.1572e-05
0.47597 -3.2216e-05 0.33054 2.0396e-05 -0.00031434 0.48788 -2.0246e-05 -0.00010077 -2.448e-05 0.48278
7.6902e-07 -1.2484e-07 2.9522e-05 8.9017e-08 0.00029884 2.0305e-08 1.5669e-05 1.2489e-06 0.003919 -1.5157e-05
5.7752e-07 0.00031824 6.8376e-05 0.00042725 3.1746e-05 -7.2336e-06 1.2433e-05 4.4262e-05 0.00061924 1.4758e-05
-5.048e-06 -1.4943e-06 8.1757e-05 2.2923e-07 0.00021483 -2.7297e-07 -1.706e-06 9.0844e-05 3.9356e-06 -2.0421e-05
1.2461e-06 0.00020117 7.7339e-06 1.8641e-05 0.00032229 2.3918e-06 6.8875e-06 -1.2048e-05 0.00059007 8.5017e-06
1.1709e-05 0.00014666 0.00018819 0.00062257 0.00015002 1.954e-05 0.00025635 3.936e-05 0.00070729 0.00017865
-3.9984e-09 2.5692e-05 2.4523e-08 1.7009e-07 1.3751e-06 1.9219e-08 -4.0924e-06 -4.0894e-06 1.214e-05 1.8759e-05
-2.5674e-05 0.24055 -3.2388e-05 0.00035797 0.00029168 -3.1526e-06 -1.0059e-05 0.69797 0.00011954 5.8755e-05
4.3011e-06 0.00027132 1.8017e-05 0.00010547 0.00066141 1.3843e-05 1.4247e-05 1.8598e-05 0.0003202 2.9472e-05
-1.8174e-06 -2.5636e-05 0.0001265 -3.3893e-07 0.0001646 -1.2263e-06 4.2044e-05 0.00013239 0.00059196 -1.5023e-05
3.3307e-09 1.3835e-09 6.4756e-09 3.4479e-09 9.8624e-07 -2.5686e-09 1.3038e-07 8.2442e-09 1.4068e-06 2.1539e-07
-1.7689e-05 0.098408 0.12449 0.17536 0.00012518 -4.2143e-06 0.00012581 0.28387 0.00053088 0.00015467
1.9127e-05 0.17633 8.9201e-05 1.1332e-05 0.0022693 0.00016269 -1.1469e-06 0.0067332 7.8863e-08 0.0014637
-2.1022e-08 0.00010153 1.1555e-05 2.4093e-07 0.00026981 1.1236e-07 0.00015683 2.1017e-05 0.00064905 -1.1208e-05
6.1785e-06 0.30757 -7.6444e-06 1.4317e-05 -2.1074e-05 -2.7728e-06 4.4057e-05 0.01188 -1.5531e-06 -4.603e-06
1.5043e-07 0.00017432 9.2773e-06 2.5421e-07 0.00011805 4.1998e-08 0.0017347 -3.0399e-05 0.00061149 -1.0803e-06
5.5806e-08 8.533e-07 2.3329e-07 -9.0678e-08 0.00013965 7.6797e-08 2.1611e-05 -1.1119e-07 0.00075069 2.7513e-07
-3.9328e-06 -1.4631e-05 2.125e-05 7.7539e-06 0.31358 -1.7691e-06 -8.9163e-06 1.7778e-05 -3.3786e-05 -0.00023322
1.9294e-06 0.15072 0.00024325 1.1547e-05 0.1801 -2.0734e-06 0.00040673 0.0058007 0.0015842 -0.00023334
6.128e-16 1.4609e-17 -7.1084e-16 -1.4553e-17 1.0737e-15 1.2643e-15 -1.1651e-16 -5.0677e-17 1.4478e-14 -1.3964e-12
7.6477e-06 0.00034528 1.5506e-05 0.3752 4.3357e-05 -7.8903e-07 1.3744e-05 0.00014262 0.00031687 2.6788e-05
-1.3229e-05 6.115e-05 0.21507 0.00089731 0.00057494 -8.9096e-06 0.0003234 0.00014244 0.0006791 0.00032306
-7.7817e-06 -2.0144e-05 2.9289e-07 1.4023e-05 0.4813 -3.9188e-06 -2.0057e-05 3.283e-05 -6.3454e-05 -0.00051591
0.0015085 0.26572 0.00079082 7.4311e-06 4.5421e-05 4.851e-05 0.43431 0.014465 6.9896e-05 8.5049e-06
-1.161e-05 8.9917e-07 0.00063545 0.0011977 -6.8669e-06 -7.7099e-06 2.5909e-05 2.5149e-06 0.00078687 -6.3773e-05
5.7098e-06 3.4456e-06 3.1364e-08 2.4631e-07 5.395e-07 8.0412e-06 3.2649e-05 1.4045e-06 0.000376 6.7479e-06
3.1773e-05 3.731e-05 0.00022944 2.5479e-06 2.2939e-05 4.252e-05 9.702e-06 -2.752e-06 3.7276e-06 1.79e-06
9.9604e-06 0.00045219 0.00024051 0.29295 2.6398e-05 -8.965e-06 0.00070763 1.2164e-05 0.00030425 0.0011477
-5.7512e-06 5.4065e-05 0.00037037 1.6077e-05 0.00043973 -8.977e-07 -3.7283e-05 3.4416e-05 -4.2516e-06 2.8361e-05
-3.8683e-06 0.0001314 0.00026977 0.00070583 0.00031792 -4.2526e-06 8.1826e-06 -2.7066e-05 -2.3387e-06 -4.9387e-06
4.3113e-18 -2.6077e-19 5.7942e-17 -1.2057e-18 1.0908e-17 3.0823e-16 -5.0622e-19 -1.6848e-18 -5.5472e-19 -1.4414e-14
3.9144e-05 -1.0205e-05 6.0896e-05 6.2037e-05 0.00036629 -1.1116e-06 0.00022743 0.00035343 0.00048533 2.6238e-05
0.47597 -3.2216e-05 0.33054 2.0396e-05 -0.00031434 0.48788 -2.0246e-05 -0.00010077 -2.448e-05 0.48278
-2.3905e-05 0.00027479 -5.7716e-05 4.8504e-06 -0.00020489 -9.7498e-05 2.3819e-06 -6.421e-06 3.7211e-05 0.31609
-4.0874e-06 0.00018532 8.4712e-07 6.2015e-06 0.27256 -1.3572e-06 -3.7713e-05 8.1496e-05 6.5858e-05 -0.00030605
0.0012087 -0.011789 0.26078 5.8333e-08 0.00034422 3.9634e-05 0.00063123 0.58994 0.0014875 0.00042477
-1.9246e-06 9.3891e-05 2.7153e-06 0.00065795 -1.4942e-06 -9.8012e-06 0.00015077 0.00011963 2.7007e-05 0.00010991
-5.2841e-06 9.4561e-06 9.0003e-05 2.003e-06 6.539e-05 -4.5699e-07 2.0083e-05 -9.5157e-08 0.00010683 -1.3797e-05
-1.1373e-05 0.099277 -4.7149e-06 9.3077e-06 0.25199 1.6037e-06 4.7615e-05 0.28762 1.0574e-05 -0.00034631
5.7197e-06 8.947e-05 3.9842e-05 6.6261e-06 0.00019843 9.6655e-06 0.00027113 8.8369e-05 0.00094334 -2.632e-06
-3.2568e-06 -9.3687e-07 1.3521e-05 1.3129e-05 0.21985 -2.1214e-06 -9.9842e-06 5.834e-06 8.6064e-05 -0.0002504
1.6943e-07 0.16045 3.2338e-05 0.27004 1.6934e-05 -1.3508e-05 0.00010384 0.0063847 0.00024695 0.0001063
3.9396e-06 0.089577 2.8647e-05 0.00048989 0.00010013 6.6242e-06 5.9848e-05 0.003435 0.00074652 1.7182e-05
3.2401e-06 0.31405 4.8733e-05 5.9682e-05 0.00021783 5.7041e-06 0.5144 0.013058 0.0016411 6.2249e-05
0.40924 -1.071e-05 2.2268e-06 0.40009 0.0016071 0.42102 -1.3918e-05 -7.4386e-05 3.4746e-06 0.0063179
9.9604e-06 0.00045219 0.00024051 0.29295 2.6398e-05 -8.965e-06 0.00070763 1.2164e-05 0.00030425 0.0011477
5.938e-08 0.00012846 1.1698e-07 -1.4782e-08 0.00010641 2.7104e-07 3.355e-06 -3.3621e-05 0.00060138 -5.802e-05
-5.9333e-06 0.12815 0.0002785 1.3013e-05 3.1547e-05 -1.25e-06 -3.178e-05 0.0049034 -2.7064e-06 3.7466e-05
-4.6449e-07 0.00030996 0.00067307 2.3021e-06 6.222e-08 1.695e-05 -1.8171e-05 -3.3161e-06 0.0009735 0.00032758
4.0551e-06 0.1968 -8.0067e-06 7.826e-06 0.00078768 -1.7865e-06 0.00018053 0.0074396 4.8e-05 -2.8336e-05
3.2229e-05 0.00032433 7.3406e-05 0.00016982 0.21188 0.001065 0.0003085 8.4617e-05 0.005908 -0.00031007
-6.0805e-06 0.13072 0.00028406 1.395e-05 9.4359e-05 -1.3979e-06 -4.8596e-05 0.0049763 -2.6302e-06 -1.4147e-05
-6.3972e-06 -1.0821e-05 5.5108e-05 0.00029761 0.21696 -2.8054e-06 -4.0465e-06 1.3906e-05 -3.0305e-05 -0.00024336
9.3173e-06 0.0003565 0.00021837 0.26665 2.6861e-05 -6.3882e-06 0.00065177 2.5116e-05 0.00027791 0.0014807
1.6451e-08 0.10504 4.7584e-05 0.00014325 0.0002309 -6.8976e-07 0.17348 0.0043732 0.0012442 3.7229e-05
1.9511e-06 0.15114 0.00021511 0.25436 1.1758e-05 -9.4164e-06 0.00054138 0.005983 0.00025813 0.0009861
-2.04e-06 0.17264 -5.6689e-06 1.3047e-06 0.00026133 -7.0619e-07 6.3395e-07 0.0065695 1.673e-05 -6.8581e-05
0.0012586 1.0452e-05 5.5642e-05 3.7023e-06 0.00045522 0.0003924 -7.9117e-07 9.0067e-06 0.00011282 0.0042943
1.7472e-05 2.6954e-06 0.00010873 1.9723e-06 0.10328 9.7174e-07 4.2597e-05 1.1937e-05 8.2298e-06 -0.00011623
5.9387e-08 3.8558e-07 -2.0631e-07 -2.4982e-07 0.00019632 1.0482e-07 2.8745e-05 -1.7168e-08 0.00087923 -2.2735e-06
0.00053741 0.00035854 0.00031133 1.7801e-05 0.00057503 2.3186e-05 0.00028737 0.001261 0.49681 3.1894e-05
-2.5517e-05 -2.3974e-06 -9.6443e-05 8.7852e-06 -0.00023614 -0.00015179 4.8161e-07 8.2011e-06 1.047e-05 0.36921
-1.8138e-06 5.4278e-06 0.00021743 4.1709e-06 0.13914 -1.1216e-06 0.00023207 0.00010982 0.30522 -0.00014609
-3.5449e-08 -9.6589e-08 4.6321e-09 2.8797e-09 4.0978e-05 -1.5608e-08 1.2618e-07 -7.4702e-07 -1.3786e-07 -3.5104e-07
1.2843e-07 2.3216e-05 3.5985e-05 1.5067e-06 0.00064719 2.6456e-08 0.00023339 2.5319e-05 0.0095738 -1.223e-05
4.4734e-06 0.00024563 0.00027725 0.18581 9.583e-05 -5.2478e-06 0.18086 0.00040015 0.0020138 0.00065491
-3.4726e-06 1.3994e-06 0.00033261 1.4533e-07 -3.3981e-06 4.162e-06 -2.497e-06 2.3932e-06 0.0014512 -7.8846e-05
-1.2342e-06 0.17613 -1.0348e-05 5.8755e-06 0.00050556 -1.1334e-06 0.2896 0.0072869 0.00014801 1.4691e-05
1.8002e-05 0.16595 8.3952e-05 1.0665e-05 0.0021358 0.00015312 -1.0794e-06 0.0063371 7.4223e-08 0.0013776
8.663e-07 7.42e-06 0.00020677 9.4227e-08 8.9301e-06 4.3956e-08 -1.4865e-08 2.8043e-06 0.00098733 -1.9698e-05
-4.4882e-06 0.00012222 0.0008692 4.1055e-05 0.0001712 3.9889e-06 0.00077249 0.0001041 0.00069065 0.0011066
2.469e-07 0.15857 3.1929e-05 0.26686 1.6761e-05 -1.3332e-05 9.8338e-05 0.0063102 0.00024404 0.00010533
4.7397e-05 7.9987e-05 8.8482e-05 0.00055604 -1.5139e-06 0.00062144 0.00012842 0.00010117 2.2584e-05 0.00011474
2.3849e-05 0.17626 8.9585e-05 1.4581e-05 -9.4161e-06 0.0001632 2.6533e-05 0.0067644 2.0612e-05 0.00056994
-4.3754e-09 -1.6167e-09 3.6816e-08 1.1003e-07 3.3758e-07 8.3078e-07 8.3875e-08 2.3386e-08 4.035e-07 6.9192e-07
-3.2488e-08 7.0341e-06 -2.5835e-08 -3.4685e-07 0.00010531 6.7435e-08 1.6846e-05 1.7896e-06 0.00048633 1.8941e-08
0.0016586 7.0932e-05 9.6587e-06 0.00017116 0.42045 0.0015437 -4.918e-05 -2.9762e-05 -8.7303e-05 0.005746
1.4959e-06 0.00014432 0.17677 0.00028036 1.4998e-05 -1.3516e-05 2.1046e-05 9.9574e-06 0.00010476 0.00028894
-7.1928e-06 3.1265e-05 0.00055609 1.1251e-05 0.00012731 -1.6741e-06 0.00034574 6.9109e-05 0.0030451 -0.00011985
-6.8486e-06 3.629e-06 0.00036053 3.6384e-06 0.00043746 -1.3799e-06 -5.2786e-06 -4.3804e-06 2.9767e-05 -2.8123e-05
-1.2654e-06 0.13304 0.00015923 4.3791e-05 4.8851e-05 2.6466e-06 0.00038297 0.0050375 1.7782e-05 0.00070245
7.9487e-06 0.0003581 0.00018862 0.23004 2.0908e-05 -7.1255e-06 0.00060674 9.692e-06 0.00024888 0.00093095
-1.7397e-05 6.7216e-06 0.33862 -1.5091e-06 6.2514e-05 -5.7857e-06 2.5134e-05 -1.1003e-05 0.000685 0.00064027
0.37207 -2.7793e-05 0.25688 9.8846e-06 0.0015572 0.37976 -1.4341e-05 -8.8301e-05 -3.3912e-05 0.52996
-1.0758e-06 -1.3026e-05 0.00020164 2.6543e-05 0.00012652 -5.5791e-07 0.29144 0.00061638 0.002935 3.7481e-05
-2.9711e-07 8.7829e-05 3.8007e-07 -1.6483e-07 0.00015351 2.073e-07 1.7301e-06 4.6834e-05 2.1843e-05 -4.6709e-06
6.1862e-08 0.00012318 0.2101 0.00033302 1.7626e-05 -1.5514e-05 1.2034e-05 2.7396e-05 9.2371e-05 0.00039552
2.0623e-06 -2.6924e-06 1.366e-05 7.1589e-08 0.00023795 1.5891e-05 2.529e-07 0.00015781 4.4363e-06 -4.1396e-06
2.5813e-07 9.8059e-08 3.9033e-06 4.3394e-08 7.5681e-09 -7.2339e-07 1.133e-07 -2.0998e-07 1.9689e-06 -1.1903e-06
-6.1326e-07 0.00059285 5.3445e-05 4.6316e-06 0.00051622 1.3355e-06 0.00023563 8.5128e-05 0.00069517 3.1324e-05
