7.3986e-06 -3.0187e-06 1.3722e-06 9.7246e-06 2.6152e-06 0.00013374 1.4656e-06 -7.3676e-07 -1.7935e-07 -2.0479e-07 8.8829e-07 7.8181e-07 1.413e-06 -1.8463e-06 4.6696e-06 -5.7533e-08 0.00010721 2.8561e-07 -9.7091e-06 -2.5262e-06 -1.1407e-05 -1.1305e-05 -1.949e-06 -1.066e-06 -3.8367e-05 -1.2973e-07 3.0567e-07 -1.5982e-05 4.2799e-07 5.2739e-07
5.2309e-06 -3.0304e-05 7.0378e-06 0.17643 0.13015 0.00012881 -1.6869e-05 -4.6332e-07 -5.5486e-06 -3.1171e-06 7.893e-06 5.7968e-05 1.6663e-05 -2.0146e-05 4.1331e-05 1.6781e-06 0.24482 7.8854e-05 0.00027879 -8.1454e-05 -0.00015191 -4.5882e-05 -2.5084e-06 -7.5802e-05 1.2903e-05 0.00047017 -2.185e-05 -0.00025123 9.2312e-06 5.6259e-06
8.3645e-06 3.0363e-05 0.00027359 -2.8373e-05 0.00054022 0.31623 -1.6676e-05 0.00025917 0.00060786 3.0959e-05 0.00075621 7.2115e-05 0.0011975 9.4817e-05 9.825e-06 -1.0316e-05 1.2212e-05 0.00024093 0.0002385 -4.9462e-05 -0.0002179 -9.3332e-06 0.00023048 -0.00024835 6.2932e-07 0.00028036 -2.0794e-05 -0.00017996 -4.6419e-05 -4.8614e-05
3.483e-06 -2.2464e-05 4.0405e-05 6.73e-07 0.00020558 -1.6152e-05 0.00013903 7.3142e-07 -1.2801e-06 0.00032282 -1.26e-05 9.0983e-05 4.9067e-05 3.1402e-06 -3.623e-06 1.8023e-06 0.00034125 0.00018461 0.00656 1.4752e-05 -0.00011017 0.0014497 0.0023094 1.1597e-05 0.00012818 0.0001414 2.3046e-05 0.0015047 2.2565e-05 -1.28e-05
2.0753e-05 4.4259e-06 7.7806e-06 -2.4749e-05 0.00032777 0.00013118 9.1606e-07 3.0927e-06 0.00059373 2.9848e-05 0.00075399 -2.0207e-06 5.3383e-05 6.0166e-05 -2.5416e-06 1.2523e-06 0.00012323 1.7429e-06 5.4982e-05 0.00010429 -2.3799e-05 0.00016722 5.6262e-05 1.4254e-05 0.0010272 0.00028187 8.4873e-06 -1.3873e-05 1.4083e-07 -1.8642e-06
2.3683e-06 -1.6195e-05 7.7511e-05 -2.6966e-05 0.00032357 8.2479e-05 0.00011548 0.00024538 0.00059461 4.2033e-05 0.00075661 5.7041e-05 0.0010353 2.6287e-05 3.1716e-07 -6.5221e-06 7.0931e-07 8.0856e-05 0.00027423 1.8195e-05 -1.8948e-05 3.5516e-05 5.3381e-05 -0.00011423 8.2483e-05 0.00036845 -3.5406e-05 1.8165e-05 -1.3779e-05 -4.2776e-05
0.28861 1.0907e-05 0.0001208 4.798e-05 0.13026 -5.5799e-05 6.5649e-05 -1.6342e-06 0.00059695 4.8003e-05 0.00073366 6.8619e-05 0.00010436 7.6757e-05 -3.1466e-05 4.2624e-06 0.0024513 0.00015971 8.6358e-05 -9.6759e-05 -0.00028138 0.3519 0.0019953 -4.7229e-05 0.30018 0.00045233 2.6846e-05 0.31497 1.5335e-05 -3.3156e-05
0.28862 0.17386 3.4159e-06 0.17637 0.12998 1.6713e-07 -1.8546e-05 -3.9148e-07 4.6335e-07 9.7227e-06 2.449e-06 1.1194e-06 2.0498e-05 2.4629e-07 2.2698e-05 3.8918e-06 4.6015e-05 6.6181e-06 7.5946e-05 -4.269e-05 -1.3799e-06 9.3917e-06 1.5248e-05 -3.4556e-05 0.00025035 0.0012358 -2.4889e-05 2.4472e-06 1.1391e-05 4.6325e-06
-8.8459e-05 3.2162e-05 -3.4299e-06 -1.7696e-05 -8.7861e-07 -1.3886e-05 -8.0404e-06 -4.7596e-06 3.0541e-05 3.5381e-07 5.1415e-05 -1.1425e-05 5.5844e-06 5.508e-05 -8.9007e-07 -2.8131e-06 0.00021196 2.265e-05 0.00061009 -7.9685e-06 6.3591e-06 6.7664e-05 3.8745e-06 -1.8533e-08 0.29833 7.5064e-05 3.5367e-07 -8.2184e-05 0.00013282 1.2198e-06
5.5834e-08 -5.4388e-07 8.9683e-07 -2.1884e-05 -4.7703e-07 9.7927e-06 0.35319 1.3579e-06 7.1213e-06 3.9375e-06 -9.8363e-07 5.9174e-06 3.7673e-08 -1.0525e-06 -9.3275e-07 2.0137e-07 -3.3579e-06 -2.6573e-06 -6.5017e-05 1.7463e-06 4.7957e-06 3.0144e-05 1.174e-05 6.196e-07 7.9921e-07 -7.1101e-06 1.3137e-06 -3.7481e-06 -4.5046e-07 -4.6813e-08
-5.438e-07 0.174 2.7217e-06 0.00024359 0.00031289 0.31586 -3.7607e-05 -1.1273e-05 0.19651 1.9916e-05 0.1827 0.18566 0.00037441 0.1818 4.4271e-05 3.6325e-06 -2.5207e-05 -6.9129e-06 0.22287 -0.0001889 -0.00020059 -0.00010053 4.1213e-06 -0.00033203 -1.2573e-06 0.0013367 5.3404e-06 -7.8619e-05 -4.8689e-05 3.1603e-06
0.28872 0.17526 0.27793 0.17654 0.13019 0.00063555 -3.2952e-05 0.00021132 0.19645 -9.1893e-06 0.18227 9.9312e-05 -7.7835e-05 0.18228 -0.00021591 -5.6076e-06 0.25359 -3.0966e-05 -5.0056e-05 -0.00060856 0.45177 0.35782 -0.00080972 -0.00088137 0.30294 0.0017947 -2.7201e-05 0.3198 5.3798e-05 -3.1382e-05
6.7539e-07 -3.3044e-06 -1.0551e-06 -1.7669e-05 2.9005e-06 -1.9123e-05 -1.9663e-06 -2.1753e-08 5.8087e-07 2.4352e-06 0.00068869 2.8166e-05 -5.2366e-06 0.00012287 -8.1152e-06 -8.206e-08 -3.4455e-05 -1.4822e-06 0.0038383 5.2121e-07 1.4694e-05 0.0009463 0.30877 -2.4329e-06 -1.1708e-05 4.6392e-07 3.049e-06 0.00014658 -5.4054e-06 2.8225e-09
1.9721e-06 2.7319e-07 0.27708 -9.5573e-06 2.3279e-07 -1.6244e-05 7.8974e-05 -7.6847e-06 2.434e-05 0.00031758 9.6966e-05 2.9256e-06 -7.1701e-06 0.00026101 1.2432e-05 -3.0781e-07 2.0155e-05 3.6088e-05 0.0067397 -2.2145e-05 1.509e-05 -3.7515e-05 2.1219e-05 -8.9305e-05 -1.8352e-05 0.00014165 -1.0352e-05 -1.2753e-06 -1.4869e-06 -2.4013e-06
3.94e-07 -5.4945e-05 4.6688e-05 2.6919e-05 0.00020222 5.6063e-06 0.00036679 1.3493e-06 1.097e-05 4.8891e-06 0.00017136 0.18648 9.8166e-05 0.00012377 -5.6075e-06 7.7287e-07 0.00040454 0.00015535 0.00059496 3.2103e-05 -0.00014745 0.0014636 0.0023488 2.5693e-05 8.5161e-05 -4.8089e-05 2.5134e-05 0.0013977 2.4692e-05 -1.5144e-05
-2.0994e-06 -6.4453e-06 7.2916e-05 -3.7677e-05 0.00028372 0.00017188 2.0568e-05 0.00023232 0.19649 2.1657e-05 0.18415 0.00017682 0.27811 0.18255 5.8053e-05 -1.5226e-05 0.00010964 4.4806e-05 0.00069763 -0.00018335 -1.5746e-05 3.1415e-05 0.0010302 -0.00030544 3.505e-05 0.00030082 0.00013597 8.9533e-06 -6.7969e-05 -8.5351e-05
1.0252e-06 0.00013977 0.00017641 1.6405e-07 0.00016491 4.971e-05 2.4412e-05 -2.3346e-07 2.7325e-05 -2.0275e-06 0.00053756 0.00015326 0.00024105 8.9429e-05 3.7806e-06 3.3806e-07 -2.2884e-05 -2.3426e-06 0.00025143 -8.0012e-05 -6.7676e-06 8.2639e-06 2.1147e-05 -0.00013575 -8.4658e-05 -1.0743e-07 8.5365e-06 -2.4256e-05 -8.5708e-05 8.1143e-06
-7.5516e-07 -2.4203e-05 -5.226e-06 -1.49e-05 0.13024 5.4535e-06 1.0439e-05 9.4766e-07 9.9411e-05 8.7155e-06 0.00063155 2.2039e-05 6.136e-06 0.00028052 6.7613e-05 1.3063e-06 5.5526e-05 0.00020475 0.0013464 -0.00010465 -2.5874e-05 1.5112e-05 0.0011981 -0.00012096 -5.0862e-05 7.7604e-05 4.7745e-05 -0.00010002 -2.4407e-05 5.0303e-06
1.7425e-06 0.17386 4.725e-06 0.00026676 0.13001 1.6661e-05 -1.8484e-05 0.00014901 0.00028398 1.2795e-05 0.00049307 0.18548 0.00012396 6.5684e-05 0.00023859 2.8609e-06 3.2642e-05 -2.3935e-06 0.00029374 -1.6984e-05 1.417e-05 -4.7959e-05 0.00028869 -3.8862e-05 -3.1096e-05 0.001196 -1.3085e-05 -2.1505e-05 -1.7012e-06 2.105e-05
2.1916e-06 4.7963e-06 -5.4035e-06 -2.6575e-05 0.13052 6.1954e-07 8.232e-05 -5.5537e-07 0.00061586 4.1683e-05 0.0011738 1.3597e-05 0.0002603 3.5096e-05 2.2681e-05 1.4578e-06 -4.0277e-05 -0.00010131 0.00012632 -5.7293e-05 1.0621e-05 -0.00011576 0.31175 -0.00012405 9.9489e-05 0.00037691 1.6863e-05 8.6417e-05 -1.3641e-05 -8.5145e-06
0.00012574 9.1416e-05 0.00019796 3.2462e-06 1.745e-05 0.0001812 3.2168e-05 1.8784e-06 6.2879e-05 5.4533e-06 9.0126e-05 0.00039404 0.00024161 0.00025784 8.3733e-05 -6.2458e-06 0.0010034 4.3425e-05 0.00043922 -7.9404e-06 2.723e-06 -6.5839e-05 0.0026084 -3.7148e-05 6.2785e-06 0.00038669 -1.7292e-05 -9.6852e-05 -6.9577e-05 -2.8198e-05
-5.438e-07 0.174 2.7217e-06 0.00024359 0.00031289 0.31586 -3.7607e-05 -1.1273e-05 0.19651 1.9916e-05 0.1827 0.18566 0.00037441 0.1818 4.4271e-05 3.6325e-06 -2.5207e-05 -6.9129e-06 0.22287 -0.0001889 -0.00020059 -0.00010053 4.1213e-06 -0.00033203 -1.2573e-06 0.0013367 5.3404e-06 -7.8619e-05 -4.8689e-05 3.1603e-06
2.0422e-06 0.17384 4.9779e-06 0.17642 0.12998 4.2851e-06 -1.6803e-05 0.2885 7.4539e-06 -1.9914e-06 1.491e-05 0.18564 0.27613 -1.0148e-05 1.2205e-05 0.5 -3.7497e-05 1.5091e-05 4.7114e-05 0.26497 7.289e-06 6.3786e-06 2.0889e-06 0.27782 -1.1711e-05 0.0012688 0.42102 7.3942e-06 0.44766 0.38006
2.1487e-05 -2.8298e-07 2.6645e-06 -2.1198e-05 0.13039 6.0844e-06 -2.302e-06 7.0431e-08 8.5026e-05 6.27e-06 0.18394 0.0010446 -1.1611e-05 0.1821 0.00035708 -1.3251e-06 -7.0023e-05 2.1341e-05 0.0016699 -0.0001395 -5.9865e-05 -0.00014933 0.31163 -0.00020067 8.7801e-06 1.7644e-05 -9.7873e-07 0.00013852 -1.6524e-05 -6.9061e-06
-6.9673e-06 3.7405e-05 8.7493e-05 -8.3696e-06 0.00019543 0.00025696 -1.2372e-05 -1.7203e-06 1.7749e-05 0.00010691 9.4563e-06 0.00010816 -1.686e-05 0.00012914 2.9646e-06 1.9883e-06 0.00054664 9.9445e-05 0.0029357 -1.2554e-06 -1.1724e-05 0.0026996 0.00056922 1.4042e-06 -8.8363e-05 3.5216e-06 -5.1711e-06 -3.3538e-05 -1.5155e-05 1.2954e-07
7.678e-06 -0.00058519 -7.069e-07 1.7073e-05 3.0163e-05 3.7993e-05 0.00010259 -7.1336e-07 7.0576e-06 2.7547e-05 0.00039472 -8.8048e-06 4.9533e-05 0.0001068 2.8265e-05 -2.229e-07 -2.3695e-06 2.9039e-05 0.0008451 5.2267e-06 -1.3523e-05 -1.9187e-05 0.0013261 -8.8749e-06 3.7745e-07 0.40757 -7.9019e-06 -3.1726e-05 -9.5223e-06 -5.0897e-06
9.5789e-05 0.0012996 0.27716 0.17643 0.00017836 -0.00014422 -1.959e-05 -2.5582e-05 0.00030815 -1.3002e-06 0.18204 -1.522e-05 -0.00010279 0.18204 -6.8975e-05 3.5857e-07 0.0022533 -3.7165e-06 -0.00013812 -0.00019437 0.43991 0.0093918 -0.00033727 -0.00035677 0.002763 0.0005742 -1.3933e-05 0.004276 6.1874e-05 2.0116e-05
-3.5811e-07 9.1829e-06 8.1574e-05 -5.1133e-05 0.13028 8.1782e-05 1.1916e-05 0.00024571 0.19616 3.7773e-05 0.18223 3.6912e-05 0.0010313 0.18182 1.1879e-05 -6.2888e-06 1.5248e-05 0.29947 0.0012306 -0.0003064 2.8264e-06 8.9778e-05 0.0013243 -0.0004465 0.0001052 0.00045957 -2.6246e-05 -2.7396e-06 0.00013342 -2.4842e-05
-1.933e-07 0.17388 9.5304e-07 4.2378e-05 0.00019386 -1.1548e-06 1.4119e-05 0.00036365 0.1962 3.7536e-05 0.0008324 9.9082e-05 4.9665e-05 1.3896e-05 0.00010069 -7.4267e-05 -3.4662e-05 6.6103e-05 0.00065871 1.4384e-06 -1.1243e-05 2.4901e-05 0.0026661 0.00013872 0.00012283 0.0014015 0.0038207 -2.7545e-05 5.9803e-05 0.0026962
9.7127e-07 -2.6884e-05 -1.1932e-05 -3.401e-05 0.00015749 9.7533e-07 0.35337 1.0154e-06 -3.6625e-06 0.00017762 0.00068123 0.00026543 4.8528e-05 5.2186e-06 -2.1605e-05 3.3755e-06 0.00033895 0.00062113 0.0035317 4.7807e-06 -0.00011784 0.0025639 0.0042932 -7.6977e-06 0.00011967 9.3486e-05 1.6554e-05 0.0014875 4.767e-06 -1.079e-05
0.28857 0.17405 -9.0953e-06 3.2304e-07 6.2027e-05 -2.9697e-05 -1.9036e-06 -5.3215e-06 0.19567 1.1821e-06 -4.858e-05 0.00011858 4.5098e-06 2.5748e-05 3.7293e-05 8.3521e-06 0.00094044 7.1556e-06 3.4652e-05 -5.4143e-05 -0.00029744 0.00013411 -2.6693e-05 -3.9718e-05 0.30036 0.0011857 -8.8707e-06 0.3135 1.1647e-05 1.048e-05
3.4841e-06 0.17437 -6.1512e-06 0.17639 0.1303 1.3833e-05 -3.368e-05 3.4145e-07 -3.7116e-05 -3.1062e-06 0.18218 -1.7689e-05 -3.3387e-05 0.18268 2.7218e-05 -2.7588e-05 -2.3762e-06 1.8449e-05 0.2226 0.19818 6.3165e-06 -1.9225e-05 -5.0933e-05 0.13304 4.4546e-05 0.0012175 -5.602e-05 -6.4961e-05 -3.2229e-05 -4.9498e-05
2.1099e-05 -3.8847e-05 1.8627e-06 3.1787e-06 0.13024 4.5307e-05 7.8126e-05 1.4452e-06 1.7725e-05 1.3572e-05 0.18234 -1.6847e-05 8.0096e-05 0.18294 0.00011197 4.4351e-07 0.00016044 5.1181e-06 0.22467 -0.0001322 -1.9793e-05 -4.8643e-05 0.0010682 -0.00019608 -6.0662e-05 0.0021844 -1.107e-05 -0.00011116 -3.9532e-06 -1.7507e-05
-1.3689e-06 1.625e-05 9.3329e-05 -1.7956e-06 0.13012 8.7476e-05 2.2133e-05 0.28889 2.1416e-05 1.3751e-05 -3.3076e-07 0.18534 0.0011033 3.3275e-05 -2.1477e-06 -3.4203e-06 4.0908e-05 0.00022878 0.00024156 -2.6272e-05 5.352e-06 1.2765e-05 0.00017226 -0.00010699 -3.733e-05 0.00011213 -2.8814e-05 -9.4768e-07 2.6393e-05 -2.624e-05
1.9722e-05 1.0998e-05 0.2772 0.17649 0.13003 2.891e-06 -2.1349e-05 4.2019e-07 -3.5233e-06 1.6749e-05 3.5367e-05 0.18539 9.9854e-05 4.7059e-05 3.9176e-06 -2.7108e-06 2.8818e-05 7.7849e-07 0.00019711 0.26465 1.5567e-05 -1.9787e-06 6.8057e-05 0.28044 -1.068e-05 0.00020677 3.1718e-05 -2.4e-06 6.1833e-05 6.7025e-05
-3.0624e-06 -0.00011129 1.4337e-05 0.17857 0.13042 0.00011786 0.0008273 -2.7665e-06 -2.2739e-05 6.6764e-05 0.18275 3.4227e-05 -2.1228e-05 0.18565 0.00026684 7.4542e-06 0.25107 0.30139 0.25099 -0.00031868 -0.00021309 -0.0012139 0.00011536 -0.00031275 -0.00090028 0.00040103 -2.0176e-05 -0.00052893 -2.8203e-05 -1.405e-05
-3.5811e-07 9.1829e-06 8.1574e-05 -5.1133e-05 0.13028 8.1782e-05 1.1916e-05 0.00024571 0.19616 3.7773e-05 0.18223 3.6912e-05 0.0010313 0.18182 1.1879e-05 -6.2888e-06 1.5248e-05 0.29947 0.0012306 -0.0003064 2.8264e-06 8.9778e-05 0.0013243 -0.0004465 0.0001052 0.00045957 -2.6246e-05 -2.7396e-06 0.00013342 -2.4842e-05
4.5066e-07 1.7547e-05 2.0629e-06 -2.6287e-05 0.1303 0.31592 -1.9443e-05 -7.0726e-06 3.1399e-05 -4.4536e-06 0.18226 3.6715e-05 0.00021253 0.18247 0.00011741 -9.2441e-07 -5.0681e-05 -1.0097e-05 0.22967 -0.00026861 -0.00021491 0.00092087 0.0010571 -0.00032898 -2.307e-05 5.9351e-05 -3.3152e-05 4.5607e-05 -1.4727e-05 1.9418e-06
-3.6845e-06 -0.00013576 0.00014854 -4.0789e-05 0.13102 0.00024095 5.2013e-05 2.5417e-05 5.8231e-06 0.00066762 -3.725e-05 0.18694 0.00010168 0.00015356 -5.7227e-05 -4.4496e-07 0.24742 0.30657 0.0031629 -9.2119e-05 -0.00049432 0.35085 0.3428 -0.00010932 -0.00039417 0.00018306 5.7149e-06 0.00092922 -0.00023386 -1.4317e-05
8.1602e-07 -6.8612e-07 3.8289e-08 4.988e-06 0.12991 1.6146e-06 -2.7763e-07 1.2889e-07 -5.0462e-07 8.3871e-06 -3.2154e-06 -1.8162e-06 2.1535e-06 6.9995e-07 4.8083e-07 2.2836e-08 1.8996e-06 1.9827e-06 5.4733e-06 -6.9829e-05 -3.2337e-07 4.8211e-06 1.6817e-06 -5.9234e-05 1.5059e-07 9.586e-05 -8.1594e-06 4.9801e-06 8.0085e-08 8.9611e-07
-1.3916e-07 0.17383 -1.6261e-05 0.17632 0.12997 1.6604e-06 -1.7154e-05 0.2885 -4.9443e-05 9.5798e-06 2.2037e-05 0.18526 7.1886e-05 5.6376e-05 4.8722e-06 -2.3308e-05 -4.3541e-06 4.0473e-06 9.4558e-05 0.19822 2.1122e-06 6.0412e-07 7.7489e-06 0.1321 -9.5006e-07 0.0012219 -2.66e-05 -1.2393e-05 -1.1885e-05 -7.0008e-05
-1.3916e-07 0.17383 -1.6261e-05 0.17632 0.12997 1.6604e-06 -1.7154e-05 0.2885 -4.9443e-05 9.5798e-06 2.2037e-05 0.18526 7.1886e-05 5.6376e-05 4.8722e-06 -2.3308e-05 -4.3541e-06 4.0473e-06 9.4558e-05 0.19822 2.1122e-06 6.0412e-07 7.7489e-06 0.1321 -9.5006e-07 0.0012219 -2.66e-05 -1.2393e-05 -1.1885e-05 -7.0008e-05
1.9722e-05 1.0998e-05 0.2772 0.17649 0.13003 2.891e-06 -2.1349e-05 4.2019e-07 -3.5233e-06 1.6749e-05 3.5367e-05 0.18539 9.9854e-05 4.7059e-05 3.9176e-06 -2.7108e-06 2.8818e-05 7.7849e-07 0.00019711 0.26465 1.5567e-05 -1.9787e-06 6.8057e-05 0.28044 -1.068e-05 0.00020677 3.1718e-05 -2.4e-06 6.1833e-05 6.7025e-05
-1.0996e-05 -0.00071337 -4.2658e-06 -1.2967e-05 2.7869e-05 0.31574 0.35326 -4.548e-06 8.3079e-06 0.0022781 0.00032338 3.6358e-05 0.27902 0.00011125 0.00062204 -5.7014e-06 0.0023665 0.0003958 0.00082423 8.3456e-05 -0.00022523 -0.00011864 0.0014576 8.8455e-05 -7.5662e-05 0.40817 -3.4212e-05 -5.9812e-05 -0.00010015 -2.6329e-05
0.00014837 0.17395 0.27732 4.8013e-06 0.00016346 0.00018925 7.0437e-06 1.9522e-05 2.0014e-05 -1.8715e-05 -3.2783e-05 0.00042461 0.27619 7.1926e-05 1.4802e-05 -6.38e-06 0.0010553 0.0001547 0.22248 0.00015163 1.3392e-05 -9.7145e-06 0.00012353 5.0229e-06 6.5291e-06 0.0010072 0.00016196 -0.00014394 -2.3517e-05 1.2695e-05
-8.691e-06 5.1642e-05 9.3784e-05 0.0020853 0.13065 0.00044301 0.00093208 -9.6558e-06 0.00016641 0.50159 0.00026152 0.00018455 0.00031558 0.00020763 0.000465 -1.1636e-05 0.00295 0.0006526 0.0051905 -0.00011025 -4.2566e-05 0.0024052 0.00068475 -9.7656e-05 -9.862e-05 0.00068004 0.001794 -6.0853e-05 -4.8268e-05 -0.00011959
0.00017971 0.00018173 0.00050446 1.3272e-06 0.00016371 0.00098117 2.9717e-05 0.00031857 0.00053378 9.5962e-07 0.00019149 0.18601 0.0013128 0.00019735 6.0926e-05 -2.7768e-05 0.0061986 0.0001824 0.00043558 -0.00027915 0.010556 0.00059513 0.00012195 -0.00053149 0.00052258 0.00011907 -5.5578e-05 0.0034484 -0.00012086 -6.9276e-05
-1.8689e-06 -2.2546e-05 -9.1533e-09 -2.4545e-05 0.00029289 2.1291e-05 2.7071e-05 1.3031e-06 -1.0409e-05 0.49857 1.7233e-05 0.00010372 -1.3301e-05 1.3827e-05 0.00017906 -3.1715e-07 5.5368e-05 0.00050559 -6.7636e-06 -1.4361e-05 2.6728e-07 1.1549e-05 0.00061293 -1.568e-05 -3.4783e-05 0.00038063 -2.6365e-06 2.6723e-06 -3.8532e-05 -2.3162e-06
-3.9782e-07 -1.1662e-07 2.3758e-08 4.0872e-06 0.1299 1.7782e-06 -2.7458e-07 -9.2831e-09 -7.2611e-08 8.7851e-06 -3.1373e-06 -1.1682e-07 2.4483e-06 9.345e-07 6.524e-07 2.4952e-08 2.1883e-06 3.6692e-06 5.0889e-06 -7.2171e-05 -3.1951e-07 1.0376e-06 9.9141e-07 -5.7622e-05 7.4109e-07 9.6022e-05 -9.005e-06 1.285e-05 -1.6819e-07 9.3531e-07
0.0001407 7.9179e-05 1.533e-05 5.2092e-05 -1.1842e-05 3.1837e-05 -5.6042e-05 1.4318e-05 0.1972 0.00082699 0.18451 6.9018e-05 3.4105e-05 0.18231 0.33462 -1.1178e-05 0.24538 -4.7915e-06 0.22259 -0.00032289 -9.7532e-05 3.7455e-05 5.7731e-05 -0.00032433 0.0013848 -1.9935e-05 0.0018401 -0.00018804 -9.8398e-06 -5.8969e-05
5.8281e-06 7.7132e-05 2.4239e-06 3.2708e-05 0.13017 3.7413e-06 6.0267e-05 -4.375e-07 0.00017437 0.0014161 0.00021666 0.18555 9.6118e-05 6.027e-05 1.9371e-05 -1.41e-05 0.00011519 0.00054977 0.00018266 -0.00010452 -1.2573e-06 7.8081e-05 0.00037616 -6.7233e-05 -4.5648e-05 0.0019747 0.0018583 -7.0891e-05 9.9549e-06 -9.5114e-05
-9.5491e-09 -4.2536e-06 7.5054e-07 1.8772e-08 0.12998 -1.7007e-07 -8.7753e-07 3.9771e-07 8.11e-06 6.2088e-06 6.9026e-05 -6.1454e-06 8.8487e-07 1.1005e-05 -1.3686e-06 4.2173e-07 -4.3279e-06 3.7262e-05 0.00036157 -7.7334e-05 -2.9572e-06 -6.5706e-06 0.0011973 -5.6968e-05 3.7375e-07 8.9598e-05 -9.5097e-06 -7.9274e-06 -4.5444e-06 -1.8216e-06
1.6917e-05 0.17389 -9.2476e-06 0.17877 0.13002 1.6882e-05 1.8012e-05 -5.0246e-06 7.2072e-05 9.7984e-05 7.4615e-05 -7.6231e-07 3.6681e-05 4.8821e-05 0.33346 -1.0681e-06 -0.00025009 0.29952 0.00072855 -9.9686e-05 -0.00012178 -0.00023306 0.30988 -0.00013383 -3.6775e-05 0.001586 -7.189e-06 0.31392 7.0015e-05 -2.2258e-06
-8.9098e-06 0.00010673 9.3306e-05 -2.9591e-05 8.6696e-05 0.00029446 -4.597e-05 -8.0324e-06 0.00012727 9.6257e-05 0.18244 0.00022677 0.00023135 0.18227 3.3991e-05 -7.3573e-06 0.00056106 0.00010757 0.22667 -0.00017215 -0.00010633 0.0027075 0.0020756 -0.00019898 -7.2474e-05 9.3065e-05 -3.153e-05 -2.9137e-05 0.00011128 -5.233e-06
9.7127e-07 -2.6884e-05 -1.1932e-05 -3.401e-05 0.00015749 9.7533e-07 0.35337 1.0154e-06 -3.6625e-06 0.00017762 0.00068123 0.00026543 4.8528e-05 5.2186e-06 -2.1605e-05 3.3755e-06 0.00033895 0.00062113 0.0035317 4.7807e-06 -0.00011784 0.0025639 0.0042932 -7.6977e-06 0.00011967 9.3486e-05 1.6554e-05 0.0014875 4.767e-06 -1.079e-05
0.00013715 6.4139e-05 1.5619e-05 4.5185e-05 0.00014199 3.7981e-07 -5.4555e-05 1.4846e-05 0.19732 0.0008292 0.1831 4.0927e-05 2.097e-06 0.18193 0.3347 -1.2021e-05 0.24623 -5.7418e-06 0.22439 -0.00034983 -0.00020214 -0.0002542 -2.3869e-05 -0.00034432 0.001363 -1.6994e-05 0.0019134 -0.00030242 -1.4905e-05 -5.4467e-05
2.2613e-07 -1.177e-08 1.3062e-07 2.8935e-08 2.4902e-07 -6.3509e-08 8.3046e-06 7.6033e-08 3.9136e-06 -1.607e-08 -4.8713e-08 5.7442e-06 -2.2519e-07 -5.2274e-08 1.4368e-07 1.3169e-07 2.0404e-08 -1.6631e-07 -1.571e-07 -8.352e-07 4.4863e-06 1.4327e-07 -1.4421e-08 -1.5669e-06 -2.8318e-07 -2.4165e-07 2.4971e-07 1.3312e-06 -5.178e-07 -3.9543e-08
4.7916e-05 0.17393 0.27696 8.2759e-07 0.12993 5.3994e-06 -5.0298e-06 -9.154e-06 3.1749e-05 -1.6381e-06 -7.3747e-06 6.3472e-06 1.9836e-05 -5.9097e-06 0.33219 8.3843e-06 -1.6171e-05 5.9992e-06 -3.2084e-05 -6.9851e-05 1.3103e-05 6.1996e-06 1.0396e-05 -9.0138e-05 -2.6744e-05 0.0011103 -3.4371e-05 1.1169e-05 -1.6326e-06 -2.2551e-06
-2.439e-07 2.6719e-07 -3.4479e-06 -4.5345e-06 3.4335e-05 6.3511e-07 -4.364e-07 3.6608e-07 6.6421e-07 -7.9005e-07 0.00038536 -3.0974e-07 1.0701e-05 1.3216e-05 8.7416e-06 3.3287e-07 -2.4127e-06 -1.653e-05 1.3896e-05 -1.0499e-06 5.3478e-06 -1.9328e-05 0.00074268 -1.3733e-07 3.163e-06 1.769e-06 2.0265e-05 1.1028e-05 -5.9581e-06 1.1466e-06
9.5789e-05 0.0012996 0.27716 0.17643 0.00017836 -0.00014422 -1.959e-05 -2.5582e-05 0.00030815 -1.3002e-06 0.18204 -1.522e-05 -0.00010279 0.18204 -6.8975e-05 3.5857e-07 0.0022533 -3.7165e-06 -0.00013812 -0.00019437 0.43991 0.0093918 -0.00033727 -0.00035677 0.002763 0.0005742 -1.3933e-05 0.004276 6.1874e-05 2.0116e-05
2.6316e-05 2.912e-06 0.00011662 4.7175e-05 0.13017 -3.7511e-06 -9.1846e-06 -1.0137e-06 0.00026308 6.0595e-06 0.00019352 0.00078153 -9.0784e-06 0.00010227 -2.4839e-05 -2.3179e-06 0.0013069 4.3475e-05 0.0005452 -0.00010627 0.002471 0.0014818 0.0041204 -0.00011086 -0.00012644 5.9894e-05 -8.9659e-06 0.00099757 -0.0001933 -4.0894e-07
-6.2346e-06 -1.7137e-05 9.3182e-05 -1.0967e-05 0.13064 0.31606 -1.1417e-05 -6.0669e-06 -1.2528e-05 0.00011569 0.00077115 7.8819e-05 -1.6351e-05 0.00057137 4.3346e-06 8.2913e-07 0.00063913 0.00013925 0.002952 -0.00012706 -0.00025266 0.0026517 0.00058222 0.00041698 -0.00017759 8.2641e-05 2.5343e-06 -0.00010186 -9.0952e-06 1.898e-05
1.2006e-06 0.17377 3.5347e-06 0.1763 -1.4199e-06 7.6313e-07 -1.7514e-05 8.1567e-06 0.19559 -8.9693e-06 -8.1983e-06 -0.00069313 0.28197 -2.7215e-05 2.2916e-05 1.374e-05 -6.4432e-06 8.3195e-06 6.1512e-05 0.26653 2.1971e-06 7.8402e-06 8.496e-06 0.27812 1.7237e-05 0.00112 -2.7806e-05 3.5691e-05 -1.4215e-07 -5.728e-05
-4.7521e-07 0.17385 5.5842e-05 0.1763 2.8337e-05 4.9106e-05 2.6509e-05 -6.4817e-06 0.19558 -1.0075e-06 -2.7888e-06 3.752e-05 4.6991e-05 -1.8494e-05 2.0664e-05 1.073e-05 5.0255e-06 7.0486e-06 7.135e-05 0.2644 9.338e-06 2.8268e-06 4.6934e-06 0.2777 1.2948e-05 0.0011257 6.7978e-05 -6.4553e-06 2.3586e-05 0.00013155
5.4194e-07 -0.0006009 -1.0454e-06 1.6789e-05 9.7352e-07 3.9607e-05 0.00010492 1.3181e-07 1.0548e-05 3.0262e-05 0.00040143 -1.3244e-05 5.542e-05 0.00010331 1.9998e-05 1.0642e-07 3.2175e-06 1.4527e-05 0.00077037 3.2474e-06 5.8402e-06 -0.00012181 0.3093 -6.5602e-06 -3.7266e-06 0.40763 -7.7386e-06 0.00012937 -6.6882e-06 -7.837e-06
6.7332e-06 -0.00063501 4.425e-05 -3.9992e-05 0.00035517 -8.7909e-06 0.35367 1.9544e-06 0.00063034 0.50173 0.0007844 0.00025059 3.6663e-05 -3.9682e-06 6.4192e-05 4.8593e-06 0.00031279 0.30058 0.006491 6.7281e-06 -0.00013507 0.0015277 0.0053465 -6.2436e-05 0.00021419 0.40812 2.3862e-05 0.0014735 2.0502e-05 -1.7407e-05
-1.3931e-06 2.9815e-06 -1.2189e-07 3.5594e-06 -6.5916e-06 0.00027325 -1.9677e-06 -1.2376e-06 4.2724e-05 8.4085e-08 2.6237e-07 1.4376e-06 4.2669e-06 1.4817e-07 9.5647e-07 -2.0836e-07 -3.5553e-06 -8.347e-08 1.9426e-05 -8.8104e-06 8.0867e-07 2.037e-06 2.8394e-07 -2.3115e-06 -8.2517e-06 1.2373e-06 -3.5796e-06 -8.4742e-06 -2.6237e-06 -4.5295e-06
9.1627e-06 -1.8834e-07 -7.8725e-06 0.17661 0.12998 7.8955e-06 -4.0858e-05 -5.3506e-07 0.00028298 1.1269e-05 0.18164 0.18543 8.7173e-05 0.18185 0.00012436 -1.5923e-06 -0.00012463 -6.707e-06 0.00099356 -0.00025112 -0.00010626 -9.1081e-05 0.30632 -0.00026039 -3.7418e-05 0.00023258 -2.5572e-06 0.31255 2.6865e-05 -7.6024e-06
0.28872 0.17526 0.27793 0.17654 0.13019 0.00063555 -3.2952e-05 0.00021132 0.19645 -9.1893e-06 0.18227 9.9312e-05 -7.7835e-05 0.18228 -0.00021591 -5.6076e-06 0.25359 -3.0966e-05 -5.0056e-05 -0.00060856 0.45177 0.35782 -0.00080972 -0.00088137 0.30294 0.0017947 -2.7201e-05 0.3198 5.3798e-05 -3.1382e-05
2.5427e-05 8.5635e-05 3.6819e-05 -6.2896e-05 0.13093 7.1327e-06 7.9691e-07 2.5971e-07 0.19673 2.3203e-05 0.18391 0.0011922 -2.0909e-06 0.18287 4.1774e-05 8.9206e-06 -4.8496e-05 4.2661e-05 0.22446 -0.00020752 -7.5455e-05 -1.3955e-05 0.0021615 -0.00033725 3.0788e-05 0.00028535 2.0476e-05 -0.00019707 -2.2871e-05 1.4651e-05
5.2865e-06 9.5958e-05 -1.5267e-06 0.17671 2.7798e-05 -1.0247e-06 -2.2202e-05 -1.1029e-06 0.00017256 0.00085908 0.00015084 7.8785e-05 7.1226e-07 4.9994e-05 1.6653e-05 -1.2304e-05 6.6275e-05 -4.4017e-09 0.00021182 -1.1319e-05 2.4056e-08 -8.0559e-06 9.7351e-05 -2.69e-05 1.0517e-05 9.2828e-05 0.001845 -7.1864e-06 2.5354e-05 -8.9646e-05
1.069e-06 -2.3474e-07 -7.4944e-07 6.6272e-09 1.682e-05 -5.3383e-07 3.3155e-06 1.0269e-07 -2.3103e-06 0.49807 -1.8657e-07 3.3856e-06 -2.7577e-05 -5.7379e-06 -2.0997e-05 2.6444e-07 -4.5304e-05 -6.7016e-07 -3.6251e-05 1.6188e-06 1.4972e-06 -2.4643e-06 1.4352e-05 1.075e-06 1.6295e-06 -7.092e-06 -6.6207e-06 8.3201e-06 4.1721e-08 2.4482e-06
4.715e-08 0.17383 4.432e-06 0.17634 0.13 4.4142e-06 -1.7208e-05 0.28849 0.19561 -5.1022e-07 1.9501e-05 0.18531 0.27596 -1.286e-05 2.4617e-05 0.5 6.3569e-06 8.4751e-06 5.6408e-05 0.26445 2.5237e-06 -2.2995e-05 -3.9193e-06 0.27768 -1.6135e-05 0.0012645 0.26771 9.7278e-06 0.44664 0.37261
-3.0624e-06 -0.00011129 1.4337e-05 0.17857 0.13042 0.00011786 0.0008273 -2.7665e-06 -2.2739e-05 6.6764e-05 0.18275 3.4227e-05 -2.1228e-05 0.18565 0.00026684 7.4542e-06 0.25107 0.30139 0.25099 -0.00031868 -0.00021309 -0.0012139 0.00011536 -0.00031275 -0.00090028 0.00040103 -2.0176e-05 -0.00052893 -2.8203e-05 -1.405e-05
-2.229e-06 0.17386 4.7177e-06 0.17644 0.13 2.1335e-06 -1.7359e-05 0.28885 0.19564 -9.322e-07 -7.5118e-06 0.18536 0.27594 -1.794e-05 2.4283e-05 -7.8398e-05 1.5715e-06 7.5521e-06 4.051e-05 0.26456 5.8779e-06 -3.7216e-05 3.407e-06 0.27799 -9.0581e-06 0.0012615 0.27146 7.102e-06 -9.8947e-05 0.3751
2.9937e-06 -6.2319e-05 8.544e-06 9.0392e-06 0.13003 4.6714e-05 0.0001001 -1.1182e-06 -9.588e-06 0.0021564 2.5239e-05 -6.8379e-06 0.00035544 3.3805e-05 0.00043183 -1.3095e-06 0.24668 0.00021536 0.00012873 -1.8246e-05 -9.2619e-05 -5.9593e-05 -1.4873e-06 -5.1597e-05 0.0001038 0.00012273 1.7394e-05 -0.0001888 -3.0942e-05 -2.3e-05
0.28865 0.17422 0.00037978 7.5763e-05 0.13 0.00065643 1.5047e-06 4.6272e-05 0.19619 -8.288e-06 0.0001905 0.00015095 -1.3769e-05 0.00022522 -0.00014873 -1.7412e-06 0.25212 -2.6305e-05 8.576e-05 -0.00041049 0.010256 0.34848 -0.0004972 -0.00049443 0.30099 0.0013216 -3.0588e-05 0.31687 -1.9528e-05 -3.2538e-05
-3.7639e-06 0.17393 2.6498e-06 1.3718e-05 0.13011 5.539e-05 -1.2285e-06 -9.5011e-06 0.19562 8.2149e-06 4.0619e-09 0.18541 0.00033908 -7.0845e-08 1.8946e-05 6.9837e-07 -4.0567e-06 1.4694e-05 0.00031189 2.5371e-05 4.0005e-06 1.7958e-05 1.3176e-05 -4.2282e-05 -2.9582e-06 0.0011438 -3.4264e-06 -5.6795e-05 2.7296e-05 -3.3589e-05
0.28875 0.00021052 0.00079224 4.5252e-05 9.0629e-05 0.31733 -2.6962e-05 0.28893 0.00060493 -1.3206e-05 0.00019021 0.18621 0.00021703 0.00019039 -0.00015015 3.4345e-06 0.25114 -3.8403e-05 0.00019288 -0.00025441 0.011612 0.00022311 -0.00032782 -0.00041721 0.30323 8.0439e-05 -1.7906e-05 0.0032674 -6.1068e-05 -5.6677e-05
0.28878 0.0004693 0.00040842 1.2144e-05 7.4395e-05 0.31721 -1.2095e-05 0.28874 0.00065658 -1.3605e-05 0.00014349 0.18625 0.0001783 0.00017787 -0.00015194 7.6595e-06 0.25192 -3.7459e-05 0.00019058 -0.0002507 0.010003 0.00027485 -0.00035257 -0.00038704 0.30404 0.00018151 -3.5226e-05 0.0046195 -7.2519e-05 -3.7717e-05
1.2006e-06 0.17377 3.5347e-06 0.1763 -1.4199e-06 7.6313e-07 -1.7514e-05 8.1567e-06 0.19559 -8.9693e-06 -8.1983e-06 -0.00069313 0.28197 -2.7215e-05 2.2916e-05 1.374e-05 -6.4432e-06 8.3195e-06 6.1512e-05 0.26653 2.1971e-06 7.8402e-06 8.496e-06 0.27812 1.7237e-05 0.00112 -2.7806e-05 3.5691e-05 -1.4215e-07 -5.728e-05
-2.34e-07 0.17387 5.2637e-06 0.17651 0.12998 2.0044e-06 -1.6954e-05 0.28886 2.9608e-05 -2.4134e-06 -1.2102e-05 0.18569 0.27611 -1.5228e-05 1.1872e-05 -7.5158e-05 -4.2282e-05 1.4168e-05 3.1216e-05 0.26508 1.0643e-05 -7.8429e-06 9.4153e-06 0.27813 -4.6337e-06 0.0012659 0.42476 4.7684e-06 0.00092233 0.38255
-1.2818e-06 1.3183e-07 -8.4954e-07 0.17633 0.12993 3.3264e-06 -1.8279e-05 -4.7603e-07 0.19553 8.8853e-06 4.7699e-06 0.18526 7.788e-05 -6.8258e-06 1.4586e-05 1.5996e-06 8.526e-06 9.5444e-06 5.0132e-05 -0.0001491 2.9965e-06 -4.9531e-06 1.7367e-06 -0.00017164 9.0658e-06 0.00021183 2.0175e-05 2.2313e-05 5.6415e-05 1.6982e-05
3.4841e-06 0.17437 -6.1512e-06 0.17639 0.1303 1.3833e-05 -3.368e-05 3.4145e-07 -3.7116e-05 -3.1062e-06 0.18218 -1.7689e-05 -3.3387e-05 0.18268 2.7218e-05 -2.7588e-05 -2.3762e-06 1.8449e-05 0.2226 0.19818 6.3165e-06 -1.9225e-05 -5.0933e-05 0.13304 4.4546e-05 0.0012175 -5.602e-05 -6.4961e-05 -3.2229e-05 -4.9498e-05
2.2738e-07 0.00012744 2.448e-06 0.17632 7.6087e-06 7.4177e-06 0.35302 1.3174e-06 0.19555 4.3104e-06 0.18134 -3.6257e-06 8.6416e-05 0.18179 1.3242e-05 4.2929e-06 2.0931e-05 5.6806e-06 8.0662e-06 -0.00025514 2.5818e-05 -8.666e-05 0.30694 -0.00027294 2.2681e-05 0.00059705 6.0986e-06 6.6069e-05 8.8053e-05 3.3157e-05
-3.3058e-06 2.8791e-05 0.27729 0.0020364 3.9943e-05 0.316 0.35431 0.00021678 1.6346e-05 -5.5007e-06 0.0001974 0.18552 0.00106 7.1124e-05 8.7823e-05 -8.4865e-06 0.00014613 0.00039725 0.22482 -5.601e-05 -0.0002017 -0.00029225 -6.7433e-05 -0.00014525 -8.629e-05 3.7921e-05 -8.6294e-05 -9.1984e-05 -3.4158e-06 -4.2858e-05
-2.3198e-07 1.9015e-05 0.00011915 8.4608e-05 0.13013 8.2491e-05 0.00025686 1.341e-06 0.00012054 0.0030693 0.00059058 0.000235 0.00044478 0.0002409 0.00048937 -2.3092e-05 0.0027498 0.00037354 0.0025426 6.2182e-05 -0.00015783 0.0014309 0.0036229 0.0027052 5.8094e-05 0.00223 0.0018406 0.0014258 -1.0797e-05 -0.00012076
-2.2184e-07 -1.9886e-05 -1.7683e-07 -2.6309e-05 0.00043647 1.1098e-06 -3.783e-06 1.3069e-06 -7.1367e-06 0.00039259 -1.2393e-05 0.18533 6.8769e-05 1.9839e-05 1.6231e-06 -2.4152e-06 2.1285e-05 0.00033324 -2.1259e-06 8.6553e-06 4.7313e-06 1.3698e-05 0.00030353 -3.5775e-06 -1.923e-05 7.488e-06 1.3544e-05 2.7945e-05 2.3686e-05 -4.1225e-06
0.28865 0.17422 0.00037978 7.5763e-05 0.13 0.00065643 1.5047e-06 4.6272e-05 0.19619 -8.288e-06 0.0001905 0.00015095 -1.3769e-05 0.00022522 -0.00014873 -1.7412e-06 0.25212 -2.6305e-05 8.576e-05 -0.00041049 0.010256 0.34848 -0.0004972 -0.00049443 0.30099 0.0013216 -3.0588e-05 0.31687 -1.9528e-05 -3.2538e-05
-6.2346e-06 -1.7137e-05 9.3182e-05 -1.0967e-05 0.13064 0.31606 -1.1417e-05 -6.0669e-06 -1.2528e-05 0.00011569 0.00077115 7.8819e-05 -1.6351e-05 0.00057137 4.3346e-06 8.2913e-07 0.00063913 0.00013925 0.002952 -0.00012706 -0.00025266 0.0026517 0.00058222 0.00041698 -0.00017759 8.2641e-05 2.5343e-06 -0.00010186 -9.0952e-06 1.898e-05
-4.6287e-07 -0.00063813 5.9514e-05 0.0020533 8.6494e-05 0.00022273 0.35423 -5.6309e-06 3.4432e-05 0.0026247 0.00034934 1.21e-05 0.0004098 0.00012097 0.33447 1.2677e-06 0.0025309 0.30069 0.23182 -4.2615e-05 -3.2587e-05 -0.00033547 0.0011178 -0.00010293 1.0019e-05 0.40971 -1.6537e-05 -3.6665e-05 -6.2474e-05 -5.5373e-05
0.2887 0.17428 1.5723e-05 1.8297e-06 0.13012 5.9532e-06 -2.8991e-06 -5.3825e-07 3.452e-05 5.627e-07 -6.934e-06 6.7798e-07 2.8986e-06 5.9063e-05 0.33224 7.0587e-06 8.6225e-06 6.3628e-06 -2.8642e-06 7.2638e-05 1.7202e-05 6.3884e-06 2.0681e-05 2.8993e-05 0.00019526 0.0011496 -3.5642e-05 -0.00010099 -5.8587e-06 -5.24e-06
-3.8677e-07 1.5734e-06 1.4478e-07 3.3966e-07 1.1794e-05 -5.3969e-07 1.681e-06 -3.2668e-08 -2.6111e-06 5.242e-07 -3.7555e-06 5.9801e-05 -2.8522e-06 2.4197e-07 -4.6585e-05 6.9406e-07 7.2785e-05 0.0052737 1.2946e-05 1.1375e-07 -6.4667e-06 1.7542e-05 0.00011264 4.6458e-06 -5.2159e-06 9.5967e-06 3.6452e-07 -6.1071e-06 2.51e-08 -5.0431e-06
2.0422e-06 0.17384 4.9779e-06 0.17642 0.12998 4.2851e-06 -1.6803e-05 0.2885 7.4539e-06 -1.9914e-06 1.491e-05 0.18564 0.27613 -1.0148e-05 1.2205e-05 0.5 -3.7497e-05 1.5091e-05 4.7114e-05 0.26497 7.289e-06 6.3786e-06 2.0889e-06 0.27782 -1.1711e-05 0.0012688 0.42102 7.3942e-06 0.44766 0.38006
-3.4252e-07 3.5615e-06 4.7351e-07 2.8652e-06 1.6425e-05 -5.2769e-06 4.096e-05 9.7824e-07 9.6093e-06 8.7324e-07 -2.2483e-06 5.6803e-05 0.00010785 8.2335e-06 -4.1419e-05 2.4346e-06 7.685e-05 0.0052776 9.3175e-05 -1.2601e-05 -5.0575e-06 1.7167e-05 0.00059114 1.7106e-05 -5.2484e-06 6.7612e-06 -1.0381e-05 -5.1375e-06 2.1381e-06 1.854e-07
-4.2054e-07 -0.00058734 2.1717e-06 -7.7638e-06 0.13012 1.539e-06 -2.922e-05 2.56e-06 3.8157e-05 6.4915e-06 0.18168 -3.6876e-06 -4.2274e-06 0.18191 1.6894e-05 -2.4366e-06 2.7058e-05 2.3636e-05 0.22481 -0.00028694 -1.5734e-05 4.6177e-05 -9.9923e-05 -0.00025336 6.1357e-06 0.40819 1.1095e-06 -6.1255e-05 0.00014033 -2.6642e-06
4.715e-08 0.17383 4.432e-06 0.17634 0.13 4.4142e-06 -1.7208e-05 0.28849 0.19561 -5.1022e-07 1.9501e-05 0.18531 0.27596 -1.286e-05 2.4617e-05 0.5 6.3569e-06 8.4751e-06 5.6408e-05 0.26445 2.5237e-06 -2.2995e-05 -3.9193e-06 0.27768 -1.6135e-05 0.0012645 0.26771 9.7278e-06 0.44664 0.37261
5.3451e-06 0.17394 4.9361e-06 8.8881e-05 0.13005 2.3382e-06 -1.2259e-06 1.3361e-05 0.1958 0.00085651 0.00020453 6.143e-05 0.27583 7.5448e-05 7.8398e-05 -5.5184e-06 5.6779e-05 1.1062e-05 0.00019603 4.9827e-05 -8.7365e-06 9.0097e-06 9.6223e-05 -3.3884e-05 -1.6951e-05 0.0011466 0.25996 -1.4016e-05 -7.8408e-05 0.0044599
6.2801e-06 8.7262e-06 -9.3241e-07 -2.1473e-05 0.13007 7.4009e-06 -1.3508e-06 -8.7455e-09 0.00060743 3.2379e-05 0.00074096 3.1454e-05 2.3611e-05 -1.588e-06 0.33238 1.5102e-06 1.5011e-05 9.1168e-06 4.4427e-06 -5.8679e-05 -7.8831e-06 2.3002e-05 6.038e-05 -8.6541e-05 0.00010802 0.00038245 -5.5589e-06 3.9811e-05 5.3291e-06 1.0372e-06
1.3816e-06 0.17411 3.4889e-06 -3.5192e-05 0.00018348 8.4349e-07 1.7575e-05 -2.7969e-06 0.19619 3.8136e-05 0.00086393 4.5238e-05 -3.9744e-05 5.6302e-05 0.00010349 -0.00023087 -4.0734e-05 7.7045e-05 0.00066989 -3.1478e-05 2.1012e-06 -2.6247e-05 0.0032307 -0.000141 0.00011553 0.0013977 3.3364e-05 -0.00014629 0.44745 0.00011322
0.28872 0.17526 0.27793 0.17654 0.13019 0.00063555 -3.2952e-05 0.00021132 0.19645 -9.1893e-06 0.18227 9.9312e-05 -7.7835e-05 0.18228 -0.00021591 -5.6076e-06 0.25359 -3.0966e-05 -5.0056e-05 -0.00060856 0.45177 0.35782 -0.00080972 -0.00088137 0.30294 0.0017947 -2.7201e-05 0.3198 5.3798e-05 -3.1382e-05
1.1018e-05 4.1821e-05 3.7695e-05 8.6726e-06 4.9671e-05 1.849e-05 -2.3532e-05 -4.5111e-07 5.645e-05 -2.1005e-05 0.18164 6.2867e-05 -1.1435e-05 0.18213 0.33245 -1.8217e-06 2.1297e-05 1.3031e-07 0.22313 -0.00018456 3.7777e-05 -2.4221e-05 -2.6414e-05 -0.00020711 2.5968e-05 -8.89e-06 -1.8094e-05 0.00017601 4.0571e-06 -1.2915e-06
2.9654e-06 4.0997e-05 0.00017729 -1.4744e-05 0.1303 0.00024025 -1.0437e-06 -6.3886e-07 0.00034417 5.0874e-06 0.00029281 2.716e-06 1.539e-06 7.2648e-05 -1.4549e-06 8.0232e-07 -1.6041e-05 4.6713e-05 0.0010251 -0.00013318 -1.6352e-05 2.0577e-06 0.0012047 -0.00021249 -2.2809e-05 6.1158e-05 -2.206e-06 -0.00012206 4.3516e-05 -6.9475e-06
0.28862 3.3863e-06 4.2672e-07 -2.6593e-06 -3.1284e-05 1.1705e-05 -3.5407e-05 1.1186e-05 0.0014804 4.9932e-06 0.0012289 -2.8169e-05 5.8852e-06 6.971e-05 0.0026624 -1.6132e-06 0.0013592 -1.3844e-05 7.5225e-05 -6.3827e-05 -2.2271e-05 -2.8742e-06 2.4342e-05 -5.63e-05 0.2996 2.2063e-05 -2.9049e-06 -5.4813e-05 -4.6544e-05 1.7679e-05
2.1379e-06 5.6399e-06 0.27695 2.5544e-06 0.1299 5.1302e-06 -2.3894e-06 -7.7808e-06 5.8828e-07 7.7929e-06 0.18122 0.18526 8.036e-05 0.18175 -1.1164e-06 -1.474e-06 2.5412e-05 -3.8215e-06 4.0753e-05 -0.00023836 2.4844e-05 7.2216e-06 -1.8383e-06 -0.00027442 -3.8432e-06 0.0001041 -2.3513e-06 1.3841e-05 3.474e-05 -1.6987e-06
1.4863e-07 -4.7008e-07 1.2906e-10 -2.4809e-06 3.4838e-05 -9.6086e-07 -2.6156e-06 1.2992e-07 -3.0346e-07 -9.1931e-07 -1.7578e-05 1.4197e-06 -3.6337e-07 3.3829e-07 1.6394e-05 -3.1312e-08 -2.1116e-05 -3.0857e-05 6.1807e-07 9.505e-07 1.1905e-05 -2.5695e-05 0.0024433 -3.2226e-06 2.3141e-06 -7.0621e-06 7.9787e-06 -8.8686e-05 3.9167e-07 -7.8212e-06
-3.0624e-06 -0.00011129 1.4337e-05 0.17857 0.13042 0.00011786 0.0008273 -2.7665e-06 -2.2739e-05 6.6764e-05 0.18275 3.4227e-05 -2.1228e-05 0.18565 0.00026684 7.4542e-06 0.25107 0.30139 0.25099 -0.00031868 -0.00021309 -0.0012139 0.00011536 -0.00031275 -0.00090028 0.00040103 -2.0176e-05 -0.00052893 -2.8203e-05 -1.405e-05
1.6917e-05 0.17389 -9.2476e-06 0.17877 0.13002 1.6882e-05 1.8012e-05 -5.0246e-06 7.2072e-05 9.7984e-05 7.4615e-05 -7.6231e-07 3.6681e-05 4.8821e-05 0.33346 -1.0681e-06 -0.00025009 0.29952 0.00072855 -9.9686e-05 -0.00012178 -0.00023306 0.30988 -0.00013383 -3.6775e-05 0.001586 -7.189e-06 0.31392 7.0015e-05 -2.2258e-06
-2.34e-07 0.17387 5.2637e-06 0.17651 0.12998 2.0044e-06 -1.6954e-05 0.28886 2.9608e-05 -2.4134e-06 -1.2102e-05 0.18569 0.27611 -1.5228e-05 1.1872e-05 -7.5158e-05 -4.2282e-05 1.4168e-05 3.1216e-05 0.26508 1.0643e-05 -7.8429e-06 9.4153e-06 0.27813 -4.6337e-06 0.0012659 0.42476 4.7684e-06 0.00092233 0.38255
4.2071e-06 -0.00011803 0.00013238 -9.4197e-06 0.13083 0.00027043 4.4611e-05 2.1704e-05 -2.2066e-06 0.00067084 -4.9141e-05 0.1869 0.00011258 0.00017125 -7.3715e-05 -5.7982e-07 0.24761 0.30641 0.0031415 -7.6976e-05 -0.00027701 0.0055325 0.34191 -9.4942e-05 -0.00019874 0.00025421 -5.6143e-06 0.0010935 -0.00026383 -1.3456e-05
2.1665e-05 3.5549e-05 0.27744 3.485e-05 0.00013513 0.00023656 -4.0367e-05 -1.1464e-06 -5.0909e-05 0.00010254 0.18201 0.1865 4.208e-05 0.18241 -4.6223e-07 -1.0914e-05 0.0037746 9.1143e-05 0.23086 -5.726e-05 9.5514e-07 0.35467 0.0041971 0.0025143 -0.00030547 -4.8893e-05 -6.1366e-05 -0.00028338 -0.00023087 -8.6081e-06
-7.7298e-06 4.5526e-05 0.00017746 -6.1271e-05 0.00039198 0.00044558 2.8268e-05 0.0002362 0.00080455 0.00048861 0.18455 0.00033436 0.0013037 0.18304 4.1211e-05 -8.9939e-06 0.0006575 0.00052179 0.0037716 -0.00014348 -0.00012709 0.0027443 0.0013749 -0.00032486 -0.00010532 0.0012321 -3.4262e-05 -3.7189e-05 -5.5084e-05 -4.8589e-05
0.00018059 0.0002526 0.00045473 8.059e-06 3.4319e-05 0.00094034 5.2492e-05 3.8672e-05 0.00053173 -1.0264e-06 0.00018566 0.0005349 0.00021291 0.00017247 -0.00020401 -1.9683e-05 0.0061516 -4.7561e-05 0.00019042 -0.00023836 0.010527 0.00054262 -6.8995e-05 -0.0003446 0.00055775 0.00011094 -3.4689e-05 0.0034379 -0.0001326 -7.207e-06
8.3356e-06 7.1722e-05 0.0001811 -2.4961e-05 0.13042 4.3316e-05 -1.1303e-06 -2.8877e-06 0.00067828 3.9866e-05 0.183 -1.032e-05 0.00017492 0.18234 4.3552e-05 -5.657e-07 -1.5569e-05 6.3862e-05 0.0004552 -0.00029717 -5.5931e-05 4.4653e-05 0.0012498 0.00014312 9.1931e-05 0.00037906 4.3948e-05 2.3598e-05 -3.8068e-05 3.0468e-06
