-1.8057e-06 -2.3536e-06 3.5912e-05 1.4688e-07 3.1835e-06 -1.9041e-06 0.00032336 -3.2768e-06 -5.3928e-05 3.9574e-07 3.2131e-06 5.2448e-05 -9.2536e-07 -8.1432e-06 4.8439e-06 2.5647e-06 2.9196e-06 -4.7851e-08 -3.3659e-06 -1.804e-06 -7.677e-07 -5.237e-06 6.39e-05 -1.3416e-06 -1.0749e-05 -2.2201e-06 -6.2971e-06 2.1314e-07 -4.827e-06 1.525e-06 5.7e-06 -1.9119e-05 1.7421e-05 6.8517e-07 0.0010085 -2.6555e-05 7.5639e-06 -1.9853e-05 -3.2535e-05 -1.9301e-07 -0.0001467 3.6412e-06 7.7387e-07 -1.6581e-05 2.6846e-06 0.00010364 -6.9273e-06 -0.066107 -5.424e-05 -7.8836e-08 -1.4851e-05 5.5681e-06 1.6306e-06 -3.7655e-06 -4.6742e-06 -6.4181e-05 -0.0001331 0.0001047 -1.3368e-05 -7.5095e-06
4.754e-06 -5.4166e-06 0.00027189 1.3828e-07 -6.5197e-06 -5.2471e-06 0.00014706 0.00017811 -3.3718e-07 1.8672e-06 -9.3324e-06 -0.00014971 -3.3019e-07 -2.4584e-05 7.928e-06 1.4923e-06 -4.6837e-06 2.2194e-06 2.8126e-06 7.8539e-07 5.765e-06 -1.6343e-05 1.4737e-05 1.4812e-05 -1.827e-05 6.6062e-06 -1.1873e-05 8.9394e-06 1.0014e-06 -6.6025e-05 -3.2553e-05 6.0036e-05 9.5558e-07 0.00051523 -6.715e-05 -1.683e-05 -9.1677e-06 6.2197e-06 -5.9902e-05 9.3102e-07 -0.0049617 -9.758e-06 2.4144e-06 -4.6443e-06 9.7277e-06 0.25761 -9.1946e-06 -0.031964 -8.2743e-06 2.6312e-06 1.8311e-06 -7.5408e-05 -3.9078e-06 -3.1945e-07 3.4086e-05 -1.1066e-05 4.0944e-07 3.3215e-05 -7.7222e-06 -4.4464e-05
0.00010327 5.419e-05 1.7493e-05 -1.0184e-06 -7.7309e-06 2.259e-05 0.16245 -6.2334e-06 -0.00055496 4.1519e-05 0.00012902 5.6979e-05 -2.1145e-06 9.2327e-05 -8.1282e-06 0.00062593 -4.8289e-05 -3.5939e-05 -3.8497e-05 6.5414e-06 -0.00012035 1.9397e-05 0.00016322 -1.6425e-05 1.5809e-05 0.00096022 -1.1334e-05 -2.5172e-06 -9.4397e-05 -4.0059e-05 1.5698e-05 -0.00016308 0.0019843 3.1286e-05 0.26868 -1.0711e-05 7.042e-05 1.7802e-05 -8.9533e-05 9.7318e-06 -0.0021491 0.0011909 -0.00012381 -0.00043779 1.65e-05 6.9289e-05 -1.7128e-05 4.6763e-05 0.00011241 -2.6465e-06 -4.75e-05 0.0019394 1.1854e-05 -1.9151e-05 -4.5756e-06 -0.00021697 0.00095285 0.00025806 -0.00012459 0.00038311
6.967e-07 -3.0537e-06 1.811e-05 -3.2874e-08 2.4172e-06 3.4908e-05 0.00044276 6.5509e-05 -7.6651e-06 -2.4867e-06 7.148e-07 -5.4338e-07 1.5223e-06 -1.0661e-06 1.2502e-06 -2.8725e-06 5.754e-05 6.624e-07 5.6333e-06 -1.1732e-06 1.2173e-05 -1.3648e-05 4.4769e-06 2.8451e-06 -2.0955e-05 1.179e-05 9.4876e-07 1.9419e-06 -9.7164e-06 -5.522e-06 -7.7136e-06 8.2586e-06 -0.00018833 0.000265 0.00044153 -5.0508e-08 -3.4802e-06 -2.2057e-06 -5.6574e-05 1.7894e-06 -6.1739e-05 0.0011618 1.6852e-05 0.0022001 4.4802e-07 0.00010221 -1.8984e-06 4.5862e-06 -1.2684e-05 7.7231e-06 -6.0658e-06 -2.389e-05 3.7639e-05 1.4884e-06 1.2741e-05 0.00046953 -6.409e-06 -6.347e-06 -7.0513e-05 -5.7768e-06
1.6474e-05 -3.1581e-06 1.0129e-05 -1.6137e-07 5.7533e-06 8.3108e-06 0.2157 -1.395e-07 -7.6468e-06 -7.6758e-06 6.1405e-06 5.1124e-05 -6.3583e-07 -6.5303e-06 0.00023263 0.00015228 0.00043575 -4.1522e-05 -3.7921e-06 2.112e-05 0.00021332 -2.3407e-06 0.00054423 -1.7116e-05 -4.0091e-05 -2.0874e-05 -7.9052e-07 1.2028e-07 -7.1533e-05 4.099e-06 2.2103e-05 1.5708e-06 -4.196e-06 4.4243e-06 -3.143e-05 -8.5071e-05 0.00019779 2.6079e-07 -2.1786e-05 0.00032534 -0.00038089 0.00013544 -6.1262e-06 3.8854e-05 0.00081833 0.00016409 -5.9983e-06 -0.033401 -5.4041e-05 -8.1046e-06 7.2138e-05 0.00028352 0.00074395 -0.00016601 7.5817e-06 -6.2258e-05 2.3857e-05 -0.0017597 -0.00012607 7.4932e-06
2.038e-06 1.0507e-06 -1.2288e-06 -4.6072e-07 -1.9957e-06 -2.5978e-06 0.26712 4.3935e-05 -0.00038513 -3.5313e-06 -9.4175e-06 -2.0489e-06 2.2251e-06 -1.1243e-06 1.9197e-05 -0.00012589 -2.2849e-05 9.0045e-06 -4.7902e-06 2.1803e-05 -9.3877e-05 9.9005e-07 7.3299e-06 -5.3006e-06 -8.207e-05 3.1265e-05 -1.5665e-05 -2.195e-06 0.0022563 -1.477e-05 -6.2359e-07 -0.00012318 1.1488e-06 -1.4798e-05 0.2193 3.2409e-06 -9.5884e-06 3.8446e-05 -2.4947e-05 5.5847e-06 7.5659e-05 -1.2979e-05 -9.4164e-05 -0.00019828 2.4751e-05 5.8378e-06 -7.65e-07 -9.2215e-06 1.6052e-05 -4.523e-06 7.4088e-05 -7.473e-06 2.2009e-05 -9.3043e-06 -2.7702e-06 0.00055689 0.00011966 -0.00098975 -6.6781e-05 -1.3774e-06
6.1609e-07 -7.6021e-07 1.0607e-05 -2.3249e-06 0.18205 -4.2028e-05 0.26569 8.0831e-05 -2.9838e-05 -5.1454e-07 1.025e-06 -2.2238e-06 1.4468e-05 1.4847e-05 -3.9853e-07 -1.2173e-06 0.18687 4.2457e-06 4.0773e-06 3.1435e-05 0.18464 -1.2474e-05 0.35071 -1.5581e-06 -2.0686e-05 -3.3577e-05 1.207e-06 3.3672e-06 -7.522e-06 -9.7583e-07 -1.184e-05 -3.6388e-05 -7.124e-06 6.7727e-06 -0.00020372 -0.00040505 4.4257e-06 2.9423e-05 0.22826 1.2291e-05 1.0721e-05 0.0013197 -3.4659e-05 -4.2294e-05 -1.811e-05 0.00019043 -6.2976e-06 -6.8691e-05 -7.659e-06 -1.023e-06 -3.9361e-05 2.4377e-05 7.5272e-05 -3.2853e-06 6.1433e-06 -0.00016467 5.773e-05 -0.0019861 -0.00043888 -0.00017372
1.2217e-07 -2.3866e-06 -3.3459e-07 0.00019588 -3.7413e-06 -6.7201e-06 -3.4569e-07 -2.0402e-07 3.2927e-07 -1.5743e-07 -5.5017e-06 -2.3513e-08 -1.3862e-05 -1.0681e-05 -1.0922e-05 -1.7519e-06 -7.0682e-05 1.4215e-05 1.3535e-05 -3.9838e-08 1.0669e-05 1.3214e-06 0.33431 -3.3488e-05 -3.8447e-05 -3.5823e-05 5.7698e-06 -3.175e-07 -3.2773e-06 -1.1746e-05 4.9904e-06 -4.4266e-05 -3.1864e-05 0.00013998 1.0347e-05 -3.2763e-06 0.18114 -4.0735e-05 -4.9286e-06 1.3642e-06 9.5545e-06 -3.1681e-05 3.2827e-06 -2.2717e-07 -0.00060078 -6.8789e-06 -1.5884e-07 -2.3853e-06 -1.778e-05 2.2194e-06 2.8902e-05 -0.00012352 4.6815e-06 -0.00011946 6.788e-05 1.3074e-05 -0.00014406 -0.00013433 -2.2821e-05 -0.00027936
2.1558e-06 -1.5782e-06 -1.5839e-06 1.562e-07 0.47978 -1.9847e-06 8.222e-05 1.0342e-05 0.5666 -4.3809e-07 1.4787e-06 1.9775e-06 7.2453e-08 2.1953e-06 -5.4808e-06 -1.244e-07 -1.7662e-05 -9.5788e-07 1.7702e-06 2.6235e-06 -8.4652e-05 -5.3434e-06 -8.4413e-08 3.6582e-06 1.9413e-05 1.2428e-05 -1.0213e-06 1.1304e-05 6.5684e-07 -4.3586e-05 -1.4759e-06 1.3298e-05 3.1807e-05 -2.9837e-05 -0.00043687 8.4934e-06 -3.1066e-06 7.1202e-08 -1.8746e-05 -4.789e-08 1.2188e-05 -0.00018048 -0.00014339 0.00013847 1.5062e-06 5.2719e-05 -3.2713e-08 8.6793e-07 2.2942e-05 -5.0594e-08 1.9156e-05 -7.7284e-06 1.9358e-07 3.9695e-06 -1.5378e-05 5.9981e-06 0.00011263 -0.00032487 8.3054e-06 2.3471e-06
3.1433e-07 -8.6e-06 -9.3882e-07 -4.863e-07 -1.3204e-07 -8.0238e-06 -2.8323e-07 0.47893 1.2029e-05 -2.1596e-06 1.2919e-06 0.47364 -5.6925e-08 5.27e-05 7.7091e-06 -2.8796e-06 -1.6261e-06 -4.5081e-07 -2.5555e-06 -6.5747e-07 -1.7583e-06 -7.8022e-05 -2.5417e-06 -1.4291e-06 1.0323e-05 2.8342e-05 -1.3054e-06 -8.5832e-08 1.5874e-06 -5.3515e-07 -2.2778e-06 1.1183e-06 1.651e-05 -3.3619e-05 -5.5899e-05 -2.8239e-06 -4.1907e-06 -6.5334e-06 4.1308e-06 -9.8122e-08 -0.00016464 -9.8556e-05 1.1995e-05 -2.5557e-06 7.0099e-06 2.0518e-06 -5.7521e-08 -1.7522e-07 1.751e-06 -0.00014141 -2.2413e-06 1.0871e-05 1.2257e-06 -1.9616e-06 -2.9437e-07 -0.00016795 9.2128e-05 -0.00013868 6.8302e-05 9.941e-06
0.13117 2.3878e-05 -2.7633e-06 6.8149e-07 8.0239e-07 3.6858e-05 0.18411 1.6155e-06 1.19e-05 1.3336e-05 -6.1273e-07 -1.6761e-06 2.3808e-06 3.3527e-05 -3.8071e-05 0.48135 -1.8338e-05 3.6068e-06 2.0185e-06 2.0194e-05 1.6976e-05 6.5612e-05 0.00015956 7.1257e-06 0.15294 3.9392e-05 -2.2004e-06 1.2913e-05 0.64376 8.5277e-06 2.2146e-05 0.15915 0.00032474 8.0592e-05 -1.5191e-05 -7.1097e-06 0.13149 0.00014085 3.2795e-06 4.0635e-06 6.7014e-05 -3.7506e-05 -6.0666e-06 -8.0744e-05 0.00011711 2.1401e-05 -3.5117e-07 -9.9857e-05 0.4064 -3.3041e-06 0.00014542 0.16149 1.9275e-05 7.6939e-05 7.1794e-06 -3.1412e-06 1.4677e-05 -0.00116 -6.8186e-05 0.00039588
-5.0065e-06 1.0574e-05 -4.1269e-06 -1.3183e-06 0.19328 0.15924 1.6157e-05 -1.2081e-07 -6.0107e-05 8.9378e-06 -8.1033e-06 9.4658e-06 -1.3289e-06 8.1279e-06 1.3736e-05 -2.8926e-05 0.39619 3.9804e-06 1.5946e-05 -1.6253e-05 0.39205 1.5513e-05 0.18672 -2.7426e-06 0.11703 0.26201 1.2663e-06 3.1176e-06 -4.4466e-06 -6.4259e-05 1.625e-05 0.12233 -5.8064e-05 1.5373e-05 -0.00011703 -4.7001e-06 0.10136 0.32977 0.23992 -1.9223e-05 -0.00026159 2.3158e-06 -2.3369e-05 0.00012559 1.0114e-07 0.20044 7.0253e-07 -5.1601e-05 -2.8145e-05 1.0026e-05 0.3299 0.1248 -0.0001007 4.8481e-05 -5.5585e-05 -0.00010138 -0.00011078 0.00024659 -8.7652e-05 0.00013107
1.3418e-06 0.073075 5.437e-07 4.0374e-07 -2.6555e-08 1.9756e-05 2.5122e-06 0.00025407 -5.8886e-05 -1.1396e-06 -4.012e-06 4.3796e-07 -2.6319e-06 -0.41144 -5.5831e-06 -5.9973e-06 2.1052e-05 1.8962e-06 -1.7792e-05 -2.1692e-06 3.9444e-06 0.72357 -6.6624e-06 -2.7888e-05 -3.7394e-05 -4.5189e-05 1.0188e-05 -4.2915e-07 3.5666e-07 -6.226e-06 9.259e-06 0.00013777 -8.4377e-05 -3.5683e-05 -0.00015256 -1.0084e-06 -2.6134e-05 -1.2775e-05 -2.36e-06 -9.2507e-06 2.4051e-05 0.42819 -1.302e-05 2.7961e-06 8.8616e-06 5.1291e-06 2.4411e-07 -3.0827e-06 0.00019412 -5.1907e-06 8.552e-06 9.1145e-05 9.2008e-05 -5.7808e-06 -3.2698e-07 -0.00011047 -0.0007802 -0.0006227 2.3937e-05 7.8988e-06
-1.4878e-05 8.0531e-06 -4.1376e-07 -1.8103e-06 2.0803e-07 0.26239 6.0369e-05 -1.8868e-05 -2.0825e-07 -1.663e-05 -1.223e-05 2.014e-05 -2.021e-06 1.5625e-05 2.2594e-06 6.1247e-05 -1.6741e-05 2.0704e-06 -1.0018e-05 0.00055661 5.192e-06 3.5509e-06 -1.4778e-05 -9.2573e-07 -6.4438e-05 0.00022758 -2.0232e-05 3.5576e-07 5.9228e-06 9.1254e-06 -0.00016987 -3.5425e-05 0.00010212 0.007065 -0.00044528 9.2113e-06 5.7078e-06 1.6484e-05 -2.7924e-05 -0.00024202 -2.5837e-05 9.5329e-07 3.1228e-05 0.5554 -2.735e-06 5.2972e-05 -8.5598e-07 2.6555e-06 -1.8772e-06 -4.5284e-06 3.5906e-05 5.2259e-05 0.0056794 4.1385e-06 3.0827e-05 0.00053438 0.00032007 0.00049963 1.4525e-05 -2.054e-05
0.1267 -2.5833e-05 2.9945e-07 -1.5436e-07 3.8196e-06 -2.3195e-05 0.00020346 0.00017569 -7.9178e-05 -1.0945e-05 -3.3804e-05 -5.9954e-06 8.6067e-07 -0.00010944 5.4269e-07 0.00013373 0.00010312 -2.776e-05 -3.9125e-07 3.4626e-07 2.6783e-05 -6.8884e-05 4.394e-06 2.7961e-05 3.0943e-05 -1.4472e-05 -7.9578e-07 9.3167e-06 2.4982e-06 -9.1332e-06 7.7383e-06 3.0063e-05 -3.4416e-05 -2.2076e-06 0.0025551 -6.0621e-05 -2.8714e-06 1.0364e-06 -2.9237e-05 -4.088e-05 8.0296e-06 0.0020333 -1.2392e-06 0.00092755 5.5467e-05 0.0022778 -4.7578e-06 -1.7883e-05 7.4887e-06 6.2479e-06 -1.473e-05 -7.1883e-05 3.2905e-05 5.726e-06 3.7519e-05 -0.00022133 -0.00031889 0.00049105 6.8699e-06 -1.6472e-05
-6.2986e-06 3.8464e-06 2.421e-05 -7.5538e-06 1.4932e-06 -1.7625e-05 0.28941 -1.3988e-05 -0.00043666 -1.0129e-06 0.17142 -7.7218e-06 4.0508e-06 1.8909e-05 2.2697e-05 0.00036852 -1.5666e-05 -0.00017141 -2.5103e-06 0.0029875 -0.00011335 1.759e-05 2.5319e-05 -4.4001e-05 0.24079 2.5733e-05 -5.8214e-06 -6.4998e-06 -5.3274e-05 -2.7263e-05 2.0176e-06 0.12957 -0.00020183 -5.8623e-05 0.2397 -0.00026718 -0.00019804 -0.00037784 -0.00027681 5.6439e-06 -0.27939 -1.8684e-05 -0.00011066 -0.00029883 -0.00024428 -1.121e-05 -1.8856e-08 0.0011169 0.31942 -1.3506e-05 0.00015433 0.12671 4.7586e-05 0.00014873 0.0001061 -0.00028353 -0.00027167 -0.0010312 -0.0003383 -5.8011e-06
-1.138e-05 3.0189e-06 -4.0473e-06 0.00027121 -5.6505e-07 0.00017912 0.00041098 -9.4017e-07 -6.0645e-05 5.5424e-06 0.00015313 -5.414e-05 -5.154e-07 -7.2023e-06 -8.8532e-07 0.62517 2.8484e-06 -6.7742e-06 -3.0606e-05 4.2276e-06 -1.3762e-06 1.3294e-05 -1.0473e-05 1.7282e-06 0.00012958 -8.7879e-05 6.8227e-08 1.5551e-06 -0.00050201 -2.6933e-05 -9.1644e-06 -0.00078069 0.00094712 -1.5527e-05 0.0017193 -1.7291e-05 -4.5674e-05 1.3341e-06 6.5852e-06 -7.8413e-06 -0.0030453 0.00010381 -1.5344e-05 -0.00074313 4.4944e-05 1.0963e-05 -1.905e-05 0.00031474 -0.00034339 -1.828e-07 0.00016788 0.0016772 -1.9601e-05 1.529e-05 6.7e-07 -0.00014662 -5.458e-05 6.5127e-05 -4.4943e-05 1.8923e-05
1.3787e-05 -2.6745e-06 5.3675e-05 -8.1689e-07 -4.3153e-06 -3.4433e-06 0.00037652 0.00033831 -6.8269e-05 -3.9464e-05 2.447e-05 4.7822e-07 2.7752e-06 8.2167e-06 -5.9929e-05 2.6547e-06 -4.0438e-06 -7.0914e-06 2.1653e-06 0.00013561 4.0111e-05 -1.8708e-05 -3.7564e-06 3.99e-06 0.0011117 -1.1318e-05 -0.00045793 1.7018e-06 -2.1216e-05 -1.618e-05 0.0019754 0.00037198 -3.5026e-05 0.0003155 0.0018333 -0.0001019 -6.4269e-05 -0.00018238 -0.0001741 -1.1984e-05 -0.0032264 0.0021856 -1.3526e-06 7.0478e-05 -2.7207e-05 0.0004086 -5.2307e-06 0.00021954 3.7593e-05 -2.2475e-06 -0.00030193 0.0014198 6.671e-05 4.5159e-05 0.00061351 -0.00021061 -2.7833e-05 -4.7402e-05 -0.00017076 -4.2942e-05
0.19086 -2.9144e-06 2.4416e-05 5.9106e-07 -2.1835e-06 -1.6199e-05 -1.4276e-05 -1.3145e-07 3.4567e-05 6.5179e-05 1.0122e-05 0.00013844 -2.2765e-06 -1.2055e-05 -1.1858e-05 1.415e-05 -9.5362e-06 6.8707e-06 0.0032116 5.6232e-05 -0.00022583 -9.2916e-06 -0.00022354 -1.6979e-05 -2.5211e-05 0.00038894 -6.6162e-06 -2.1449e-06 -1.3591e-05 0.00092757 0.00073159 0.001637 0.0051833 -1.039e-05 0.0012902 1.8382e-07 0.19244 2.5678e-05 1.7776e-05 1.9038e-06 0.00018926 0.0057309 7.0213e-05 0.0019891 -0.00035218 -0.00016549 -6.1594e-06 -7.3584e-06 -4.3071e-05 -5.1263e-05 -9.246e-05 0.0034854 3.6249e-06 4.4182e-06 3.4661e-06 -0.00041485 0.71578 1.2417e-05 -3.6595e-06 1.8021e-05
-5.0236e-06 -7.9788e-07 -3.1592e-06 -6.4319e-07 1.1677e-07 -4.6113e-06 0.14852 0.00065868 -8.8994e-05 -2.2117e-06 0.00012697 -4.6563e-06 3.7858e-06 1.0519e-05 -5.0662e-05 -4.5343e-06 4.4195e-06 2.7974e-07 -7.8874e-06 2.4192e-05 -3.3502e-06 -1.2868e-05 1.3059e-05 -1.1467e-05 0.00075532 -3.7446e-05 1.4378e-05 -5.4025e-07 -2.6683e-05 -7.7996e-06 1.0226e-05 -2.7697e-05 -8.3188e-05 -1.5435e-05 0.0019974 -9.6577e-05 -2.3158e-05 -3.765e-05 -0.00020224 -2.9449e-06 -0.0031288 0.18088 -1.4627e-05 -1.3104e-05 -5.357e-05 -1.5635e-05 -3.4813e-06 0.0002087 2.4002e-05 -1.1704e-05 -1.8806e-05 0.00042749 2.7566e-05 4.3602e-05 5.7995e-06 -0.00030138 -0.00050503 -0.0014336 -0.00020608 -3.4743e-05
-5.7479e-06 1.8802e-06 -2.1646e-05 -1.7306e-06 -2.9405e-06 0.00012639 0.00010438 4.3801e-05 1.6877e-05 -1.0111e-05 0.00014612 -0.00017975 1.9592e-06 1.5336e-06 3.8428e-06 3.61e-05 2.8639e-05 -2.9805e-05 -0.00052369 1.3558e-06 6.1214e-06 -5.236e-06 -7.9626e-05 2.8635e-05 -3.8911e-05 -0.00091588 -1.3507e-05 -6.3272e-06 -8.1369e-07 0.0045077 -4.8194e-05 -5.1217e-05 0.44516 0.001868 -0.00049915 6.0483e-05 -7.1323e-06 0.00010958 0.00019188 -7.1083e-06 0.00020185 -0.00015739 -0.00083167 0.50241 5.7922e-05 3.7541e-05 5.0455e-06 -3.9524e-06 7.1015e-08 -0.00011775 0.00010837 -0.00010889 -3.1298e-05 -1.1062e-05 -3.3557e-08 0.4745 -0.00067886 -0.00072838 0.00028846 2.362e-05
0.13117 2.3878e-05 -2.7633e-06 6.8149e-07 8.0239e-07 3.6858e-05 0.18411 1.6155e-06 1.19e-05 1.3336e-05 -6.1273e-07 -1.6761e-06 2.3808e-06 3.3527e-05 -3.8071e-05 0.48135 -1.8338e-05 3.6068e-06 2.0185e-06 2.0194e-05 1.6976e-05 6.5612e-05 0.00015956 7.1257e-06 0.15294 3.9392e-05 -2.2004e-06 1.2913e-05 0.64376 8.5277e-06 2.2146e-05 0.15915 0.00032474 8.0592e-05 -1.5191e-05 -7.1097e-06 0.13149 0.00014085 3.2795e-06 4.0635e-06 6.7014e-05 -3.7506e-05 -6.0666e-06 -8.0744e-05 0.00011711 2.1401e-05 -3.5117e-07 -9.9857e-05 0.4064 -3.3041e-06 0.00014542 0.16149 1.9275e-05 7.6939e-05 7.1794e-06 -3.1412e-06 1.4677e-05 -0.00116 -6.8186e-05 0.00039588
0.15223 0.23538 -4.3826e-07 2.0205e-07 -5.8967e-07 1.0564e-06 3.2836e-05 1.6467e-05 3.4209e-06 3.4769e-05 0.25348 1.1513e-06 0.48893 0.20817 0.20024 -5.6735e-06 2.6254e-06 0.3235 3.0355e-05 2.0719e-06 5.9843e-06 0.13151 -9.153e-06 0.36244 -3.4066e-05 -4.1059e-05 1.7604e-08 -2.0224e-07 2.9444e-06 -8.5196e-07 1.6911e-06 -2.422e-05 5.3297e-05 -2.996e-06 1.2205e-05 2.3077e-06 0.15292 -3.5776e-06 -1.4108e-05 -5.42e-06 1.0946e-05 1.5684e-05 6.4814e-07 -7.8333e-06 0.24748 -1.4445e-05 -3.3616e-06 4.0403e-06 5.7632e-06 5.8897e-05 2.387e-05 -0.00010672 2.6957e-05 0.48406 2.0808e-06 6.8019e-06 8.1446e-06 8.8748e-05 0.44708 3.7684e-05
1.7761e-05 -6.1692e-06 1.833e-05 4.5526e-06 1.1001e-06 5.7693e-06 0.0010553 -2.9175e-05 0.0012418 -1.1722e-05 -2.9359e-05 4.1156e-06 1.3852e-05 -1.5908e-05 4.8781e-05 0.0011163 9.826e-05 -1.692e-05 -7.1706e-06 -5.6899e-05 0.0008191 -9.2211e-06 0.00016851 2.3033e-06 0.001736 -9.1383e-05 3.4863e-05 3.9721e-06 -0.0002894 -7.8184e-06 0.24106 0.10039 -0.00017507 4.5164e-06 0.012136 -0.00014356 -0.00025026 0.0053783 -0.0001088 0.00016793 3.2166e-05 0.13042 -3.0194e-06 0.0063289 0.00042611 0.0001194 -5.9817e-06 -0.00051576 -6.4124e-05 -1.4274e-06 0.0034742 0.094531 0.00040603 8.2863e-05 -1.8272e-05 -0.0011941 -0.0010373 0.00072106 -8.8739e-05 1.2003e-05
3.7536e-05 -3.5132e-05 3.2509e-07 -6.1397e-08 -1.9023e-06 -2.3179e-05 -2.4093e-05 9.2951e-07 0.00030446 -2.6046e-05 7.8364e-07 -5.5563e-06 8.9187e-05 6.4629e-06 -1.7439e-05 -3.1613e-05 0.00025871 1.958e-06 1.1053e-06 3.4575e-05 0.00041411 -0.00022641 -2.7933e-05 1.7648e-06 8.7538e-05 -5.6151e-06 -5.4084e-09 3.0647e-06 2.181e-06 -1.1106e-06 -1.3011e-06 -2.9654e-06 -1.2707e-06 0.00013351 5.2417e-08 -1.0336e-05 6.6741e-05 -6.5147e-06 -4.1103e-05 0.00067313 -0.00015343 -4.7707e-06 9.0616e-07 3.9169e-06 -0.00011304 0.00024288 -3.6674e-07 -2.3511e-05 0.0042228 0.00010578 2.3736e-05 0.00022549 -0.0020971 1.2279e-05 2.8056e-05 1.7655e-05 9.13e-06 6.7708e-05 -0.0011769 -9.0292e-05
-2.419e-06 -4.8241e-06 0.00011888 0.62338 -3.4922e-06 -7.1521e-06 -8.7613e-06 7.7891e-05 0.0001133 -2.3857e-07 0.00092135 3.3763e-07 -8.9279e-06 -4.0021e-05 -1.1641e-05 -2.4259e-06 -8.901e-06 -0.00014557 1.0206e-05 0.0012621 -2.4973e-07 1.1119e-05 0.00052485 -6.0572e-05 -5.3956e-05 -2.0001e-05 7.4646e-06 -3.786e-06 -1.0729e-05 0.00028231 -2.1379e-05 0.00020961 -2.3394e-05 0.026271 -3.2965e-05 3.1528e-06 0.00064296 -0.00014985 -6.2544e-05 -3.622e-05 3.5376e-05 0.00062583 -3.7284e-05 -3.4904e-05 -0.00062628 -5.1994e-05 -4.6622e-06 -1.2811e-05 -1.3757e-05 -1.1541e-05 -0.00015651 0.0012661 0.00046954 -7.4009e-06 -2.1499e-05 8.2695e-06 0.00015432 -1.7933e-05 5.435e-05 -0.00013546
-8.187e-06 7.4964e-07 -1.2374e-05 -3.1772e-07 4.3709e-05 0.28045 -1.2448e-05 -2.0836e-06 5.6246e-06 1.2272e-05 -1.2368e-05 -5.872e-06 -3.233e-06 8.7734e-06 -7.4662e-05 -5.3402e-05 3.4839e-05 2.4476e-06 3.8475e-06 -2.8971e-05 0.00032494 6.3914e-06 0.00068765 3.061e-06 0.00016882 0.00042866 2.3945e-06 4.4902e-07 -1.2806e-05 -6.0377e-05 3.9686e-05 0.21534 -2.3222e-05 3.1366e-05 7.4073e-05 2.641e-06 0.0013033 0.5803 0.0032606 -3.943e-05 -0.00045206 3.1642e-05 -7.3199e-06 3.8521e-05 -1.5199e-05 0.0016379 1.051e-06 -0.00010708 -5.7213e-05 1.8275e-06 0.58001 0.21954 -0.00017744 8.7558e-05 2.9913e-05 -0.00019945 -5.1809e-05 0.00015023 -2.7678e-05 -0.00025023
-1.3238e-05 -1.5958e-05 3.4906e-05 3.7187e-06 1.0922e-05 -1.6691e-05 0.22823 3.9653e-05 0.37011 7.451e-06 -6.7485e-05 1.5961e-05 3.3232e-05 -6.1661e-05 1.3041e-05 0.00049778 0.00020152 1.0032e-05 -1.4402e-05 -0.00011413 0.0017984 -7.5942e-05 -4.8113e-05 1.0103e-05 0.1913 -0.00032695 0.00010811 0.00013148 -5.4511e-05 0.0003405 5.9301e-05 0.21151 -0.00013292 0.00031134 0.41696 -0.00025684 -0.00038413 -0.0016057 0.00041057 1.7278e-05 0.00060782 0.0020931 0.0054201 0.0046054 -0.00013725 0.00035625 -5.0757e-06 -0.00030625 -3.0774e-05 -3.4218e-07 -0.00016869 0.19622 0.00013012 0.00030999 -3.296e-05 0.00045891 -0.005144 -0.0021482 -0.000304 -3.3199e-05
5.2237e-06 -6.0658e-07 8.2711e-07 -1.6155e-07 2.5213e-06 1.1772e-05 0.42478 -6.2635e-05 0.34263 -2.9251e-06 8.6316e-06 1.4431e-06 -2.937e-06 -5.9844e-06 9.5131e-05 -4.2381e-06 -8.7301e-06 -7.9974e-07 4.4129e-06 4.8426e-05 -4.161e-05 1.7114e-06 3.4094e-06 -0.00015089 0.17536 2.6037e-05 6.5846e-06 4.4271e-06 2.9495e-05 5.0714e-06 -6.1364e-06 -0.00017324 6.7235e-05 -4.2615e-05 -0.00030053 0.47084 0.15099 9.2407e-05 9.248e-05 3.9875e-06 3.4087e-05 -0.00071819 -5.2925e-05 3.2017e-05 0.00012953 2.3241e-05 1.3736e-06 4.4944e-05 7.0223e-05 -9.1982e-05 5.2711e-05 -4.2511e-05 1.1625e-05 -8.5443e-06 -2.0896e-06 0.47963 9.2427e-05 0.71575 6.4736e-05 2.302e-05
1.795e-05 0.00014004 -3.0685e-06 -4.3611e-07 -1.822e-06 -2.5653e-06 4.8591e-05 0.50802 1.3419e-05 -9.5946e-06 2.0385e-06 2.2967e-07 6.4692e-07 -0.00089125 7.2501e-06 6.5606e-05 3.279e-05 -5.5393e-07 -4.2375e-08 -2.9073e-08 7.5511e-05 0.0012871 -1.1027e-05 -8.5742e-06 2.9414e-05 -2.3599e-06 1.1556e-06 2.8952e-06 -3.1001e-05 -1.3614e-05 7.8766e-06 5.329e-05 -1.4885e-06 -3.7761e-05 7.9136e-06 -1.0563e-05 -3.4063e-05 -4.7409e-06 -5.8213e-06 -7.9356e-06 -3.6962e-05 0.0036214 1.6601e-05 0.00030615 1.0398e-05 0.00028661 2.2486e-07 2.1478e-06 -1.1512e-05 -0.00015528 -1.9557e-05 0.00012937 9.656e-05 -1.6893e-06 5.5166e-06 -0.00038352 6.5768e-05 -0.00018473 8.8513e-05 -3.8769e-06
-3.7133e-06 4.3457e-06 7.4339e-06 -2.6213e-06 0.43628 -3.0898e-05 4.7514e-05 3.6245e-06 -2.7516e-05 3.8772e-06 4.8474e-06 -2.1461e-06 2.0887e-06 1.674e-05 0.00010491 -3.5807e-06 6.076e-05 -1.2305e-06 5.6865e-06 5.1109e-06 3.4834e-05 1.0829e-05 0.4203 -1.3234e-06 0.26393 0.00049939 6.0134e-06 2.466e-06 1.1319e-05 -5.8864e-07 2.8309e-06 -3.1223e-05 3.3012e-05 1.4522e-05 -8.6707e-05 -1.0411e-05 0.22711 4.179e-05 0.53608 1.4357e-05 -2.5866e-05 7.6713e-06 -6.4324e-05 -3.482e-05 5.8675e-05 0.00012498 8.5835e-08 6.0965e-05 1.2656e-05 1.6416e-05 1.6213e-05 3.8448e-05 2.6311e-05 1.6134e-06 6.3682e-05 4.1391e-05 -7.2696e-06 0.00024044 -2.2532e-05 0.71882
3.2463e-07 -0.00013818 -4.7584e-06 1.8225e-05 1.2776e-05 -4.4465e-05 1.1658e-06 8.3761e-06 1.0421e-05 5.174e-06 -0.00011701 -2.2162e-05 3.0581e-05 -0.00052861 0.16969 0.0010163 -5.1686e-06 4.6571e-05 -1.5111e-06 -3.4446e-06 -8.6541e-05 -0.00043793 -5.292e-05 -0.00010561 -0.0016365 1.864e-06 -6.7299e-06 1.1774e-05 -7.627e-05 -6.1229e-05 8.3802e-06 0.17181 1.3348e-05 2.2883e-05 -0.00014737 -6.7705e-05 0.13055 -0.00069603 -3.3198e-05 -4.0513e-06 -0.0011684 -9.1503e-05 -6.4196e-06 -7.9217e-06 -0.00013456 -0.0014684 1.4305e-06 -2.6475e-05 -0.0012557 2.4925e-06 -0.00084481 0.17188 7.3274e-05 -0.0020297 7.2297e-06 3.6475e-05 -4.2132e-05 -4.3272e-06 -3.844e-05 -0.0005684
1.5111e-05 5.9628e-07 0.00016349 0.00014913 -9.0524e-06 5.2403e-06 -5.0202e-05 4.1312e-05 1.1546e-05 -2.2592e-06 0.00047775 3.8409e-06 1.4343e-06 -3.5581e-05 0.00013291 6.2367e-06 -5.9919e-05 -0.00012004 -1.1582e-06 0.0010148 1.9505e-05 3.5288e-05 0.00042401 -3.7626e-06 0.00011514 9.9157e-06 -5.5519e-06 1.5864e-05 -2.2128e-05 -0.00031433 7.469e-06 0.18447 3.808e-05 0.040769 -5.5084e-05 3.3266e-06 -0.00010014 -0.00048823 -0.00020791 0.00028038 -8.3938e-05 0.00041542 4.4296e-05 -1.314e-05 0.00072505 0.0019548 -4.5404e-07 1.5021e-05 -1.1203e-06 -2.1241e-05 -0.00034852 0.18308 0.0011244 -4.5792e-05 0.00087121 -4.9033e-05 0.0001633 1.8893e-05 6.3373e-05 -4.2747e-05
0.38535 0.29795 -2.4461e-06 -1.1982e-06 -8.1682e-06 -1.4865e-05 0.00034999 -1.5912e-05 -0.00055981 0.00017318 4.0121e-05 0.00016675 -1.1363e-05 0.26352 0.00011519 -1.6401e-05 -5.025e-05 -6.1861e-05 -8.8978e-05 -1.4254e-05 -0.00017943 0.16647 -3.2891e-05 -9.1671e-05 -4.1314e-05 0.0014049 -8.3311e-06 -3.3703e-06 6.8942e-06 -0.00040521 -1.5331e-05 -0.00012718 0.0017966 -4.8731e-05 0.43987 2.8077e-05 -3.2194e-05 2.4021e-05 -4.9294e-05 1.1097e-05 -0.0026257 0.0015066 -8.6014e-05 -0.00033667 7.125e-05 6.4918e-05 -1.0295e-05 8.8072e-05 2.6044e-05 -9.9629e-05 8.8505e-05 7.6463e-05 1.5864e-05 -2.2731e-05 3.8847e-06 7.5479e-06 0.69663 0.0021675 -2.0169e-06 6.1997e-05
0.15997 -1.4998e-06 1.2398e-05 -2.4351e-06 7.5647e-07 0.25516 3.5031e-06 -1.7065e-05 5.3694e-07 3.1472e-05 4.2868e-05 2.5059e-06 -1.0654e-05 8.3741e-07 0.21067 0.0001409 -1.7349e-05 7.896e-06 2.187e-05 -0.0004686 6.7038e-06 -1.4033e-05 0.00039979 -9.5768e-06 5.3283e-05 -2.0451e-05 -2.7774e-06 -2.917e-08 -5.9427e-05 9.8373e-06 2.5966e-05 0.00011749 3.0861e-06 0.00047067 3.1772e-05 -2.8964e-06 0.00020021 -2.6379e-05 8.658e-05 0.56474 -9.9366e-05 0.00012954 -5.9543e-06 9.3224e-06 0.26076 1.1968e-05 -3.7706e-06 2.3129e-06 1.8966e-05 3.8056e-06 -1.8283e-05 0.0005246 0.70303 -0.0002136 -3.338e-06 2.2175e-05 3.3178e-05 1.4443e-05 1.4085e-05 -7.2583e-06
2.1663e-06 -5.504e-07 6.2048e-05 5.2547e-07 -1.174e-05 -6.8348e-06 1.639e-05 0.00011091 0.0004253 3.0658e-06 -1.096e-05 7.6416e-07 2.1711e-07 -1.4114e-05 -5.7062e-05 -8.3797e-05 3.3864e-06 1.9808e-06 2.1531e-05 -1.9778e-06 5.992e-06 1.2087e-05 5.1212e-05 5.5342e-06 -0.00025027 -1.6405e-05 9.5987e-05 0.57735 -3.631e-06 0.30381 -1.3222e-06 0.16155 -1.9661e-05 0.00026522 0.0010319 -1.3811e-05 -0.00018146 -7.8225e-05 0.00049964 1.416e-08 4.6981e-05 0.00097467 0.57732 -7.3733e-05 9.1563e-05 0.2625 8.1594e-06 -4.316e-06 1.2331e-06 -2.6826e-05 -8.0022e-05 0.16617 3.4919e-05 7.5574e-05 3.0172e-05 0.00080609 -0.00029192 -0.00020307 -9.6047e-06 -2.0803e-06
-1.3238e-05 -1.5958e-05 3.4906e-05 3.7187e-06 1.0922e-05 -1.6691e-05 0.22823 3.9653e-05 0.37011 7.451e-06 -6.7485e-05 1.5961e-05 3.3232e-05 -6.1661e-05 1.3041e-05 0.00049778 0.00020152 1.0032e-05 -1.4402e-05 -0.00011413 0.0017984 -7.5942e-05 -4.8113e-05 1.0103e-05 0.1913 -0.00032695 0.00010811 0.00013148 -5.4511e-05 0.0003405 5.9301e-05 0.21151 -0.00013292 0.00031134 0.41696 -0.00025684 -0.00038413 -0.0016057 0.00041057 1.7278e-05 0.00060782 0.0020931 0.0054201 0.0046054 -0.00013725 0.00035625 -5.0757e-06 -0.00030625 -3.0774e-05 -3.4218e-07 -0.00016869 0.19622 0.00013012 0.00030999 -3.296e-05 0.00045891 -0.005144 -0.0021482 -0.000304 -3.3199e-05
4.7127e-05 6.5125e-05 -1.1869e-06 -3.6611e-08 9.6883e-06 3.1175e-05 0.00026615 9.6635e-05 0.0035153 -6.1018e-05 4.8326e-05 -9.4969e-06 3.0189e-06 -0.0003785 -7.031e-05 -3.2014e-05 0.00028982 9.0912e-06 -2.9217e-06 -7.502e-06 0.0025122 0.0005474 -1.3203e-05 6.5729e-06 0.0001853 -4.7974e-05 -0.00067246 5.8927e-06 3.4834e-05 1.5597e-06 0.22163 0.083626 4.8215e-05 4.653e-05 0.02524 -1.9044e-05 -0.00015589 -6.2057e-05 1.3474e-05 -7.833e-07 -3.8192e-06 0.0016381 -8.4566e-06 0.00012045 1.762e-05 -1.2448e-05 3.9386e-06 -7.8279e-05 7.1999e-07 4.6522e-07 -0.00017453 0.083667 5.2848e-05 5.979e-05 4.7257e-06 -0.00019679 -0.0016245 -0.00085934 -4.6119e-05 0.0001478
0.080216 1.4008e-05 1.5411e-05 -1.623e-06 2.0579e-06 2.0886e-05 0.00014162 0.00022291 0.0017535 3.1225e-05 -2.3707e-06 5.8256e-05 -7.6531e-07 2.9195e-05 4.3893e-06 3.6302e-06 0.0086446 -6.33e-05 -3.6087e-05 2.8906e-06 0.15175 -0.00013356 -0.00022005 3.8494e-06 5.7642e-05 0.00058977 0.00011792 6.7376e-05 -2.3478e-05 0.00043293 2.3979e-05 0.00049706 0.00090227 0.00018264 0.010498 -1.5938e-05 -0.00012458 2.7907e-05 0.00027964 -1.838e-05 -0.0011545 0.2877 0.0025776 -0.00011347 8.233e-05 0.16054 -3.3162e-07 2.933e-05 0.00059804 0.00019281 -0.00010864 0.00025851 3.4836e-05 1.2758e-05 7.7044e-05 0.00022875 0.00032191 -0.00090152 -2.0456e-06 3.3518e-05
5.9051e-22 2.1717e-21 -4.5865e-20 -8.2707e-23 1.6636e-21 1.2921e-22 4.3026e-21 -1.1133e-21 2.1184e-20 8.2123e-22 -1.1939e-21 -2.8791e-22 1.5436e-22 -1.6537e-21 2.7737e-23 5.574e-23 -2.1759e-23 3.9682e-22 -4.4079e-21 1.6756e-21 2.7895e-22 8.8391e-21 2.2895e-21 4.2134e-22 1.2097e-20 -1.624e-20 -3.404e-20 -4.2517e-19 -1.526e-21 4.2313e-17 -1.0141e-20 -6.1113e-21 -1.4729e-20 -1.254e-19 8.2352e-20 2.5928e-21 5.4189e-20 -2.1242e-22 -4.4237e-20 8.696e-22 4.3358e-22 -8.6855e-20 -2.2764e-16 -6.6997e-21 -1.5468e-20 -1.3046e-19 2.3544e-20 2.1251e-22 -2.9321e-21 -5.489e-20 3.4756e-21 4.675e-19 6.4841e-21 4.6629e-21 7.5677e-22 -1.8647e-19 -2.7398e-19 -1.4869e-20 1.9474e-20 -1.011e-18
0.28881 0.44656 -3.542e-07 -7.5267e-07 -1.8443e-06 1.4806e-06 -2.2796e-06 9.6827e-06 1.4607e-06 6.5472e-05 6.6334e-06 -3.1536e-07 -6.6924e-06 0.39492 0.37966 -2.1665e-05 2.1997e-06 -1.9419e-06 9.526e-06 -2.5608e-06 1.2859e-05 0.2495 -4.5417e-06 -9.4942e-05 9.5463e-05 -7.6391e-05 1.105e-07 1.2059e-07 7.0318e-06 -9.0359e-07 7.6411e-06 -0.00021562 3.9478e-05 -6.8877e-06 7.008e-05 5.1886e-06 0.28979 4.261e-05 1.6297e-05 -1.2315e-05 2.6929e-05 3.5439e-05 -1.8077e-06 3.0474e-06 0.00017868 -2.7491e-05 -7.668e-06 1.1324e-05 2.0492e-05 8.1862e-06 6.0125e-05 -0.00031013 1.6629e-05 0.00013734 -1.3327e-06 2.3697e-06 -6.7659e-05 5.9725e-05 1.4614e-06 6.4765e-05
0.28881 0.44656 -3.542e-07 -7.5267e-07 -1.8443e-06 1.4806e-06 -2.2796e-06 9.6827e-06 1.4607e-06 6.5472e-05 6.6334e-06 -3.1536e-07 -6.6924e-06 0.39492 0.37966 -2.1665e-05 2.1997e-06 -1.9419e-06 9.526e-06 -2.5608e-06 1.2859e-05 0.2495 -4.5417e-06 -9.4942e-05 9.5463e-05 -7.6391e-05 1.105e-07 1.2059e-07 7.0318e-06 -9.0359e-07 7.6411e-06 -0.00021562 3.9478e-05 -6.8877e-06 7.008e-05 5.1886e-06 0.28979 4.261e-05 1.6297e-05 -1.2315e-05 2.6929e-05 3.5439e-05 -1.8077e-06 3.0474e-06 0.00017868 -2.7491e-05 -7.668e-06 1.1324e-05 2.0492e-05 8.1862e-06 6.0125e-05 -0.00031013 1.6629e-05 0.00013734 -1.3327e-06 2.3697e-06 -6.7659e-05 5.9725e-05 1.4614e-06 6.4765e-05
0.15997 -1.4998e-06 1.2398e-05 -2.4351e-06 7.5647e-07 0.25516 3.5031e-06 -1.7065e-05 5.3694e-07 3.1472e-05 4.2868e-05 2.5059e-06 -1.0654e-05 8.3741e-07 0.21067 0.0001409 -1.7349e-05 7.896e-06 2.187e-05 -0.0004686 6.7038e-06 -1.4033e-05 0.00039979 -9.5768e-06 5.3283e-05 -2.0451e-05 -2.7774e-06 -2.917e-08 -5.9427e-05 9.8373e-06 2.5966e-05 0.00011749 3.0861e-06 0.00047067 3.1772e-05 -2.8964e-06 0.00020021 -2.6379e-05 8.658e-05 0.56474 -9.9366e-05 0.00012954 -5.9543e-06 9.3224e-06 0.26076 1.1968e-05 -3.7706e-06 2.3129e-06 1.8966e-05 3.8056e-06 -1.8283e-05 0.0005246 0.70303 -0.0002136 -3.338e-06 2.2175e-05 3.3178e-05 1.4443e-05 1.4085e-05 -7.2583e-06
7.6472e-05 -1.1389e-06 5.1213e-05 8.6017e-05 7.8097e-07 5.0477e-06 2.8731e-06 0.23578 6.6801e-05 -1.3938e-05 0.19529 7.6364e-05 -2.5296e-06 2.199e-05 -1.8915e-05 1.4887e-05 -2.3117e-05 -0.00031595 0.001968 0.00073581 -2.8622e-06 -2.4863e-05 1.2723e-05 -1.995e-05 4.6181e-05 0.00035432 5.8384e-06 -9.4199e-06 3.459e-05 0.26868 -9.4867e-06 0.00013217 0.003955 0.36499 -9.0736e-05 1.2038e-05 0.00058961 -7.6332e-05 -3.9776e-05 -0.00013656 7.3029e-05 0.0040312 -0.00096375 0.0014571 -0.00058321 -3.3782e-05 2.4598e-06 -0.00013028 2.6875e-06 -0.00020597 -0.00019319 0.0019555 -0.00029173 1.0613e-05 -8.9156e-06 9.1304e-06 0.017024 -0.00013283 -3.9517e-05 0.0003828
3.5595e-05 5.0265e-05 9.1602e-06 0.00023685 -4.7934e-06 0.22948 0.00012074 -9.4831e-06 -5.3218e-05 7.579e-05 0.24059 0.00017242 -8.4232e-08 6.6274e-05 0.00024511 0.00093042 -3.5846e-05 -0.00010134 2.0349e-07 -3.181e-05 -1.3797e-06 3.127e-05 0.00029248 -1.6297e-05 0.00010266 0.00071819 2.51e-06 1.4087e-05 -0.00024468 -7.26e-05 3.1746e-05 -2.4673e-06 0.40059 -3.2101e-05 0.0018222 2.8945e-07 0.1453 0.00020942 1.3155e-05 0.00027179 -0.37654 0.0017177 2.3175e-05 -0.00083398 0.00089403 9.9544e-05 -8.3363e-06 0.00039949 -2.5437e-05 5.3451e-06 4.762e-05 0.0012592 0.00065793 -0.00015591 -4.8823e-06 -0.00011205 0.00040914 8.8571e-05 -2.0786e-05 7.0463e-05
1.9896e-06 8.0477e-07 -8.6693e-06 -4.2787e-05 1.5686e-06 -8.6335e-06 -3.9774e-05 0.00043331 0.00021021 -1.4686e-07 -0.00028278 -3.9223e-06 3.5695e-06 -1.2822e-05 9.8309e-06 4.8629e-06 0.00020292 2.1033e-05 1.9938e-05 0.34348 0.00031079 1.6799e-05 -2.1885e-05 9.5789e-06 -6.0319e-05 -3.6993e-06 -1.2057e-05 4.7981e-05 -2.7332e-06 0.00027583 -1.2402e-05 -5.0855e-06 3.2045e-05 0.47008 -6.6756e-05 -8.5131e-06 -3.9781e-05 3.2334e-05 6.2709e-05 -0.00015428 -4.7861e-05 -6.581e-05 0.00029895 -0.00053571 6.7935e-05 0.00043802 -4.7356e-06 -1.7006e-05 0.0010701 0.033684 4.2308e-05 0.00068264 0.00012095 -3.9899e-06 -2.989e-05 0.00082662 0.00071127 6.5839e-06 -1.8611e-05 -3.0644e-05
0.2095 3.4075e-05 1.128e-05 -1.5e-06 -3.4736e-06 -9.3994e-06 0.00021234 4.0801e-06 -0.00038455 0.77146 8.0392e-06 0.2113 -6.5809e-06 -6.5172e-05 2.3009e-05 -5.8049e-06 6.4605e-06 -2.3245e-05 0.0017567 1.8312e-05 -9.2155e-05 -2.6534e-05 -0.00015298 1.034e-05 -2.9124e-05 0.27446 -3.1198e-05 -4.5831e-06 -1.6013e-05 0.00063027 0.00020751 -7.8154e-05 0.29566 -2.5285e-05 0.24144 2.1301e-05 0.00061017 0.00021182 0.00026355 -1.2918e-07 -0.0013065 0.0043747 -7.1692e-05 -0.00085565 -0.00025386 0.00012811 -4.0392e-06 3.2115e-05 1.4837e-05 3.3951e-05 0.00023067 1.315e-05 6.4561e-06 -2.743e-05 8.7418e-06 -0.00026428 0.016018 0.0013078 1.8887e-05 0.00018257
3.3881e-05 -2.2765e-05 -9.9073e-06 8.3424e-08 -9.9633e-06 8.517e-06 2.5982e-05 0.00038558 -1.0876e-05 -1.0788e-05 -7.989e-07 0.00010675 -1.6289e-06 6.7554e-05 -5.8361e-06 7.3488e-07 -4.7806e-06 1.1872e-05 0.0026284 5.219e-05 2.1157e-05 -5.791e-05 -0.00017252 -2.7387e-05 -3.8262e-05 0.00045535 1.7216e-05 1.9737e-05 4.5289e-07 0.71199 -1.5713e-05 -3.0026e-05 0.0046772 0.00072184 -9.7976e-05 -9.6941e-06 0.00072997 4.7761e-06 -7.9845e-05 -1.826e-06 0.00011831 0.0079111 0.00031858 -0.00025249 -0.00038421 0.0010383 1.5306e-06 -7.6509e-07 9.3628e-06 0.03597 -4.4475e-06 -6.001e-05 1.1585e-06 -1.3075e-05 8.5885e-06 0.0002356 0.023761 -3.8185e-05 -2.7504e-05 -6.4192e-06
0 0 0 0 0 0 0 0 0 0 0 0 0 0 0 0 0 0 0 0 0 0 0 0 0 0 0 0 0 0 0 0 0 0 0 0 0 0 0 0 0 0 0 0 0 0 0 0 0 0 0 0 0 0 0 0 0 0 0 0
3.9541e-06 8.7181e-07 0.24487 -4.1157e-06 4.6954e-06 1.105e-05 0.00027286 3.5205e-06 -4.5434e-05 -8.6037e-06 0.0001022 -1.3327e-05 3.8009e-06 -2.6972e-05 3.2186e-05 -7.3161e-05 0.0076895 -4.3119e-05 -4.9851e-07 0.36063 0.00043435 2.6675e-05 -0.00056683 5.0984e-06 0.1757 -7.7738e-05 -6.6063e-06 1.457e-05 1.4408e-05 -3.1799e-05 7.0485e-06 0.18397 3.7965e-05 -5.85e-05 0.00090134 -0.00013782 -0.00020916 -3.5369e-05 -0.00010029 -1.5275e-05 -0.0010043 -6.7927e-05 -1.3274e-05 -3.1262e-05 5.1307e-05 0.29636 -2.1036e-07 0.00017483 5.9733e-05 0.00012201 8.6144e-05 0.18358 0.0011518 0.00013794 0.52094 -0.0001319 -0.00010837 -5.1424e-05 -0.00018213 0.0001879
0.10555 -1.6675e-05 -1.455e-06 -6.8321e-07 -1.0023e-06 -1.7547e-05 5.0758e-05 0.00043238 4.6079e-06 -1.4849e-05 3.3614e-06 7.157e-05 1.5633e-06 -7.2306e-05 -2.473e-06 -5.2928e-06 -6.0116e-06 1.703e-06 0.0017926 0.25143 -2.9116e-06 -2.2056e-05 -0.00012448 -9.9225e-06 -9.2693e-05 0.00034093 -2.9827e-06 -2.2032e-06 -9.4726e-06 0.00070442 -8.2613e-06 0.00065717 0.0031942 -6.0376e-05 -5.0997e-06 -5.2191e-05 0.00054174 -4.989e-05 -8.0811e-05 -3.305e-05 0.00013188 0.0033678 -3.3663e-06 -7.0399e-05 -0.00024861 2.0161e-05 -2.6921e-06 -2.1872e-06 2.1115e-05 0.00073416 -9.0054e-05 0.0003912 0.00080877 -1.466e-06 1.8757e-05 0.0018423 0.016117 -0.0001135 -0.00016596 -8.614e-06
-3.9118e-06 -4.6027e-06 -1.5619e-06 4.2227e-06 -3.6382e-06 -2.6294e-05 0.00080116 -1.0941e-05 -1.2201e-05 2.4738e-06 -2.8529e-05 2.1842e-06 2.3349e-05 8.1092e-06 -3.5747e-06 0.00053782 1.8842e-05 5.9065e-06 -8.9359e-07 -9.0406e-05 -1.2008e-05 -2.9341e-05 1.7533e-05 3.5506e-06 0.0032204 -0.00018443 -5.3676e-07 4.0581e-06 -3.8665e-05 6.5326e-06 2.2676e-05 0.014511 -5.0354e-05 9.3426e-06 0.0050318 -5.0985e-05 -0.00034715 -0.001674 -0.00029581 -4.0842e-06 0.00020205 -1.1226e-05 2.0428e-05 0.0037392 -0.00021267 -2.5957e-06 -3.6538e-06 -6.0352e-05 1.077e-05 1.3018e-07 -0.00039018 -0.00077161 4.2708e-05 0.00022468 -3.8028e-05 -0.00021167 -0.00094661 -2.8601e-05 -0.0001207 1.2434e-05
-1.4486e-06 5.6711e-06 0.38547 -2.4047e-06 -8.4042e-07 -1.0142e-05 0.00014123 -4.035e-05 0.00036222 -2.1062e-05 -1.0158e-06 -2.4411e-06 -2.2021e-07 -2.2072e-05 8.5789e-06 -1.5238e-06 3.2007e-06 3.1779e-06 -2.4868e-05 -3.793e-06 2.2661e-06 4.297e-05 7.2267e-06 2.3134e-05 0.0001067 0.00014021 0.70711 9.0641e-05 -9.0621e-06 0.26828 0.38134 5.2496e-05 -5.7954e-05 0.00019442 0.00090542 -4.3592e-06 0.11853 -3.4521e-05 0.28016 1.8158e-06 1.9753e-05 0.40176 0.0038917 0.0001302 4.3527e-06 0.000307 -1.0689e-06 2.5496e-05 -4.6196e-06 -0.0001567 -3.9743e-05 0.0002314 4.9796e-06 5.6261e-06 1.7248e-06 0.37697 -0.0010934 -0.0013679 8.7295e-05 2.771e-05
3.8206e-06 0.041185 -5.2293e-06 6.7622e-07 3.2268e-06 9.1516e-06 6.9903e-05 -3.8939e-05 0.32445 3.0113e-06 -9.5926e-06 2.0872e-07 3.6925e-07 -0.23176 -7.2193e-05 4.3252e-05 0.00017948 -4.2726e-06 7.7975e-06 3.2307e-05 0.00027207 0.4079 -2.3526e-05 -9.3715e-06 -2.8432e-05 1.7584e-05 -1.9053e-06 2.0974e-05 1.0262e-05 -2.5598e-05 7.6474e-06 0.17291 -3.7214e-06 9.1888e-05 5.2347e-05 -6.4425e-07 -0.00019904 0.00012004 2.2506e-05 -2.3014e-05 -3.8904e-05 -0.00015586 -7.6274e-05 7.4362e-05 7.5459e-05 6.5808e-05 1.4692e-06 -3.8406e-06 0.44392 8.6761e-06 0.00014887 0.17569 4.4814e-05 7.5552e-05 4.0197e-05 -7.8378e-06 -5.5944e-05 -0.0002072 -2.48e-05 -2.9646e-05
1.795e-05 0.00014004 -3.0685e-06 -4.3611e-07 -1.822e-06 -2.5653e-06 4.8591e-05 0.50802 1.3419e-05 -9.5946e-06 2.0385e-06 2.2967e-07 6.4692e-07 -0.00089125 7.2501e-06 6.5606e-05 3.279e-05 -5.5393e-07 -4.2375e-08 -2.9073e-08 7.5511e-05 0.0012871 -1.1027e-05 -8.5742e-06 2.9414e-05 -2.3599e-06 1.1556e-06 2.8952e-06 -3.1001e-05 -1.3614e-05 7.8766e-06 5.329e-05 -1.4885e-06 -3.7761e-05 7.9136e-06 -1.0563e-05 -3.4063e-05 -4.7409e-06 -5.8213e-06 -7.9356e-06 -3.6962e-05 0.0036214 1.6601e-05 0.00030615 1.0398e-05 0.00028661 2.2486e-07 2.1478e-06 -1.1512e-05 -0.00015528 -1.9557e-05 0.00012937 9.656e-05 -1.6893e-06 5.5166e-06 -0.00038352 6.5768e-05 -0.00018473 8.8513e-05 -3.8769e-06
-4.8483e-06 6.282e-06 0.15909 -2.4918e-06 -6.7385e-06 -9.1121e-06 -9.4453e-05 2.519e-07 -2.2329e-05 -2.9721e-06 0.0031698 2.3302e-06 -1.7124e-05 -5.5645e-06 -5.5767e-05 -4.7625e-05 -1.3293e-05 3.7432e-05 -1.3701e-05 0.46663 1.1661e-05 1.299e-05 1.5985e-05 -3.2398e-05 0.22821 1.6653e-05 -8.0126e-06 8.9893e-06 -1.3861e-05 -5.1193e-05 7.1819e-06 0.11904 1.2402e-05 -0.00012433 -0.00016757 -5.8828e-06 0.00016193 -0.00014894 -0.00030594 -4.2445e-05 5.7662e-05 -5.5538e-05 -1.6689e-05 -5.8151e-05 -0.00064206 0.19276 -8.019e-07 -7.1292e-06 2.4107e-05 0.00016073 -0.00043351 0.12376 0.0015279 7.0673e-05 0.33621 -0.00010366 3.2481e-05 -5.5153e-05 3.3582e-05 -0.00026057
-5.7517e-07 -6.2552e-06 1.9264e-06 -4.3404e-06 -2.1872e-07 -1.4708e-06 -3.2672e-06 2.1474e-06 -3.8595e-06 -4.0139e-06 -2.2886e-06 0.76786 -2.5746e-08 -2.4021e-07 -7.3293e-06 -2.7167e-05 -5.4662e-06 3.7007e-06 -8.2119e-07 -2.5091e-05 2.0153e-07 5.5051e-06 -4.2916e-06 5.0798e-06 9.0499e-06 3.2166e-05 -7.0862e-07 -1.9522e-07 6.1769e-06 3.0484e-06 -1.7304e-06 -4.0407e-05 9.5328e-05 -1.3404e-06 -0.00023409 -8.9264e-07 -1.3871e-05 0.00025637 1.8756e-05 -4.617e-06 -0.48943 -3.4437e-05 2.6659e-06 5.6714e-05 7.5131e-06 7.1279e-06 1.6681e-08 -5.4509e-05 -1.1292e-05 3.4234e-07 0.00012132 -7.9854e-05 -1.5195e-05 5.2141e-06 -9.574e-06 1.0876e-05 2.2273e-05 2.0734e-05 5.0497e-06 1.5522e-05
-6.4092e-06 -4.3829e-07 0.40169 -3.4024e-06 -5.0453e-07 0.39025 1.4847e-05 -9.7332e-06 -3.023e-06 2.7112e-07 2.4866e-06 -2.3667e-06 -2.9867e-06 6.8795e-06 -9.0978e-06 -8.7545e-06 -1.2986e-06 -4.0063e-07 2.2045e-06 -2.188e-05 4.3968e-06 -1.05e-06 6.114e-06 -1.8336e-05 3.3411e-05 -8.4118e-06 1.5278e-06 4.8933e-07 -2.1432e-07 2.4817e-06 -6.8677e-06 -1.2828e-05 1.6032e-05 -4.8705e-05 -5.1513e-05 -2.417e-06 0.24712 1.0716e-05 3.3451e-05 -3.4068e-05 1.7974e-06 -1.1944e-06 -1.7996e-05 2.2953e-05 -8.429e-05 -1.5013e-05 -9.4886e-07 -1.4314e-05 1.4203e-06 1.8588e-06 1.8619e-05 -7.608e-05 -4.7397e-05 2.0093e-05 -5.1833e-06 1.4416e-05 -8.0897e-05 7.6621e-06 -2.5456e-05 -4.9181e-05
-5.75e-06 -7.6743e-08 -5.0823e-06 -1.2038e-06 1.6328e-06 -6.9714e-06 0.00063001 1.5057e-07 -0.00011171 -2.5459e-08 4.6639e-05 2.9051e-07 2.5086e-06 7.3781e-06 -6.5014e-05 -1.5731e-06 -1.1436e-07 -9.3435e-06 3.4231e-06 1.9129e-05 -1.2249e-06 -4.4989e-06 8.4549e-06 -2.0053e-06 0.001508 -9.5642e-06 1.8433e-06 -7.6305e-08 -2.405e-05 -1.1528e-07 5.6762e-07 -9.3924e-06 -5.037e-05 -1.6073e-06 0.0028142 -0.0001792 2.8549e-05 -3.6839e-05 -0.00029658 -6.6972e-06 -0.0064979 2.4787e-05 -5.4677e-06 -8.6192e-06 -5.4649e-05 -1.5574e-05 -7.722e-06 0.00039464 5.2293e-08 -1.2567e-06 -1.6455e-05 0.00059254 5.1992e-05 6.131e-05 1.337e-05 -0.00018885 -7.9793e-05 -4.6269e-05 -0.00031239 -5.2998e-05
-8.187e-06 7.4964e-07 -1.2374e-05 -3.1772e-07 4.3709e-05 0.28045 -1.2448e-05 -2.0836e-06 5.6246e-06 1.2272e-05 -1.2368e-05 -5.872e-06 -3.233e-06 8.7734e-06 -7.4662e-05 -5.3402e-05 3.4839e-05 2.4476e-06 3.8475e-06 -2.8971e-05 0.00032494 6.3914e-06 0.00068765 3.061e-06 0.00016882 0.00042866 2.3945e-06 4.4902e-07 -1.2806e-05 -6.0377e-05 3.9686e-05 0.21534 -2.3222e-05 3.1366e-05 7.4073e-05 2.641e-06 0.0013033 0.5803 0.0032606 -3.943e-05 -0.00045206 3.1642e-05 -7.3199e-06 3.8521e-05 -1.5199e-05 0.0016379 1.051e-06 -0.00010708 -5.7213e-05 1.8275e-06 0.58001 0.21954 -0.00017744 8.7558e-05 2.9913e-05 -0.00019945 -5.1809e-05 0.00015023 -2.7678e-05 -0.00025023
3.4659e-05 -1.1944e-05 -1.6939e-06 2.3828e-06 -1.9919e-06 -1.0192e-06 0.0005326 -6.7667e-06 -8.1074e-06 2.2629e-06 -2.7165e-05 1.0989e-06 1.2452e-05 -6.0807e-06 -1.3316e-06 0.00032775 0.00054499 6.9915e-06 -2.1538e-06 -5.4179e-05 0.00080189 -2.5925e-05 -9.564e-05 -1.0063e-05 0.0019369 -0.00013993 -4.5098e-06 2.9961e-07 -2.8737e-05 -2.1597e-05 7.0318e-06 0.0087698 -3.7337e-05 5.9661e-06 0.0030979 -4.083e-05 0.00063851 0.0022527 -0.00016851 -4.2563e-06 0.00011491 -1.7207e-05 1.0746e-05 0.0022772 -0.00020095 0.00058594 -1.788e-06 -3.7693e-05 -3.75e-05 3.6246e-07 0.02394 0.0010276 5.6805e-05 0.00012794 4.4042e-06 -0.00016661 -0.00054254 -4.1203e-05 -0.00012096 -8.0135e-05
6.6233e-05 2.4374e-06 1.3308e-06 -1.4603e-06 1.2639e-06 6.3137e-05 3.1523e-05 1.6915e-06 0.00013945 -7.3346e-06 -3.645e-05 -0.00012199 -2.3403e-06 1.4061e-05 4.7724e-05 -3.0861e-05 9.398e-05 2.1782e-05 5.8759e-06 -7.0567e-06 0.00024649 1.25e-05 0.00011518 -9.1433e-06 7.0883e-06 7.2384e-05 6.1311e-07 3.6879e-06 6.0029e-06 -4.0904e-06 9.0977e-05 4.3476e-05 9.6382e-05 0.000111 -0.00023069 -8.8487e-07 0.00057615 0.0083764 0.00017332 -1.5483e-06 -0.51985 -2.5004e-05 -5.121e-06 6.3622e-05 1.4552e-05 0.00046329 -2.9768e-06 -0.7048 0.0005372 5.6032e-06 0.0048729 0.0054283 -2.0811e-05 -0.00012204 9.9761e-06 1.9854e-06 -3.1911e-05 0.00018989 -4.5863e-05 0.00010795
1.2998e-06 4.336e-06 -5.7295e-07 -2.5126e-07 6.5513e-07 2.5168e-06 -3.1203e-06 6.9716e-06 -5.0638e-06 3.6356e-07 0.35949 1.5366e-06 6.1069e-06 2.1581e-05 0.28386 -1.5156e-05 1.9239e-07 -2.2978e-05 4.4484e-05 -7.2095e-06 1.3836e-05 5.5004e-06 -9.7112e-06 1.9134e-05 0.25196 1.6954e-05 -6.2225e-07 -1.8893e-07 1.7496e-05 -2.4791e-06 5.5268e-07 -0.0001719 3.9732e-05 -8.2659e-06 -1.8669e-05 5.5702e-06 0.2168 5.2778e-05 9.3693e-06 -9.3413e-06 6.3721e-07 -6.7655e-06 -1.6307e-06 -3.741e-05 0.35104 3.3435e-05 2.2321e-07 4.4629e-06 2.1666e-05 3.9137e-06 4.7816e-05 -9.7016e-05 3.2025e-05 8.5986e-05 9.9041e-07 -2.5159e-05 1.8334e-05 -3.4219e-05 2.6433e-05 6.0864e-05
-8.3629e-08 4.4884e-06 -1.0046e-06 -1.8023e-07 4.6548e-07 2.7686e-06 -3.7749e-06 7.4065e-06 -2.7569e-06 -3.8659e-08 6.7698e-05 -1.3177e-05 3.505e-06 3.1619e-05 0.3146 -1.8315e-05 -6.8701e-07 2.332e-05 0.75687 -2.2954e-05 1.4664e-05 2.057e-05 6.3625e-09 5.5597e-06 0.27925 3.0034e-05 -2.0607e-06 -2.5774e-07 1.7794e-05 -1.8998e-05 2.3175e-06 -0.00017763 -0.00034273 -1.3954e-05 -6.2016e-06 3.1803e-06 0.24028 5.4045e-05 7.1387e-06 -8.4832e-06 1.7318e-05 -7.8035e-05 1.7568e-05 -7.8225e-05 0.38896 3.1053e-05 4.7606e-09 1.0926e-05 2.9921e-05 5.3681e-06 5.4525e-05 -4.0887e-05 4.0464e-05 9.6006e-05 2.2801e-06 -1.3041e-05 -0.0001121 -2.5977e-05 1.2668e-05 5.8358e-05
-3.492e-06 -6.745e-07 9.9089e-05 0.51842 1.0051e-06 -4.0357e-06 -4.7154e-06 3.1919e-05 6.1683e-05 -1.4694e-06 0.00076906 -5.1881e-07 -2.1573e-06 -4.0362e-05 6.107e-06 -4.1019e-06 3.3842e-06 -0.00012821 -1.1736e-05 0.0010481 2.2422e-06 2.8516e-05 -7.2633e-06 -1.7636e-05 -7.2066e-05 -3.2829e-05 7.9772e-06 -3.2978e-06 -2.8248e-06 0.00024023 -1.6411e-05 0.00017808 -4.2625e-05 0.021751 -0.00012155 4.5922e-06 -7.1319e-05 -0.00010459 -4.4926e-05 -2.8725e-05 4.0631e-05 0.25993 -4.3254e-05 -2.968e-05 -0.00018689 -3.8947e-05 -3.921e-06 -1.1081e-05 -6.8159e-06 -1.3182e-05 -0.0001306 0.0010261 0.00038501 2.1589e-05 -6.2388e-06 -7.0678e-05 -0.00029408 -0.00037964 4.9928e-05 1.9294e-05
3.3694e-06 -2.9024e-06 9.0881e-05 -5.4891e-07 4.5288e-08 3.4443e-05 0.1019 0.1479 0.00029843 -4.4425e-06 0.00010145 -3.4607e-06 1.2287e-05 3.049e-06 -1.9188e-06 -7.1829e-06 1.9202e-05 -1.6684e-05 8.9176e-06 0.00015806 3.4053e-05 -1.9733e-05 4.8029e-06 1.2402e-05 -4.3513e-05 6.3064e-07 4.7651e-05 5.3871e-05 -1.2664e-05 0.00043113 1.9211e-06 0.00045421 -0.00017168 0.0015456 0.00078979 -9.201e-05 5.3778e-05 -4.157e-05 0.00017593 -3.4621e-07 1.4181e-05 0.0020513 0.0023354 0.0020386 -1.0069e-05 0.00022696 -6.8879e-06 2.5278e-06 -4.929e-08 0.017074 -0.00010658 0.00095141 -7.4168e-06 8.5292e-06 1.5719e-05 0.23668 0.00045305 -0.001966 -0.00013799 2.4846e-06
3.6382e-06 -2.4923e-06 5.7665e-07 -4.2335e-07 9.3457e-07 1.6149e-06 7.7196e-05 4.4623e-07 -4.9621e-06 -2.6461e-06 1.4302e-06 -1.5371e-06 -2.2394e-06 2.2244e-06 1.857e-05 2.75e-05 5.929e-07 1.8489e-06 -3.0195e-07 3.4134e-05 -1.9756e-07 -3.9919e-06 5.6639e-07 1.7181e-07 -5.3789e-05 -7.2217e-06 -1.4667e-07 -1.6826e-07 0.4137 1.6115e-06 -7.0563e-07 4.8207e-05 -1.6109e-06 -3.9368e-06 0.00044189 1.2921e-05 -5.7174e-05 4.0125e-06 2.5189e-05 2.0523e-06 -3.5848e-06 7.1682e-06 -6.8572e-07 1.7449e-05 9.183e-06 9.5036e-06 1.963e-06 4.9535e-06 4.6637e-05 -6.8302e-08 2.0971e-06 -7.3774e-05 8.9318e-07 -3.5131e-06 -2.6204e-06 3.2904e-05 -0.00015199 0.00012614 4.4303e-05 -8.8766e-07
0.16589 2.9658e-05 5.1072e-06 2.6262e-06 -9.9955e-07 -0.00010516 -1.8482e-05 -3.3016e-05 -3.8195e-05 -2.5773e-05 -1.1251e-05 1.0834e-06 -3.5397e-06 -1.6167e-05 -7.8738e-05 -6.6605e-05 9.1573e-06 -3.5228e-06 -1.3629e-05 1.657e-06 3.0577e-05 2.8698e-05 -5.2882e-06 1.47e-05 -5.8072e-05 0.00021129 0.00018904 2.056e-06 9.8235e-06 -7.5905e-06 0.5362 0.20178 -2.2736e-05 1.4765e-05 -0.00016298 1.0475e-05 -0.00025263 0.00012886 0.40487 -9.964e-07 5.0113e-05 0.28171 -6.1977e-05 0.00012632 0.0001024 3.5983e-05 4.7808e-08 5.7018e-05 3.5239e-05 7.1187e-06 2.8739e-05 0.20222 5.5421e-05 8.4386e-05 7.8415e-06 -0.00034221 -0.00052357 -0.00014426 6.3355e-05 -1.8442e-05
-5.0065e-06 1.0574e-05 -4.1269e-06 -1.3183e-06 0.19328 0.15924 1.6157e-05 -1.2081e-07 -6.0107e-05 8.9378e-06 -8.1033e-06 9.4658e-06 -1.3289e-06 8.1279e-06 1.3736e-05 -2.8926e-05 0.39619 3.9804e-06 1.5946e-05 -1.6253e-05 0.39205 1.5513e-05 0.18672 -2.7426e-06 0.11703 0.26201 1.2663e-06 3.1176e-06 -4.4466e-06 -6.4259e-05 1.625e-05 0.12233 -5.8064e-05 1.5373e-05 -0.00011703 -4.7001e-06 0.10136 0.32977 0.23992 -1.9223e-05 -0.00026159 2.3158e-06 -2.3369e-05 0.00012559 1.0114e-07 0.20044 7.0253e-07 -5.1601e-05 -2.8145e-05 1.0026e-05 0.3299 0.1248 -0.0001007 4.8481e-05 -5.5585e-05 -0.00010138 -0.00011078 0.00024659 -8.7652e-05 0.00013107
1.2239e-05 -5.8972e-05 3.381e-06 1.0536e-05 9.0135e-07 -4.7125e-05 0.14192 0.00064094 -1.6798e-05 -8.3642e-06 -7.1673e-05 1.8768e-05 2.8863e-05 -0.00021381 0.0020778 0.38178 -1.3984e-05 -1.0208e-05 -1.2902e-05 -5.1787e-05 -6.0136e-05 -0.00017372 0.00025128 -3.5914e-05 0.11905 2.2016e-05 -1.1704e-05 1.1907e-05 -0.00094059 -3.6623e-05 0.00020327 0.13928 -5.5243e-05 0.00011296 0.003807 -0.00012503 0.0013004 -0.0012384 -0.0003047 0.0002158 0.00010729 0.00068898 2.1826e-05 0.33586 0.00050775 -0.00051264 -2.5387e-06 -3.1171e-05 -0.00046423 -3.7164e-06 -0.00066602 0.12944 0.00054814 -0.00056358 -2.7656e-05 -0.000797 -0.0004894 5.0257e-05 -0.0001352 -0.00013908
4.848e-07 -4.0399e-07 -3.2601e-06 -1.0776e-06 1.348e-06 -3.5214e-06 -5.6888e-05 5.1738e-07 5.4158e-06 -1.9491e-07 -1.722e-05 -3.6778e-08 -2.0145e-07 5.1246e-08 1.2765e-05 -3.3696e-05 1.5178e-06 -4.4158e-05 -1.443e-06 0.32864 1.1645e-06 4.5554e-07 -2.4077e-07 1.6359e-06 -0.00017333 -9.9524e-08 8.9629e-07 -7.4399e-07 0.00035934 2.4972e-06 2.2811e-06 -3.6341e-05 -3.199e-06 -0.00020519 -1.5581e-05 4.4749e-06 -1.2434e-05 2.4492e-05 3.3959e-05 -1.3942e-05 4.4994e-05 3.2058e-07 -5.1733e-07 -6.1781e-06 8.0121e-05 2.1723e-05 2.5403e-07 -2.8931e-06 2.3939e-05 0.00010205 2.3154e-06 -3.0487e-05 0.00096248 -4.1571e-06 2.4975e-05 2.9942e-06 -3.34e-06 9.0457e-06 5.963e-06 -8.6737e-07
3.8664e-07 -2.1022e-08 -9.6013e-07 -2.028e-07 1.3934e-08 2.5423e-07 1.9176e-05 0.00060385 1.271e-07 -1.2101e-07 -4.0213e-06 -8.9162e-07 4.9557e-07 -8.8769e-07 -1.2904e-08 2.1946e-07 6.0907e-07 1.435e-06 8.1236e-07 1.6532e-05 1.8503e-07 4.6476e-07 1.4654e-07 4.3196e-07 -2.1593e-08 1.445e-06 -7.3492e-06 -1.714e-06 -1.2871e-06 0.0004861 -9.9864e-06 -1.0759e-06 9.4825e-06 0.00098975 -4.987e-06 8.6907e-06 -1.0562e-05 3.603e-06 9.9518e-06 -2.9931e-07 2.8921e-06 -2.4103e-05 -6.2622e-05 -6.0238e-05 3.9813e-06 -2.5255e-05 3.6817e-08 -4.2577e-07 2.956e-06 0.99864 2.8619e-06 -7.0659e-06 -1.2689e-05 5.0747e-07 4.8831e-08 0.0011343 0.0010131 -9.6419e-05 4.11e-05 1.1602e-06
0.15905 0.24592 -4.2526e-07 2.7003e-07 5.0093e-07 1.1675e-06 3.7307e-05 1.9734e-05 2.1139e-07 3.6425e-05 0.26483 1.1936e-06 0.51083 0.21749 0.20916 -8.9297e-06 2.6262e-06 0.33798 3.2273e-05 8.6178e-06 7.1131e-06 0.1374 -9.9845e-06 0.37871 0.1856 -2.6153e-05 -1.7488e-08 -8.3293e-08 1.0702e-05 -4.9139e-07 -4.4939e-07 -0.00011645 5.5928e-05 -4.7886e-06 3.9836e-06 1.824e-06 0.15972 3.4948e-05 -3.7964e-06 -5.8033e-06 6.4162e-06 -4.1961e-06 -1.9132e-06 -2.8491e-05 0.25853 4.2929e-06 -3.4254e-06 7.0596e-06 1.358e-05 6.1663e-05 2.5043e-05 -6.4019e-05 2.5248e-05 6.268e-05 3.2757e-06 -8.5323e-06 1.6549e-05 5.0992e-05 0.46712 5.9517e-05
2.1663e-06 -5.504e-07 6.2048e-05 5.2547e-07 -1.174e-05 -6.8348e-06 1.639e-05 0.00011091 0.0004253 3.0658e-06 -1.096e-05 7.6416e-07 2.1711e-07 -1.4114e-05 -5.7062e-05 -8.3797e-05 3.3864e-06 1.9808e-06 2.1531e-05 -1.9778e-06 5.992e-06 1.2087e-05 5.1212e-05 5.5342e-06 -0.00025027 -1.6405e-05 9.5987e-05 0.57735 -3.631e-06 0.30381 -1.3222e-06 0.16155 -1.9661e-05 0.00026522 0.0010319 -1.3811e-05 -0.00018146 -7.8225e-05 0.00049964 1.416e-08 4.6981e-05 0.00097467 0.57732 -7.3733e-05 9.1563e-05 0.2625 8.1594e-06 -4.316e-06 1.2331e-06 -2.6826e-05 -8.0022e-05 0.16617 3.4919e-05 7.5574e-05 3.0172e-05 0.00080609 -0.00029192 -0.00020307 -9.6047e-06 -2.0803e-06
0.16417 0.25384 -4.4965e-07 2.786e-07 4.9732e-07 1.3943e-06 0.0001001 7.0371e-06 5.75e-06 3.6944e-05 0.27336 8.4103e-07 9.2543e-06 0.2245 0.21591 -9.0762e-06 1.7111e-06 0.34887 3.3394e-05 1.5597e-06 7.2731e-06 0.14183 -9.766e-06 0.3908 0.19156 -2.6926e-05 -5.1619e-07 -3.5405e-07 1.0851e-05 -1.0557e-06 -1.9573e-07 -0.00012123 5.6243e-05 -4.6246e-06 1.4541e-05 0.51367 0.16487 3.7607e-05 1.2875e-05 -6.3908e-06 8.1217e-06 1.4754e-06 8.4024e-08 -2.6018e-05 0.26685 4.7241e-06 -3.4794e-06 7.7347e-06 1.1739e-05 5.097e-05 2.6707e-05 -6.584e-05 2.3492e-05 6.5069e-05 2.8468e-06 -5.1065e-05 9.9151e-06 -0.0010731 -1.9628e-05 5.7242e-05
5.8248e-07 1.1769e-06 -4.9688e-05 -4.899e-05 -1.524e-05 -1.8894e-05 2.9944e-06 2.2233e-05 -1.7878e-05 -2.0589e-08 -0.00013827 2.9702e-08 1.5585e-06 -5.1303e-06 -4.5677e-06 4.4061e-06 -3.4235e-05 2.7023e-05 -2.1229e-06 -0.00037867 -1.5546e-06 -1.5843e-06 6.9535e-05 8.1006e-06 5.2193e-05 2.2312e-05 -6.5113e-06 9.3751e-08 -5.2652e-06 -0.00042478 4.0387e-06 7.7292e-05 8.0405e-05 0.62669 -5.0053e-05 1.5864e-06 -2.9071e-06 2.0623e-05 -0.00018092 -0.00020169 9.0476e-07 -6.1207e-05 3.8607e-05 -0.00058786 1.5247e-05 0.40498 4.0658e-06 -1.2546e-05 -9.6188e-06 -0.00017452 -1.9584e-05 0.00022998 -0.001142 6.8031e-07 0.00014754 -0.00011927 4.036e-05 5.5165e-05 -6.6527e-07 -1.1975e-05
-1.4888e-06 -8.4149e-06 2.599e-06 -1.2314e-06 0.23475 -8.8729e-06 2.9071e-05 1.2478e-06 -7.7018e-05 2.386e-06 2.2848e-07 1.5871e-05 9.2695e-07 -6.6585e-05 7.7717e-05 1.2062e-06 0.48126 2.9485e-06 1.5964e-05 2.926e-06 0.4758 -2.9159e-05 0.22634 6.2586e-07 0.14205 0.31766 5.7893e-07 1.0325e-06 6.2127e-07 -1.7379e-05 -6.4606e-06 7.3911e-05 -7.2075e-05 -2.7111e-06 -0.00019115 -3.8627e-06 0.12222 0.00028924 0.28888 3.9551e-06 -3.798e-06 -1.2504e-05 -2.1994e-05 0.00011728 8.0362e-06 0.24045 8.1752e-08 1.3007e-05 1.5177e-06 1.0634e-05 0.00026858 0.00018283 1.8348e-06 -2.6886e-06 -8.9197e-05 2.2831e-05 -8.7582e-05 0.00019521 -7.9055e-06 0.38706
0.17188 -2.4501e-05 -2.9034e-08 -3.4831e-07 8.043e-07 -6.8773e-05 1.6818e-05 3.4291e-06 1.7045e-05 1.4446e-05 3.7488e-06 -4.8944e-07 7.8956e-05 4.2177e-06 4.5937e-05 4.3302e-05 5.6965e-07 4.8717e-06 2.2063e-06 -3.2196e-05 -1.0155e-06 -0.00018719 9.0091e-06 2.5929e-06 0.2005 1.1193e-05 2.0897e-08 2.6341e-07 9.5605e-06 9.1981e-07 -1.3401e-06 -2.6678e-05 2.8061e-06 -0.00020204 2.7762e-06 -1.2851e-05 0.1726 3.4225e-05 -2.1004e-05 0.60176 -4.1552e-06 -2.7235e-05 -7.1032e-07 -2.0366e-05 -7.8561e-05 -1.6293e-05 -4.2787e-06 9.7351e-06 0.53507 8.311e-05 2.8962e-05 0.00022725 -0.0012418 2.7091e-05 1.6958e-08 -9.5713e-06 -1.6944e-05 5.6033e-05 -0.0010341 -1.0987e-05
0.13213 0.20438 -8.9874e-07 -2.5514e-06 0.25469 3.9899e-05 9.4037e-06 1.502e-06 1.1211e-05 3.7096e-06 -1.4995e-06 -0.00018073 -1.046e-06 0.18127 -3.1696e-05 3.303e-05 -0.00032083 -6.0442e-05 -8.9409e-05 -3.6211e-06 0.00024921 0.11441 0.24596 -6.3917e-05 4.3006e-05 0.37368 -5.0332e-06 -1.4023e-06 3.9603e-05 -9.6493e-05 1.3e-05 3.9896e-05 0.37621 3.9546e-05 -0.00031279 -4.61e-05 6.5606e-05 -0.00033598 -0.0013086 5.7714e-06 0.00012909 -0.00010319 3.0447e-05 -0.0021485 0.00031763 0.26323 -3.5155e-06 -0.00018228 -1.5135e-06 6.3925e-06 -0.00018945 0.0015479 -2.0476e-05 4.7201e-05 5.0046e-05 2.259e-05 -0.0012352 3.5498e-05 -0.00021304 0.0089454
0.13213 0.20435 -1.8999e-06 -2.3876e-06 0.25467 3.2108e-05 1.0334e-05 1.4558e-06 1.1081e-05 3.702e-06 1.7259e-07 -0.00018038 -7.0825e-07 0.1812 -2.1357e-05 3.2499e-05 -0.0003398 -6.0658e-05 -9.0226e-05 -7.0613e-07 -1.9105e-05 0.11436 0.24594 -5.7334e-05 4.4783e-05 0.37332 -4.2823e-06 -4.0546e-06 3.6554e-05 -7.5841e-05 1.4272e-05 3.5997e-05 0.37619 3.9815e-05 -0.0003105 -4.2121e-05 4.7656e-05 -0.00038148 -0.0016586 5.8907e-06 0.00013143 -9.6128e-05 3.1908e-05 -0.0021579 0.00031484 0.26115 -3.5662e-06 -0.00018029 -5.5871e-06 6.0824e-06 -0.00065868 0.0015547 -1.855e-05 4.5912e-05 4.8919e-05 3.1714e-05 -0.001223 3.4701e-05 -0.00012681 0.42846
1.2998e-06 4.336e-06 -5.7295e-07 -2.5126e-07 6.5513e-07 2.5168e-06 -3.1203e-06 6.9716e-06 -5.0638e-06 3.6356e-07 0.35949 1.5366e-06 6.1069e-06 2.1581e-05 0.28386 -1.5156e-05 1.9239e-07 -2.2978e-05 4.4484e-05 -7.2095e-06 1.3836e-05 5.5004e-06 -9.7112e-06 1.9134e-05 0.25196 1.6954e-05 -6.2225e-07 -1.8893e-07 1.7496e-05 -2.4791e-06 5.5268e-07 -0.0001719 3.9732e-05 -8.2659e-06 -1.8669e-05 5.5702e-06 0.2168 5.2778e-05 9.3693e-06 -9.3413e-06 6.3721e-07 -6.7655e-06 -1.6307e-06 -3.741e-05 0.35104 3.3435e-05 2.2321e-07 4.4629e-06 2.1666e-05 3.9137e-06 4.7816e-05 -9.7016e-05 3.2025e-05 8.5986e-05 9.9041e-07 -2.5159e-05 1.8334e-05 -3.4219e-05 2.6433e-05 6.0864e-05
0.1621 0.25064 -4.7722e-07 2.1502e-07 -6.4739e-07 1.3117e-06 9.5777e-05 4.3703e-06 9.1046e-06 3.6375e-05 0.26992 8.3982e-07 7.5654e-06 0.22166 0.21323 -5.9018e-06 1.8085e-06 0.34447 3.2402e-05 -5.037e-06 6.3039e-06 0.14003 -9.2128e-06 0.38582 -4.8761e-05 -4.3651e-05 -4.731e-07 -4.8004e-07 2.9422e-06 -1.4487e-06 2.0655e-06 -2.6803e-05 5.5283e-05 -2.8759e-06 2.3293e-05 0.50718 0.16283 -2.2958e-06 1.559e-06 -6.1667e-06 1.3136e-05 2.2434e-05 2.723e-06 -4.993e-06 0.26351 -1.5092e-05 -3.5239e-06 4.7442e-06 3.8872e-06 5.0195e-05 2.6263e-05 -0.0001134 2.6167e-05 0.51544 1.6881e-06 -3.4481e-05 1.5956e-06 -0.001017 -3.9555e-05 3.5986e-05
0.20893 1.3414e-05 -2.0544e-06 2.2557e-07 -4.7223e-05 2.4219e-06 -2.2e-05 6.4473e-06 -2.6779e-05 4.6938e-05 -1.742e-05 5.3236e-07 2.4868e-06 2.5282e-05 1.7267e-05 -7.623e-07 1.1729e-06 -4.2119e-07 2.874e-07 -4.0025e-05 1.0077e-05 2.6431e-05 -4.3261e-08 9.8137e-06 0.24897 2.4063e-05 -3.5995e-07 3.5457e-07 -7.2872e-05 8.3431e-06 -3.7702e-06 -0.00048608 1.7761e-05 8.1347e-06 -2.5264e-05 -2.4986e-06 -5.9913e-05 -0.00020247 -0.000142 -3.92e-05 -1.8616e-05 -4.0646e-05 -4.5054e-06 -3.2954e-05 -0.00010608 -6.4553e-05 -4.6456e-06 9.0266e-06 -5.9476e-05 1.012e-06 1.0845e-05 -0.00014705 -4.6457e-07 0.00019282 1.1725e-05 -0.00011814 2.8751e-05 -4.3778e-05 -3.6929e-05 -0.00012059
3.2463e-07 -0.00013818 -4.7584e-06 1.8225e-05 1.2776e-05 -4.4465e-05 1.1658e-06 8.3761e-06 1.0421e-05 5.174e-06 -0.00011701 -2.2162e-05 3.0581e-05 -0.00052861 0.16969 0.0010163 -5.1686e-06 4.6571e-05 -1.5111e-06 -3.4446e-06 -8.6541e-05 -0.00043793 -5.292e-05 -0.00010561 -0.0016365 1.864e-06 -6.7299e-06 1.1774e-05 -7.627e-05 -6.1229e-05 8.3802e-06 0.17181 1.3348e-05 2.2883e-05 -0.00014737 -6.7705e-05 0.13055 -0.00069603 -3.3198e-05 -4.0513e-06 -0.0011684 -9.1503e-05 -6.4196e-06 -7.9217e-06 -0.00013456 -0.0014684 1.4305e-06 -2.6475e-05 -0.0012557 2.4925e-06 -0.00084481 0.17188 7.3274e-05 -0.0020297 7.2297e-06 3.6475e-05 -4.2132e-05 -4.3272e-06 -3.844e-05 -0.0005684
-4.3614e-06 7.7442e-06 -1.2237e-05 0.58535 -1.3879e-05 0.00020678 3.293e-05 0.35099 0.0010962 -7.5946e-07 -4.5335e-05 -2.7682e-05 7.2125e-05 0.00019156 -0.00023922 0.0004945 1.1473e-05 1.6379e-06 -4.2756e-05 -2.5499e-05 1.128e-05 -0.00011029 -1.8899e-05 -2.2902e-06 0.20384 -0.00011073 -1.4265e-05 -3.8352e-07 -0.00018357 -8.3551e-05 -3.7845e-05 0.20989 0.00048934 -0.00010433 -0.00052577 0.0001807 1.0911e-05 0.0001132 -0.000157 -5.5945e-06 -0.0024005 0.3002 -1.2067e-05 -0.00031613 -6.5665e-05 -0.00014887 8.6447e-06 0.00015104 -8.9364e-05 -0.00010614 0.00013798 0.21311 4.1907e-05 0.00031135 1.1404e-05 0.0054579 -0.00051507 0.034681 0.0013747 -0.00010527
0.16827 -6.2804e-05 1.6309e-05 -5.3686e-07 -1.3327e-06 0.2704 0.00014204 0.17117 -0.00030952 -1.6918e-05 -2.6323e-05 -5.9414e-05 -4.8799e-07 -0.00024413 8.8142e-06 3.6255e-06 -5.8153e-05 -1.5215e-05 0.2706 -1.9116e-05 -7.5238e-05 -0.00015917 0.00011445 2.3209e-05 1.5967e-05 6.3943e-05 -9.5382e-06 3.4532e-05 2.0968e-05 0.0001466 -1.8312e-05 -4.0859e-05 -0.00071567 -3.7411e-06 0.19791 5.1496e-06 1.441e-05 -4.4277e-05 -0.00025458 -0.00026846 8.7186e-05 -0.00016783 0.00011569 -0.00014165 -0.0001175 0.00020823 -3.2523e-06 -0.00013301 0.00023025 -4.7372e-05 2.5523e-05 0.0014211 -0.00059744 5.0507e-06 5.5204e-06 -4.2722e-05 -0.00029916 0.0011507 -1.4458e-05 0.0002382
-6.6245e-07 -1.2e-05 0.00013363 0.00010111 2.4827e-06 0.0015507 -6.2466e-05 5.2451e-05 -1.2954e-05 -7.4891e-06 0.00044155 -7.5247e-07 -7.321e-06 -5.9475e-05 0.00029447 -2.9247e-05 8.2505e-05 -4.8045e-05 -6.694e-06 0.33056 1.9965e-05 -2.4769e-05 2.009e-06 -7.1633e-06 0.00018041 -2.6927e-06 -1.2695e-05 1.2333e-06 -1.4072e-06 -7.5697e-06 -2.1223e-05 0.00079007 3.805e-05 0.43456 0.00043501 1.881e-05 -9.774e-05 -0.00032412 -0.00015014 0.0043461 5.8705e-05 0.0012212 -1.4452e-05 0.00014703 7.0742e-05 0.0002914 -2.436e-06 -4.1302e-06 2.4522e-05 -2.8883e-05 -0.0004255 0.0011652 0.090689 -5.4198e-05 0.00074341 -0.00014492 0.00014487 6.1419e-05 0.00013155 5.653e-06
0.14207 -7.3988e-06 4.5112e-05 -2.0916e-07 -8.5136e-06 -4.2883e-06 0.00071632 -2.1453e-05 -6.997e-06 2.6657e-07 -6.6641e-06 -8.0309e-08 7.1985e-05 5.0597e-05 2.3486e-06 -1.3282e-06 1.8044e-06 -7.9367e-06 -8.3742e-07 -1.266e-05 1.3581e-05 -6.4312e-05 3.3766e-06 -1.3435e-05 -2.9296e-05 4.1564e-06 2.187e-05 -9.9787e-07 -1.57e-05 0.00043497 8.288e-06 4.08e-06 2.1836e-05 -3.2284e-06 0.00038159 -0.00017448 -2.2226e-05 1.3154e-07 -0.00018954 -1.6774e-05 -4.7394e-05 0.0027759 -8.7287e-05 -1.3149e-05 8.6415e-06 0.00096457 0.0054233 3.733e-06 -1.0464e-05 0.00038941 6.3669e-06 -3.7075e-06 -7.987e-06 5.8823e-06 9.6488e-06 -0.00049577 0.00057634 -3.1319e-05 -0.0012084 -5.7209e-06
-1.4888e-06 -8.4149e-06 2.599e-06 -1.2314e-06 0.23475 -8.8729e-06 2.9071e-05 1.2478e-06 -7.7018e-05 2.386e-06 2.2848e-07 1.5871e-05 9.2695e-07 -6.6585e-05 7.7717e-05 1.2062e-06 0.48126 2.9485e-06 1.5964e-05 2.926e-06 0.4758 -2.9159e-05 0.22634 6.2586e-07 0.14205 0.31766 5.7893e-07 1.0325e-06 6.2127e-07 -1.7379e-05 -6.4606e-06 7.3911e-05 -7.2075e-05 -2.7111e-06 -0.00019115 -3.8627e-06 0.12222 0.00028924 0.28888 3.9551e-06 -3.798e-06 -1.2504e-05 -2.1994e-05 0.00011728 8.0362e-06 0.24045 8.1752e-08 1.3007e-05 1.5177e-06 1.0634e-05 0.00026858 0.00018283 1.8348e-06 -2.6886e-06 -8.9197e-05 2.2831e-05 -8.7582e-05 0.00019521 -7.9055e-06 0.38706
6.6233e-05 2.4374e-06 1.3308e-06 -1.4603e-06 1.2639e-06 6.3137e-05 3.1523e-05 1.6915e-06 0.00013945 -7.3346e-06 -3.645e-05 -0.00012199 -2.3403e-06 1.4061e-05 4.7724e-05 -3.0861e-05 9.398e-05 2.1782e-05 5.8759e-06 -7.0567e-06 0.00024649 1.25e-05 0.00011518 -9.1433e-06 7.0883e-06 7.2384e-05 6.1311e-07 3.6879e-06 6.0029e-06 -4.0904e-06 9.0977e-05 4.3476e-05 9.6382e-05 0.000111 -0.00023069 -8.8487e-07 0.00057615 0.0083764 0.00017332 -1.5483e-06 -0.51985 -2.5004e-05 -5.121e-06 6.3622e-05 1.4552e-05 0.00046329 -2.9768e-06 -0.7048 0.0005372 5.6032e-06 0.0048729 0.0054283 -2.0811e-05 -0.00012204 9.9761e-06 1.9854e-06 -3.1911e-05 0.00018989 -4.5863e-05 0.00010795
7.037e-07 -4.5686e-06 0.37618 5.3533e-05 5.2412e-07 1.5955e-05 4.3708e-05 0.15652 0.00032153 -4.2634e-06 0.00032206 -2.8279e-06 1.8835e-07 -2.9059e-06 -2.6951e-06 -5.0115e-06 -7.8442e-07 -5.159e-05 1.5113e-05 0.00056833 -1.8263e-06 -1.6696e-05 4.1483e-06 -6.8453e-06 1.5158e-05 -6.7529e-06 5.1926e-05 9.0728e-05 -1.8917e-06 0.00036115 -2.8136e-05 0.00013071 -8.3835e-05 0.24766 0.0007155 -9.4523e-06 7.152e-05 -5.5203e-05 0.00029363 -9.1212e-05 -8.4884e-06 0.00079997 0.0026562 0.0008734 -0.00010379 0.00040148 -7.9466e-06 -3.6461e-05 -6.3082e-06 -7.6872e-05 -7.1959e-05 0.001007 -0.00024125 1.2709e-05 -5.1707e-06 0.001875 5.194e-05 -0.00034164 7.7645e-05 -5.4965e-06
1.4876e-05 -6.0413e-06 0.24756 -3.9223e-06 4.5343e-06 -7.8785e-07 8.4002e-05 -3.6769e-06 -3.5553e-05 -8.4721e-06 -5.4595e-06 1.458e-06 -1.9743e-06 -2.2338e-05 0.00021582 0.00014517 -0.00012246 -3.3658e-05 4.2582e-07 9.1699e-06 -2.5206e-06 -2.8333e-06 0.28315 -3.8664e-05 -2.4937e-05 -2.3075e-05 1.0658e-06 2.5616e-07 -6.0431e-05 2.5145e-05 4.959e-05 -3.0746e-05 -3.8219e-07 2.6118e-05 0.00077029 -2.6683e-06 0.15282 -2.2784e-05 1.7677e-05 0.00033187 -0.00013063 0.00010765 -1.5568e-05 0.00011551 0.00068994 -0.00029157 1.403e-05 -2.5283e-06 -0.00011367 8.1483e-07 -3.2754e-05 0.00015321 0.00073785 -0.00014287 2.0636e-05 -3.113e-05 -0.00015844 -5.2445e-05 -4.1578e-05 -0.00014422
3.3269e-06 -4.3677e-06 -3.1922e-07 -9.125e-07 5.6537e-06 8.2119e-06 0.00021087 -7.3564e-06 0.0026394 -1.7487e-07 -9.2229e-06 -2.8833e-06 8.4443e-07 -8.8468e-06 -1.0843e-05 -8.7937e-06 0.00021593 1.965e-06 -3.0617e-06 -4.4523e-06 0.0019039 -3.1636e-05 -7.2102e-05 7.5249e-06 9.3941e-05 -4.0551e-05 -2.2907e-05 6.2128e-07 -2.7511e-06 1.2543e-06 4.0525e-05 0.00076193 -7.0484e-05 5.2275e-06 0.018203 -1.3718e-05 -3.5203e-05 -4.5706e-05 -1.2858e-09 1.3446e-06 9.6367e-05 0.0016384 7.8325e-05 2.4824e-05 -5.3827e-07 7.2663e-05 3.0372e-06 -7.3435e-06 -8.7179e-06 7.9568e-07 -0.00012868 -6.5092e-05 5.861e-06 9.4528e-06 3.3111e-06 -0.00023192 -0.0010816 -0.00064907 -1.3965e-05 -4.1371e-05
0.15223 0.23538 -4.3826e-07 2.0205e-07 -5.8967e-07 1.0564e-06 3.2836e-05 1.6467e-05 3.4209e-06 3.4769e-05 0.25348 1.1513e-06 0.48893 0.20817 0.20024 -5.6735e-06 2.6254e-06 0.3235 3.0355e-05 2.0719e-06 5.9843e-06 0.13151 -9.153e-06 0.36244 -3.4066e-05 -4.1059e-05 1.7604e-08 -2.0224e-07 2.9444e-06 -8.5196e-07 1.6911e-06 -2.422e-05 5.3297e-05 -2.996e-06 1.2205e-05 2.3077e-06 0.15292 -3.5776e-06 -1.4108e-05 -5.42e-06 1.0946e-05 1.5684e-05 6.4814e-07 -7.8333e-06 0.24748 -1.4445e-05 -3.3616e-06 4.0403e-06 5.7632e-06 5.8897e-05 2.387e-05 -0.00010672 2.6957e-05 0.48406 2.0808e-06 6.8019e-06 8.1446e-06 8.8748e-05 0.44708 3.7684e-05
5.2988e-07 -2.8054e-06 -1.8098e-06 0.00016971 5.4655e-06 0.00011095 0.00014325 0.00062351 0.0017595 2.5962e-07 -5.008e-06 -1.6135e-05 3.5778e-07 -2.4017e-06 7.8211e-06 0.00041956 0.00014615 3.8352e-06 -1.9301e-05 1.8738e-05 0.0012715 -2.3141e-05 -5.5133e-05 4.0269e-06 0.00011619 -5.5629e-05 -1.4477e-05 -3.4959e-07 0.00018973 -1.2226e-05 2.6129e-05 0.00050616 0.0002888 -2.7e-06 0.012284 -1.065e-05 -3.223e-05 -2.8049e-05 1.6904e-06 1.4937e-06 -0.0013982 0.00099753 2.1858e-05 -4.3618e-05 -5.4561e-06 1.1619e-05 1.8659e-06 7.8111e-05 -6.9869e-06 -3.5636e-06 -0.00010563 0.00048663 1.3245e-06 4.2701e-06 -1.436e-07 -0.0001614 -0.00079354 -0.00038954 -1.327e-05 -1.5438e-05
-7.6473e-07 2.3209e-06 1.7301e-06 1.0003e-06 2.0684e-06 4.9209e-06 2.147e-05 3.875e-05 0.28194 1.4383e-06 0.00016946 3.8864e-06 -2.2161e-06 -1.0537e-05 -5.4667e-05 -6.0934e-05 5.3779e-07 -3.6913e-05 4.7308e-06 -5.6383e-06 -2.3384e-05 2.6311e-05 4.8172e-06 2.1795e-06 -0.00017908 1.4021e-05 1.734e-06 1.6087e-05 9.1035e-06 0.00016862 4.6096e-06 0.15006 4.4518e-06 0.00037179 -0.00033457 2.3855e-06 -0.00021242 4.9619e-05 1.1888e-05 3.2942e-06 3.5939e-05 2.7716e-05 -0.00010355 6.0083e-05 5.8302e-05 -9.1588e-05 1.449e-06 1.0808e-05 -2.2396e-05 2.1184e-06 0.0001282 0.15343 2.9756e-05 7.2602e-05 7.9993e-06 4.8484e-05 0.00012902 -0.00033041 1.9978e-06 2.5438e-05
0.15905 0.24592 -4.2526e-07 2.7003e-07 5.0093e-07 1.1675e-06 3.7307e-05 1.9734e-05 2.1139e-07 3.6425e-05 0.26483 1.1936e-06 0.51083 0.21749 0.20916 -8.9297e-06 2.6262e-06 0.33798 3.2273e-05 8.6178e-06 7.1131e-06 0.1374 -9.9845e-06 0.37871 0.1856 -2.6153e-05 -1.7488e-08 -8.3293e-08 1.0702e-05 -4.9139e-07 -4.4939e-07 -0.00011645 5.5928e-05 -4.7886e-06 3.9836e-06 1.824e-06 0.15972 3.4948e-05 -3.7964e-06 -5.8033e-06 6.4162e-06 -4.1961e-06 -1.9132e-06 -2.8491e-05 0.25853 4.2929e-06 -3.4254e-06 7.0596e-06 1.358e-05 6.1663e-05 2.5043e-05 -6.4019e-05 2.5248e-05 6.268e-05 3.2757e-06 -8.5323e-06 1.6549e-05 5.0992e-05 0.46712 5.9517e-05
1.0607e-06 8.7296e-06 2.4407e-06 -1.7229e-06 -2.5478e-06 -1.5189e-05 -8.21e-05 -3.6739e-07 -1.5066e-06 1.2661e-06 0.35623 1.0535e-06 -1.8124e-05 1.459e-05 0.00013142 -1.2588e-06 3.6835e-06 0.45079 -1.2615e-05 0.5037 2.2107e-06 1.4677e-06 -5.0499e-06 -1.4359e-05 0.24749 1.8164e-05 -3.0279e-06 1.7316e-06 3.7879e-05 -2.5343e-05 1.7101e-06 0.00022872 4.8758e-05 -3.5744e-05 -0.00014837 -1.1249e-05 0.21305 -3.0785e-05 3.6152e-06 -3.5853e-05 3.577e-05 -3.6825e-05 -9.69e-06 -4.8397e-05 -0.00047355 9.8663e-05 -2.4971e-07 -8.2547e-06 3.9942e-05 0.00018431 -0.00026562 0.0035053 0.0016535 -2.3153e-05 9.5435e-05 -5.924e-05 -3.8018e-05 -4.7455e-05 7.5237e-05 -0.00019056
1.6716e-05 2.0022e-06 0.41628 -3.5574e-06 5.6696e-07 -1.1606e-06 0.089611 -1.2802e-06 6.085e-07 -1.9994e-05 -1.9816e-06 1.1491e-07 3.4634e-06 -1.0074e-05 -2.1021e-07 -8.6963e-06 4.5313e-06 -2.684e-07 -9.0675e-07 1.1268e-05 1.4558e-05 -5.6843e-06 -2.8215e-06 -5.1952e-07 -0.00016664 7.1906e-07 1.029e-05 1.8321e-07 -3.4763e-06 1.841e-06 -8.4763e-06 0.00087637 5.1037e-07 -2.2688e-05 -3.7212e-05 -5.5248e-05 -3.2943e-05 -0.00014341 -6.9729e-05 -5.8853e-06 -1.2639e-06 -1.0613e-05 -1.691e-05 6.7593e-07 1.9766e-05 -3.9378e-05 0.99999 5.9027e-06 3.9962e-05 6.7086e-06 -0.00010892 0.0034176 -2.1589e-05 7.9451e-06 -4.3839e-06 -1.5279e-05 9.4981e-06 -0.00062894 -0.00011853 4.0689e-05
4.4512e-06 6.1045e-06 -4.1937e-06 1.8959e-07 -1.1635e-05 2.3805e-05 0.39639 0.00055736 0.32065 -3.4405e-06 -2.3537e-05 -9.5867e-07 -0.001112 0.0001343 -0.00013999 -0.00017141 -6.4224e-06 -4.6698e-06 4.5864e-06 4.0001e-05 -5.1335e-05 -7.1842e-05 5.2375e-06 3.4709e-05 0.16587 -2.1434e-05 -1.2139e-05 4.2179e-06 -3.2422e-05 -4.4748e-05 -3.9829e-05 0.00041997 5.2883e-05 -4.3625e-05 -0.00060856 0.000311 0.14106 1.3693e-05 -0.00010445 -4.1027e-06 3.5907e-05 0.0053369 -4.9914e-05 -9.1601e-05 -2.9354e-05 -8.3166e-05 6.8884e-06 4.0764e-05 -2.0844e-05 -7.7118e-05 -5.6838e-05 0.0014426 2.9486e-05 0.00018783 4.5809e-07 0.45225 6.489e-05 0.69745 0.40475 -9.1145e-05
-5.0065e-06 1.0574e-05 -4.1269e-06 -1.3183e-06 0.19328 0.15924 1.6157e-05 -1.2081e-07 -6.0107e-05 8.9378e-06 -8.1033e-06 9.4658e-06 -1.3289e-06 8.1279e-06 1.3736e-05 -2.8926e-05 0.39619 3.9804e-06 1.5946e-05 -1.6253e-05 0.39205 1.5513e-05 0.18672 -2.7426e-06 0.11703 0.26201 1.2663e-06 3.1176e-06 -4.4466e-06 -6.4259e-05 1.625e-05 0.12233 -5.8064e-05 1.5373e-05 -0.00011703 -4.7001e-06 0.10136 0.32977 0.23992 -1.9223e-05 -0.00026159 2.3158e-06 -2.3369e-05 0.00012559 1.0114e-07 0.20044 7.0253e-07 -5.1601e-05 -2.8145e-05 1.0026e-05 0.3299 0.1248 -0.0001007 4.8481e-05 -5.5585e-05 -0.00010138 -0.00011078 0.00024659 -8.7652e-05 0.00013107
2.3216e-05 -3.0394e-06 0.28302 -6.937e-07 2.8187e-07 4.5844e-06 1.0263e-05 -1.2974e-05 2.9427e-06 0.63628 -5.1017e-06 5.5956e-06 2.5036e-07 -2.9479e-05 -7.9966e-05 1.7576e-05 2.7343e-06 -5.9609e-07 -8.7611e-06 -1.11e-06 -0.00018238 2.0631e-08 -1.6785e-05 5.4325e-06 -0.00011531 0.0002388 6.3236e-05 1.7992e-05 2.5045e-05 -3.3893e-05 0.56073 0.21175 0.00013362 0.00017688 -0.00032785 7.8383e-06 -0.00012881 0.00018081 7.7653e-05 -1.0649e-06 1.443e-05 4.4051e-05 9.1058e-06 0.57112 7.0279e-05 -0.0001814 2.2693e-06 2.7292e-05 -1.718e-05 3.2975e-06 0.00022048 0.21462 3.8085e-05 8.3774e-05 1.4482e-05 -3.4775e-05 0.00095195 0.00059692 1.281e-05 -2.3325e-05
-8.2292e-06 -4.4215e-06 -1.6049e-07 3.06e-06 -3.8869e-06 3.3108e-05 0.0007259 -8.0371e-06 -0.00013065 6.3284e-06 6.7597e-05 -2.3823e-05 1.5822e-05 -1.9519e-06 -2.4486e-05 0.00058593 -2.1855e-06 4.6906e-06 -2.0285e-06 -7.201e-05 1.8551e-05 -2.4168e-05 1.3017e-05 -2.6001e-06 0.0026193 -0.00015188 6.5662e-06 4.9892e-06 -0.00014513 -1.2618e-05 9.875e-05 0.011039 0.00023417 -2.4321e-08 0.0077279 -3.3867e-05 -0.00021393 0.0085268 -1.2563e-05 7.9128e-06 -0.0005416 2.8353e-05 1.1108e-06 0.003004 -0.00018389 0.00030575 -9.1901e-06 -0.00064473 -4.0962e-06 2.9887e-07 0.0057674 0.0017037 3.0486e-05 0.00018039 -2.2217e-05 -0.0002637 -0.0010779 6.3426e-05 -7.5896e-05 1.5012e-05
-7.4841e-07 -3.2674e-07 2.9191e-06 -2.6057e-06 0.44082 -6.2895e-06 -5.7586e-06 -2.4883e-07 -1.2596e-05 -6.5627e-07 -4.1308e-07 -2.0655e-06 3.086e-07 -1.3746e-06 -6.1427e-06 -6.3783e-07 1.6246e-05 3.7974e-06 3.5012e-06 1.8484e-05 1.9523e-05 1.7253e-07 0.42469 1.6673e-06 2.7154e-05 7.3555e-06 3.4658e-07 -9.7866e-07 1.2637e-09 5.4048e-06 -5.2216e-07 2.6334e-05 1.9969e-05 -5.2934e-06 -1.8667e-06 -1.9359e-08 1.1743e-05 3.6347e-06 3.1566e-06 6.0611e-06 4.9167e-06 6.1901e-06 5.4846e-07 -7.6278e-06 -2.995e-05 8.6525e-05 2.0986e-07 5.4711e-07 -2.2193e-06 -3.3385e-07 1.8181e-05 2.8713e-06 6.1893e-07 3.8506e-06 0.78458 5.0133e-06 1.8291e-05 -8.0812e-06 -2.125e-06 -1.0005e-05
0.32788 1.6764e-05 -1.312e-06 1.6712e-06 -1.0636e-06 0.52026 -2.12e-05 -8.7575e-06 6.5864e-06 8.6849e-05 -2.015e-05 2.4225e-06 -1.463e-07 2.8569e-05 -0.00015362 -0.00012534 7.7919e-06 -2.511e-06 1.4472e-06 -6.1269e-05 5.5891e-05 2.6819e-05 -1.3091e-05 1.3762e-05 -4.6699e-05 1.9201e-05 2.8316e-08 2.0704e-06 1.4209e-05 -8.3717e-06 1.0432e-05 0.39792 -6.9298e-06 6.489e-06 -6.0144e-05 -6.7494e-07 -0.00040269 0.00033064 0.00014283 -5.095e-05 0.0001011 -1.8124e-05 -6.7561e-06 -5.6431e-05 0.00017575 -6.6688e-05 -4.7876e-06 1.5439e-05 5.8543e-05 3.2807e-06 0.00056131 0.39992 3.5103e-06 0.00018057 1.3609e-05 -2.6664e-05 4.0165e-05 4.2652e-05 -2.168e-06 -2.7854e-05
-5.1715e-08 -1.4995e-06 -4.9696e-09 5.5136e-08 -1.7789e-07 3.5013e-07 4.5008e-05 -1.6473e-06 -2.486e-06 -1.6757e-12 -1.1828e-08 -4.1829e-08 8.2818e-07 1.3282e-05 -5.972e-08 2.5097e-07 -1.4034e-07 8.6646e-08 -5.8213e-08 2.4554e-08 7.308e-09 -1.776e-05 8.3917e-07 8.485e-08 -9.0956e-07 1.9646e-07 1.4645e-06 3.0569e-08 -3.5615e-06 -5.213e-07 4.1473e-07 -1.4089e-06 2.7141e-08 -8.0059e-08 -8.7516e-06 -3.6267e-06 -2.7283e-06 1.6126e-06 -6.8673e-06 -1.9782e-08 -3.7374e-06 0.00021191 2.2523e-07 -9.2036e-07 2.0299e-06 1.3814e-07 -1.5938e-08 8.1462e-07 -2.2414e-06 -3.6206e-08 1.4653e-06 -3.9144e-07 8.2721e-08 9.813e-07 -4.7182e-09 -2.8995e-05 -4.7444e-06 -2.5969e-05 -1.8984e-06 5.4756e-07
2.1663e-06 -5.504e-07 6.2048e-05 5.2547e-07 -1.174e-05 -6.8348e-06 1.639e-05 0.00011091 0.0004253 3.0658e-06 -1.096e-05 7.6416e-07 2.1711e-07 -1.4114e-05 -5.7062e-05 -8.3797e-05 3.3864e-06 1.9808e-06 2.1531e-05 -1.9778e-06 5.992e-06 1.2087e-05 5.1212e-05 5.5342e-06 -0.00025027 -1.6405e-05 9.5987e-05 0.57735 -3.631e-06 0.30381 -1.3222e-06 0.16155 -1.9661e-05 0.00026522 0.0010319 -1.3811e-05 -0.00018146 -7.8225e-05 0.00049964 1.416e-08 4.6981e-05 0.00097467 0.57732 -7.3733e-05 9.1563e-05 0.2625 8.1594e-06 -4.316e-06 1.2331e-06 -2.6826e-05 -8.0022e-05 0.16617 3.4919e-05 7.5574e-05 3.0172e-05 0.00080609 -0.00029192 -0.00020307 -9.6047e-06 -2.0803e-06
-1.4486e-06 5.6711e-06 0.38547 -2.4047e-06 -8.4042e-07 -1.0142e-05 0.00014123 -4.035e-05 0.00036222 -2.1062e-05 -1.0158e-06 -2.4411e-06 -2.2021e-07 -2.2072e-05 8.5789e-06 -1.5238e-06 3.2007e-06 3.1779e-06 -2.4868e-05 -3.793e-06 2.2661e-06 4.297e-05 7.2267e-06 2.3134e-05 0.0001067 0.00014021 0.70711 9.0641e-05 -9.0621e-06 0.26828 0.38134 5.2496e-05 -5.7954e-05 0.00019442 0.00090542 -4.3592e-06 0.11853 -3.4521e-05 0.28016 1.8158e-06 1.9753e-05 0.40176 0.0038917 0.0001302 4.3527e-06 0.000307 -1.0689e-06 2.5496e-05 -4.6196e-06 -0.0001567 -3.9743e-05 0.0002314 4.9796e-06 5.6261e-06 1.7248e-06 0.37697 -0.0010934 -0.0013679 8.7295e-05 2.771e-05
0.1621 0.25064 -4.7722e-07 2.1502e-07 -6.4739e-07 1.3117e-06 9.5777e-05 4.3703e-06 9.1046e-06 3.6375e-05 0.26992 8.3982e-07 7.5654e-06 0.22166 0.21323 -5.9018e-06 1.8085e-06 0.34447 3.2402e-05 -5.037e-06 6.3039e-06 0.14003 -9.2128e-06 0.38582 -4.8761e-05 -4.3651e-05 -4.731e-07 -4.8004e-07 2.9422e-06 -1.4487e-06 2.0655e-06 -2.6803e-05 5.5283e-05 -2.8759e-06 2.3293e-05 0.50718 0.16283 -2.2958e-06 1.559e-06 -6.1667e-06 1.3136e-05 2.2434e-05 2.723e-06 -4.993e-06 0.26351 -1.5092e-05 -3.5239e-06 4.7442e-06 3.8872e-06 5.0195e-05 2.6263e-05 -0.0001134 2.6167e-05 0.51544 1.6881e-06 -3.4481e-05 1.5956e-06 -0.001017 -3.9555e-05 3.5986e-05
0.098432 1.4785e-05 1.9036e-05 -9.3007e-07 -1.0628e-05 2.0474e-05 4.3226e-05 0.00029531 0.00047369 4.831e-05 6.2474e-06 0.00014026 -4.5816e-06 4.7296e-05 1.142e-06 8.9717e-06 0.0008016 -5.4064e-05 0.0016216 3.9799e-05 0.0017145 -0.0001007 -0.00031373 -1.2063e-05 -2.0497e-06 0.0010492 0.00013841 7.7644e-05 -2.8858e-05 0.0011862 -1.5852e-06 0.00011937 0.0041279 0.00022479 0.0011422 -7.28e-06 0.00044788 4.2285e-05 0.00034622 -1.7503e-05 -0.0013891 0.35214 0.0031231 -0.00019676 -0.00017236 0.19618 -2.0275e-06 4.0129e-05 0.00072511 0.00024194 -6.7667e-05 0.0003241 5.2119e-05 -6.1627e-07 8.3641e-05 3.2936e-05 0.015419 -0.0007118 -4.7881e-06 2.0506e-05
0.085903 5.9205e-05 7.4319e-06 5.1692e-08 3.885e-07 0.1372 0.00010337 0.0001183 0.0015941 6.2954e-06 -1.7359e-05 -3.7576e-06 -6.7628e-06 -0.00054574 0.00011841 -7.7482e-05 0.17553 5.7631e-06 -6.0217e-06 0.00016735 0.17018 0.00070134 -0.00070241 -2.1284e-06 1.6371e-05 -7.256e-07 -1.2556e-05 8.7282e-06 -4.8095e-07 -1.8389e-05 2.6818e-05 0.20933 -1.8181e-05 0.0011143 0.010206 -5.694e-06 -0.0002836 9.9793e-05 5.1624e-05 0.0029169 4.5699e-05 0.00075942 -9.8036e-07 -3.0071e-05 0.00023988 0.00023204 4.2287e-07 -8.2781e-06 0.00066421 2.6682e-06 -2.6462e-05 0.20975 0.056674 4.4156e-05 0.0035848 -9.4165e-05 -0.00054302 -0.00030487 6.4063e-05 -0.00015685
1.2794e-05 3.3454e-05 1.5835e-05 -2.1804e-06 1.2093e-06 7.502e-05 0.26167 9.0719e-07 -0.00016906 -6.3742e-06 7.2322e-05 -4.82e-06 3.0594e-06 -0.00010169 -3.3414e-05 -1.3317e-05 7.8443e-05 -3.0428e-05 0.00034501 0.002768 1.3548e-05 0.00028313 -5.0066e-06 -1.1651e-05 0.0011167 9.5823e-05 -1.4e-05 -2.909e-06 -1.1715e-05 -4.7086e-05 -1.0272e-05 0.1143 -1.4202e-05 0.00029799 0.42656 -0.00016454 -0.00017742 -0.00011212 -0.00023154 -1.2919e-05 -0.0030687 -0.00025765 -0.00018531 -0.00025007 2.6539e-05 4.6394e-05 -3.7073e-06 0.00024676 0.29027 -5.137e-06 6.4272e-05 0.11742 6.5368e-05 0.00011133 0.00011942 -0.00020723 0.00041859 0.00013827 -0.00031011 1.4555e-05
3.4866e-06 -1.361e-05 6.2888e-08 -1.2886e-06 1.0914e-05 9.3326e-06 -4.5604e-06 1.7507e-05 2.293e-05 3.0548e-06 1.536e-05 0.37605 -5.2578e-06 -8.9333e-05 7.1869e-06 -2.9395e-06 9.0147e-05 2.0182e-05 0.59489 4.9354e-05 1.4139e-05 -8.7675e-06 -0.00021965 -1.495e-05 3.7943e-05 0.48775 4.4528e-07 -4.581e-06 -2.2379e-05 0.0011629 -1.0419e-05 4.3418e-05 0.52037 -7.3515e-06 0.00011207 2.11e-06 0.0010245 0.00042739 0.00069088 4.183e-06 -3.7713e-05 0.0058215 5.6875e-05 -0.00058862 -0.0004604 5.0796e-05 7.9442e-09 9.5566e-06 3.9257e-06 5.4483e-05 0.00036505 -1.3624e-06 1.4282e-05 -1.7182e-05 9.9375e-06 -0.00027576 0.025965 -6.1199e-06 -8.3692e-06 0.00033656
-1.1836e-05 -1.5428e-06 6.3726e-06 3.3741e-06 -5.4371e-06 1.513e-05 0.25053 -7.431e-06 -4.6917e-05 4.7079e-06 0.0015506 -4.6433e-05 1.7642e-06 9.7138e-06 1.9631e-06 0.00075202 3.1028e-05 3.5056e-05 -7.2577e-06 -3.0959e-05 1.1146e-05 -2.9888e-05 2.4163e-05 -4.0012e-05 0.0016953 -0.00016949 1.8321e-06 6.8052e-06 -0.00018535 -3.2894e-05 3.2786e-05 0.22787 0.00041571 1.578e-05 0.0049161 -4.6822e-05 6.956e-05 -0.0011606 -0.0001614 -8.2293e-06 -0.0015724 -5.5698e-05 -1.3191e-05 0.0020509 -0.00023127 -0.00017368 -1.016e-05 0.00015257 3.2974e-05 -7.8373e-06 -0.00032928 0.22334 7.5237e-05 0.00011151 1.1692e-05 -0.00028534 -0.00062365 -0.0018696 -9.7209e-05 -0.00019293
