7.9166e-06 4.3085e-09 -3.6364e-06 0.00013376 2.4958e-06 1.8837e-05 -8.2361e-07 -4.7102e-06 -1.1854e-06 -1.3362e-05 3.2468e-07 -9.7228e-06 6.7071e-06 7.928e-06 7.7138e-08 7.9366e-06 9.6851e-05 -1.4817e-07 0.00016519 0.00018864 1.0229e-06 -1.1883e-05 -1.2493e-05 -5.7576e-05 3.0949e-06 -4.0239e-06 -5.8721e-05 -7.8491e-07 8.0663e-06 -1.3814e-06 -0.00039253 5.8031e-06 2.7795e-06 -9.1912e-07 -1.3169e-06 -5.7818e-05 -1.1091e-05 -5.3346e-05 1.1459e-06 0.00011243 2.7487e-07 1.1053e-07 -3.2296e-05 -0.00012494 -1.3981e-07 -7.1631e-05 0.001363 -2.967e-05 3.2517e-06 -1.5424e-06 -0.00011637 -0.00024434 1.0443e-05 0.00081601 -2.3022e-06 -0.00044542 -0.00012318 -7.922e-06 -1.3101e-05 -5.898e-05
-3.9416e-06 7.982e-06 -2.2948e-05 0.00013597 9.1482e-06 0.18162 -6.3129e-07 1.9923e-06 -2.6091e-06 -5.4267e-05 5.0684e-05 5.544e-06 8.9122e-06 2.0119e-05 1.1255e-07 3.7741e-06 0.24964 4.9237e-05 0.17072 0.20984 -7.6295e-07 0.00012094 -0.00014093 -6.9634e-05 -1.7294e-05 2.081e-05 -0.00012589 1.3275e-05 0.010493 0.00026435 -0.075279 -9.6957e-05 0.00034491 4.7761e-06 4.8362e-08 -0.00033847 -8.3818e-05 -4.673e-06 2.0007e-06 -4.1591e-05 -3.9107e-06 3.8195e-06 0.0012532 -0.071058 -1.1179e-05 -0.00019089 0.22113 -8.6473e-05 -6.9617e-06 -0.00012765 -0.00022728 -0.0008698 4.8547e-05 0.0001287 0.00015102 -0.00074835 -0.00029652 0.0026701 -8.8156e-05 -7.2688e-05
5.93e-06 3.7427e-05 0.00019477 0.31638 -3.7083e-05 -0.00010306 1.1843e-05 2.0529e-05 -2.0115e-05 4.325e-05 9.5408e-06 2.1477e-05 0.00011114 1.0699e-05 -2.8495e-06 9.5809e-06 -4.2577e-06 0.00016591 1.7641e-05 0.00074685 7.1925e-06 -5.5867e-05 2.0708e-05 -2.609e-05 1.0873e-05 0.00021247 -6.5592e-05 -6.8988e-06 -5.7924e-05 5.6915e-06 0.00035668 -8.3373e-05 2.2936e-05 -0.00025425 7.5201e-06 -0.00014689 0.0017079 -8.2903e-05 -8.8236e-05 0.33157 -6.2876e-06 -6.5748e-06 -5.2535e-05 -0.00016031 5.3951e-06 -5.6412e-06 0.00012668 0.0019301 -2.1615e-06 -8.3021e-05 7.9427e-06 0.00015878 -5.4295e-05 0.24167 -4.583e-05 0.00010238 4.7154e-05 -7.2058e-05 0.031386 -6.2417e-06
1.16e-06 2.0832e-06 2.09e-05 -5.8717e-07 -6.7986e-06 1.8346e-05 3.2595e-07 -7.6252e-06 -3.4339e-05 7.1185e-06 1.6424e-05 9.8244e-06 5.0835e-06 2.1509e-06 -7.3105e-07 5.4861e-07 -1.9074e-05 2.7379e-05 -2.7028e-05 -6.9493e-05 -1.4337e-07 0.00014765 1.3634e-06 1.0909e-06 -9.3876e-09 -6.5255e-06 2.0964e-05 0.0017167 0.32089 -1.2304e-05 -1.0659e-05 6.4713e-05 4.9552e-05 6.2788e-06 2.4828e-06 6.9931e-06 1.8791e-05 1.0556e-06 9.3261e-07 -3.4874e-05 4.3197e-06 1.5032e-06 4.0002e-05 0.00031997 -9.6676e-06 -0.0001286 0.00054681 -0.00011024 -4.0793e-05 -2.093e-05 -4.993e-05 8.4433e-05 -1.296e-05 0.0013731 7.419e-06 5.7475e-05 -6.5156e-06 0.49223 -7.647e-05 -7.6009e-05
2.0692e-05 8.149e-06 2.3101e-06 0.0001259 3.2802e-07 -0.00071609 2.2147e-06 1.2635e-06 -3.4117e-06 -1.3952e-05 -2.715e-05 2.312e-05 5.1244e-05 -5.4257e-06 6.1682e-07 2.8116e-06 0.00011027 -6.1894e-06 -0.00013608 0.00085088 -1.0004e-05 -1.517e-05 -1.6251e-05 -4.5735e-05 6.8864e-06 -4.6408e-05 0.00089081 -5.843e-06 0.00093043 -3.5665e-06 0.00094483 1.2008e-05 -4.8613e-05 4.2803e-06 -4.5607e-07 -5.6074e-05 0.00085001 -4.1632e-05 6.1996e-05 -5.9837e-05 -1.3491e-06 -4.6605e-06 -6.771e-05 0.00075311 -1.0401e-05 -0.00032213 0.0032575 0.00021314 2.4861e-06 0.00051248 0.00015458 -0.00019202 -1.3691e-05 0.24084 2.5407e-06 -0.00056105 -0.00024136 8.5694e-05 -5.3269e-05 -0.00012837
1.7311e-06 -5.2088e-08 1.0243e-05 1.3921e-06 9.8969e-05 2.9843e-05 -8.6458e-07 -2.3317e-06 -8.4742e-06 -2.6565e-05 8.6223e-06 -3.3477e-05 -4.1425e-05 -1.0468e-06 -1.7035e-07 -6.2475e-06 -4.7415e-07 2.1525e-06 8.8048e-06 -5.927e-05 -2.4777e-06 -3.5891e-05 -2.2215e-06 -4.5823e-05 3.7902e-06 -2.3044e-05 3.0238e-06 2.8615e-05 7.5652e-05 8.0021e-05 -8.2522e-05 1.1305e-05 1.9735e-05 -1.3691e-06 2.4857e-06 -8.4552e-05 -2.8306e-05 -7.7028e-05 -1.8281e-05 0.33512 8.7082e-06 6.6013e-06 -0.00015644 0.00026095 -6.9098e-06 0.00066772 0.00057394 -4.6673e-05 2.2903e-05 -5.3658e-05 2.894e-05 9.0012e-05 3.8281e-06 0.24533 3.1898e-06 3.8097e-05 1.379e-06 0.0015273 -0.00049479 0.00037468
0.28871 8.4277e-05 0.00010013 -3.4636e-05 3.7956e-06 0.0018094 -6.8865e-06 2.8766e-05 1.1414e-05 -2.188e-05 -2.2769e-05 3.8618e-05 1.7947e-05 -4.7646e-05 -4.0956e-07 -5.1774e-06 0.001436 1.0349e-08 -0.0020614 0.10836 -5.0982e-06 -0.00019972 5.8483e-05 0.35476 3.7786e-05 -0.00025433 0.30177 -5.4471e-05 0.32677 7.9674e-06 0.080963 0.31666 -0.00028834 1.8371e-05 1.7162e-07 0.0051292 0.00030259 9.8506e-06 0.0017014 -0.00017762 7.6723e-06 -2.3341e-05 -0.00012097 0.058395 -7.896e-06 -0.00018506 0.097235 -0.00036315 6.4153e-06 0.0011188 6.4909e-05 0.0066961 0.0039889 0.24065 0.00040317 0.00043151 0.00093297 0.00030401 -0.00014498 -0.00023378
0.28871 0.174 -7.3106e-07 1.409e-06 1.6887e-06 0.18117 -9.6573e-07 7.8694e-07 3.5005e-06 2.786e-06 4.5602e-06 1.0928e-06 8.8551e-06 -1.0463e-05 1.7083e-06 -1.5594e-07 2.6948e-05 8.2717e-07 0.16997 0.20811 4.99e-06 1.0196e-05 -6.408e-06 3.3254e-05 4.845e-06 6.0037e-06 0.0001963 -6.226e-07 -2.029e-05 1.0779e-05 -0.073167 2.9816e-05 2.3895e-06 -7.9319e-06 9.233e-06 -1.0268e-06 8.4066e-07 6.5221e-06 1.6739e-05 -5.1164e-06 1.7139e-06 2.4252e-06 4.9031e-05 -0.069347 -7.6852e-06 3.3998e-06 0.2179 -6.0271e-06 -2.8663e-06 -7.6375e-06 1.3148e-05 -0.00016826 -1.148e-05 -3.6319e-05 -2.1808e-05 1.264e-05 2.4864e-05 -9.918e-06 2.6861e-07 5.3822e-05
-8.4395e-05 -1.9321e-06 1.1991e-06 -7.1416e-06 9.4948e-07 1.1614e-05 -3.3035e-06 5.8858e-06 1.3822e-07 5.4261e-06 -1.4177e-05 5.6507e-06 1.4094e-06 -1.5911e-07 1.2204e-06 9.1903e-07 -1.1468e-05 2.5784e-06 -1.9472e-05 6.3381e-05 -9.8403e-07 2.5646e-05 4.1244e-05 8.0797e-05 -2.6573e-06 6.4259e-07 0.29998 9.4308e-07 3.6582e-05 1.7942e-07 -4.7387e-05 -2.6466e-05 -1.788e-07 6.6345e-07 -1.3981e-06 1.0946e-05 1.271e-05 0.37715 8.1098e-06 4.0528e-06 6.9178e-06 1.7282e-07 -2.1714e-07 -3.0893e-05 4.7411e-07 9.0964e-07 -6.1618e-06 4.6795e-08 1.7564e-06 3.6362e-06 -2.0177e-06 -2.4351e-05 4.6112e-05 -1.9201e-06 2.0212e-05 -2.2598e-06 -0.00011555 -6.231e-06 2.2185e-06 -2.8835e-05
4.407e-06 1.6246e-06 -1.1914e-05 1.2824e-05 0.35348 1.2602e-06 -4.2089e-06 -5.6905e-05 1.8344e-06 2.5724e-06 6.3906e-06 -4.1487e-06 7.1568e-08 1.2277e-06 3.7976e-07 2.4731e-06 8.7191e-06 4.9038e-07 5.1997e-07 -3.8711e-06 2.6899e-07 1.5738e-07 -4.0501e-06 2.1152e-06 -2.9683e-06 -5.3991e-06 -4.588e-06 6.7008e-08 1.4179e-05 -4.113e-06 -1.3355e-07 1.1593e-05 -8.0261e-06 2.3532e-05 -5.2846e-07 0.0064327 1.2025e-05 3.7729e-06 -6.881e-05 0.00012181 -3.9294e-07 -4.5463e-08 6.7232e-05 2.6998e-06 1.377e-06 -3.5153e-06 6.2494e-06 0.00032042 1.0281e-06 -1.4358e-06 1.0124e-05 7.0671e-06 -3.543e-06 -8.7729e-07 0.00010483 -1.8199e-05 8.6566e-05 -1.4336e-05 -8.4363e-06 6.2294e-07
3.8949e-06 0.17406 -6.7614e-06 0.31605 -1.8201e-05 0.00034765 1.0843e-06 0.19629 5.0883e-06 0.18247 0.18577 0.18235 6.2112e-05 4.6603e-06 2.9412e-06 -2.9375e-05 -1.7707e-05 1.1038e-06 0.00025961 0.00033273 3.3525e-05 0.22794 3.4379e-05 -0.0001253 -1.9439e-05 -4.275e-05 -7.8153e-05 -1.9609e-05 -0.0001145 1.5676e-05 -0.00043503 1.7992e-05 -1.8804e-05 -7.0504e-05 1.6118e-07 4.3236e-05 -1.1532e-05 -8.2972e-05 -2.0983e-05 -0.00016956 -6.7195e-05 9.8085e-06 -0.00011512 -0.00011047 -2.0156e-05 -2.0279e-05 0.00073175 3.4323e-06 2.6041e-05 1.3871e-05 2.6676e-05 0.00013817 2.3334e-07 0.24785 1.7637e-05 0.00061876 6.5702e-05 8.1339e-05 0.3947 -0.00015706
0.28863 0.17408 0.27749 -4.1377e-06 3.6122e-06 0.18111 1.0803e-06 0.19607 -2.0433e-06 0.18201 1.1054e-05 0.18205 2.2605e-05 -6.5532e-06 5.5028e-07 -1.3237e-06 0.25045 1.3263e-05 0.16942 0.20773 7.2628e-06 -7.7752e-05 0.44732 0.35222 7.5775e-06 -3.9352e-05 0.30023 -1.8206e-05 -3.2552e-05 5.0855e-06 -0.07278 0.31553 -4.4769e-05 1.0978e-05 -1.2838e-05 0.33235 0.0008133 2.2012e-05 0.40863 -0.00014231 7.423e-06 -1.3661e-05 -4.0038e-05 -0.068912 -1.0187e-06 -1.4034e-05 0.21796 -0.00022912 8.2007e-07 0.00090198 7.1224e-05 0.44983 0.50069 0.00013292 0.44762 0.00059246 0.33099 0.00010987 -5.9002e-05 -8.327e-05
6.2946e-07 -5.3965e-06 -7.6589e-07 -2.5857e-05 -6.3724e-06 -1.2988e-05 -3.7391e-08 -3.9059e-06 5.017e-06 0.00023204 3.3905e-05 0.00066177 -8.0704e-06 8.2851e-06 -5.3848e-08 2.6521e-06 5.0587e-07 7.2154e-05 -4.3712e-05 -9.8865e-06 -9.9893e-06 0.0042016 -1.4055e-06 0.00099191 -1.4526e-05 0.31026 -7.9384e-06 4.337e-06 0.00089839 -9.3467e-06 4.424e-05 4.5587e-05 -0.00010835 -6.9477e-06 2.3571e-05 2.435e-05 -0.00020518 6.518e-07 1.2393e-05 -3.8455e-05 -7.2227e-06 6.2865e-06 -0.00014503 2.0531e-05 -7.182e-06 4.6269e-05 -6.0096e-05 -6.0699e-05 -0.00010087 2.8263e-06 -0.00020727 -0.0001662 -1.018e-06 -7.315e-05 1.233e-05 -0.0018023 -2.7732e-05 -0.0011009 0.00052285 -0.00098358
-5.8873e-06 -1.9234e-06 0.27726 -9.3823e-07 -2.5762e-06 -6.4318e-06 6.2877e-07 2.9609e-05 -3.0511e-05 0.00032009 -9.1729e-06 3.3634e-05 -1.5484e-06 1.562e-05 -1.8994e-07 -3.7545e-07 -2.54e-06 2.1798e-05 -1.3385e-05 -4.7122e-07 1.7795e-05 0.000478 9.5238e-06 4.6918e-05 5.6458e-06 -4.3983e-05 5.7272e-06 3.4925e-05 6.1077e-05 -2.0616e-05 1.7804e-05 3.1079e-05 0.0001403 1.314e-07 -2.2365e-05 -2.3109e-05 4.7936e-05 -4.2341e-06 -3.3849e-06 -6.1576e-05 -1.7125e-07 2.2394e-06 1.8599e-05 9.0747e-06 9.3292e-06 3.2536e-06 -1.1908e-05 0.00081467 -3.0907e-05 0.00045578 0.00023982 -2.7195e-05 -6.1313e-05 2.5549e-05 -3.095e-06 -0.00020866 -8.9129e-05 0.48934 -4.5587e-05 -0.00035714
1.548e-07 -3.6817e-05 1.96e-05 2.256e-06 0.00031344 0.00014783 -1.8457e-06 7.9596e-06 7.1516e-06 1.8309e-07 0.18666 0.00030033 4.55e-05 -3.0017e-06 -1.4013e-06 9.1108e-07 5.4096e-05 -6.2355e-06 0.00069471 0.00070029 5.3427e-06 0.0005336 -5.3299e-05 -4.4507e-05 1.1041e-05 0.00020363 -7.595e-05 -1.0782e-05 0.33119 -0.00013963 -0.00093956 -0.00017245 6.8496e-05 -2.1113e-05 2.4285e-05 2.5388e-06 -8.4344e-05 -1.5324e-05 3.7401e-05 0.0011519 -1.7795e-05 -6.0327e-07 8.4618e-05 -0.00081821 -3.9164e-07 -0.00027236 0.0016691 -8.7168e-05 -9.1743e-07 -3.5852e-05 -0.0001086 -0.00011057 2.3687e-05 0.00098665 4.4338e-05 -0.000455 -8.8005e-05 -2.6534e-05 -0.00010925 0.00016983
2.0301e-06 -3.432e-05 -1.4768e-05 4.3226e-06 4.1805e-06 -8.8889e-06 -1.2206e-05 0.19628 -2.309e-05 0.18267 2.0815e-05 0.18398 0.27687 2.9413e-05 -2.846e-06 1.482e-05 0.00011753 -3.5168e-06 -3.1492e-05 4.242e-05 -4.199e-06 4.1855e-05 -1.1876e-05 -9.4234e-05 -1.6674e-05 0.00010209 -3.8975e-05 0.44335 -0.00012057 -5.1084e-06 8.0916e-05 1.3671e-05 -2.1727e-05 -2.5597e-05 -7.2183e-06 -9.126e-05 -1.8367e-05 -4.6691e-05 8.8973e-06 0.33514 -3.3148e-05 -3.4683e-05 -7.9751e-05 8.3401e-05 -1.6241e-05 -2.6414e-05 0.0003713 -2.1536e-05 7.7705e-06 -0.00020493 -5.4858e-05 3.9305e-05 -1.5564e-06 0.24117 7.4133e-05 7.5867e-05 -2.2502e-05 8.098e-06 0.44828 -0.00029837
-1.4871e-06 0.00013617 0.00016789 3.7186e-05 2.4792e-05 1.2652e-05 -9.5514e-06 4.0624e-05 8.5915e-07 0.00035816 0.00015641 0.00036488 0.00020687 2.4945e-06 2.0923e-06 -2.4299e-06 -3.6481e-05 -1.5418e-05 -2.2801e-05 0.0002358 3.183e-05 0.000258 -4.7778e-06 7.2503e-06 1.4585e-06 1.7978e-05 -5.8579e-05 -6.0017e-06 -1.6237e-05 2.2584e-06 -3.0112e-05 -8.4049e-06 1.5034e-05 -0.00028987 -5.8036e-06 -0.00046417 -2.5721e-05 1.7542e-06 -2.4479e-05 0.0024292 -6.8127e-05 7.9227e-06 -3.0766e-06 8.1024e-05 1.2358e-05 -7.8177e-06 0.00036604 0.0014006 1.1526e-05 -3.5962e-05 -9.5352e-06 0.00010352 -5.0327e-05 0.001911 5.6887e-06 0.0002089 9.4852e-05 -4.0587e-05 0.032999 -1.8501e-05
-1.3202e-06 -8.7798e-07 -1.3323e-06 2.5716e-06 9.8382e-06 0.001736 1.335e-06 7.9426e-05 -8.2999e-06 0.00025772 7.8718e-06 0.00015538 9.3033e-07 4.3625e-06 7.5786e-07 -4.7692e-06 5.9586e-06 0.00021378 -0.0020894 0.1082 5.1312e-06 2.7532e-05 8.3424e-06 -1.9009e-05 -1.4545e-05 0.00032222 6.2297e-06 0.45039 4.2496e-05 -0.00011513 0.081161 -1.1909e-05 -3.3172e-05 -5.1448e-05 3.8544e-05 -3.9372e-05 0.0072868 3.7052e-07 -0.00027887 0.0006988 -2.9885e-06 -2.8816e-06 1.0068e-05 0.058513 -1.2202e-05 0.0015521 0.09617 -1.2938e-05 -9.1969e-07 -6.2007e-05 0.50166 -7.5179e-06 7.6742e-05 0.00095997 5.7061e-06 -1.2371e-05 -8.5199e-05 -5.07e-05 -3.9229e-06 0.00073619
4.215e-06 0.174 -8.0626e-06 1.7651e-05 -1.5592e-05 0.00218 0.00015154 0.0002501 5.6326e-06 0.00044332 0.18571 9.56e-05 0.00012049 0.00023393 8.2774e-07 -2.4933e-05 3.1891e-05 -9.7274e-06 -0.0019838 0.10804 7.7699e-06 0.00026425 3.5491e-06 -6.6337e-05 2.3021e-05 0.00026104 -2.7725e-05 -1.0352e-06 0.00022315 7.2704e-05 0.080877 1.5172e-07 1.9954e-06 -2.1042e-05 1.1811e-05 7.268e-05 0.00036884 -0.00011943 -2.2957e-05 0.00048417 -1.9381e-05 1.6282e-05 -0.00013181 0.058535 -2.5512e-05 0.00050423 0.096611 0.0020718 -5.9072e-06 9.0658e-06 9.0283e-06 -8.9951e-06 2.5312e-05 0.0019742 3.6791e-07 -0.00016088 0.00010229 -8.403e-05 6.8797e-05 0.0014436
5.4198e-07 -3.0509e-06 -2.1753e-06 -1.7754e-05 7.9399e-05 0.0019146 -5.6887e-06 -2.6392e-06 8.5543e-06 -9.7561e-06 9.0089e-06 3.36e-05 0.00021504 2.7828e-05 -1.3527e-06 -1.7047e-06 -1.4161e-05 -3.7084e-05 -0.0022968 0.10776 -3.174e-06 9.8979e-05 6.2836e-06 -0.0001086 -1.055e-05 0.31243 1.3067e-05 0.45047 0.0012388 -3.9338e-05 0.081279 -2.737e-05 -5.2439e-05 -1.5402e-05 6.1634e-06 1.0402e-06 -0.00036567 7.5944e-06 2.8523e-05 0.0026707 -6.6728e-06 -9.3655e-06 -4.5017e-05 0.05924 -1.7685e-05 0.0011146 0.096922 -8.7527e-06 -9.2429e-05 -0.00023155 0.00058599 4.6804e-05 1.8644e-05 0.24541 6.0146e-06 9.6704e-05 7.8595e-05 0.0001712 -0.00011333 0.00027301
-4.2275e-06 -5.4998e-06 4.4886e-05 1.6089e-05 2.5717e-05 9.3518e-05 -1.2117e-05 5.9008e-05 1.1862e-05 0.00030874 -2.4716e-05 3.5119e-05 1.4649e-06 9.1847e-05 -6.4445e-07 -6.8949e-06 -7.1087e-06 4.2024e-05 7.6584e-05 0.0002953 1.6779e-05 0.00018045 9.3319e-06 -2.1799e-05 1.2249e-05 0.0026401 8.2529e-06 -5.7282e-06 -7.228e-05 0.00033462 -0.00033676 3.1033e-05 0.00088551 -1.08e-05 -9.1042e-05 5.1774e-05 -0.00013016 5.0051e-05 4.0774e-05 -2.6008e-05 -2.1883e-06 -9.6612e-05 1.7061e-05 -0.00021129 1.1162e-05 -1.6204e-05 0.00018014 0.40679 0.0014116 2.5668e-05 -5.3803e-05 -1.0698e-05 5.6553e-06 0.00018434 3.2287e-06 -8.5342e-05 -6.5531e-05 0.0037592 -9.1297e-05 0.00032119
3.8949e-06 0.17406 -6.7614e-06 0.31605 -1.8201e-05 0.00034765 1.0843e-06 0.19629 5.0883e-06 0.18247 0.18577 0.18235 6.2112e-05 4.6603e-06 2.9412e-06 -2.9375e-05 -1.7707e-05 1.1038e-06 0.00025961 0.00033273 3.3525e-05 0.22794 3.4379e-05 -0.0001253 -1.9439e-05 -4.275e-05 -7.8153e-05 -1.9609e-05 -0.0001145 1.5676e-05 -0.00043503 1.7992e-05 -1.8804e-05 -7.0504e-05 1.6118e-07 4.3236e-05 -1.1532e-05 -8.2972e-05 -2.0983e-05 -0.00016956 -6.7195e-05 9.8085e-06 -0.00011512 -0.00011047 -2.0156e-05 -2.0279e-05 0.00073175 3.4323e-06 2.6041e-05 1.3871e-05 2.6676e-05 0.00013817 2.3334e-07 0.24785 1.7637e-05 0.00061876 6.5702e-05 8.1339e-05 0.3947 -0.00015706
1.9105e-06 0.17397 -1.5564e-05 2.5915e-06 5.56e-07 0.17255 0.28862 1.0674e-06 3.2775e-06 -9.7647e-06 0.18554 2.0401e-06 0.27618 4.835e-06 0.5 -6.8071e-07 1.6496e-05 2.7955e-06 0.18228 -0.0017658 -2.972e-07 1.4059e-05 1.3277e-06 7.0981e-06 1.1e-06 4.8558e-06 -2.3428e-05 4.5196e-06 -1.6056e-05 4.3283e-06 0.20765 -6.8182e-06 -1.7714e-05 0.28857 0.3535 -1.4749e-05 1.371e-05 2.2577e-06 1.2516e-05 1.9884e-05 0.44711 0.37799 2.3239e-05 0.22701 0.5 2.1301e-06 -0.019485 1.3728e-05 7.2529e-05 0.00019969 -2.7774e-05 0.00010412 2.2857e-05 -3.5037e-05 2.9413e-06 1.3313e-06 -1.7538e-05 4.7655e-06 -8.3921e-06 0.00027801
2.0605e-05 -1.916e-06 2.6285e-06 5.6756e-06 -5.0876e-06 0.0015162 -2.941e-07 7.9338e-05 3.7519e-06 0.18373 0.0010572 0.18352 -3.1918e-06 0.00037979 -5.8741e-07 1.2081e-06 -4.2125e-05 9.3873e-05 -0.002099 0.10929 1.9256e-05 0.0017747 -7.3235e-05 -6.9404e-05 -1.8524e-05 0.31309 2.8286e-05 8.5332e-06 -0.00014914 -0.00018371 0.081845 4.7077e-05 -6.0874e-05 -1.4804e-05 4.802e-05 5.0722e-05 0.00019047 2.2244e-05 -3.8097e-06 0.0002574 -2.4054e-05 2.8342e-06 -0.00011327 0.058331 -1.8462e-05 3.1858e-05 0.095762 0.00018694 -0.00010379 0.00039834 0.00028287 -0.00025159 2.4987e-05 0.00089672 0.00011785 -0.0011543 -0.00012757 -0.00035085 -0.00010964 -0.0021996
-5.504e-06 3.9752e-05 8.5586e-05 0.00024894 -1.2448e-05 -0.00023904 -3.2828e-06 6.5477e-06 0.00010063 3.4852e-06 8.5658e-05 0.00011205 -3.565e-05 -6.5629e-07 1.8583e-06 5.0656e-07 0.00052098 0.00011341 7.8593e-05 -0.00072755 -2.0578e-06 0.0029577 -9.1028e-06 0.0024386 8.6025e-06 0.00041467 -8.4696e-05 0.0018274 0.0012768 1.8597e-06 -0.00036365 -2.5393e-05 0.00052821 -1.2583e-06 -9.7983e-06 -0.00010071 0.0019598 4.3526e-06 -0.00011543 0.0006318 -1.0559e-05 3.2362e-06 0.00045471 0.0015683 3.0373e-06 0.00014038 0.004574 -0.00024195 7.8688e-06 0.00025073 -0.00027599 -0.00061113 1.4993e-05 2.8964e-05 -2.9639e-05 -0.0024154 -0.00013441 -0.0026543 0.0062373 -9.7476e-05
8.3179e-06 1.6339e-05 -4.9815e-06 3.3441e-05 8.8288e-05 7.5008e-05 -3.707e-07 2.539e-06 -0.00012183 0.00047803 -9.0754e-07 5.7406e-05 3.5342e-05 1.4904e-05 -3.3608e-07 -3.7349e-06 -0.00012565 1.2435e-05 8.8018e-05 0.00028725 -4.5598e-06 0.00071886 -1.5143e-05 -1.1284e-05 0.00042432 0.0012971 1.0104e-06 8.7751e-07 0.00031798 0.40775 -0.00040121 -3.1871e-05 0.0083798 -4.8663e-05 -1.6801e-05 2.5186e-05 -3.2543e-05 -5.4157e-06 4.624e-06 -2.7317e-05 -8.8863e-06 -8.3147e-07 0.00012073 -0.00017538 3.6201e-07 4.5704e-05 0.00024107 -8.4447e-06 5.5588e-07 0.0015718 0.0013439 -2.2171e-06 -8.7716e-06 -4.7876e-05 7.5506e-07 -0.00055636 1.0204e-06 0.0014709 -2.9646e-05 -0.00051491
-5.7193e-07 3.2694e-05 0.2774 8.2377e-06 1.085e-06 0.17906 1.0134e-06 8.3001e-06 8.015e-07 0.18201 1.0069e-05 0.182 -3.9443e-06 -9.7015e-07 -4.2971e-07 7.0837e-07 1.6516e-05 9.6268e-07 0.1715 0.099855 1.1024e-05 2.1643e-05 0.44705 -7.8975e-05 -1.1663e-05 1.7812e-06 0.00022893 1.2764e-05 -2.5266e-05 -2.6789e-06 -0.15336 0.00017542 -1.0507e-06 6.4543e-06 -3.526e-06 -4.7097e-05 0.00067108 1.6178e-06 0.40713 6.2427e-06 -1.1443e-07 1.3331e-06 4.3155e-05 -0.12732 1.9866e-06 -1.1087e-05 0.12102 2.9084e-05 -1.4124e-06 -2.9135e-05 -7.5699e-06 0.44315 -6.0447e-06 -3.3612e-05 0.4466 0.00012501 0.00072424 4.4339e-05 -5.0803e-06 2.8323e-05
-1.1366e-06 -5.8435e-06 1.5372e-05 5.6044e-06 2.3914e-06 0.0019132 5.4055e-06 0.19603 -1.5196e-05 0.18217 -1.9298e-05 0.182 -5.1365e-05 -1.3016e-06 3.0014e-06 1.4967e-06 -6.068e-06 0.29993 -0.0023558 0.10811 1.7723e-05 0.00036887 1.0588e-05 -1.9625e-05 2.1363e-06 0.001194 2.7723e-05 2.043e-05 -5.8434e-05 -3.8957e-05 0.081379 1.5173e-05 2.1891e-06 -1.0802e-05 1.2653e-05 5.9084e-05 0.00068158 0.37718 -3.7873e-06 0.33216 2.6714e-06 2.294e-06 -1.4878e-05 0.058545 -7.4843e-07 2.5443e-05 0.095599 -5.8671e-05 8.4052e-06 -3.8672e-05 3.5683e-05 4.7038e-05 3.444e-05 0.23952 3.9452e-05 -0.00023648 0.00010249 -9.9533e-05 -0.00023351 -0.00036771
1.1428e-06 0.17394 -3.7049e-06 -1.4979e-06 1.8627e-05 9.3611e-05 -1.3944e-05 0.19606 1.1301e-05 -2.3976e-05 -3.695e-06 -9.6515e-06 1.7116e-05 7.857e-05 6.0098e-06 -5.807e-06 1.5178e-07 4.2334e-05 8.1488e-05 0.00030057 -1.7775e-06 -1.9092e-05 -4.1011e-06 9.059e-06 9.4189e-06 0.0025699 4.2377e-06 -1.2567e-05 3.3187e-05 3.3464e-05 -0.00032832 1.4982e-05 -2.9551e-06 7.9528e-06 -8.7238e-05 5.7576e-05 1.4201e-05 0.37872 1.8364e-05 8.6762e-06 8.6412e-05 -0.00013596 -2.1643e-05 -0.00020612 -1.3376e-06 4.6746e-06 0.00017225 0.0002638 0.50103 8.6538e-06 -1.7745e-05 7.1807e-05 7.8473e-06 0.23996 1.3429e-05 2.4333e-05 -4.1346e-06 0.0020607 -1.402e-05 0.00042036
-2.6374e-06 2.3578e-06 -9.0191e-06 -3.4593e-06 0.35359 1.7736e-05 -2.8008e-07 -1.9238e-05 3.2473e-05 0.0003763 3.4468e-05 0.00033004 -5.6329e-06 -1.7271e-05 -6.0051e-07 1.879e-06 -3.8441e-05 0.00022031 -5.6411e-05 6.5515e-05 -7.2434e-06 0.0038095 2.4907e-05 0.00085543 6.6822e-06 0.001555 -3.5645e-05 0.00036003 0.36021 -9.8694e-05 -3.9905e-05 -0.0001685 -0.00027399 -3.055e-06 5.7387e-06 5.3024e-05 0.0071132 -1.4544e-05 -0.0002444 -3.7509e-05 -1.6416e-05 6.4908e-07 -0.00010615 -5.0408e-05 -1.8514e-05 0.45009 9.4586e-05 -8.0389e-05 2.7782e-06 -1.6188e-05 -0.00036903 -0.00022482 5.5001e-05 0.0029928 1.4343e-05 -0.0016667 4.2349e-05 -0.0020495 -0.00012059 -0.00045951
0.28867 0.17422 -2.5796e-07 -5.8285e-06 1.2149e-07 1.5305e-05 -2.1642e-06 0.19618 -1.5645e-07 4.6056e-06 0.00012025 -4.5448e-05 -1.5371e-05 -7.8904e-06 5.7162e-06 -2.4119e-06 0.00073456 1.4752e-06 -9.4873e-05 -0.00015825 -1.3812e-05 -5.9019e-06 -0.00038054 0.00019501 -1.0188e-06 -5.8832e-05 0.302 3.283e-07 4.906e-05 1.004e-05 2.4782e-05 0.31645 -2.7137e-05 1.7565e-05 -3.3359e-05 0.00041158 3.3514e-05 1.4228e-06 6.0473e-05 -1.9879e-07 7.3454e-06 -2.8618e-06 -1.5765e-06 0.00041945 3.3002e-06 5.4346e-06 0.00033682 5.4682e-05 1.4924e-06 2.5471e-05 -8.0232e-06 -0.00016835 -9.5467e-06 -0.00018674 -0.0012505 -1.6241e-05 0.0046461 1.3918e-05 3.3411e-05 -0.00026417
2.9696e-06 0.1745 1.849e-05 1.1961e-05 1.5316e-06 0.17238 -1.287e-05 1.4402e-05 7.6275e-07 0.18351 -1.4725e-05 0.18225 -8.611e-06 8.5029e-06 3.8117e-06 -3.9707e-07 2.0715e-06 2.5111e-05 0.18171 -0.0031238 3.8276e-05 0.22791 -5.1269e-06 -7.2227e-05 -8.1023e-06 -3.366e-05 1.2208e-05 2.128e-05 -7.4538e-05 4.0047e-06 0.21075 -4.5139e-05 -2.0872e-05 1.8781e-05 5.8469e-05 9.8608e-06 -1.7669e-05 -1.7228e-05 -8.8586e-06 -8.7174e-06 2.6828e-05 -6.9047e-07 4.5599e-05 0.22858 -2.5948e-05 1.1861e-05 -0.020813 5.8218e-06 -1.8521e-05 -5.1309e-07 -5.8616e-05 -7.5566e-05 2.2701e-05 0.00073492 -1.3687e-05 0.00031373 5.5835e-05 0.00011858 3.1566e-06 -0.00030145
2.0707e-05 -1.7055e-05 4.6005e-06 4.3075e-05 8.0413e-05 0.0019558 6.6939e-07 2.7593e-06 -0.00012933 0.18248 7.1736e-07 0.18377 6.9012e-05 2.8728e-05 2.1489e-07 -1.9405e-06 -4.3287e-05 1.4336e-05 -0.0023507 0.10741 -1.3262e-07 0.22866 2.69e-06 -0.00013828 0.00043037 0.0010685 -1.7719e-06 -3.2303e-05 0.00031988 0.0018464 0.080981 -3.3818e-05 0.0086194 -4.986e-05 9.9166e-06 2.427e-05 -4.8068e-05 2.3598e-05 2.8073e-06 -1.1732e-05 -5.0933e-07 -1.5939e-05 0.00014693 0.059528 -7.5482e-06 2.0633e-05 0.097347 0.00023494 -1.2891e-06 0.0020385 0.50021 8.4811e-05 1.6123e-06 -3.9023e-05 -1.1162e-05 -0.00023395 9.8436e-06 0.0014906 -4.3363e-05 -0.00041874
-1.0491e-06 4.3485e-05 2.5405e-05 8.6918e-06 2.7122e-06 0.0018966 0.2888 1.3621e-05 -1.2402e-05 7.1505e-06 0.18553 8.7586e-06 9.7265e-05 -2.1042e-06 6.0251e-07 9.9264e-07 6.5652e-07 0.00016422 -0.0021943 0.10781 5.5252e-07 -2.011e-05 -2.9628e-06 -1.9466e-05 -2.9785e-06 0.00021952 5.7213e-06 4.6774e-06 -2.0171e-05 -1.1119e-05 0.08128 -1.2884e-06 1.3037e-05 -2.3633e-05 2.3761e-06 0.00026338 0.0016943 5.8764e-06 -9.6309e-05 0.32938 1.721e-05 3.1427e-06 -1.0904e-05 0.058788 -1.3617e-06 3.761e-05 0.095961 0.0015663 2.2335e-06 -5.4559e-05 9.939e-05 7.2876e-05 3.9483e-05 0.00015183 -5.9792e-05 7.3905e-05 0.00030349 -8.7144e-05 -0.00027531 0.0001026
1.9187e-05 1.621e-05 0.27725 -1.9079e-06 -5.9221e-08 0.17258 -2.7219e-06 1.6419e-05 -9.9064e-07 -1.4649e-05 0.18553 5.202e-05 9.5771e-05 6.2901e-06 -4.3078e-06 5.2711e-06 -2.0075e-05 8.0434e-06 0.18236 -0.0019594 -2.3036e-06 4.5684e-05 -9.8127e-07 -1.3714e-05 -0.0002468 -2.4952e-05 -1.6054e-05 -3.9041e-05 -3.7705e-05 7.2521e-06 0.20833 -1.5918e-05 0.00011106 0.28877 6.5653e-07 -0.00022419 -9.3155e-06 9.7223e-06 5.8648e-06 -4.0192e-05 2.5765e-05 -4.5289e-07 1.2842e-05 0.22718 -7.9589e-07 -1.9599e-05 -0.019453 0.00024921 7.2621e-06 0.49864 0.00036942 -4.9853e-05 -4.9955e-05 -2.2308e-05 -6.6955e-06 -1.624e-05 -8.8295e-05 4.8363e-05 0.0049602 0.00018051
3.5051e-06 5.6646e-06 6.9643e-06 1.5726e-05 2.2838e-05 0.18191 -3.6297e-07 -7.5313e-06 9.5605e-05 0.18225 3.1739e-06 0.1822 1.538e-05 0.00024115 4.5342e-07 5.8988e-07 0.2495 0.30049 0.17041 0.21134 0.57735 0.2289 -2.1538e-05 -1.3468e-05 3.8956e-05 7.5825e-05 2.7762e-05 2.5268e-05 -5.4491e-05 0.00030885 -0.076628 -3.7196e-05 0.0004465 -1.6224e-06 -2.1807e-05 -0.00027963 2.8051e-05 2.378e-05 -1.683e-05 2.43e-05 7.9766e-06 1.0155e-06 0.40685 -0.07144 4.7035e-06 -1.2697e-05 0.21951 6.9285e-05 1.4476e-06 -9.7103e-05 4.3138e-05 -0.0004082 4.129e-06 -6.8028e-05 -0.00011015 0.57732 -1.9634e-05 -8.9934e-05 -2.8377e-05 -0.0002223
-1.1366e-06 -5.8435e-06 1.5372e-05 5.6044e-06 2.3914e-06 0.0019132 5.4055e-06 0.19603 -1.5196e-05 0.18217 -1.9298e-05 0.182 -5.1365e-05 -1.3016e-06 3.0014e-06 1.4967e-06 -6.068e-06 0.29993 -0.0023558 0.10811 1.7723e-05 0.00036887 1.0588e-05 -1.9625e-05 2.1363e-06 0.001194 2.7723e-05 2.043e-05 -5.8434e-05 -3.8957e-05 0.081379 1.5173e-05 2.1891e-06 -1.0802e-05 1.2653e-05 5.9084e-05 0.00068158 0.37718 -3.7873e-06 0.33216 2.6714e-06 2.294e-06 -1.4878e-05 0.058545 -7.4843e-07 2.5443e-05 0.095599 -5.8671e-05 8.4052e-06 -3.8672e-05 3.5683e-05 4.7038e-05 3.444e-05 0.23952 3.9452e-05 -0.00023648 0.00010249 -9.9533e-05 -0.00023351 -0.00036771
2.2489e-08 1.9651e-05 3.3398e-06 0.31616 1.1727e-06 0.0014182 -1.049e-05 3.9309e-05 2.8962e-07 0.1833 3.1282e-05 0.18245 0.00021643 8.905e-05 -1.2638e-06 -3.4509e-06 -2.429e-05 -1.9257e-06 -0.0023541 0.10883 4.0895e-05 0.23562 -3.3172e-06 0.00083325 -7.2536e-06 0.00095213 -1.278e-06 0.0011484 0.00091131 -4.4326e-05 0.081821 0.00010936 -0.00010978 -2.7994e-05 -7.9382e-06 -9.4867e-05 -4.5989e-05 -3.1755e-05 -5.7382e-05 0.002613 -1.7957e-05 -1.1668e-06 -0.00018195 0.058982 -2.6301e-06 5.3698e-05 0.097125 -0.00012618 7.5445e-06 7.1014e-05 -0.00042551 -0.00022333 -1.1884e-05 -3.099e-05 3.7993e-05 -0.0036718 -0.00015498 -0.00163 -0.00045419 -0.0011871
-1.6498e-05 -1.8691e-05 8.7043e-05 0.00023902 -2.4654e-05 0.0009395 2.6144e-05 -1.252e-05 0.00054823 -8.5252e-05 0.1861 8.4451e-05 7.2645e-05 -4.6543e-05 -4.0717e-06 -1.8893e-05 0.25039 0.30682 -0.0026029 0.10901 1.8806e-05 0.0026105 -0.00012484 0.35412 5.4383e-07 0.33769 -0.00020579 0.0018196 0.32639 -6.5455e-05 0.082491 6.0128e-05 0.00059734 1.407e-06 3.8948e-05 -0.00020076 0.50671 -3.9583e-05 -0.00079662 0.00054766 -2.2288e-05 9.9761e-06 0.00050106 0.060471 -1.456e-05 0.44684 0.10138 0.0010605 -0.00012511 0.00019162 -0.00018531 -0.0021211 -6.716e-05 -0.00013738 -6.9301e-05 -0.0024371 -0.00014042 -0.0026186 0.0021198 0.0046099
1.3921e-07 1.2217e-06 2.0267e-06 1.1235e-06 8.1948e-08 0.0019244 -4.6113e-07 -3.2197e-07 2.2484e-06 -7.1088e-08 -9.804e-07 1.2534e-06 7.2662e-06 2.9103e-06 -1.2304e-07 1.4617e-07 -2.2487e-07 -2.2509e-06 -0.0022513 0.10746 2.3644e-06 -1.6905e-05 -1.2002e-07 -1.0022e-05 4.0539e-06 2.9842e-06 1.6256e-05 -3.1475e-06 -3.8699e-06 -6.1477e-06 0.08107 8.9877e-06 -5.5149e-07 -6.2676e-06 4.1014e-06 1.6607e-06 -1.2706e-05 3.5224e-06 1.6679e-06 -1.0047e-05 -5.2076e-07 -3.5967e-06 5.58e-06 0.058978 -1.0121e-06 4.2029e-05 0.096227 -1.0127e-05 -2.4579e-06 -2.1262e-05 3.5338e-05 -8.3249e-06 3.7782e-06 -3.9479e-08 -2.624e-06 5.2476e-05 1.434e-05 -1.9882e-06 -1.7088e-05 6.0559e-05
2.059e-06 0.17395 -1.7612e-06 2.2693e-06 8.3577e-07 0.17256 0.28862 -8.6666e-07 2.9988e-06 -8.3498e-06 0.18551 -3.9929e-07 0.000103 2.6522e-06 1.8458e-06 3.5485e-07 1.5945e-05 3.0398e-06 0.1823 -0.0016873 -4.2069e-07 1.1661e-05 1.8177e-06 1.4025e-05 -1.1759e-06 5.091e-06 -2.3739e-05 5.3883e-06 -8.7164e-06 3.2074e-06 0.20744 -4.1945e-06 -2.986e-06 9.7924e-05 -3.4976e-06 3.0788e-05 1.4453e-05 2.5361e-06 7.6205e-06 1.3021e-05 5.2444e-06 -2.6791e-06 2.3518e-05 0.2269 7.9971e-06 2.7262e-06 -0.019292 -1.1589e-05 1.8096e-05 1.4944e-05 -1.4239e-05 0.00012055 1.7266e-05 -2.7426e-05 7.3452e-06 -3.2031e-06 -1.973e-05 8.3463e-06 3.1844e-05 7.2855e-05
2.059e-06 0.17395 -1.7612e-06 2.2693e-06 8.3577e-07 0.17256 0.28862 -8.6666e-07 2.9988e-06 -8.3498e-06 0.18551 -3.9929e-07 0.000103 2.6522e-06 1.8458e-06 3.5485e-07 1.5945e-05 3.0398e-06 0.1823 -0.0016873 -4.2069e-07 1.1661e-05 1.8177e-06 1.4025e-05 -1.1759e-06 5.091e-06 -2.3739e-05 5.3883e-06 -8.7164e-06 3.2074e-06 0.20744 -4.1945e-06 -2.986e-06 9.7924e-05 -3.4976e-06 3.0788e-05 1.4453e-05 2.5361e-06 7.6205e-06 1.3021e-05 5.2444e-06 -2.6791e-06 2.3518e-05 0.2269 7.9971e-06 2.7262e-06 -0.019292 -1.1589e-05 1.8096e-05 1.4944e-05 -1.4239e-05 0.00012055 1.7266e-05 -2.7426e-05 7.3452e-06 -3.2031e-06 -1.973e-05 8.3463e-06 3.1844e-05 7.2855e-05
1.9187e-05 1.621e-05 0.27725 -1.9079e-06 -5.9221e-08 0.17258 -2.7219e-06 1.6419e-05 -9.9064e-07 -1.4649e-05 0.18553 5.202e-05 9.5771e-05 6.2901e-06 -4.3078e-06 5.2711e-06 -2.0075e-05 8.0434e-06 0.18236 -0.0019594 -2.3036e-06 4.5684e-05 -9.8127e-07 -1.3714e-05 -0.0002468 -2.4952e-05 -1.6054e-05 -3.9041e-05 -3.7705e-05 7.2521e-06 0.20833 -1.5918e-05 0.00011106 0.28877 6.5653e-07 -0.00022419 -9.3155e-06 9.7223e-06 5.8648e-06 -4.0192e-05 2.5765e-05 -4.5289e-07 1.2842e-05 0.22718 -7.9589e-07 -1.9599e-05 -0.019453 0.00024921 7.2621e-06 0.49864 0.00036942 -4.9853e-05 -4.9955e-05 -2.2308e-05 -6.6955e-06 -1.624e-05 -8.8295e-05 4.8363e-05 0.0049602 0.00018051
1.3412e-06 -3.9126e-05 -1.8808e-05 0.31593 0.35342 -3.0704e-05 -1.1896e-06 3.8096e-06 2.8209e-05 0.00042491 5.5718e-05 2.1581e-05 0.27886 0.00012626 -2.8575e-06 -2.0001e-06 -3.5655e-05 0.00015943 -3.7087e-05 6.6279e-05 -5.5503e-06 0.00062237 1.8732e-05 -6.1336e-05 0.00047463 0.0013466 -5.8497e-05 -1.7429e-05 0.00050044 0.40829 7.5188e-05 -1.9439e-05 0.44429 -4.2942e-05 -0.00015629 4.2375e-05 0.00033826 4.557e-06 -6.2701e-06 -0.00011081 -6.5996e-05 -2.4458e-05 0.00018434 0.00013565 -8.5199e-05 0.00049524 0.00048872 0.0022743 4.9357e-06 0.0016283 0.0010674 7.776e-06 3.3211e-05 0.00012118 -5.2388e-06 3.6552e-05 1.4781e-05 0.0013716 -0.00020424 0.002138
1.6574e-05 0.17402 0.27735 1.3154e-05 2.3081e-05 -1.4958e-05 2.5093e-05 3.779e-05 5.0204e-09 6.418e-06 2.7631e-05 5.004e-05 0.27618 9.2338e-06 -2.5489e-06 8.4174e-08 4.0813e-05 0.00016161 -5.2607e-05 8.2245e-05 3.182e-06 0.22765 -1.5139e-05 -1.4784e-05 -8.503e-06 0.00019068 6.5645e-06 -7.3154e-06 -9.6117e-05 2.2994e-06 0.00047767 -1.8111e-05 -3.4141e-05 -0.00023741 -9.8627e-06 -0.00010841 0.0015562 1.2214e-05 -3.4079e-05 0.00036813 3.4244e-05 2.4921e-05 2.0465e-05 0.00016867 1.4623e-05 -3.8578e-05 7.0308e-05 0.40855 -1.1932e-05 0.00048596 0.0003995 0.0001155 -8.2286e-05 0.00099007 -6.9661e-05 0.00052111 0.00049453 5.4247e-05 0.00040171 0.00024487
-4.3538e-06 -1.6942e-05 8.5727e-05 0.00024449 -2.0162e-05 0.001621 -3.716e-06 -2.2398e-05 0.49953 5.219e-06 5.9963e-05 0.00011273 -2.6975e-05 -5.8773e-05 -2.4527e-07 2.7702e-05 0.00057205 0.00010737 -0.0020873 0.10699 -2.8209e-06 0.0028761 -2.8881e-06 0.0023781 0.37483 0.00039301 -5.9775e-05 0.0017937 0.001284 0.0004832 0.080909 -3.9572e-05 0.43546 -8.854e-06 6.9689e-06 -0.00010194 0.0019353 3.5186e-06 -0.00010672 0.00062498 -5.9656e-06 0.00010945 0.40711 0.061091 1.0907e-06 0.00013412 0.10198 -0.00025421 3.1738e-06 7.1254e-05 -0.00046481 -0.00062843 3.2461e-05 9.3641e-05 -8.929e-06 -0.002219 -0.00010847 -0.0024567 0.0020316 0.0030649
5.3e-06 8.0513e-06 -1.5595e-06 8.4452e-06 1.564e-05 -3.9885e-05 1.6822e-05 -3.5272e-05 -1.8171e-05 -1.3164e-05 0.18576 1.2774e-07 6.9457e-05 0.00026864 -2.4359e-06 -3.1337e-06 -0.00010682 0.00017434 -2.0918e-05 0.00010281 -4.8084e-06 1.7629e-05 -4.5118e-06 1.1865e-05 1.8475e-05 0.00049076 -9.5477e-05 1.3621e-05 0.00019517 6.0789e-05 6.5379e-05 -7.4949e-05 2.8629e-05 -1.3806e-05 1.0703e-05 0.33734 0.0018628 -2.7713e-06 -0.00028671 0.33114 -2.4337e-05 2.4819e-06 -4.674e-05 0.00015189 1.7937e-06 0.00045582 0.00042906 0.4106 -1.3018e-05 -0.00022825 -1.5163e-05 4.7487e-05 -5.9237e-05 0.00019032 0.00027987 5.5615e-05 0.33148 -0.00018457 -0.00037959 0.0016472
-2.3375e-07 -1.8438e-05 -4.3328e-06 2.5526e-05 2.6837e-05 -0.00020281 1.6246e-06 -7.6651e-06 0.49946 -9.6473e-07 8.6157e-05 2.1772e-05 1.3313e-05 0.00019767 -3.4552e-07 1.9812e-08 7.0483e-05 0.00052046 0.00016112 0.00088233 2.9053e-08 3.8122e-06 1.9724e-06 -4.4212e-06 9.6801e-05 0.00055953 -4.7172e-05 1.4524e-05 0.000229 0.000388 0.00022967 -1.3492e-05 0.00051704 2.6284e-06 1.1658e-05 3.127e-05 0.00060966 -3.0127e-05 -3.3813e-05 -3.6944e-05 -3.009e-05 -4.3257e-06 0.0001733 -0.00034883 1.0287e-05 0.0011934 2.4002e-05 0.0020535 -6.0892e-06 -3.7022e-05 -7.5248e-05 1.333e-06 9.5424e-06 9.9638e-06 -2.758e-05 0.0004417 0.00012722 -0.00021819 -2.1896e-05 0.0014504
-6.6177e-07 1.6381e-06 2.0529e-06 1.2481e-06 3.7493e-08 0.0019409 -5.9778e-07 7.45e-07 2.5333e-06 5.2724e-07 -4.6666e-07 9.0197e-07 7.2763e-06 7.8496e-07 -2.1021e-07 2.5561e-08 7.968e-09 2.9115e-06 -0.002218 0.10751 8.3299e-07 -1.5487e-05 -1.2139e-07 -1.7137e-05 4.6096e-06 2.6351e-06 1.7426e-05 -3.24e-06 -5.6234e-06 -6.0379e-06 0.081049 1.8164e-05 -4.6805e-09 -6.2962e-06 3.4293e-06 1.334e-06 -1.1631e-05 4.105e-06 4.493e-06 -6.0496e-06 1.4088e-08 -3.2859e-06 9.9598e-07 0.058818 -1.0061e-06 3.7703e-05 0.095986 -1.0109e-05 -1.8716e-06 -1.6925e-05 4.0343e-05 -6.8674e-06 8.3106e-06 8.959e-07 2.4154e-06 4.9087e-05 1.167e-05 -2.0458e-06 -1.6491e-05 6.0058e-05
1.7081e-05 5.6982e-06 1.4442e-05 1.3354e-05 2.1895e-07 8.7938e-06 5.0369e-07 0.19604 4.7219e-06 0.1833 -1.015e-05 0.18408 3.9373e-05 0.33265 1.7579e-06 0.57731 0.24918 9.4399e-06 -2.1518e-05 -7.2164e-05 1.1728e-05 0.22776 3.3885e-06 6.154e-05 0.37658 -4.1884e-05 5.5991e-05 7.0867e-05 -8.5603e-05 -2.717e-05 -2.8276e-05 2.7104e-05 -8.5966e-05 -5.6672e-06 4.5617e-05 -9.341e-05 5.5131e-05 -5.0272e-06 -3.9077e-05 0.00021245 -3.21e-06 0.00010899 0.00013816 3.887e-05 -1.9566e-05 -1.0126e-05 -5.1242e-06 2.119e-05 -2.5065e-06 -6.1714e-05 -0.00011854 -0.00055035 1.9679e-05 0.0016986 0.00015915 0.0003022 -1.2503e-05 2.5242e-05 0.00018844 0.16806
4.4638e-06 -1.2641e-05 -1.707e-05 5.2948e-06 6.1015e-05 0.0014062 1.457e-06 -1.7013e-06 0.00049232 -2.6893e-05 0.1857 3.2817e-05 9.2729e-05 1.8826e-06 -7.0675e-07 -0.00030765 1.0285e-05 0.00055379 -0.0021353 0.10869 -6.7009e-06 -0.00024372 1.2287e-05 -9.2421e-05 0.38488 0.00022951 -7.0335e-05 3.8831e-06 0.0014338 0.0017471 0.081843 -7.6005e-05 -8.721e-05 1.1302e-05 -0.00017604 5.2597e-05 0.00032587 -1.7383e-05 -7.1983e-06 0.0035074 -2.8425e-05 0.00010015 -0.00026372 0.058571 3.5891e-05 0.0024132 0.096478 0.0020522 1.0655e-05 -0.0010904 -0.00049277 3.6604e-05 2.7052e-05 0.0013482 2.5596e-05 0.00016568 9.134e-05 0.0082184 5.701e-05 0.021902
-2.9507e-07 -1.7297e-06 2.2279e-06 -2.2863e-06 -4.6525e-07 0.0018998 8.219e-07 1.033e-05 -1.229e-06 7.6503e-05 -1.0956e-05 1.1885e-05 5.0195e-06 -1.7344e-06 5.1521e-07 6.074e-07 -7.3458e-06 3.8285e-05 -0.0022986 0.10778 6.7307e-06 0.00035855 -1.594e-06 -2.4163e-05 -2.2116e-06 0.0011314 1.8168e-05 -3.2767e-07 -3.2026e-05 -1.3622e-05 0.081262 -8.6121e-09 -1.6419e-06 -7.505e-07 5.5601e-06 7.8983e-06 0.00070215 2.2812e-05 6.8771e-06 0.0002688 -4.9046e-06 -1.4328e-07 -1.5606e-05 0.05875 2.5145e-07 3.2005e-05 0.095793 -1.402e-05 7.288e-07 -5.7854e-07 1.7416e-05 -4.5133e-05 1.974e-05 6.0347e-05 2.3598e-05 -0.0002366 7.5638e-06 -4.7495e-05 5.8589e-07 -0.00010128
4.8681e-06 0.17407 -5.6844e-06 3.4401e-05 4.0907e-05 0.18431 -1.6919e-05 4.1911e-05 9.8659e-05 7.1353e-05 -6.6394e-06 2.5773e-05 1.378e-05 0.33412 -1.5502e-06 -1.9455e-05 -7.5339e-05 0.30012 0.17137 0.2109 5.3115e-07 0.00077605 2.4387e-06 -0.0001134 -1.9839e-05 0.31144 -1.8693e-05 5.3936e-06 -0.00011563 0.00034386 -0.076427 0.31692 0.00022259 2.246e-05 -4.2884e-05 -3.7972e-05 -0.0002323 4.7302e-05 -4.9517e-05 -1.0639e-05 5.829e-05 -7.1485e-05 -0.00054166 -0.071562 -8.048e-05 2.9803e-05 0.21952 0.00028623 0.0012685 -0.00014421 -9.2855e-05 -0.0002585 -5.8475e-06 0.00017086 -0.00018252 0.00036868 -0.0003116 0.0019592 -0.00015954 0.00050792
-4.5209e-06 4.4244e-06 9.1229e-05 0.00023891 -1.7717e-05 -0.00017872 -7.7436e-07 -2.2959e-05 9.7792e-05 0.18241 8.9329e-05 0.18329 -6.8669e-05 1.7809e-05 1.8564e-06 7.0933e-07 0.00051404 0.0001212 9.4834e-05 -0.00090711 -1.8839e-05 0.23121 -0.0001068 0.0023693 -1.7511e-05 0.0019433 -0.00010089 0.0027554 0.0011622 1.3018e-06 -0.00054507 -1.1088e-05 0.00049776 -7.4983e-08 -9.1957e-06 -8.9897e-05 0.0019526 0.37872 -0.00011897 0.00066521 4.1913e-06 2.027e-05 0.00044892 0.001501 8.7204e-06 0.0001331 0.0043162 -0.00022425 2.7178e-06 0.00026598 -0.00026481 -0.00055744 8.0967e-06 7.3932e-05 5.7169e-05 -0.0021148 -0.00019391 -0.0026264 0.39887 -0.00087875
-2.6374e-06 2.3578e-06 -9.0191e-06 -3.4593e-06 0.35359 1.7736e-05 -2.8008e-07 -1.9238e-05 3.2473e-05 0.0003763 3.4468e-05 0.00033004 -5.6329e-06 -1.7271e-05 -6.0051e-07 1.879e-06 -3.8441e-05 0.00022031 -5.6411e-05 6.5515e-05 -7.2434e-06 0.0038095 2.4907e-05 0.00085543 6.6822e-06 0.001555 -3.5645e-05 0.00036003 0.36021 -9.8694e-05 -3.9905e-05 -0.0001685 -0.00027399 -3.055e-06 5.7387e-06 5.3024e-05 0.0071132 -1.4544e-05 -0.0002444 -3.7509e-05 -1.6416e-05 6.4908e-07 -0.00010615 -5.0408e-05 -1.8514e-05 0.45009 9.4586e-05 -8.0389e-05 2.7782e-06 -1.6188e-05 -0.00036903 -0.00022482 5.5001e-05 0.0029928 1.4343e-05 -0.0016667 4.2349e-05 -0.0020495 -0.00012059 -0.00045951
5.5073e-06 1.7404e-05 6.6938e-06 -3.0684e-06 2.015e-06 -9.0099e-06 4.8569e-07 0.19614 -3.4009e-05 0.18268 -1.4841e-05 0.18225 -3.6421e-05 0.33267 7.9379e-07 0.57757 0.24941 8.0227e-06 -1.103e-05 0.00025133 8.1798e-06 0.22804 2.9365e-05 -0.00010034 0.37649 -0.00015323 7.1937e-05 -2.907e-05 -0.00012236 -0.00011283 -0.00012136 7.4648e-07 -0.00014005 6.4608e-07 3.1793e-05 -0.00015045 -6.1269e-05 1.6108e-05 -4.834e-06 -5.5329e-05 -5.6282e-06 0.00010696 0.0001102 -0.00017444 -3.3661e-05 -4.9468e-05 -2.5416e-05 -3.9108e-05 -1.0199e-05 -0.0004731 0.49965 -0.00043171 3.1899e-05 -3.304e-05 9.042e-05 -0.00024617 -3.981e-06 -0.00023605 -0.00011404 0.9716
4.4099e-06 1.5402e-06 -1.1326e-05 1.0303e-06 7.8741e-06 1.1593e-06 -4.4438e-06 -5.7859e-05 -6.4292e-08 1.1985e-06 6.1208e-06 -4.1949e-06 1.8065e-07 3.8714e-06 3.7364e-07 1.6588e-06 7.9579e-06 1.1712e-06 -6.9964e-07 -3.8474e-06 9.3382e-07 8.402e-07 -4.039e-06 -1.6261e-06 -1.6545e-06 1.7084e-07 -4.9548e-06 3.8294e-07 2.852e-06 -2.5902e-08 2.4107e-06 1.2619e-05 3.274e-06 2.3844e-05 -5.5485e-07 0.006429 -8.1643e-06 -3.0684e-07 -6.8786e-05 0.00010738 -2.2122e-07 -5.1796e-08 -8.0555e-06 2.2179e-06 1.7007e-06 2.6858e-07 3.2749e-07 0.00031806 1.2562e-06 -4.18e-06 6.7917e-07 6.2532e-06 -4.8768e-06 2.6383e-06 0.00010483 -2.0902e-05 8.6942e-05 1.8224e-06 -9.5607e-06 6.7091e-07
3.638e-05 0.17406 0.27715 1.3312e-06 -2.2666e-06 0.0019357 -1.2463e-06 1.0858e-05 1.2451e-06 8.4446e-06 2.0093e-06 -2.1725e-06 1.3367e-05 0.33285 7.8926e-06 -2.5048e-05 8.6803e-07 7.8736e-06 -0.0023514 0.10754 7.3662e-06 -1.3591e-05 -8.9056e-06 7.128e-07 -1.1186e-06 1.5172e-05 8.8946e-06 -9.3653e-06 -1.6303e-05 1.2887e-06 0.081214 1.5108e-05 -8.8135e-05 -1.9701e-05 -2.604e-05 -2.2185e-05 3.8692e-06 4.4589e-07 1.5665e-05 -3.242e-05 -1.5089e-06 -4.546e-06 3.1205e-06 0.058879 -1.2825e-07 3.3896e-05 0.095932 -1.5182e-05 -4.1696e-06 -7.6487e-06 4.7104e-05 5.2689e-07 -5.9169e-05 2.0896e-05 1.5697e-05 0.00012776 4.6604e-06 6.5341e-05 -1.6059e-06 7.3714e-05
-8.0046e-08 -8.6598e-08 -2.3497e-06 -8.1963e-06 -8.9019e-08 1.1549e-05 2.6442e-07 8.2936e-07 -3.0376e-06 1.1837e-05 9.0582e-07 8.309e-06 9.6975e-07 -7.3875e-07 -1.9661e-07 1.7472e-06 1.1249e-05 1.134e-05 -1.1736e-05 -2.1862e-05 -8.1797e-07 -3.6125e-06 3.6954e-07 -4.5999e-05 -1.482e-05 -1.8737e-05 1.1826e-06 0.44181 -1.492e-05 -6.5182e-07 -1.4455e-05 -7.0871e-07 -3.4091e-07 1.9496e-07 1.4275e-06 5.0131e-06 -4.5055e-06 -1.111e-07 2.9201e-06 2.2561e-05 -7.0239e-07 3.2956e-07 -1.0654e-05 2.1426e-05 7.0736e-07 -2.0583e-06 1.8754e-05 4.0262e-06 7.7028e-07 -8.4078e-05 -4.061e-05 8.5248e-06 1.6628e-07 2.6017e-08 1.8222e-06 1.0508e-05 -6.2976e-06 6.9197e-05 3.5177e-07 2.3133e-05
-5.7193e-07 3.2694e-05 0.2774 8.2377e-06 1.085e-06 0.17906 1.0134e-06 8.3001e-06 8.015e-07 0.18201 1.0069e-05 0.182 -3.9443e-06 -9.7015e-07 -4.2971e-07 7.0837e-07 1.6516e-05 9.6268e-07 0.1715 0.099855 1.1024e-05 2.1643e-05 0.44705 -7.8975e-05 -1.1663e-05 1.7812e-06 0.00022893 1.2764e-05 -2.5266e-05 -2.6789e-06 -0.15336 0.00017542 -1.0507e-06 6.4543e-06 -3.526e-06 -4.7097e-05 0.00067108 1.6178e-06 0.40713 6.2427e-06 -1.1443e-07 1.3331e-06 4.3155e-05 -0.12732 1.9866e-06 -1.1087e-05 0.12102 2.9084e-05 -1.4124e-06 -2.9135e-05 -7.5699e-06 0.44315 -6.0447e-06 -3.3612e-05 0.4466 0.00012501 0.00072424 4.4339e-05 -5.0803e-06 2.8323e-05
-6.6699e-08 1.4314e-05 1.8593e-06 -9.0472e-06 -5.9046e-06 0.0011219 1.6003e-06 1.1032e-05 -5.8742e-07 5.6528e-05 -6.1543e-05 2.2138e-05 2.2172e-05 -2.1476e-06 6.9608e-07 5.1032e-08 -0.00017421 2.2899e-05 -0.0025265 0.10877 4.2173e-06 0.00021915 0.00041169 -0.00016877 1.2809e-06 0.00093403 2.9486e-05 -1.0497e-05 -0.00018108 -9.6729e-06 0.082442 3.4014e-05 3.519e-07 4.3737e-06 3.7733e-06 -5.7549e-05 0.47533 1.9319e-05 0.40933 0.00015502 -6.7226e-07 -2.7222e-06 -5.1108e-05 0.059264 -2.3719e-07 -0.00018379 0.097485 -0.00017675 6.2459e-06 6.4891e-05 -7.3716e-05 0.0017497 -0.00025048 8.4194e-05 -0.00014396 -8.3388e-05 -4.0841e-05 8.7826e-05 7.7146e-05 -7.7036e-05
-5.2458e-06 -4.8779e-06 7.8836e-05 0.31629 -1.0438e-05 0.00046694 -5.9e-06 -1.3044e-05 0.0001011 0.0011457 4.7589e-05 0.00015101 1.2501e-06 -9.1784e-06 4.8398e-07 -1.0538e-06 0.00061208 0.00013842 -0.0021781 0.10876 2.6667e-05 0.0029515 -2.377e-05 0.0023675 1.3369e-05 0.00042609 -0.00016047 0.001815 0.001237 -1.9187e-05 0.083587 -4.597e-06 0.00056965 -1.2811e-05 3.4567e-05 -0.00025131 0.0019263 -2.7065e-05 -0.00011188 0.00058608 5.0025e-06 1.7672e-05 0.00041231 0.060173 -2.6333e-05 -2.4485e-05 0.10222 -0.0003243 5.1589e-07 0.00018752 -0.00079044 -0.00093415 3.2501e-05 0.00084065 3.5787e-05 -0.003088 -0.00028087 -0.0029142 0.0020973 -0.00045305
1.5464e-06 0.17395 -1.5556e-05 1.8034e-06 5.2519e-07 0.17067 4.0371e-06 0.19603 5.9009e-06 5.2984e-06 -0.00064419 -8.4202e-07 0.28215 5.5234e-06 -1.5925e-06 5.615e-07 1.4489e-05 7.5071e-06 0.18538 -0.11158 -2.6492e-06 3.0097e-05 -1.313e-05 8.8011e-05 -1.392e-05 3.4459e-06 -1.8297e-05 8.8915e-06 1.8174e-05 8.6596e-06 0.12833 1.9257e-05 1.152e-05 0.28885 -4.391e-05 -9.7916e-06 2.0463e-05 -4.3038e-06 1.0676e-05 -5.0091e-05 -4.4788e-05 -0.00019691 1.837e-05 0.16946 -0.00032804 0.00010387 -0.11768 7.1588e-05 -1.0005e-05 0.00022433 0.00021465 9.5268e-05 1.4208e-05 -4.4448e-05 -9.0053e-07 6.8752e-05 -1.0268e-05 8.683e-06 -0.00030754 0.00012792
-1.856e-06 0.17399 3.6326e-05 4.1264e-05 4.2257e-05 0.17062 -2.3033e-05 0.19602 4.5473e-07 -7.9265e-06 2.462e-05 -2.1568e-06 -3.3932e-06 -1.8397e-06 -3.1652e-06 1.4621e-06 5.0295e-06 5.5163e-06 0.18453 -0.1092 -2.8627e-07 2.5765e-05 2.3131e-07 2.7343e-05 -4.5032e-05 6.4499e-06 -2.1934e-05 1.5794e-05 3.302e-06 1.1537e-05 0.12637 -2.1673e-05 -1.1361e-05 0.2888 -1.5873e-05 0.00030338 1.6055e-05 4.594e-06 7.242e-06 0.0048779 -6.4957e-07 5.743e-05 0.0004544 0.16808 5.0951e-06 -3.1726e-05 -0.11528 0.0011545 -5.9383e-06 0.00016358 -5.5585e-05 0.00012134 -6.6431e-05 7.6733e-06 2.5497e-05 -4.0223e-05 6.4935e-06 -4.6377e-06 -4.8474e-05 0.00028724
6.398e-07 -3.3294e-06 -5.0082e-06 3.4024e-05 8.5247e-05 4.0383e-05 6.6394e-07 4.8758e-06 -0.00011769 0.00047587 -2.2212e-06 5.1107e-05 3.9001e-05 2.3462e-05 -1.9721e-08 -1.3841e-06 -0.00012163 6.3207e-05 2.3529e-05 9.1027e-05 -2.6244e-06 0.00067738 -1.3045e-05 -2.2161e-05 0.00041907 0.31087 4.7577e-07 2.6129e-06 0.00022155 0.40779 -0.00018672 3.2937e-05 0.0083526 -4.3629e-05 -1.1927e-05 5.3568e-05 -0.0002799 -8.6291e-06 2.6378e-05 -4.1389e-05 -6.506e-06 -4.4241e-07 0.00010731 -3.7588e-05 2.1895e-06 8.0994e-05 0.00011555 -7.9683e-06 -0.00011378 0.0014813 0.0013478 3.3229e-05 4.2123e-06 -6.4699e-05 3.6562e-06 -0.00051329 4.4553e-05 0.001377 -3.9544e-05 -0.00052497
9.4305e-07 -1.9884e-06 -7.6718e-06 5.7062e-06 0.35381 -7.6428e-05 -1.3576e-05 1.666e-05 0.50204 -4.7635e-05 2.7041e-05 5.4561e-06 -3.6414e-05 9.1386e-05 -3.7908e-07 -4.1562e-05 -9.3519e-05 0.30072 3.1355e-05 0.00099125 2.3882e-06 -0.00025746 1.2814e-06 -0.0001295 9.5693e-05 0.0026938 -5.8229e-06 4.2302e-05 0.32525 0.40784 -0.00012968 -1.8105e-05 8.6782e-05 1.3636e-05 -6.5842e-05 2.0302e-05 -7.3791e-05 -1.3874e-05 3.0163e-06 0.0042156 2.4858e-06 -9.0226e-05 0.00021293 -0.00050209 -5.2561e-06 0.44248 9.0964e-05 0.00014554 0.0014028 -0.00015665 -0.0004047 0.00015711 5.509e-06 0.24476 -1.357e-06 0.00051563 -7.4704e-07 0.51882 0.00010109 0.010607
-9.5464e-07 1.7383e-06 1.8025e-07 0.00027159 -2.2784e-06 -1.7687e-06 -4.2551e-07 2.7326e-05 6.2522e-06 -1.2247e-06 7.26e-07 5.477e-08 3.3539e-06 1.0582e-06 2.0554e-07 -2.0788e-06 2.6018e-06 7.4443e-07 1.6932e-05 -2.8048e-05 -1.0739e-06 2.6811e-05 1.156e-05 -1.0594e-06 1.7073e-05 -5.9621e-06 -1.7764e-05 -3.7599e-07 -4.1975e-07 -8.3222e-07 -3.6501e-05 9.0471e-06 3.2193e-06 -6.968e-06 -3.9188e-06 -1.0391e-05 1.8128e-07 4.88e-06 8.5069e-07 6.4355e-05 -9.8086e-07 -3.1057e-06 9.8454e-06 1.0268e-06 1.1208e-06 3.3464e-06 3.9054e-05 -1.332e-05 3.7653e-07 4.8195e-06 2.4297e-06 -6.1887e-06 -7.9727e-07 0.0069431 -1.1601e-06 1.8064e-05 6.55e-06 1.3013e-05 4.3284e-06 2.0874e-05
5.2216e-06 3.5571e-05 -5.82e-06 2.7264e-05 -1.9716e-05 0.18146 -9.7697e-07 0.00024254 6.5636e-06 0.18234 0.18567 0.18211 8.7124e-05 0.00012824 -2.0593e-06 -2.5349e-05 1.685e-05 5.9832e-05 0.16967 0.20841 1.3128e-05 0.0010262 2.3316e-05 -5.452e-06 -2.5752e-05 0.30784 -1.1559e-05 1.8118e-05 -9.1433e-05 -5.6815e-06 -0.073218 0.3156 -4.013e-05 -2.5296e-05 1.0602e-05 -1.4315e-05 -0.00019483 -0.00013186 1.2466e-05 -2.8915e-06 -1.5973e-05 -2.6288e-06 -0.00014667 -0.069185 -2.4951e-05 4.0202e-05 0.2175 -2.731e-05 -9.9566e-05 -0.00011062 -4.2732e-05 -0.00046458 1.1775e-05 0.0020204 7.1257e-05 -0.00031493 8.3898e-05 -0.00023124 -6.5137e-05 -0.00015636
0.28863 0.17408 0.27749 -4.1377e-06 3.6122e-06 0.18111 1.0803e-06 0.19607 -2.0433e-06 0.18201 1.1054e-05 0.18205 2.2605e-05 -6.5532e-06 5.5028e-07 -1.3237e-06 0.25045 1.3263e-05 0.16942 0.20773 7.2628e-06 -7.7752e-05 0.44732 0.35222 7.5775e-06 -3.9352e-05 0.30023 -1.8206e-05 -3.2552e-05 5.0855e-06 -0.07278 0.31553 -4.4769e-05 1.0978e-05 -1.2838e-05 0.33235 0.0008133 2.2012e-05 0.40863 -0.00014231 7.423e-06 -1.3661e-05 -4.0038e-05 -0.068912 -1.0187e-06 -1.4034e-05 0.21796 -0.00022912 8.2007e-07 0.00090198 7.1224e-05 0.44983 0.50069 0.00013292 0.44762 0.00059246 0.33099 0.00010987 -5.9002e-05 -8.327e-05
2.3716e-05 7.976e-05 5.0734e-05 9.8178e-08 1.3382e-05 0.0013176 5.599e-06 0.19665 -2.9376e-06 0.18355 0.0011896 0.18359 -9.1765e-06 1.568e-05 1.0547e-05 -1.2175e-05 -2.8935e-05 4.9108e-05 -0.0022875 0.10962 7.0166e-05 0.22995 -3.9599e-05 -0.0001215 1.0148e-06 0.00202 -2.708e-05 0.0028186 -9.545e-05 -0.00022021 0.082765 -0.00018549 -6.9127e-06 -0.00015924 3.1492e-05 -1.7768e-05 0.00047996 5.5219e-05 -0.00012554 0.00090213 -3.6514e-05 -4.1915e-06 1.5863e-05 0.058507 -6.2054e-06 0.0011341 0.095366 0.00022409 3.9145e-05 0.00056437 0.0031822 -2.5144e-05 -4.7693e-05 0.24214 0.00011152 -0.0009183 -0.00020278 0.00031048 0.0014799 -0.00086405
2.0235e-06 -4.4088e-06 -2.1759e-06 3.8401e-06 1.0271e-06 0.17947 -4.0684e-07 -1.0643e-05 1.133e-05 -2.0664e-05 -5.5674e-07 2.0641e-05 -6.3967e-06 -8.0374e-06 1.6e-07 -5.1727e-05 1.0748e-05 -4.6179e-07 0.1724 0.10043 8.1022e-07 2.3216e-06 -8.816e-06 2.6478e-05 0.37769 -3.3583e-06 6.7866e-06 -1.1446e-05 -3.3139e-05 4.2371e-06 -0.15433 1.1565e-05 -2.1591e-06 1.7681e-05 -4.8644e-05 1.0019e-07 5.0564e-06 1.313e-06 -6.7817e-06 -5.1875e-06 -5.1811e-06 0.0001063 -2.4972e-05 -0.12821 -5.5223e-06 -1.246e-05 0.12183 4.1005e-06 -3.3216e-06 -0.00024228 -5.6893e-05 -0.00034567 9.5242e-06 1.3912e-05 -1.7513e-06 -1.8352e-05 -4.1517e-06 -1.0225e-05 -6.8303e-05 0.0022154
8.0816e-08 -4.9201e-08 -5.3239e-07 5.42e-07 1.0446e-06 1.2293e-06 4.9869e-08 -1.6258e-07 0.49896 2.4058e-08 -5.0218e-07 -9.7736e-07 9.6377e-08 3.4163e-07 -2.3099e-08 -5.3447e-07 -7.3889e-06 1.7174e-07 6.0405e-09 3.8673e-06 4.5297e-07 -2.1368e-06 8.2957e-07 -1.0708e-05 5.6318e-05 1.7882e-05 3.9204e-07 -7.0893e-06 1.7201e-06 -1.2311e-05 -1.1912e-05 -4.4872e-07 0.00015568 1.7006e-07 9.3033e-08 -2.6358e-06 1.0147e-05 8.6154e-08 -1.336e-06 -5.1459e-05 -4.0215e-08 -1.3648e-06 -4.1465e-07 3.737e-05 1.6843e-07 3.8445e-05 3.9939e-05 8.5461e-07 4.2851e-06 -2.2607e-05 -1.2698e-06 2.688e-06 -2.3806e-07 1.2068e-05 -5.5075e-08 3.8425e-05 2.6392e-06 -8.6304e-05 -2.0989e-05 -2.6548e-05
1.7439e-06 0.17397 -1.4878e-05 3.4252e-06 8.5548e-07 0.17255 0.28862 0.19601 3.078e-06 -9.8644e-06 0.18555 1.7676e-06 0.27616 2.5338e-06 0.5 8.9732e-08 1.9686e-05 5.693e-06 0.18227 -0.0017725 -9.2702e-07 1.4334e-05 7.1151e-07 5.6126e-06 5.4741e-07 5.4376e-06 -2.0389e-05 4.4704e-06 -1.531e-05 4.3269e-06 0.20766 -6.9422e-06 -1.6202e-05 0.28858 0.35371 1.9758e-05 1.3404e-05 2.8314e-06 2.2441e-05 1.8562e-05 0.44711 0.37795 2.3082e-05 0.22702 4.2909e-05 1.2316e-06 -0.01948 1.008e-05 7.2531e-05 0.00020768 -2.9433e-05 0.00010386 3.2093e-05 -2.1544e-05 1.9577e-06 1.1645e-06 1.1068e-06 9.9343e-06 -1.8065e-06 0.00027859
3.5051e-06 5.6646e-06 6.9643e-06 1.5726e-05 2.2838e-05 0.18191 -3.6297e-07 -7.5313e-06 9.5605e-05 0.18225 3.1739e-06 0.1822 1.538e-05 0.00024115 4.5342e-07 5.8988e-07 0.2495 0.30049 0.17041 0.21134 0.57735 0.2289 -2.1538e-05 -1.3468e-05 3.8956e-05 7.5825e-05 2.7762e-05 2.5268e-05 -5.4491e-05 0.00030885 -0.076628 -3.7196e-05 0.0004465 -1.6224e-06 -2.1807e-05 -0.00027963 2.8051e-05 2.378e-05 -1.683e-05 2.43e-05 7.9766e-06 1.0155e-06 0.40685 -0.07144 4.7035e-06 -1.2697e-05 0.21951 6.9285e-05 1.4476e-06 -9.7103e-05 4.3138e-05 -0.0004082 4.129e-06 -6.8028e-05 -0.00011015 0.57732 -1.9634e-05 -8.9934e-05 -2.8377e-05 -0.0002223
1.6035e-06 0.17397 -1.473e-05 3.569e-06 7.9844e-07 0.17257 0.28863 0.19601 3.8056e-06 -9.613e-06 0.18554 -5.8746e-07 0.27615 1.7382e-06 -2.6242e-05 2.611e-07 1.8354e-05 5.9764e-06 0.18225 -0.001792 -1.1498e-06 1.4372e-05 1.571e-06 7.4153e-06 -3.4939e-07 -4.9841e-05 -2.0205e-05 6.0712e-06 -1.5067e-05 4.4288e-06 0.20769 -6.4486e-06 -1.7266e-05 0.28859 0.35369 2.097e-05 1.7139e-05 1.5294e-06 2.1657e-05 1.7247e-05 5.4203e-05 0.37793 2.4259e-05 0.22704 3.9649e-05 1.4867e-06 -0.019514 8.3138e-06 0.49965 0.00021014 -3.1263e-05 0.00010418 2.9411e-05 -2.2858e-05 2.244e-06 2.2383e-06 -2.3744e-06 -3.8837e-05 -3.3447e-07 0.00028877
2.0795e-06 -3.275e-06 3.1857e-06 -2.0741e-06 -1.1373e-05 0.0019484 -2.2749e-07 -1.8229e-06 6.5914e-05 -6.6384e-07 -2.6151e-06 4.8155e-05 2.3902e-06 -4.946e-05 -2.4404e-07 -6.816e-07 0.24922 -2.4988e-05 -0.0022299 0.10737 2.8072e-06 -4.5514e-05 1.2087e-05 -1.23e-05 1.831e-05 -1.3064e-05 3.8422e-05 8.1827e-06 -2.5664e-05 -3.6333e-05 0.081011 1.2195e-05 0.43704 9.7862e-06 6.7309e-06 -0.00038004 -9.4547e-05 1.14e-06 -2.8132e-05 1.5527e-05 2.9324e-06 -2.4649e-06 -6.9382e-05 0.059214 -3.4265e-06 4.7164e-05 0.096573 -9.2073e-06 -2.3372e-06 -0.00023405 0.00037294 -0.00013074 1.823e-05 -3.4114e-05 0.00010585 0.00022608 3.7947e-05 -0.00012056 -5.1369e-05 0.00018736
0.28869 0.17434 0.00010433 -1.7497e-05 2.3847e-06 0.0020329 -4.9488e-06 0.19623 -2.9384e-06 3.0408e-06 0.00012935 -6.1792e-06 -1.1866e-05 -7.6558e-06 4.9422e-06 -3.4141e-06 0.25111 1.031e-05 -0.0021197 0.10761 -1.2117e-05 -0.00010792 -0.0001752 0.35239 1.9021e-05 -7.2474e-05 0.30213 -3.0618e-05 -2.9611e-06 8.0885e-06 0.080703 0.31656 -7.8767e-05 9.7808e-06 -4.0663e-05 0.33281 0.0002621 2.0676e-05 0.0016656 -0.00014626 9.5982e-06 -2.2577e-05 -9.0315e-05 0.058791 2.7362e-06 -6.4499e-06 0.097296 -0.000212 6.734e-06 0.00092025 8.2762e-05 0.0066421 0.0039387 -4.2122e-05 -0.00037001 0.00041531 0.33501 6.6077e-05 -5.15e-05 -0.00034752
1.1314e-06 0.174 -9.1993e-06 -1.7956e-06 8.5978e-07 0.0018862 5.5353e-07 0.19602 -1.3903e-06 -1.7364e-05 0.18553 1.4848e-05 4.1952e-05 -1.1711e-07 1.7714e-06 1.9318e-06 1.5699e-06 1.1351e-05 -0.0023427 0.10744 9.0498e-07 -2.1758e-05 -4.9923e-06 -2.292e-05 -9.2069e-06 1.1886e-06 1.4093e-06 4.879e-06 -4.3509e-05 1.3767e-06 0.081887 2.3746e-07 -1.1424e-06 -6.6217e-06 2.9111e-06 7.1081e-05 4.6743e-05 3.5314e-06 2.011e-05 -0.00020709 1.465e-05 -2.6227e-05 -2.9533e-06 0.059039 2.35e-06 1.8902e-05 0.095969 -1.2155e-05 -1.2578e-06 6.3588e-05 4.1752e-05 9.9655e-05 6.7704e-06 -1.2199e-06 -6.1198e-06 8.6769e-05 -8.0888e-06 9.1095e-06 0.40223 0.00012775
0.28863 5.8127e-06 -2.0043e-05 0.31656 -6.5452e-06 2.614e-05 0.28885 1.885e-05 -8.0251e-07 7.7808e-06 0.18594 -3.8643e-05 1.0843e-05 2.4436e-05 1.4003e-05 8.6126e-06 0.24937 4.9863e-06 -4.2034e-05 -0.00012349 -9.5217e-06 -2.8471e-05 3.5934e-06 -0.00019885 4.1834e-06 7.2616e-05 0.30289 -9.9308e-07 -2.8229e-05 2.4818e-07 -6.3751e-05 -9.3278e-05 4.9179e-05 1.0208e-05 6.4644e-07 0.33251 -0.00034779 -1.4084e-06 -0.00044349 -8.8563e-05 1.9678e-06 -7.4399e-06 -7.1556e-07 0.00011805 -2.8392e-05 -4.3807e-05 0.00013801 0.40728 -1.0559e-05 -0.00020951 2.3426e-05 -0.00059094 0.49785 -5.2281e-08 0.00020737 0.00016694 0.33558 -1.7797e-05 -0.00018231 -7.6522e-05
0.2887 0.00029883 -1.0913e-05 0.31655 -6.6876e-06 4.2359e-06 0.28884 0.00018546 -8.9602e-07 1.0068e-05 0.18607 -9.2857e-05 -2.7572e-05 2.2363e-05 1.7965e-05 7.2306e-06 0.25004 2.9952e-06 -8.5195e-05 -0.00038818 -1.7878e-05 -3.6993e-05 -0.000444 -0.00011366 3.9639e-06 4.1275e-05 0.30502 -6.4115e-07 -2.3904e-05 5.7227e-07 5.9128e-05 0.0011148 1.413e-05 1.5465e-05 -3.0704e-05 0.33292 -0.00022792 -1.1266e-06 -0.00028028 -8.6263e-05 4.0286e-06 -1.5023e-05 -7.8384e-06 0.00050432 -2.2651e-05 -4.7309e-05 0.00050064 0.40732 -6.0571e-06 -0.00022037 2.7394e-05 -0.0006255 0.0010841 -0.00020871 -0.0011846 0.0001148 0.34032 -1.7253e-05 -0.00017988 -0.00031245
1.5464e-06 0.17395 -1.5556e-05 1.8034e-06 5.2519e-07 0.17067 4.0371e-06 0.19603 5.9009e-06 5.2984e-06 -0.00064419 -8.4202e-07 0.28215 5.5234e-06 -1.5925e-06 5.615e-07 1.4489e-05 7.5071e-06 0.18538 -0.11158 -2.6492e-06 3.0097e-05 -1.313e-05 8.8011e-05 -1.392e-05 3.4459e-06 -1.8297e-05 8.8915e-06 1.8174e-05 8.6596e-06 0.12833 1.9257e-05 1.152e-05 0.28885 -4.391e-05 -9.7916e-06 2.0463e-05 -4.3038e-06 1.0676e-05 -5.0091e-05 -4.4788e-05 -0.00019691 1.837e-05 0.16946 -0.00032804 0.00010387 -0.11768 7.1588e-05 -1.0005e-05 0.00022433 0.00021465 9.5268e-05 1.4208e-05 -4.4448e-05 -9.0053e-07 6.8752e-05 -1.0268e-05 8.683e-06 -0.00030754 0.00012792
1.7701e-06 0.17397 -1.5416e-05 2.7353e-06 4.9896e-07 0.17257 0.28863 4.8515e-06 4.0051e-06 -9.5133e-06 0.18554 -3.1492e-07 0.27617 4.0394e-06 -2.679e-05 -5.0934e-07 1.5164e-05 3.079e-06 0.18226 -0.0017854 -5.1992e-07 1.4097e-05 2.1872e-06 8.9009e-06 2.0318e-07 -5.0422e-05 -2.3245e-05 6.1204e-06 -1.5813e-05 4.4302e-06 0.20769 -6.3245e-06 -1.8777e-05 0.28859 0.35348 -1.3538e-05 1.7445e-05 9.5567e-07 1.1731e-05 1.8568e-05 5.9456e-05 0.37798 2.4416e-05 0.22704 0.5 2.3853e-06 -0.019519 1.1961e-05 0.49965 0.00020215 -2.9604e-05 0.00010444 2.0175e-05 -3.635e-05 3.2275e-06 2.4051e-06 -2.102e-05 -4.4006e-05 -6.92e-06 0.00028819
-5.1433e-08 -8.4956e-08 -2.7367e-06 3.5295e-06 1.8403e-06 0.18103 -7.8379e-07 0.19602 3.1898e-06 5.4206e-06 0.18551 5.3546e-07 8.3794e-05 -9.4001e-06 -1.5971e-07 5.723e-07 6.3627e-06 9.8657e-07 0.16928 0.20725 5.8691e-07 9.1968e-07 1.6377e-06 4.9344e-06 -4.5371e-06 8.3701e-07 7.6285e-06 2.6596e-06 -2.4673e-05 6.0175e-07 -0.072185 3.5469e-05 1.8527e-06 -1.6359e-05 1.2244e-06 3.0881e-05 4.4989e-07 4.4555e-06 1.8275e-05 -5.0175e-06 6.585e-06 -1.688e-06 2.8527e-05 -0.068458 2.8035e-06 1.3489e-05 0.21725 -2.1006e-05 -3.5342e-06 -4.4335e-06 2.2871e-05 -0.00020421 2.1465e-05 -1.4071e-05 1.5859e-05 6.9878e-05 4.2364e-05 -6.9742e-06 -6.9566e-06 0.00012499
2.9696e-06 0.1745 1.849e-05 1.1961e-05 1.5316e-06 0.17238 -1.287e-05 1.4402e-05 7.6275e-07 0.18351 -1.4725e-05 0.18225 -8.611e-06 8.5029e-06 3.8117e-06 -3.9707e-07 2.0715e-06 2.5111e-05 0.18171 -0.0031238 3.8276e-05 0.22791 -5.1269e-06 -7.2227e-05 -8.1023e-06 -3.366e-05 1.2208e-05 2.128e-05 -7.4538e-05 4.0047e-06 0.21075 -4.5139e-05 -2.0872e-05 1.8781e-05 5.8469e-05 9.8608e-06 -1.7669e-05 -1.7228e-05 -8.8586e-06 -8.7174e-06 2.6828e-05 -6.9047e-07 4.5599e-05 0.22858 -2.5948e-05 1.1861e-05 -0.020813 5.8218e-06 -1.8521e-05 -5.1309e-07 -5.8616e-05 -7.5566e-05 2.2701e-05 0.00073492 -1.3687e-05 0.00031373 5.5835e-05 0.00011858 3.1566e-06 -0.00030145
-1.3471e-06 0.00012334 -2.4803e-06 1.0149e-05 0.35332 0.17915 3.7995e-07 0.19604 8.6898e-06 0.18205 3.594e-06 0.18207 8.6267e-05 9.3424e-06 3.0211e-06 5.2894e-06 1.1645e-05 7.2297e-05 0.17172 0.10002 1.4794e-05 6.4634e-05 2.963e-06 3.3127e-06 -1.9222e-05 0.3085 1.991e-05 2.0163e-05 -0.00011783 0.00047124 -0.15373 -1.8332e-05 -4.8303e-05 -5.589e-06 -1.9829e-05 -1.0814e-05 -0.00014146 8.3971e-05 3.5588e-05 1.5734e-05 5.8175e-05 2.8559e-05 9.3984e-05 -0.12755 3.4748e-06 1.7965e-05 0.12137 0.00099857 -0.00010615 -7.3933e-05 -6.9e-07 -0.00016188 3.6409e-05 0.00087907 -6.2972e-05 6.8199e-05 0.00016488 -0.0001001 6.509e-06 -0.00010287
-3.5985e-06 4.1961e-05 0.27741 0.31601 0.35374 -1.4828e-05 -2.142e-05 1.4496e-05 -1.5009e-05 4.2331e-05 0.1857 6.295e-05 2.4207e-05 1.1217e-05 -3.5195e-06 4.2916e-06 2.8094e-05 4.8201e-06 0.00010254 1.1722e-05 8.7173e-07 0.22802 2.9214e-05 -0.00014513 -0.00020561 -7.1032e-05 -3.8898e-05 5.493e-05 -0.00010863 -1.1362e-05 -3.5324e-05 -7.8004e-06 -4.2164e-05 0.00015175 1.1598e-05 0.00018208 -0.00010217 2.4667e-05 6.8305e-06 0.33616 7.6346e-06 3.665e-05 0.41298 -9.7091e-05 -6.7213e-06 -6.0411e-06 -8.5891e-05 0.0010997 -7.7347e-06 -3.7752e-05 3.8929e-05 0.00015855 -0.00010734 0.0017803 2.174e-05 0.00036113 -9.0917e-05 -4.6474e-05 0.0010016 0.00079217
1.163e-06 5.7166e-06 -1.52e-05 1.8586e-05 7.366e-05 0.0019246 1.841e-06 1.7106e-07 -7.1563e-05 0.00042762 -1.7749e-06 5.5945e-05 2.1546e-05 -6.1097e-05 -1.7595e-06 -3.8776e-05 -0.00010811 7.157e-06 -0.0022595 0.10764 -1.2965e-05 0.00063163 -3.7828e-06 -2.8499e-05 0.38048 0.0010745 3.7198e-05 0.00051294 0.32094 0.0018511 0.080959 3.6282e-05 0.44363 5.6268e-05 -7.241e-05 -0.00012606 1.0213e-05 -9.0107e-07 2.4113e-05 0.0010215 -1.5395e-06 0.0001032 8.0849e-06 0.058837 -2.3324e-06 -8.3514e-05 0.09625 -3.7406e-05 1.8802e-05 0.50133 0.49845 -6.1135e-05 2.4953e-05 0.00052972 3.1413e-05 -0.00031957 2.833e-05 0.0018559 0.0018098 0.0053133
1.4095e-06 -1.4975e-05 -4.5706e-06 -1.0661e-07 -6.5851e-06 -0.00016338 1.0419e-06 -9.4268e-06 0.00040309 -1.2205e-05 0.18557 1.9566e-05 7.7414e-05 2.7703e-06 -2.6849e-06 -3.3222e-06 2.0692e-05 0.00035366 0.00013254 0.00059658 -1.0914e-06 -1.2307e-05 3.2354e-06 -4.0926e-06 2.5048e-05 0.00027942 -3.077e-05 3.611e-05 9.049e-05 5.0506e-06 0.00029336 2.409e-05 3.6815e-06 -8.8187e-06 1.0169e-05 1.5349e-05 0.00024746 -2.7775e-05 -1.3555e-05 4.4612e-05 -5.0769e-07 -2.7653e-06 4.2222e-05 1.4618e-05 -5.8399e-06 0.00069242 0.00049192 -1.9483e-05 -5.246e-06 8.6867e-06 -7.4628e-05 1.8602e-05 -8.742e-06 0.0012249 -1.8232e-05 -5.9681e-06 6.2462e-06 0.00013199 -1.3755e-05 5.2367e-05
0.28869 0.17434 0.00010433 -1.7497e-05 2.3847e-06 0.0020329 -4.9488e-06 0.19623 -2.9384e-06 3.0408e-06 0.00012935 -6.1792e-06 -1.1866e-05 -7.6558e-06 4.9422e-06 -3.4141e-06 0.25111 1.031e-05 -0.0021197 0.10761 -1.2117e-05 -0.00010792 -0.0001752 0.35239 1.9021e-05 -7.2474e-05 0.30213 -3.0618e-05 -2.9611e-06 8.0885e-06 0.080703 0.31656 -7.8767e-05 9.7808e-06 -4.0663e-05 0.33281 0.0002621 2.0676e-05 0.0016656 -0.00014626 9.5982e-06 -2.2577e-05 -9.0315e-05 0.058791 2.7362e-06 -6.4499e-06 0.097296 -0.000212 6.734e-06 0.00092025 8.2762e-05 0.0066421 0.0039387 -4.2122e-05 -0.00037001 0.00041531 0.33501 6.6077e-05 -5.15e-05 -0.00034752
-5.2458e-06 -4.8779e-06 7.8836e-05 0.31629 -1.0438e-05 0.00046694 -5.9e-06 -1.3044e-05 0.0001011 0.0011457 4.7589e-05 0.00015101 1.2501e-06 -9.1784e-06 4.8398e-07 -1.0538e-06 0.00061208 0.00013842 -0.0021781 0.10876 2.6667e-05 0.0029515 -2.377e-05 0.0023675 1.3369e-05 0.00042609 -0.00016047 0.001815 0.001237 -1.9187e-05 0.083587 -4.597e-06 0.00056965 -1.2811e-05 3.4567e-05 -0.00025131 0.0019263 -2.7065e-05 -0.00011188 0.00058608 5.0025e-06 1.7672e-05 0.00041231 0.060173 -2.6333e-05 -2.4485e-05 0.10222 -0.0003243 5.1589e-07 0.00018752 -0.00079044 -0.00093415 3.2501e-05 0.00084065 3.5787e-05 -0.003088 -0.00028087 -0.0029142 0.0020973 -0.00045305
-1.9993e-06 -4.8298e-06 3.5532e-05 3.7312e-05 0.35348 9.2905e-05 1.3691e-06 -2.6503e-05 -0.00011405 0.00039105 -2.2353e-06 6.9662e-06 1.0788e-05 0.33451 1.2187e-06 8.6602e-06 -0.00022842 0.30067 0.00012952 0.00042325 -1.2525e-06 0.2287 7.2244e-06 -5.9295e-05 0.00044417 0.00097694 2.1535e-05 3.9572e-05 -4.5015e-05 0.40951 -0.0002627 -4.4734e-05 0.4743 7.9802e-06 -9.7967e-06 0.00015527 -3.7618e-05 1.8489e-05 7.5093e-06 -4.175e-05 -3.3566e-06 1.4276e-06 0.40881 -0.00028764 -4.4908e-06 0.00013134 2.7466e-05 -0.00010224 -3.9558e-05 0.00064978 0.00075073 2.2649e-05 1.8498e-05 0.0011269 -1.2916e-05 -5.5528e-05 -1.8388e-05 0.49887 -3.2877e-05 -0.0006519
0.28879 0.17441 1.3075e-05 4.2056e-06 7.3625e-07 0.0018707 -1.5082e-06 5.1802e-06 1.4133e-06 -2.6416e-06 3.8062e-06 4.9615e-05 -6.1059e-06 0.33289 6.5624e-06 -2.3721e-05 -2.8834e-07 4.0778e-06 -0.0025158 0.10768 3.3285e-06 1.4223e-05 8.1259e-06 -1.2625e-05 3.4517e-06 2.2372e-05 0.00013213 -2.6179e-06 -1.3433e-07 -1.0357e-05 0.081685 -9.5843e-05 -9.5692e-05 -3.4693e-05 -2.6014e-05 -1.1163e-05 2.0625e-06 -3.6799e-05 -2.2795e-06 0.00010524 -3.0136e-06 -9.7403e-06 -5.9161e-07 0.059274 -9.3519e-06 4.9109e-06 0.096494 0.00021828 -6.7768e-06 0.00051364 0.00041235 7.8979e-05 2.0874e-05 0.00063187 -0.00021713 5.6022e-05 -1.2171e-05 3.6786e-06 -5.1452e-06 4.5626e-05
9.7441e-09 -1.0784e-06 3.5815e-07 -4.8254e-07 2.3352e-06 -3.4544e-05 -2.1112e-08 -1.9491e-06 3.7971e-07 -1.4224e-06 7.7098e-05 -8.8258e-07 -4.7595e-06 -4.8686e-05 1.0955e-06 -3.0197e-08 4.2177e-05 0.0052932 -0.00010431 2.9163e-05 9.7128e-06 -2.1937e-05 2.049e-06 6.3109e-06 1.0828e-06 0.00016652 -4.3433e-06 9.7117e-08 0.00015855 9.0113e-06 0.00014273 -4.3656e-07 -4.7307e-05 1.2013e-05 7.7618e-07 -4.8165e-05 0.0032436 -1.3954e-05 -0.00015956 -3.3942e-05 2.5399e-07 -2.3215e-06 1.7908e-05 0.00012677 7.3259e-06 -3.3916e-06 5.4466e-05 -1.7224e-06 2.6013e-07 1.0568e-05 -6.2639e-06 1.028e-05 3.5403e-05 -6.9613e-06 9.4405e-06 -1.9004e-05 2.8712e-05 2.7722e-07 1.4748e-05 -4.5914e-06
1.9105e-06 0.17397 -1.5564e-05 2.5915e-06 5.56e-07 0.17255 0.28862 1.0674e-06 3.2775e-06 -9.7647e-06 0.18554 2.0401e-06 0.27618 4.835e-06 0.5 -6.8071e-07 1.6496e-05 2.7955e-06 0.18228 -0.0017658 -2.972e-07 1.4059e-05 1.3277e-06 7.0981e-06 1.1e-06 4.8558e-06 -2.3428e-05 4.5196e-06 -1.6056e-05 4.3283e-06 0.20765 -6.8182e-06 -1.7714e-05 0.28857 0.3535 -1.4749e-05 1.371e-05 2.2577e-06 1.2516e-05 1.9884e-05 0.44711 0.37799 2.3239e-05 0.22701 0.5 2.1301e-06 -0.019485 1.3728e-05 7.2529e-05 0.00019969 -2.7774e-05 0.00010412 2.2857e-05 -3.5037e-05 2.9413e-06 1.3313e-06 -1.7538e-05 4.7655e-06 -8.3921e-06 0.00027801
-1.1527e-06 1.286e-06 1.1098e-06 -8.4999e-06 4.1197e-05 -1.5394e-05 1.3675e-06 3.339e-06 5.5327e-06 -8.2872e-06 7.7977e-05 4.2109e-06 0.00011183 -4.1649e-05 2.8048e-06 -1.8763e-06 3.8984e-05 0.0052875 -8.4063e-05 7.3102e-05 1.1712e-05 7.2747e-05 4.2928e-06 5.9822e-06 1.6547e-05 0.0006252 -2.7837e-06 0.00018195 0.00026995 -3.1773e-06 4.22e-05 -2.5612e-06 -5.1237e-05 1.3699e-06 -2.512e-05 -0.00011946 0.003239 -2.7548e-07 -0.00015679 -2.4702e-05 2.895e-06 3.9219e-06 3.1983e-06 8.6864e-05 1.1977e-05 0.00094398 0.0002048 0.0010078 2.5716e-06 -4.6486e-06 -4.6952e-06 7.0542e-06 3.8464e-05 0.00072828 -7.3497e-07 2.7598e-06 6.6106e-05 -7.029e-05 0.00012739 -2.1148e-05
-1.1869e-06 -1.4159e-05 8.2607e-06 -5.9557e-08 -1.7272e-06 0.001824 5.9615e-07 3.096e-06 1.6215e-06 0.18219 -3.968e-06 0.18236 1.1753e-05 4.8135e-07 1.2177e-06 5.8399e-07 2.2283e-05 1.0485e-05 -0.0024268 0.1086 7.044e-06 0.22962 -2.2049e-05 -8.9087e-05 3.3161e-06 -9.467e-05 -2.0703e-05 3.4692e-06 -8.3057e-05 0.4083 0.081516 -3.6e-05 -5.8166e-05 -6.3791e-06 1.8632e-05 -3.1873e-06 -4.4481e-05 0.37798 2.5675e-06 -4.8048e-05 -4.0924e-06 -2.7385e-06 -4.4071e-05 0.058354 -5.8629e-06 1.6968e-05 0.095656 -2.5414e-05 1.5978e-05 -1.6553e-05 -0.00038271 1.1933e-05 1.138e-05 -6.983e-05 -9.4517e-06 -0.0012621 -3.1178e-05 -0.00049491 -9.9274e-05 -0.00087279
1.7439e-06 0.17397 -1.4878e-05 3.4252e-06 8.5548e-07 0.17255 0.28862 0.19601 3.078e-06 -9.8644e-06 0.18555 1.7676e-06 0.27616 2.5338e-06 0.5 8.9732e-08 1.9686e-05 5.693e-06 0.18227 -0.0017725 -9.2702e-07 1.4334e-05 7.1151e-07 5.6126e-06 5.4741e-07 5.4376e-06 -2.0389e-05 4.4704e-06 -1.531e-05 4.3269e-06 0.20766 -6.9422e-06 -1.6202e-05 0.28858 0.35371 1.9758e-05 1.3404e-05 2.8314e-06 2.2441e-05 1.8562e-05 0.44711 0.37795 2.3082e-05 0.22702 4.2909e-05 1.2316e-06 -0.01948 1.008e-05 7.2531e-05 0.00020768 -2.9433e-05 0.00010386 3.2093e-05 -2.1544e-05 1.9577e-06 1.1645e-06 1.1068e-06 9.9343e-06 -1.8065e-06 0.00027859
2.3133e-06 0.17398 9.6875e-07 3.8797e-06 -2.0064e-07 0.0019086 7.8656e-06 0.19608 2.307e-05 2.2534e-05 1.0104e-05 8.1574e-05 0.27606 4.4911e-05 -4.2306e-07 4.3874e-05 1.4661e-05 7.2602e-06 -0.0022525 0.10761 -1.5463e-07 5.2101e-07 -1.7706e-05 2.2048e-05 0.3747 7.3618e-06 1.6269e-05 -1.5857e-05 -2.1888e-05 -3.0325e-06 0.081332 2.531e-05 -4.327e-06 -3.8563e-06 0.35337 3.6442e-05 -3.1467e-06 6.3719e-06 2.8457e-05 -1.5112e-05 2.695e-05 -0.00019654 9.9562e-05 0.058865 -4.3165e-05 2.2989e-05 0.095714 2.1619e-05 1.8774e-05 -0.00021222 0.00090394 8.0989e-05 1.3042e-05 7.7958e-05 1.1297e-05 7.8228e-05 1.5832e-05 -1.715e-06 -6.8625e-05 0.0086754
-4.2859e-06 2.2334e-06 1.7249e-06 -3.3251e-07 -1.421e-06 0.001931 -5.2561e-07 1.1381e-05 6.1844e-06 -3.7935e-06 2.4355e-05 -1.6806e-07 4.0029e-06 0.33307 2.2962e-07 1.3654e-06 2.9544e-05 5.9086e-06 -0.0022706 0.10744 1.7404e-06 1.0128e-05 1.6659e-06 -3.2571e-05 1.5659e-05 1.769e-05 2.3139e-05 -4.4712e-06 -1.21e-05 -6.4497e-06 0.081027 2.0627e-05 -0.00010681 -5.8834e-06 6.045e-06 1.3168e-06 -1.5312e-05 2.7966e-06 7.9521e-06 1.23e-06 6.6765e-06 -2.0074e-06 -3.2561e-06 0.058982 -8.2607e-07 2.3351e-05 0.09637 -1.4058e-05 3.031e-06 -4.3656e-06 -5.1097e-06 7.5482e-06 6.7374e-06 0.24003 6.994e-06 8.0814e-05 7.3775e-06 1.625e-05 -5.7986e-06 9.0042e-05
7.583e-07 0.1742 -2.7157e-06 -1.0824e-06 2.1772e-05 8.9555e-05 -1.4371e-05 0.19608 1.2225e-05 -1.4406e-05 -5.668e-06 2.6177e-05 -8.5419e-05 8.0188e-05 -0.0002976 -3.9098e-06 -4.5429e-06 5.3449e-05 0.00029819 0.00042948 -1.1893e-06 -2.1448e-05 1.6693e-05 -4.9425e-05 8.0784e-06 0.0032117 3.6451e-06 -1.7465e-05 1.0934e-05 2.6419e-05 -0.00057686 -0.000102 -2.7311e-06 -2.5933e-05 -7.1202e-05 4.9701e-05 4.4846e-05 0.37882 1.9881e-05 1.9051e-05 0.44763 -0.00014998 -1.9347e-05 -0.00036591 -1.8154e-05 2.0525e-05 0.00031417 0.00026232 0.0014587 1.4241e-05 -7.0375e-06 -3.8585e-05 2.2253e-05 0.24099 -0.00012622 -7.9996e-06 -2.7843e-05 0.0021348 -0.00013371 0.00050471
0.28863 0.17408 0.27749 -4.1377e-06 3.6122e-06 0.18111 1.0803e-06 0.19607 -2.0433e-06 0.18201 1.1054e-05 0.18205 2.2605e-05 -6.5532e-06 5.5028e-07 -1.3237e-06 0.25045 1.3263e-05 0.16942 0.20773 7.2628e-06 -7.7752e-05 0.44732 0.35222 7.5775e-06 -3.9352e-05 0.30023 -1.8206e-05 -3.2552e-05 5.0855e-06 -0.07278 0.31553 -4.4769e-05 1.0978e-05 -1.2838e-05 0.33235 0.0008133 2.2012e-05 0.40863 -0.00014231 7.423e-06 -1.3661e-05 -4.0038e-05 -0.068912 -1.0187e-06 -1.4034e-05 0.21796 -0.00022912 8.2007e-07 0.00090198 7.1224e-05 0.44983 0.50069 0.00013292 0.44762 0.00059246 0.33099 0.00010987 -5.9002e-05 -8.327e-05
1.232e-06 3.6269e-05 3.5691e-05 1.7799e-05 -4.9949e-06 9.7678e-05 -5.5887e-06 2.4083e-05 -1.0718e-06 0.1827 6.3366e-05 0.18208 -1.6654e-05 0.33312 -5.0263e-07 -6.4946e-06 -4.3603e-05 1.2357e-05 4.6456e-05 0.00060724 2.6239e-05 0.22864 2.3989e-05 -0.00010339 -1.3156e-06 1.0565e-05 9.8747e-06 1.0053e-05 -6.4498e-05 -2.0509e-05 -0.00041154 0.00012652 -0.00013414 -1.2828e-05 -2.187e-05 0.002794 -2.2988e-05 1.2228e-05 -5.2188e-05 0.0010329 -1.6593e-06 7.166e-06 -1.1296e-05 -0.00039363 8.2855e-06 -5.717e-06 -1.8763e-05 4.5034e-05 3.9313e-06 2.6233e-05 -5.972e-05 1.4254e-05 -2.1277e-05 -0.00014263 -2.4892e-05 9.0537e-05 0.00018882 0.00044115 -0.00027861 -0.00015074
1.2944e-06 4.6458e-05 0.00017436 0.00023732 -9.1105e-08 0.0017155 -7.3145e-07 0.00036915 -1.7704e-06 0.00024015 -6.693e-06 0.00014782 6.247e-06 -2.1555e-06 2.5994e-06 -5.2143e-06 -2.8831e-06 3.8703e-05 -0.0022251 0.10858 2.9478e-05 0.0011101 -4.3172e-06 -2.9683e-05 -9.5025e-06 0.001139 -8.0165e-06 1.1576e-05 -5.715e-05 -3.9627e-05 0.081707 -8.7832e-05 5.5158e-06 -0.00027441 8.2846e-06 -0.00031289 0.00070513 2.4591e-05 -7.4148e-05 0.00058345 4.6817e-05 -5.1057e-06 1.1278e-05 0.058419 -1.846e-06 4.8336e-05 0.095635 0.00036297 2.7625e-06 -2.6725e-05 -2.0263e-05 -4.9196e-05 -7.2386e-05 0.0011347 1.1674e-05 -0.00055021 -0.00015195 -0.00017101 0.00027026 -0.00028984
0.28861 3.8634e-06 3.0801e-06 -6.3615e-06 1.0173e-06 1.1479e-05 -2.2771e-06 3.0356e-05 -8.1099e-06 0.00066083 -2.1377e-05 0.00025454 8.2914e-06 3.2932e-05 -5.7377e-08 0.57718 0.00011649 8.7949e-07 -4.3126e-05 -1.4049e-05 -4.7502e-06 1.4406e-05 4.3224e-05 7.1417e-05 0.00087649 -1.6943e-05 0.29998 2.6437e-06 5.0319e-05 -1.6661e-06 5.3986e-07 -8.2979e-06 5.4672e-06 -1.335e-06 2.2949e-05 -4.6176e-06 2.9559e-06 -5.86e-06 1.066e-05 2.4179e-07 1.0078e-07 2.5395e-07 -1.5348e-05 1.1919e-05 -1.1491e-05 -6.6816e-06 -1.4811e-05 -4.881e-06 -5.8194e-06 -4.396e-06 -3.6694e-06 -0.00038426 3.9823e-05 -0.0001417 -6.431e-06 -8.3075e-05 -8.2145e-05 -2.9201e-05 -6.8652e-06 0.1641
5.4614e-07 1.1234e-06 0.27714 4.1783e-06 -1.8002e-07 0.0019529 -5.6906e-07 1.6435e-06 2.059e-06 0.18197 0.1855 0.18198 9.3953e-05 3.2484e-06 -1.6248e-06 8.3045e-07 1.0296e-05 5.4914e-06 -0.0022073 0.10755 9.1774e-06 -1.2534e-05 9.4606e-06 -1.9048e-05 7.7908e-06 -2.9914e-06 2.7441e-05 -2.804e-07 -2.5033e-05 -1.1307e-05 0.081002 1.9429e-05 -8.111e-06 -5.8172e-06 3.2497e-06 -2.521e-05 1.7645e-05 6.2981e-06 7.4154e-06 -1.8037e-05 4.4349e-06 -2.6413e-06 8.6978e-06 0.058762 1.1015e-06 2.9829e-05 0.096013 -1.2952e-05 1.4257e-06 -1.6763e-05 4.4868e-05 -2.2092e-05 -4.4675e-05 1.8613e-05 -2.1703e-06 0.0001051 9.5131e-05 5.3194e-05 -2.7487e-05 -3.7795e-05
1.5284e-07 -5.1673e-07 1.1943e-08 -1.4085e-06 -2.7394e-06 -1.2657e-05 1.0904e-07 -4.5337e-07 -7.7875e-07 -1.765e-05 1.0954e-06 -1.1036e-05 5.2646e-07 1.671e-05 -5.4474e-08 5.6654e-08 -1.7412e-05 -3.167e-05 1.178e-05 0.00011234 1.2215e-07 5.3978e-07 9.276e-06 -2.4089e-05 1.2662e-06 0.0024731 -6.9266e-07 1.3143e-05 4.4505e-06 -7.2065e-06 2.2344e-05 -8.2864e-05 2.7203e-06 1.1348e-06 6.1166e-06 1.2359e-05 -7.8772e-05 -1.6797e-06 7.7766e-06 2.243e-06 -3.457e-07 -4.1053e-06 2.2604e-07 -5.6898e-05 -1.6874e-06 3.4702e-05 -5.2109e-05 3.7351e-07 -1.3873e-06 -1.143e-06 -8.6497e-06 2.924e-05 -4.0394e-06 3.1303e-05 4.1298e-07 -4.312e-06 2.4705e-05 1.4066e-06 -5.4886e-06 -2.2927e-05
3.5051e-06 5.6646e-06 6.9643e-06 1.5726e-05 2.2838e-05 0.18191 -3.6297e-07 -7.5313e-06 9.5605e-05 0.18225 3.1739e-06 0.1822 1.538e-05 0.00024115 4.5342e-07 5.8988e-07 0.2495 0.30049 0.17041 0.21134 0.57735 0.2289 -2.1538e-05 -1.3468e-05 3.8956e-05 7.5825e-05 2.7762e-05 2.5268e-05 -5.4491e-05 0.00030885 -0.076628 -3.7196e-05 0.0004465 -1.6224e-06 -2.1807e-05 -0.00027963 2.8051e-05 2.378e-05 -1.683e-05 2.43e-05 7.9766e-06 1.0155e-06 0.40685 -0.07144 4.7035e-06 -1.2697e-05 0.21951 6.9285e-05 1.4476e-06 -9.7103e-05 4.3138e-05 -0.0004082 4.129e-06 -6.8028e-05 -0.00011015 0.57732 -1.9634e-05 -8.9934e-05 -2.8377e-05 -0.0002223
4.8681e-06 0.17407 -5.6844e-06 3.4401e-05 4.0907e-05 0.18431 -1.6919e-05 4.1911e-05 9.8659e-05 7.1353e-05 -6.6394e-06 2.5773e-05 1.378e-05 0.33412 -1.5502e-06 -1.9455e-05 -7.5339e-05 0.30012 0.17137 0.2109 5.3115e-07 0.00077605 2.4387e-06 -0.0001134 -1.9839e-05 0.31144 -1.8693e-05 5.3936e-06 -0.00011563 0.00034386 -0.076427 0.31692 0.00022259 2.246e-05 -4.2884e-05 -3.7972e-05 -0.0002323 4.7302e-05 -4.9517e-05 -1.0639e-05 5.829e-05 -7.1485e-05 -0.00054166 -0.071562 -8.048e-05 2.9803e-05 0.21952 0.00028623 0.0012685 -0.00014421 -9.2855e-05 -0.0002585 -5.8475e-06 0.00017086 -0.00018252 0.00036868 -0.0003116 0.0019592 -0.00015954 0.00050792
1.7701e-06 0.17397 -1.5416e-05 2.7353e-06 4.9896e-07 0.17257 0.28863 4.8515e-06 4.0051e-06 -9.5133e-06 0.18554 -3.1492e-07 0.27617 4.0394e-06 -2.679e-05 -5.0934e-07 1.5164e-05 3.079e-06 0.18226 -0.0017854 -5.1992e-07 1.4097e-05 2.1872e-06 8.9009e-06 2.0318e-07 -5.0422e-05 -2.3245e-05 6.1204e-06 -1.5813e-05 4.4302e-06 0.20769 -6.3245e-06 -1.8777e-05 0.28859 0.35348 -1.3538e-05 1.7445e-05 9.5567e-07 1.1731e-05 1.8568e-05 5.9456e-05 0.37798 2.4416e-05 0.22704 0.5 2.3853e-06 -0.019519 1.1961e-05 0.49965 0.00020215 -2.9604e-05 0.00010444 2.0175e-05 -3.635e-05 3.2275e-06 2.4051e-06 -2.102e-05 -4.4006e-05 -6.92e-06 0.00028819
-9.3201e-06 -2.3664e-05 8.1233e-05 0.00025795 -1.9845e-05 0.001321 2.1235e-05 -1.5442e-05 0.00055172 -7.9689e-05 0.18603 7.0483e-05 8.8052e-05 -5.5127e-05 -2.0118e-06 -1.5694e-05 0.25064 0.30666 -0.0021285 0.10824 1.4858e-05 0.0027285 -1.4379e-05 0.0032316 2.5666e-05 0.33679 -0.00019688 0.0018668 0.32498 1.0803e-05 0.081444 7.005e-05 0.0006193 -1.5414e-06 3.0838e-05 8.5242e-05 0.5065 -4.9687e-05 -0.0006789 0.00061976 -4.7241e-05 9.829e-06 0.00051712 0.060196 -1.8981e-05 0.44651 0.1011 0.0031009 -0.00012988 0.00019773 -9.2351e-05 -0.00083017 -5.444e-05 -9.473e-05 -9.7454e-05 -0.0026604 0.00017413 -0.0026287 0.0021865 0.0059489
1.4228e-05 9.2242e-05 0.27745 0.00022649 -2.5789e-05 -0.00010715 4.028e-07 2.3719e-05 9.6136e-05 0.18254 0.18573 0.18275 5.7092e-05 9.4811e-07 1.1041e-06 8.8076e-05 0.001879 0.0001138 0.00018821 -0.00065122 -2.1174e-05 0.23611 3.5546e-05 0.358 0.00062667 0.00072717 5.9013e-05 0.0017352 0.0019474 -1.9193e-05 -0.00074882 9.267e-05 5.5266e-05 -0.00048912 2.7056e-06 0.0049005 0.51044 1.1451e-05 0.00070881 0.00035652 -1.1073e-05 -2.0733e-06 0.0002632 0.0010269 -8.0082e-06 5.3839e-05 0.0049889 -0.00087587 2.42e-05 0.50136 -0.00049812 0.0061839 0.0040875 0.00025666 0.00037571 -0.0038549 0.0011036 -0.0036342 0.0020818 -0.00042862
-4.2323e-06 1.7709e-06 8.8585e-05 0.00029816 1.2793e-05 -0.00032098 8.9953e-06 0.00010138 0.00040679 0.18279 0.00014407 0.18469 -8.2594e-05 3.0719e-05 2.0107e-06 2.5136e-05 0.00063806 0.00049612 0.00024004 -0.00059572 -2.8532e-05 0.0030425 -9.8356e-05 0.0023521 0.0025168 0.00028844 -0.00017636 0.44992 0.0020448 0.0008788 -0.00046528 -4.5954e-05 0.00083649 -4.9131e-05 -4.78e-05 -0.00021987 0.0020101 0.001005 -0.00013325 0.33689 -1.3921e-06 2.7541e-05 0.00039085 0.0013703 1.0485e-05 0.00014168 0.0043004 -0.00026743 2.3444e-05 0.002534 0.0025305 -0.00058542 1.6138e-05 0.24434 6.5731e-05 -0.0023267 -0.00025472 0.0030764 0.40382 0.00097551
6.2071e-06 5.811e-05 3.3735e-05 6.3175e-05 5.3566e-05 -3.4189e-05 -2.6474e-05 -2.6078e-05 1.3838e-07 -2.183e-05 9.2889e-05 -9.6882e-07 -4.4483e-06 1.7776e-06 -2.4568e-06 5.5996e-06 -6.2926e-06 7.1255e-06 -1.7811e-05 4.1946e-05 -1.4175e-06 9.495e-06 9.4436e-05 2.2914e-05 -8.4986e-06 0.0002547 -3.8066e-05 1.1856e-05 0.00020452 6.6655e-05 -6.3827e-06 1.4938e-05 1.7368e-05 0.00021056 -1.0266e-05 0.33431 0.00016436 1.8155e-06 -0.00014993 0.0050015 -2.8407e-05 3.1429e-05 0.00042429 7.2648e-05 5.8968e-06 0.00045238 0.00028984 0.40887 -2.0585e-05 -0.00025398 -4.1088e-05 -9.9418e-06 -0.00010531 1.7332e-05 0.00047997 1.5522e-05 0.32947 -0.00010832 -0.00010881 0.0018357
3.8523e-06 5.3899e-05 0.00017192 2.7223e-05 -1.4884e-06 0.0016265 -1.2256e-05 0.00010836 4.7121e-06 0.18335 -3.0931e-05 0.18228 0.00010732 4.4505e-05 -2.0081e-06 9.9243e-06 -1.3528e-05 4.809e-05 -0.0025839 0.1074 6.1202e-05 0.00036954 -5.0138e-05 -3.1442e-05 1.8434e-05 0.0011267 1.0503e-05 2.2487e-05 -6.1204e-05 -5.9348e-06 0.083196 3.9063e-05 9.1901e-06 -0.00025987 9.9716e-05 -0.00039262 0.00074128 -2.0756e-05 2.1207e-05 0.002675 -1.2386e-05 8.0749e-06 -2.4219e-05 0.059195 -6.0576e-05 3.3213e-05 0.095514 0.0003874 -2.1543e-06 -3.7159e-05 0.00083187 -1.0588e-05 -1.4613e-05 0.2406 9.982e-05 -0.00021771 0.00015021 -5.8801e-05 0.036299 0.0048395
