-2.7987e-07 7.4614e-08 3.6314e-05 -6.8457e-09 -3.351e-07 -2.02e-06 0.0003425 -1.6198e-06 -1.2313e-05 -5.7126e-07 1.2519e-07 -9.4866e-08 -2.5206e-06 -2.2983e-07 2.192e-06 -1.6248e-06 -1.6953e-06 -1.7991e-05 -1.4259e-05 2.0439e-06
4.1637e-06 1.3114e-06 0.00030074 6.2107e-07 0.00029905 3.0987e-05 0.00014201 0.00017903 -4.088e-06 2.8936e-06 1.7758e-06 5.6794e-06 -5.5938e-05 -2.7103e-06 0.00018096 9.1498e-05 3.9291e-07 0.00047769 0.00067336 0.00041653
0.00022213 9.9928e-05 1.7293e-05 1.0096e-06 9.162e-06 6.043e-05 0.1626 1.1835e-05 0.0045831 4.7622e-05 -2.1349e-05 0.00036443 -7.6012e-05 -0.00011 1.1248e-06 2.0693e-05 3.8662e-05 7.0097e-05 0.00061099 0.00015646
5.078e-07 -2.1784e-06 2.0145e-05 -1.2408e-08 1.9042e-06 3.8721e-05 0.00046482 6.7839e-05 -5.8852e-06 -1.032e-07 -6.7086e-08 7.7092e-07 1.4869e-06 5.6145e-08 6.1634e-05 7.351e-07 1.7024e-06 -1.6426e-05 1.354e-06 4.5176e-07
1.0897e-05 -1.1718e-05 9.4437e-06 -2.7766e-07 4.3806e-06 1.1039e-05 0.21497 -1.378e-08 -0.00012072 7.5102e-08 -1.8096e-05 1.6975e-05 0.00025298 -3.4065e-05 0.00016784 2.9053e-05 -9.5406e-06 -3.3283e-05 9.0428e-05 0.00042948
8.6672e-05 6.3506e-05 -4.0201e-06 6.907e-07 7.7763e-06 2.5718e-05 0.26676 5.643e-05 0.0037067 1.5399e-05 -2.5637e-05 0.00017993 -5.5208e-05 -7.3068e-05 6.1814e-07 3.741e-05 3.3772e-05 -1.8496e-05 0.00024935 -1.7153e-06
4.8483e-05 4.4775e-05 0.0003832 -1.5941e-07 0.18218 0.00094492 0.26511 7.9399e-05 -0.00017913 -2.0855e-05 -3.2276e-05 -3.9206e-05 -0.00028763 -0.00019917 0.21096 -0.00012099 -6.3548e-05 0.0020267 0.0014573 0.011635
4.8971e-05 6.8885e-05 2.9489e-06 0.0001972 0.0003298 4.2073e-05 5.0675e-05 -1.256e-06 2.8439e-06 -1.4924e-05 -4.3233e-05 -0.00015511 -0.00035079 -0.00044789 0.033742 5.6714e-06 -8.4165e-05 -0.00013581 1.6435e-05 0.18548
-1.6061e-05 -1.0751e-05 -3.5906e-06 3.5499e-07 0.47896 -6.6093e-07 -0.00017184 1.9603e-05 0.56166 -4.2994e-07 4.6515e-06 -7.9689e-07 -2.7104e-05 -1.108e-05 -0.00017072 -8.0311e-07 -3.0537e-05 -5.744e-05 2.2206e-05 1.5116e-05
-3.0707e-07 2.4194e-06 3.4406e-06 1.6144e-08 1.2593e-07 -4.6057e-06 5.2825e-07 0.47887 2.4263e-05 0.00012935 1.2779e-08 1.1269e-05 1.6577e-05 3.1621e-06 6.4153e-06 -5.9174e-06 9.2661e-07 6.6582e-06 4.7502e-08 -8.985e-06
0.13129 -7.3708e-06 1.3273e-06 3.1246e-06 -1.8599e-05 3.3502e-05 0.18423 1.3777e-06 1.0201e-05 9.3823e-05 -3.6462e-05 -0.00025613 -0.00014403 -0.00018848 -0.00032858 2.8264e-06 1.655e-05 0.15371 0.17063 0.12905
4.5203e-05 0.00013263 0.00042663 1.2417e-05 0.1937 0.1603 0.00025135 -1.4551e-05 -3.6213e-05 -2.3829e-06 -4.4541e-06 -0.00010279 -0.00017175 -0.00018294 0.39419 -0.00017389 3.6509e-06 0.12382 0.13975 0.1035
8.8846e-06 -4.1132e-06 -6.3623e-07 1.7994e-06 -4.8637e-07 -1.9857e-06 5.0619e-05 0.00082276 0.00010255 4.9047e-07 -6.8382e-06 -9.5099e-06 -6.0121e-05 -3.0053e-05 1.1708e-05 -4.1521e-06 -3.4303e-05 2.5852e-05 0.0017626 0.002046
-3.6284e-05 3.4325e-05 0.00010781 8.1402e-07 -4.2219e-06 0.26197 0.00024366 -5.539e-06 -2.9865e-05 0.00017233 7.5444e-07 1.4027e-06 3.5176e-05 -4.3667e-07 -1.468e-05 0.00063107 2.8429e-07 9.3519e-05 0.00031473 -7.2878e-06
0.12665 -7.1864e-05 -3.9678e-06 -1.8731e-07 4.9867e-06 -2.7598e-05 0.00022079 0.00018082 -5.9101e-06 2.2943e-05 -9.5851e-08 -2.0308e-05 -5.0572e-06 -2.2605e-05 9.5531e-05 -5.9024e-07 2.0313e-05 3.2376e-05 3.9615e-05 -2.5486e-06
0.00010705 6.5182e-05 2.8267e-05 8.7661e-07 -7.1482e-07 1.9632e-05 0.28939 1.1578e-05 0.0041033 2.0732e-05 -3.3415e-05 0.17179 0.00030966 0.00092584 -3.0384e-05 0.003023 6.3902e-05 0.2394 0.12559 0.00072572
7.6067e-06 2.0952e-05 -1.3975e-05 0.00026831 3.7434e-06 0.00018273 0.00042803 -1.1235e-05 -1.658e-05 -2.2198e-05 -1.0165e-05 0.00012615 -8.4369e-05 -2.0064e-05 -6.9906e-05 -1.8239e-05 -8.9118e-05 0.00015493 0.020276 0.0017771
2.0952e-05 -1.9384e-06 6.1763e-05 -3.6187e-07 -6.8971e-08 -1.0964e-06 0.00042011 0.00034709 -2.5759e-05 -7.8393e-06 7.8532e-07 2.8987e-05 -5.9072e-05 -1.6066e-05 1.5101e-05 0.00014266 1.1642e-05 0.0011431 0.00068265 -6.2095e-05
0.19077 -2.825e-06 1.5406e-05 -3.9885e-07 4.6348e-06 -3.0746e-05 -2.0379e-05 2.0546e-05 4.8673e-06 0.00011641 -1.47e-05 -7.5509e-05 -9.9865e-05 -0.00023085 -0.00037419 5.6309e-05 8.5073e-06 -0.00013115 0.0027263 0.18577
-2.9715e-06 -7.5652e-06 -4.0834e-06 1.9998e-07 3.7877e-07 -5.0373e-06 0.14809 0.00086238 -9.8437e-05 3.3954e-06 -1.4164e-05 0.00013334 -9.6863e-05 -3.9105e-05 5.512e-07 2.6287e-05 -3.6307e-06 0.00082873 0.00048386 0.00087636
-5.247e-06 3.3352e-05 8.2672e-05 7.1266e-07 2.6875e-05 0.00021597 0.00063904 0.00021861 -1.2689e-05 0.00039023 2.2269e-05 0.0010543 -2.3142e-05 -0.00019159 -2.358e-06 -2.0166e-05 7.843e-08 0.00029637 0.00019714 2.9608e-05
0.13129 -7.3708e-06 1.3273e-06 3.1246e-06 -1.8599e-05 3.3502e-05 0.18423 1.3777e-06 1.0201e-05 9.3823e-05 -3.6462e-05 -0.00025613 -0.00014403 -0.00018848 -0.00032858 2.8264e-06 1.655e-05 0.15371 0.17063 0.12905
0.15221 0.23642 -1.8373e-06 -1.7664e-07 3.0408e-05 5.7007e-06 0.00023395 5.1121e-06 -1.9305e-05 6.9248e-05 0.48893 0.25285 0.20576 0.32827 -0.00028174 -4.8565e-05 0.36212 -0.0046356 -0.00059902 0.16117
0.00011285 -2.2234e-05 0.00054555 6.3314e-06 -1.5996e-06 1.448e-06 0.0012095 0.00011758 0.0016727 0.0011207 3.8745e-06 -8.3376e-06 9.2659e-06 -1.6317e-05 0.00028333 -8.0711e-05 -1.4806e-05 0.0018109 0.09779 0.00052221
3.8815e-05 -3.1856e-05 -1.7102e-09 -2.004e-07 -3.0573e-06 -4.1645e-06 -2.3244e-06 1.1243e-06 0.00030101 -2.7686e-05 -3.2593e-05 2.0501e-06 -2.4711e-05 4.7308e-06 0.00044533 2.6489e-05 -1.4756e-06 0.00013426 -3.3262e-05 0.00016186
-5.6887e-07 -2.4497e-06 0.00016372 0.62338 1.4063e-06 -4.4183e-06 -1.051e-05 8.6674e-05 0.00011136 -8.8825e-08 -1.5067e-05 0.0010092 -4.6989e-05 -0.00025557 -1.7831e-06 0.0016616 -6.619e-05 -6.4691e-05 0.00037384 0.0010561
5.6059e-06 2.8908e-05 7.9155e-06 1.8949e-05 6.2308e-05 0.28013 -9.1642e-05 -1.355e-05 6.8465e-05 1.2431e-05 -1.2659e-05 -7.488e-05 -0.00038512 -6.5079e-05 0.0035188 -0.00014651 -3.0474e-05 0.0078245 0.23922 0.002729
0.00016329 0.00011108 6.0862e-05 1.1198e-05 2.1111e-05 4.016e-05 0.22873 9.675e-05 0.37538 3.6627e-05 -1.5662e-05 0.0002603 0.00028684 -8.8468e-06 0.0006274 -7.1776e-05 4.8002e-05 0.18984 0.20042 -0.00035097
2.3041e-05 0.00014622 -1.0556e-05 -1.0583e-06 -3.4856e-06 -1.9638e-05 0.42615 0.00014646 0.34286 -1.2546e-05 -0.00028476 -0.00014191 0.00065944 0.0014314 -0.00027465 1.6483e-05 0.0017724 0.1742 -0.00013416 0.14535
1.7932e-05 -3.5037e-06 -3.6569e-07 6.053e-08 1.4875e-06 -2.9463e-07 5.2028e-05 0.50792 2.4136e-05 -7.4142e-06 1.3816e-07 5.6038e-06 1.4791e-05 6.9515e-06 8.7263e-05 -6.9325e-06 9.7591e-07 3.0425e-05 8.0082e-05 -1.7228e-05
8.5127e-05 6.9021e-05 0.00091033 -2.0299e-06 0.43596 0.0020454 0.00066064 -6.3454e-06 -9.0974e-05 -4.0864e-05 -2.9032e-05 -0.00026491 -2.6604e-05 -0.00036434 0.042604 -0.00036498 2.7725e-06 0.26652 0.0016771 0.23361
1.5866e-05 0.000355 2.0309e-05 2.2263e-05 1.5327e-05 -1.5721e-05 4.0875e-06 1.5703e-05 4.0451e-05 1.5288e-05 2.0699e-05 -0.00021939 0.1678 -0.00040702 -0.00020694 4.3136e-06 -7.5923e-05 -0.0019471 0.17246 0.12418
3.153e-05 -5.7893e-06 0.00025117 0.00015826 1.6518e-06 3.6005e-05 -4.05e-05 3.8134e-05 4.3979e-05 4.9872e-06 1.1843e-06 0.00064984 0.00021974 -0.00013093 -3.8798e-05 0.0015383 -1.1878e-05 2.3931e-05 0.1786 -2.6993e-06
0.38537 0.29848 -1.5233e-05 1.5438e-06 2.1626e-05 2.121e-05 0.0013695 2.0934e-05 0.0078031 0.00029492 -1.439e-05 0.00040304 -0.0017069 -0.00011562 -7.2566e-05 -3.0523e-06 3.2031e-05 -3.0669e-05 0.00065949 0.0013659
0.16029 0.000338 -7.611e-06 -1.3161e-06 -8.0583e-06 0.25661 -4.3137e-05 -9.4752e-06 -2.0572e-05 1.2587e-05 -2.9122e-07 0.0024096 0.21132 0.014585 -9.5519e-05 7.6785e-05 -4.2849e-05 0.0011977 -0.00052657 0.014197
1.9423e-05 2.694e-06 0.00033841 6.2481e-06 0.00031276 5.6882e-05 4.0689e-05 0.00012322 0.00061693 1.6172e-05 -1.3472e-06 1.0554e-05 -8.0553e-05 -5.7831e-06 0.00010832 0.00010507 -2.613e-05 0.0002366 0.15818 0.00056612
0.00016329 0.00011108 6.0862e-05 1.1198e-05 2.1111e-05 4.016e-05 0.22873 9.675e-05 0.37538 3.6627e-05 -1.5662e-05 0.0002603 0.00028684 -8.8468e-06 0.0006274 -7.1776e-05 4.8002e-05 0.18984 0.20042 -0.00035097
0.00013238 -9.3382e-06 0.000487 1.8921e-06 5.4916e-06 3.2551e-05 0.00047416 0.00011018 0.0045823 0.0010121 6.6542e-07 7.588e-05 -6.7402e-05 7.2887e-06 0.00096358 -2.4662e-05 1.3586e-05 0.00010854 0.081269 -0.00015353
0.080192 -3.5072e-05 3.7148e-05 1.748e-06 0.00025568 5.5825e-05 0.0002604 0.00057434 0.0022709 4.7962e-05 -3.6544e-06 2.0598e-06 -4.5539e-05 -7.7828e-05 0.028838 6.5831e-05 -2.0246e-05 0.00057392 0.0023707 0.0017189
-1.7196e-30 2.6069e-29 -4.2036e-29 1.3443e-26 2.2653e-27 -2.8449e-27 -2.4157e-27 8.4352e-28 6.6029e-28 -1.4404e-27 1.8391e-28 1.7998e-28 8.4674e-28 8.37e-28 4.4717e-27 1.0546e-28 1.0896e-27 -8.9124e-26 1.2003e-24 4.4737e-27
0.28867 0.4481 -4.7654e-06 -1.1072e-06 1.2161e-05 3.7706e-06 -6.148e-05 4.427e-06 -2.5789e-05 0.00017202 -3.7177e-06 -0.00025157 0.37369 -0.00063313 -0.00037448 5.6177e-06 0.00014173 -8.0735e-05 -6.7825e-06 0.27709
0.28867 0.4481 -4.7654e-06 -1.1072e-06 1.2161e-05 3.7706e-06 -6.148e-05 4.427e-06 -2.5789e-05 0.00017202 -3.7177e-06 -0.00025157 0.37369 -0.00063313 -0.00037448 5.6177e-06 0.00014173 -8.0735e-05 -6.7825e-06 0.27709
0.16029 0.000338 -7.611e-06 -1.3161e-06 -8.0583e-06 0.25661 -4.3137e-05 -9.4752e-06 -2.0572e-05 1.2587e-05 -2.9122e-07 0.0024096 0.21132 0.014585 -9.5519e-05 7.6785e-05 -4.2849e-05 0.0011977 -0.00052657 0.014197
8.505e-05 1.045e-05 0.00059704 0.00011782 3.089e-06 1.6085e-05 -5.504e-06 0.23582 9.4211e-05 -8.4655e-06 -1.555e-05 0.19578 -1.9818e-05 0.00078236 -8.5918e-06 0.0019326 -1.9883e-05 4.6215e-06 0.00047802 0.00094068
5.3432e-05 5.9835e-05 8.9944e-06 0.00024179 3.3954e-05 0.22909 0.0002369 -6.5002e-06 1.1724e-05 0.00032978 -7.5777e-06 0.24156 0.00024071 0.0011695 -0.0001705 -1.5889e-05 3.2471e-05 0.00018601 0.00049213 0.13903
-2.3302e-07 1.9864e-06 0.00044464 -1.5391e-06 -6.2433e-07 5.0287e-07 -3.3057e-05 0.0005322 0.00022894 8.4411e-07 -4.7817e-06 0.00032208 8.8352e-06 -2.3842e-06 0.00034292 0.34454 3.1564e-06 -2.3093e-05 3.4877e-05 9.4945e-06
0.20948 0.00020809 -1.4481e-05 8.88e-07 0.00015829 0.00025066 0.00077985 4.5031e-05 0.0042653 0.7702 -1.5387e-05 0.0008247 -0.00018401 -0.00020051 0.0019094 2.0572e-05 1.576e-05 0.00068305 0.0011611 0.0011195
3.3297e-05 -4.1001e-06 0.00051194 1.0973e-06 4.9383e-06 1.0092e-05 2.4103e-05 0.00045091 2.8317e-05 4.3261e-06 -1.2104e-05 6.0591e-06 -1.4678e-05 -3.1831e-05 -7.8262e-05 6.1206e-05 -0.00010419 8.8913e-06 0.0001003 0.0019305
0 0 0 0 0 0 0 0 0 0 0 0 0 0 0 0 0 0 0 0
1.3728e-05 7.8436e-07 0.24432 1.5611e-06 0.00037981 6.5823e-05 0.00030368 7.9954e-06 1.1322e-05 -3.3987e-05 9.7788e-07 9.723e-05 0.00033951 0.00015496 0.0060708 0.36039 2.8767e-05 0.17489 0.17849 0.00054049
0.1055 -5.7606e-05 -8.0584e-07 -1.2653e-06 6.3604e-07 -2.8951e-05 5.3119e-05 0.00043807 -1.4082e-06 1.3466e-05 -4.8341e-06 1.1097e-05 -1.0465e-05 6.912e-05 -1.6567e-05 0.25113 -2.1366e-05 -4.2012e-05 0.00077221 0.00077705
-1.7754e-06 4.6968e-07 -6.5851e-06 2.5848e-06 -3.9724e-06 -3.8489e-05 0.00090965 -5.8079e-06 1.6432e-05 4.0531e-06 9.0722e-06 -1.3783e-05 -1.322e-05 -6.7068e-06 -4.2618e-05 -8.8559e-05 4.1951e-06 0.003229 0.0096605 -0.00050763
0.00015036 -3.9933e-05 0.38709 -4.1623e-06 8.3073e-06 0.0010019 0.0007636 0.00052942 0.00048609 0.0016674 1.5232e-05 -9.1691e-05 -0.00012164 -0.00020982 -0.00021527 -0.00027941 1.583e-06 0.0024594 0.0022612 0.1169
1.0132e-05 3.8658e-06 2.3522e-05 6.6921e-06 -1.2537e-06 2.9062e-05 0.00025048 2.5102e-05 0.32189 9.0454e-06 -2.1852e-06 2.9765e-05 -0.00014592 -7.6233e-06 0.00023221 2.5828e-05 -1.8052e-05 0.00030078 0.16761 0.00078174
1.7932e-05 -3.5037e-06 -3.6569e-07 6.053e-08 1.4875e-06 -2.9463e-07 5.2028e-05 0.50792 2.4136e-05 -7.4142e-06 1.3816e-07 5.6038e-06 1.4791e-05 6.9515e-06 8.7263e-05 -6.9325e-06 9.7591e-07 3.0425e-05 8.0082e-05 -1.7228e-05
3.3032e-06 8.4496e-06 0.15874 1.305e-06 0.00023618 2.5933e-05 -0.00011145 3.3111e-06 -4.5457e-06 -1.9419e-05 -1.2125e-05 0.0030054 0.0003518 0.00031564 0.00013713 0.46626 -8.8268e-06 0.22692 0.11643 0.00072916
-1.3696e-06 2.7058e-06 1.3285e-06 7.126e-08 -4.9189e-07 7.114e-06 0.00011682 6.5663e-05 1.4533e-05 0.00020986 -1.1107e-07 4.6948e-05 -3.2606e-05 -3.879e-05 3.6019e-06 -5.8423e-06 -2.5318e-05 0.00019004 0.00020937 0.00016455
-2.7434e-05 4.8423e-05 0.40068 -5.2273e-06 8.3313e-08 0.3895 -3.3195e-06 -1.1023e-05 -6.0327e-07 -2.9774e-05 -8.7917e-06 -0.00012144 -4.753e-05 -0.00029982 -0.00034065 -2.7307e-05 6.0579e-05 -0.00012586 0.00016241 0.23627
-1.7619e-06 5.1365e-07 -4.996e-06 -6.6343e-07 1.5907e-06 -2.0394e-06 0.00070438 2.5741e-07 -4.0481e-05 3.9708e-08 9.7811e-08 5.0193e-05 -6.7499e-05 -2.3111e-05 4.14e-08 1.3293e-05 7.9404e-06 0.0015813 1.9864e-05 2.8395e-05
5.6059e-06 2.8908e-05 7.9155e-06 1.8949e-05 6.2308e-05 0.28013 -9.1642e-05 -1.355e-05 6.8465e-05 1.2431e-05 -1.2659e-05 -7.488e-05 -0.00038512 -6.5079e-05 0.0035188 -0.00014651 -3.0474e-05 0.0078245 0.23922 0.002729
3.5892e-05 -6.1056e-06 -4.6312e-06 1.6441e-06 -2.705e-07 -8.2776e-06 0.00060989 -3.2894e-06 9.5612e-06 2.6522e-06 6.8267e-07 -2.2947e-05 -7.914e-06 -1.4438e-05 0.0010272 -5.1841e-05 -1.1058e-05 0.0019514 0.0076216 0.00066901
7.0254e-05 9.9712e-06 -2.0504e-06 8.6985e-07 -1.4332e-07 5.7065e-05 0.00023914 -3.3902e-06 0.00015316 -1.3942e-05 -4.0362e-06 2.1439e-05 -3.0679e-05 -5.3067e-05 0.00026329 5.5538e-06 -3.8604e-05 0.0003987 0.002645 0.00074189
2.2564e-05 0.00063608 -1.0147e-05 -1.1399e-06 -3.8406e-06 -2.961e-06 -2.6627e-05 8.7083e-06 -1.4773e-05 -5.8837e-06 4.2341e-06 0.3628 0.28423 0.021829 -0.00040744 -9.7278e-05 0.00014208 0.25085 -0.00082144 0.22562
1.5813e-05 0.00072731 -1.0238e-05 -1.0858e-06 -5.4051e-06 -3.1256e-06 -2.9973e-05 9.5297e-06 -1.0722e-05 -6.0069e-06 8.9937e-06 0.0034928 0.31625 0.021651 -0.00047287 -0.00012262 2.7544e-05 0.27803 -0.00092929 0.25047
3.1033e-06 -7.517e-06 0.0001366 0.51842 6.4199e-07 -6.5443e-06 2.2656e-05 0.00032509 9.3739e-05 -1.1073e-06 -5.0986e-06 0.00083849 -3.9082e-05 -0.00019333 -9.4398e-06 0.0013802 -2.9141e-05 -3.9598e-05 0.00094178 0.0012163
9.4012e-07 -7.0321e-06 0.00010134 -1.1563e-07 -8.8554e-07 3.6723e-05 0.10176 0.14797 0.0002998 2.3395e-06 1.6905e-06 9.9701e-05 -1.7666e-05 -3.4139e-05 4.9888e-05 0.0001766 8.1263e-06 7.6936e-05 0.00052433 8.9823e-05
0.00010063 2.4697e-06 -9.9128e-07 1.3001e-07 -8.5806e-06 -3.5352e-06 0.00035244 1.4971e-06 -2.9904e-05 3.5686e-05 -7.5668e-06 -0.00011501 -0.00013233 -7.918e-05 -4.7169e-05 2.3713e-05 -4.1722e-07 0.0010341 0.00016906 0.00056865
0.16605 -8.0591e-05 0.0018643 7.205e-06 1.4831e-05 0.0014482 0.00044443 0.00027881 -7.8914e-06 0.0025422 -3.7368e-06 -2.7387e-05 -0.00018126 -1.6917e-05 -6.2072e-05 -0.00034378 -4.5526e-06 0.0030036 0.19732 0.001261
4.5203e-05 0.00013263 0.00042663 1.2417e-05 0.1937 0.1603 0.00025135 -1.4551e-05 -3.6213e-05 -2.3829e-06 -4.4541e-06 -0.00010279 -0.00017175 -0.00018294 0.39419 -0.00017389 3.6509e-06 0.12382 0.13975 0.1035
2.0673e-05 -2.9428e-06 5.9889e-05 1.0865e-05 -5.8889e-06 -1.6125e-05 0.14165 0.00065305 -5.632e-05 8.3288e-05 -1.6168e-06 -7.883e-05 0.002089 1.1737e-05 -0.00010966 -6.1589e-05 -7.9523e-05 0.11822 0.14737 0.0022233
-1.8803e-07 4.8883e-07 1.6191e-06 -1.5025e-06 3.3184e-07 -3.5172e-06 -5.1865e-05 -1.9429e-06 5.7742e-06 7.2901e-07 3.5828e-07 -1.1065e-05 1.069e-05 4.1411e-05 1.8594e-06 0.32826 3.8961e-06 -9.9395e-05 -2.6633e-05 2.8739e-05
-7.3097e-08 4.5541e-08 2.8573e-08 -1.4792e-09 4.6905e-09 -1.4187e-06 4.6886e-05 0.00071611 5.2315e-07 3.9707e-08 -2.1541e-07 2.5239e-07 8.2269e-08 -5.9184e-07 -2.1378e-08 6.7147e-08 -6.7365e-07 9.3264e-08 -8.7781e-06 1.5042e-05
0.15901 0.24688 -1.0938e-05 -4.4134e-07 2.2856e-06 -1.1047e-05 0.00022692 8.3703e-06 -4.1167e-05 7.8547e-05 0.51075 0.26428 0.20775 0.33832 -0.0002792 -1.8067e-05 0.37764 0.18491 -0.00052271 0.16552
1.9423e-05 2.694e-06 0.00033841 6.2481e-06 0.00031276 5.6882e-05 4.0689e-05 0.00012322 0.00061693 1.6172e-05 -1.3472e-06 1.0554e-05 -8.0553e-05 -5.7831e-06 0.00010832 0.00010507 -2.613e-05 0.0002366 0.15818 0.00056612
0.16418 0.25488 -1.144e-05 -8.618e-07 4.7483e-07 -3.1545e-05 0.0026094 8.0007e-06 0.00010411 5.7259e-05 -0.00027066 0.27259 0.21481 0.3508 -0.00030669 -7.2873e-05 0.39119 0.19079 -0.0005385 0.17091
-1.5122e-06 4.2133e-06 0.0005673 1.1436e-06 0.00047368 4.9303e-05 -1.7145e-05 9.7451e-05 5.441e-06 5.2057e-07 -3.5643e-06 0.00046294 -8.7663e-05 -0.00011561 0.00028353 0.0016193 -9.1904e-06 0.00069056 0.0010892 0.00064855
5.0664e-05 0.00014016 0.00051268 1.7479e-06 0.23525 0.001503 0.00036985 -8.1318e-06 -9.1595e-05 -1.1249e-05 -2.999e-06 -8.7131e-05 2.3687e-05 -0.00018764 0.47651 -0.00010848 3.2763e-05 0.14523 0.0047538 0.12462
0.17206 -0.0001233 -2.0187e-05 -1.348e-06 -1.9304e-05 0.00051606 0.00039011 1.5478e-06 0.00014505 1.0608e-05 -3.0248e-05 -0.00010971 0.00051084 -2.8336e-05 -0.00025204 -2.1494e-05 7.9431e-05 0.20003 0.00051218 0.16665
0.13214 0.20479 2.4045e-05 5.2119e-07 0.25499 0.00035939 2.9328e-06 1.22e-06 -2.2085e-05 0.00028207 -1.9754e-05 0.00074375 -0.0015669 -0.00027013 0.027731 8.0199e-05 -5.5396e-05 0.0014409 0.001872 0.009374
0.13214 0.20479 2.389e-05 2.3291e-07 0.25497 0.00035143 4.3474e-06 1.4356e-06 -2.2495e-05 0.0002823 -2.661e-05 0.00072866 -0.0016031 -0.00028129 0.027804 8.2051e-05 -4.7469e-05 0.0016639 0.0018566 0.010204
2.2564e-05 0.00063608 -1.0147e-05 -1.1399e-06 -3.8406e-06 -2.961e-06 -2.6627e-05 8.7083e-06 -1.4773e-05 -5.8837e-06 4.2341e-06 0.3628 0.28423 0.021829 -0.00040744 -9.7278e-05 0.00014208 0.25085 -0.00082144 0.22562
0.16212 0.25179 -2.104e-06 -5.892e-07 3.0518e-05 -1.3818e-05 0.0025942 4.8122e-06 0.00012419 5.0219e-05 -0.00018711 0.26904 0.21946 0.35111 -0.00031826 -0.00010525 0.38696 -0.0050086 -0.00063681 0.17167
0.20883 -6.2191e-05 -1.9141e-05 3.2837e-07 -6.0323e-05 -3.0195e-05 -5.369e-05 6.3963e-06 -4.6928e-05 9.8267e-05 2.1682e-06 -5.833e-05 0.00045809 0.0001495 -1.1102e-05 -2.8296e-05 5.0145e-05 0.24706 -0.00054277 0.00026824
1.5866e-05 0.000355 2.0309e-05 2.2263e-05 1.5327e-05 -1.5721e-05 4.0875e-06 1.5703e-05 4.0451e-05 1.5288e-05 2.0699e-05 -0.00021939 0.1678 -0.00040702 -0.00020694 4.3136e-06 -7.5923e-05 -0.0019471 0.17246 0.12418
1.8748e-05 1.7609e-06 1.4889e-05 0.58536 -2.2471e-05 0.00023236 2.8851e-05 0.35129 0.0017266 3.959e-06 -3.4076e-06 -6.2354e-05 0.00014885 7.5232e-05 -8.1829e-05 -1.7267e-05 -9.6881e-06 0.20228 0.20452 0.0018139
0.16828 -3.8773e-05 1.0784e-05 6.0448e-07 4.778e-06 0.26991 0.00066941 0.17115 0.0034242 4.0882e-05 -4.1403e-06 0.00016279 0.00045074 -5.1939e-05 -2.5251e-05 -2.0462e-05 1.6182e-05 3.3522e-05 0.00045013 4.0069e-05
3.9286e-05 -2.0075e-05 0.00055611 0.00013778 1.7433e-06 0.0022191 -5.562e-05 0.0001431 8.0307e-06 -1.3204e-05 -7.0134e-06 0.00088372 0.00046758 -8.1203e-05 6.1697e-05 0.33165 -8.3384e-06 0.00018354 0.0012415 -0.00010372
0.142 -4.8394e-05 4.9504e-05 -2.4991e-08 4.4426e-07 -1.714e-05 0.0007402 7.2884e-06 -1.6147e-05 3.5031e-05 -4.663e-07 -3.8098e-06 -5.1863e-06 1.1107e-05 -9.268e-06 -1.3911e-05 -1.2889e-05 -2.022e-05 3.2012e-06 -5.5999e-06
5.0664e-05 0.00014016 0.00051268 1.7479e-06 0.23525 0.001503 0.00036985 -8.1318e-06 -9.1595e-05 -1.1249e-05 -2.999e-06 -8.7131e-05 2.3687e-05 -0.00018764 0.47651 -0.00010848 3.2763e-05 0.14523 0.0047538 0.12462
7.0254e-05 9.9712e-06 -2.0504e-06 8.6985e-07 -1.4332e-07 5.7065e-05 0.00023914 -3.3902e-06 0.00015316 -1.3942e-05 -4.0362e-06 2.1439e-05 -3.0679e-05 -5.3067e-05 0.00026329 5.5538e-06 -3.8604e-05 0.0003987 0.002645 0.00074189
-3.5773e-06 -1.504e-06 0.37548 7.3606e-05 -6.5227e-07 1.8615e-05 5.1781e-05 0.15654 0.00037925 -5.2987e-05 -3.1731e-06 0.00059184 7.4091e-07 -0.00014121 7.3966e-07 0.0014236 -7.7552e-06 -4.4858e-05 0.00020004 8.8614e-05
5.4627e-05 5.5006e-05 0.24694 -3.9088e-06 0.00027582 3.9228e-05 0.00014005 -3.6658e-06 -2.6763e-06 -5.4057e-05 -2.4587e-05 -0.00010987 -3.9816e-05 -0.00035244 0.028514 1.3387e-05 -7.3682e-05 -8.762e-05 0.00015897 0.15612
1.2709e-06 -9.8118e-07 -1.3626e-07 -1.1792e-07 4.0885e-06 7.6288e-06 0.00035581 -7.4928e-07 0.003388 -8.6004e-08 3.6056e-07 -2.4735e-07 -2.1887e-05 4.3373e-07 0.00074652 -3.0148e-06 5.9556e-06 8.9876e-05 0.00071383 -8.3234e-05
0.15221 0.23642 -1.8373e-06 -1.7664e-07 3.0408e-05 5.7007e-06 0.00023395 5.1121e-06 -1.9305e-05 6.9248e-05 0.48893 0.25285 0.20576 0.32827 -0.00028174 -4.8565e-05 0.36212 -0.0046356 -0.00059902 0.16117
-8.2208e-07 9.0299e-08 -1.0451e-06 0.00017055 4.1911e-06 0.00011226 0.00024122 0.00062853 0.002265 1.4701e-07 -2.0462e-07 1.7976e-06 -4.0649e-06 3.0959e-06 0.00048892 1.9805e-05 1.7072e-06 0.00011338 0.00052773 -3.5502e-05
2.1499e-06 -3.8337e-06 2.9087e-05 5.9544e-06 2.8512e-06 3.0311e-05 -0.00010039 4.9149e-05 0.2795 8.1585e-06 -2.0954e-06 0.00017353 -5.3685e-06 -3.3669e-05 -7.9524e-05 2.698e-06 -1.6862e-05 -0.00027528 0.14559 -0.00028465
0.15901 0.24688 -1.0938e-05 -4.4134e-07 2.2856e-06 -1.1047e-05 0.00022692 8.3703e-06 -4.1167e-05 7.8547e-05 0.51075 0.26428 0.20775 0.33832 -0.0002792 -1.8067e-05 0.37764 0.18491 -0.00052271 0.16552
3.0449e-05 1.2869e-05 1.3983e-06 -2.008e-06 -8.404e-06 -2.3993e-05 -0.00010889 -3.2528e-06 -9.6223e-06 8.5327e-06 1.1327e-05 0.35197 8.3318e-05 0.42904 -0.00024246 0.50316 0.00022107 0.24571 0.0014553 0.20231
1.028e-05 -1.8633e-06 0.41529 -5.0433e-06 -6.0876e-07 -8.0956e-06 0.089435 -1.9703e-06 -4.4731e-05 -7.8413e-05 -7.7346e-06 -3.1223e-06 -1.4407e-06 -1.2399e-05 2.7152e-06 1.1356e-05 4.8787e-06 -0.00023672 0.0018035 -3.5287e-05
-1.9701e-05 0.00010109 -1.5309e-05 -5.7381e-07 -1.9112e-05 1.5181e-05 0.39568 0.00077325 0.32119 6.487e-06 0.012893 -4.736e-05 8.2581e-05 -0.00014059 -0.00026817 4.9673e-05 6.8697e-05 0.16487 0.0011664 0.1359
4.5203e-05 0.00013263 0.00042663 1.2417e-05 0.1937 0.1603 0.00025135 -1.4551e-05 -3.6213e-05 -2.3829e-06 -4.4541e-06 -0.00010279 -0.00017175 -0.00018294 0.39419 -0.00017389 3.6509e-06 0.12382 0.13975 0.1035
0.00017849 2.0515e-05 0.28362 3.8188e-06 -4.6793e-06 8.0577e-05 0.00023447 6.9432e-07 1.2934e-05 0.63779 2.4592e-06 1.4148e-05 -5.9212e-05 1.2919e-05 -0.00012789 -6.3692e-05 3.5356e-07 -0.00015511 0.20658 8.6171e-06
-4.0467e-06 1.2811e-06 -5.0133e-06 1.7489e-06 -3.1518e-06 1.5328e-05 0.00081654 -7.8657e-06 8.4119e-06 1.393e-06 5.6553e-06 7.4036e-05 -9.4521e-05 -1.842e-05 5.9117e-06 -7.5404e-05 1.0952e-06 0.0028304 0.0092735 -0.00023914
6.2417e-05 7.3295e-05 1.7914e-05 -8.0501e-07 0.44054 5.2028e-05 7.121e-05 -7.6937e-07 -3.143e-05 -2.4904e-05 -1.8727e-05 -5.561e-05 -0.0003737 -0.00021278 0.043276 0.00018434 -0.00011868 3.6092e-05 4.353e-05 0.014922
0.32775 -4.271e-05 5.4761e-05 1.366e-05 -4.5514e-07 0.51931 -3.0468e-05 1.1624e-05 5.76e-05 0.00020994 -2.0651e-06 2.09e-05 1.5818e-06 6.7294e-05 -9.9832e-05 -6.7274e-05 8.395e-06 -0.0002586 0.38452 -0.00059657
-2.8797e-08 5.8815e-08 -4.7659e-09 2.6354e-09 -1.8767e-07 1.1473e-07 4.5215e-05 1.5371e-06 -3.0114e-06 7.9751e-09 -4.6027e-08 4.8285e-09 6.9858e-08 -1.2122e-07 -1.0188e-07 1.6231e-08 -2.1032e-08 -1.188e-06 -1.2176e-06 7.1051e-07
1.9423e-05 2.694e-06 0.00033841 6.2481e-06 0.00031276 5.6882e-05 4.0689e-05 0.00012322 0.00061693 1.6172e-05 -1.3472e-06 1.0554e-05 -8.0553e-05 -5.7831e-06 0.00010832 0.00010507 -2.613e-05 0.0002366 0.15818 0.00056612
0.00015036 -3.9933e-05 0.38709 -4.1623e-06 8.3073e-06 0.0010019 0.0007636 0.00052942 0.00048609 0.0016674 1.5232e-05 -9.1691e-05 -0.00012164 -0.00020982 -0.00021527 -0.00027941 1.583e-06 0.0024594 0.0022612 0.1169
0.16212 0.25179 -2.104e-06 -5.892e-07 3.0518e-05 -1.3818e-05 0.0025942 4.8122e-06 0.00012419 5.0219e-05 -0.00018711 0.26904 0.21946 0.35111 -0.00031826 -0.00010525 0.38696 -0.0050086 -0.00063681 0.17167
0.098403 -4.3017e-05 4.5782e-05 1.5345e-06 0.00023265 3.3153e-05 8.3101e-05 0.00071984 0.0005865 7.0144e-05 -9.4627e-06 9.8809e-06 -0.00011206 -9.7068e-05 0.0014888 0.00010851 -5.4264e-05 0.00044134 0.0014096 0.0029303
0.085896 -4.6426e-05 4.0745e-05 7.6563e-06 8.7537e-05 0.13743 0.00019959 0.00013523 0.0020603 3.312e-05 3.0287e-06 3.0809e-05 0.00036047 3.8903e-05 0.16463 0.00015607 5.3382e-06 0.00012614 0.20292 -0.0010261
0.00020388 0.00013459 3.2886e-05 3.9842e-06 1.6766e-05 0.00015231 0.2621 2.6373e-05 0.008061 2.0184e-05 -2.8977e-05 0.00046017 -0.00020649 -0.00017019 0.00016723 0.0027842 6.3298e-05 0.0014768 0.11173 0.00042637
4.4177e-05 0.00022574 3.8468e-06 3.5724e-07 0.00026649 0.00037701 -1.1503e-05 6.0661e-05 2.302e-05 0.00044785 -1.8731e-05 0.0011049 0.00073442 -0.00024306 0.0034395 3.699e-05 -0.00010928 0.0012116 0.0013537 0.0018273
2.0867e-06 -3.2969e-06 3.7499e-05 9.618e-06 -2.9335e-06 4.4541e-05 0.24979 6.3399e-06 -7.7782e-05 2.021e-05 -2.6805e-05 0.0015234 3.2751e-05 1.5256e-05 -7.5238e-05 -1.8167e-05 -1.9634e-05 0.0015872 0.21877 -0.0002902
