-5.5104e-07 3.5649e-05 3.3183e-07 -3.4204e-06 -1.6663e-05 0.00029446 -3.4719e-06 -5.9773e-05 4.566e-06 3.2753e-06 -2.6485e-07 5.2311e-05 0.0025259 9.0836e-06 3.181e-06 1.7165e-05 9.8502e-08 -2.6504e-06 -1.3928e-06 2.367e-05 -1.1545e-05 0.001506 1.4047e-06 -2.8579e-06 -2.4815e-05 -0.0035961 1.591e-06 -7.2708e-06 -5.1159e-06 -3.7316e-06 -1.3606e-05 5.8308e-06 -5.8367e-07 1.8873e-05 1.0703e-06 0.00088479 -1.3234e-05 4.4751e-06 -2.9735e-05 6.4343e-09 -4.3699e-05 -0.00015457 -8.444e-07 7.9906e-06 0.0040009 2.8043e-06 -9.866e-09 0.065992 -1.1885e-05 -1.6307e-07 -6.6758e-05 -4.4507e-05 -1.3517e-06 1.6788e-06 -5.0414e-06 2.3023e-05 -2.8329e-06 -0.00036789 -1.6157e-05 -8.4821e-06
1.8388e-06 0.00028498 3.7797e-07 8.8854e-06 -1.381e-05 0.000124 0.00017716 1.3448e-06 1.676e-05 -8.778e-06 2.0735e-06 -0.00015171 0.0024501 -3.346e-05 -1.0645e-05 4.1852e-05 2.4939e-06 -9.2498e-06 9.1061e-05 0.0004452 0.00010013 0.00098744 -0.00012763 1.1384e-07 0.00044073 -0.0023263 0.00013172 -6.6887e-06 0.0014223 2.6744e-06 3.7784e-05 -3.378e-05 -4.0196e-06 0.00022105 0.00046513 -7.2796e-05 -1.5049e-05 0.00056664 0.00015165 2.0099e-06 0.0009262 -0.0049569 0.0002367 -1.0435e-05 8.2423e-05 1.5297e-05 0.00034684 0.031922 -9.6169e-07 -1.4655e-06 -2.4434e-05 -1.1985e-05 6.4104e-05 -2.3472e-06 -6.7486e-06 -9.2433e-05 0.0061013 -0.00021051 -3.5463e-05 0.0021609
1.6043e-05 1.8081e-05 -9.4717e-07 2.3093e-05 0.000159 0.1627 -5.6796e-06 -0.00036961 6.161e-05 0.00011601 -5.3555e-06 4.8417e-05 0.0015319 -8.9203e-07 0.00063811 2.9391e-05 -1.7155e-05 -3.4895e-05 5.2477e-06 -9.8468e-05 -3.2666e-05 0.00097519 -7.6264e-06 1.3785e-05 3.8057e-05 -0.002173 0.0011457 -1.5206e-05 -5.2663e-05 -0.00010361 -3.936e-05 1.625e-05 -4.0014e-06 0.0018575 1.8427e-05 0.27627 -1.7435e-05 9.6903e-05 1.182e-05 1.402e-05 -8.4603e-05 -0.0021122 0.0011915 0.00038035 -0.00050539 -2.4612e-06 0.00029529 -3.4491e-05 7.55e-05 -5.9761e-06 0.0013703 -3.4522e-05 -5.3996e-05 8.8051e-06 -1.7374e-05 0.00010755 0.0022521 0.00052535 -0.00010155 -0.0011155
-3.3357e-07 1.7659e-05 1.9516e-07 3.7814e-05 1.1832e-05 0.0004533 6.5547e-05 -6.6045e-06 -3.4892e-06 -1.395e-07 3.9996e-07 -5.4754e-07 2.1099e-05 -2.3875e-06 -2.5822e-06 -8.6201e-06 7.1637e-07 6.6117e-06 -2.2661e-06 3.3305e-05 4.8509e-05 2.2412e-05 1.7798e-06 3.1214e-06 -1.0388e-05 -3.1494e-05 4.7305e-06 -1.0205e-06 -3.622e-06 -9.8345e-06 3.6831e-06 -7.2248e-06 4.0998e-07 -0.00018978 0.00018398 0.00048867 2.3525e-06 -4.6814e-06 1.8993e-06 4.7127e-06 -4.1414e-05 -6.0831e-05 0.0011839 -0.0022384 -3.869e-06 1.1546e-06 0.00080723 -4.3086e-06 -2.6458e-05 4.9023e-06 -0.00014658 -1.8242e-05 -1.3479e-05 2.8887e-05 1.9159e-06 -2.2399e-06 -2.9916e-05 -3.3262e-05 -5.9696e-05 0.00010624
-6.3136e-06 9.7859e-06 1.3453e-06 3.2494e-06 -5.9333e-05 0.21639 -2.9207e-07 -5.61e-06 3.048e-05 5.6704e-06 -7.3573e-06 5.094e-05 0.00050689 0.00024045 0.00014743 0.00012478 -5.1932e-05 -4.4466e-06 2.2104e-05 1.7435e-05 0.000651 0.00066456 4.2932e-06 -7.0452e-06 -5.7161e-05 -0.0007103 -1.4306e-05 -9.5746e-06 -3.4262e-07 -6.3174e-05 3.113e-05 2.4573e-05 -1.1046e-05 1.7834e-06 -2.3639e-05 -6.4426e-05 -6.8281e-05 0.00020224 1.7235e-05 0.00029076 -3.5004e-05 -0.00038457 0.00010116 -4.4652e-05 4.989e-05 0.0008183 0.00041717 0.033372 1.2637e-07 -9.1597e-06 0.0011424 -3.4207e-06 1.9136e-05 0.00083842 -0.00016579 2.8125e-06 0.00032763 -7.3143e-05 -0.0001331 -0.00012207
6.2134e-09 -3.4306e-07 -7.1434e-08 -3.4331e-06 9.4314e-06 0.26777 4.4812e-05 -0.00024008 -1.1882e-05 -1.5407e-05 -4.6747e-06 -6.7986e-06 -2.642e-05 1.6971e-05 -0.00011539 -2.6954e-05 2.679e-06 -1.8137e-06 2.1984e-05 -8.1571e-05 -6.8837e-06 -8.4478e-06 1.0252e-05 1.2796e-05 -4.9933e-05 3.5217e-05 -3.3311e-05 -1.587e-05 -2.6408e-05 0.0022445 -2.9596e-05 -2.1725e-07 -1.2195e-05 -7.1252e-05 -1.0534e-05 0.2256 -1.4323e-06 -1.9995e-05 3.9232e-05 1.2894e-05 -3.4617e-05 0.00010629 -3.591e-05 1.8885e-05 -0.00020608 3.4651e-05 3.1943e-05 2.2782e-05 -5.3478e-05 -9.2295e-06 -5.653e-05 7.0379e-07 3.1659e-05 2.0964e-05 -6.0526e-06 7.9086e-05 -6.7222e-05 0.00059992 -6.6734e-05 0.00012552
1.0528e-06 1.0149e-05 1.1046e-07 -4.8219e-05 3.2417e-06 0.26653 7.9334e-05 -1.4598e-05 -2.1268e-06 1.1376e-06 -7.8745e-07 -1.0592e-06 0.3031 6.4923e-06 5.7364e-07 -3.6691e-06 -1.2239e-05 1.2091e-06 1.9902e-05 0.18496 0.18677 0.36624 3.0528e-06 1.3026e-05 -7.1703e-05 -0.060533 -0.00022625 -9.2167e-06 -1.0488e-05 6.9066e-07 4.9402e-07 -1.0827e-05 -5.0808e-06 6.6192e-06 -1.0101e-05 -0.00021372 -0.00036711 7.8488e-05 3.1906e-05 2.4749e-05 0.22777 1.1492e-05 0.0013084 8.4788e-05 -0.00021056 -9.8191e-06 3.3754e-05 7.4058e-05 6.0147e-06 -8.4159e-06 -3.7848e-05 -0.00010354 -2.5881e-05 7.5812e-05 -1.1404e-05 -3.3798e-05 -0.00015103 -0.00037269 -0.0005134 -0.00016949
1.4014e-07 -1.5731e-07 -2.7753e-05 -3.069e-06 -1.4557e-05 -1.425e-05 -1.1234e-05 8.1045e-06 1.2418e-05 8.4559e-07 -5.0528e-06 -7.2808e-07 0.21821 1.0464e-05 -4.7816e-06 2.135e-05 7.3038e-06 4.4469e-06 -1.8606e-06 1.631e-05 -0.00016586 0.38382 -3.1542e-06 1.2299e-05 -0.00015105 -0.326 2.3294e-05 -1.6839e-06 2.1938e-05 5.5179e-06 4.076e-06 2.0637e-06 -2.0422e-06 2.4306e-05 -1.3213e-05 -1.7512e-06 -1.5963e-06 0.18036 1.0882e-05 2.3272e-06 -7.3845e-06 -5.5063e-07 2.1223e-05 1.3285e-06 8.3412e-06 -0.00016709 2.0983e-06 -5.0233e-07 2.7866e-06 -1.8205e-07 3.3799e-06 0.70322 2.2154e-05 5.677e-06 -0.00010023 1.4274e-05 -9.891e-05 -3.0927e-05 -3.1012e-05 2.3199e-05
1.0974e-07 -1.5635e-06 -3.6468e-07 -1.936e-06 6.7446e-06 -1.8522e-05 1.1153e-07 0.56691 -7.6504e-07 9.7316e-07 -6.0555e-07 6.1506e-07 0.19821 -5.6572e-06 -6.5313e-07 -4.1979e-06 -2.8854e-06 1.0146e-07 1.3325e-06 -6.9339e-05 -2.2161e-05 -0.092961 5.7313e-07 -4.33e-06 -1.7297e-05 0.7355 1.5033e-05 2.0153e-06 -0.00010057 3.9465e-06 1.4254e-05 -3.6512e-06 -2.5981e-06 3.9556e-05 -1.368e-05 -0.00056831 9.9485e-06 3.8173e-05 8.8996e-06 2.286e-06 8.8325e-07 1.0641e-05 -5.6454e-05 -9.3387e-05 1.3979e-05 -1.7212e-05 -6.0305e-05 1.4414e-06 -9.6837e-06 -1.0483e-08 -3.5059e-06 9.1713e-05 1.6135e-05 8.3252e-07 -6.1114e-06 0.00012389 -5.9902e-05 0.00023395 8.6907e-06 5.7519e-06
1.5202e-06 -9.4345e-07 -5.1591e-07 -4.6782e-07 3.0207e-06 6.4443e-07 0.47907 8.1412e-07 -3.3958e-06 1.0461e-06 -8.5319e-08 0.47365 -1.696e-06 2.5608e-06 -2.9774e-06 -7.0511e-06 -8.2207e-07 -6.8215e-06 -7.6919e-07 -3.6156e-06 2.2321e-06 -1.3366e-06 8.8005e-07 -1.239e-06 9.7091e-07 2.066e-06 -1.3911e-05 -1.4752e-05 -4.7911e-06 1.9975e-06 7.5204e-06 -7.7433e-07 -4.6147e-07 -3.596e-05 -2.9189e-05 -2.509e-05 4.9756e-07 -2.8548e-06 -1.0675e-05 -5.7364e-08 -7.6699e-06 -0.00016741 -1.2954e-05 1.0008e-05 -4.4422e-06 2.7478e-06 3.9668e-06 -5.2597e-07 6.3655e-06 -0.0001244 -1.4051e-05 -1.7733e-05 4.7037e-07 -1.0441e-06 -1.0868e-06 6.5199e-05 -1.8006e-06 -4.6826e-05 1.2125e-05 1.7453e-05
3.2166e-05 -7.365e-06 -2.3927e-07 3.013e-05 0.12748 0.18494 8.684e-07 0.00013658 0.039444 1.5139e-05 -6.6012e-06 -2.2498e-07 7.4295e-05 -0.0001015 0.4819 0.1252 1.0386e-05 1.0386e-07 1.3588e-05 -1.2599e-05 -7.5302e-06 0.00013667 -0.00016826 1.9626e-05 0.15363 -8.7288e-05 -7.914e-06 -1.2303e-05 -3.1801e-05 0.64377 0.16209 2.368e-05 0.00047787 0.00020643 3.757e-05 -4.9559e-05 -4.4764e-05 0.1326 1.1051e-05 7.4723e-05 -0.00011545 -1.6217e-05 -2.5951e-05 2.3381e-05 -4.3869e-05 5.2402e-05 0.0003358 0.00010456 0.00011956 -5.9285e-06 7.4548e-05 -1.2211e-05 -1.1939e-05 1.0163e-05 -0.00029097 -0.00040369 0.1632 0.00017191 -0.00010613 0.0022467
1.2167e-05 4.6542e-06 -1.1362e-06 0.15939 2.8658e-05 -3.231e-05 -5.8479e-09 -5.108e-05 -2.1806e-05 -2.0396e-06 -1.1435e-07 -2.9114e-08 0.20097 -1.138e-05 -3.8812e-06 -7.0829e-05 6.9768e-06 -9.5381e-06 4.2363e-05 0.39294 0.39623 0.17597 -0.00011307 1.0956e-06 0.11745 0.11674 0.26708 1.5514e-06 0.0010504 2.3708e-05 0.12424 1.5702e-05 7.6782e-06 0.00038274 -1.4273e-05 -0.0002002 -3.0611e-05 0.10184 0.32986 -2.3692e-05 0.24015 -0.00023858 0.00019159 4.4864e-05 -0.00020258 5.3912e-07 6.4681e-06 4.2589e-05 -3.5587e-06 5.7298e-07 0.00060509 -1.6407e-05 0.3298 -7.6804e-05 -0.00023698 -6.5149e-05 0.12893 -0.00039737 -0.00011935 0.0046714
3.313e-07 -1.1241e-06 4.8873e-08 7.1574e-06 -2.9957e-06 -1.6867e-05 0.00030572 0.00011442 3.1877e-06 -1.5791e-06 1.6402e-06 -1.5302e-06 -3.5724e-06 6.5747e-06 -1.7609e-05 1.414e-05 -6.1028e-07 -2.6205e-05 -3.3282e-06 -8.3883e-06 1.3116e-05 5.3874e-06 -6.5502e-05 2.7317e-06 -1.207e-05 -4.3546e-06 -5.3238e-05 3.8037e-05 -4.3721e-05 5.798e-07 0.00053113 3.0808e-05 2.9207e-05 -7.9647e-05 -6.3463e-06 -6.282e-05 -1.8613e-06 -0.00010207 -7.0613e-05 -1.0807e-05 -0.00012067 3.2816e-05 0.43252 5.4414e-05 -0.00019357 1.3065e-05 3.0962e-05 2.9178e-06 -9.9446e-06 -8.4682e-06 -0.00014686 1.8231e-05 -0.00011028 0.00012519 3.31e-06 -0.00029884 0.00060243 -0.0005685 -3.0226e-05 0.00011474
1.315e-05 -2.3317e-08 -8.5294e-07 0.26263 8.6668e-06 8.2925e-06 -1.6988e-05 3.2721e-05 -4.648e-05 -1.4134e-05 1.8654e-06 2.407e-05 -5.0704e-06 -3.9347e-06 7.0327e-05 -8.9665e-05 1.7556e-06 -1.3778e-05 0.00055049 -2.6752e-06 -1.2735e-05 -1.335e-05 6.0972e-06 9.1331e-07 -1.442e-05 1.0702e-05 8.1025e-05 -5.7358e-05 -1.2862e-05 -2.646e-07 -2.648e-06 -0.00011822 -1.6644e-05 -0.0003502 0.0068756 1.1625e-06 -3.6661e-05 4.8058e-06 1.8748e-05 -0.00027914 -0.0001387 -1.7047e-05 -6.8385e-05 -0.55537 2.9741e-05 -7.2371e-06 0.0010312 5.4302e-06 1.1645e-05 -7.8429e-06 -0.00021002 -2.317e-05 -8.5433e-06 0.0061407 1.6e-05 -4.2713e-05 3.8058e-05 -0.00087502 -6.927e-05 0.00061443
-3.2523e-05 7.2123e-07 -2.8253e-08 -4.6833e-05 0.1229 0.00018497 0.00016742 -6.3783e-05 0.038224 -2.9876e-05 3.7113e-06 -6.2533e-06 3.7323e-05 -6.7578e-06 0.00013562 0.12136 -5.0268e-05 1.0966e-06 -3.3666e-07 5.5616e-05 8.6199e-05 3.9239e-05 4.138e-06 1.4482e-05 4.2685e-05 -5.6529e-05 -1.5876e-05 7.3168e-07 -2.9309e-06 1.7168e-06 2.5672e-05 4.3114e-06 -1.183e-05 -3.6166e-05 -1.6244e-06 0.0024643 -9.6874e-05 -1.4152e-07 8.7753e-06 -2.3016e-05 -9.4285e-06 8.8579e-06 0.0020941 -0.00091731 -5.5081e-05 9.5661e-05 6.431e-06 1.3905e-05 0.0028759 4.2761e-06 -5.5525e-06 -2.1301e-07 -2.8403e-05 4.6746e-05 -1.906e-06 -3.3189e-05 -5.9287e-05 -0.00018907 -0.00018138 0.00013567
9.242e-06 2.1871e-05 -8.6291e-06 -2.9983e-05 -4.0717e-05 0.29031 -1.3564e-05 -0.0001774 1.44e-05 0.17135 -9.9243e-06 -1.2546e-05 -2.1732e-05 -8.7284e-05 0.00093788 4.6363e-05 -0.00038653 -2.5186e-06 0.0029841 -0.00011489 -1.2923e-06 -7.3607e-06 -0.00017354 -3.0358e-05 0.24158 5.3991e-05 -6.429e-05 -2.1214e-05 -6.4635e-05 -1.6032e-05 0.13173 8.9054e-06 0.00039201 -0.00033028 -3.2144e-05 0.24664 -0.0002671 0.00068836 -0.00063424 6.9718e-05 -0.00043303 -0.27943 -1.1491e-05 1.1918e-05 -0.00024292 -0.00034435 -0.00013658 -0.0010679 -3.6076e-06 -1.7099e-05 -0.0027816 1.0147e-05 0.00020678 4.1427e-05 -0.00034586 -0.00012327 0.12744 5.0893e-05 -0.00045433 0.00025566
-2.5137e-06 -3.5763e-06 0.00026824 0.00018174 -3.8758e-05 0.00040357 -3.7522e-06 -6.2017e-05 9.4612e-06 0.00015299 -3.6158e-06 -5.5408e-05 2.3767e-05 3.4843e-05 0.62493 1.6264e-05 -5.7952e-06 -3.1479e-05 4.4777e-06 -2.6219e-06 1.4089e-07 1.1249e-05 -0.00020674 2.8497e-06 0.00013843 -3.5408e-05 -2.173e-05 -1.7058e-06 -3.5702e-05 -0.00049467 -0.0005776 -8.9319e-06 -2.874e-05 0.0009758 -2.2143e-06 0.0019052 -2.0715e-05 -7.1466e-05 3.918e-05 1.5234e-06 1.1413e-05 -0.0030606 5.8107e-05 0.00075001 -7.9931e-05 4.1277e-05 -3.624e-05 -0.00031571 -7.6942e-06 -1.9144e-07 -0.00034888 -8.3531e-05 6.5373e-05 -2.5565e-05 3.2733e-07 0.0039461 0.0020298 -0.00038851 -0.00021531 -0.00054864
-4.1294e-06 4.9607e-05 -2.2846e-06 -7.0729e-06 -0.00016452 0.00037148 0.00033724 -6.0348e-05 4.4164e-05 1.64e-05 2.1636e-06 5.0696e-07 9.507e-06 -5.5078e-05 7.2333e-06 0.00027544 -5.681e-06 3.8398e-06 0.00012399 3.8669e-05 8.2008e-06 -2.8667e-06 -4.3554e-06 7.5105e-06 0.0011221 -7.7165e-06 -7.4348e-06 -0.0004535 -1.8301e-05 -1.6062e-05 0.00038463 0.0019574 -3.0908e-06 -3.1862e-05 0.00011628 0.0019289 -8.9162e-05 -4.9845e-05 -0.00033588 -1.8102e-05 -0.00020077 -0.0032254 0.0021545 -7.3317e-05 -5.1644e-05 -2.5683e-05 0.0028976 -0.00021956 -4.9831e-05 -1.8461e-06 -0.00019867 -3.8172e-05 -8.5346e-05 8.8178e-05 4.2105e-05 -0.000227 0.001677 -0.00015565 -0.00020739 4.7331e-05
4.8592e-05 2.4139e-05 2.5005e-06 -1.6413e-06 0.18536 -2.6339e-05 1.3262e-05 -0.00010103 0.057613 1.1009e-05 -5.6748e-06 0.00012095 -8.1155e-05 -1.8953e-05 8.8876e-06 0.18264 1.0382e-05 0.0032269 4.9621e-05 -0.00019599 -6.3979e-05 -0.00026263 -0.00011798 -5.6418e-05 -0.00010276 0.00015034 0.00082404 -7.9265e-06 0.00099604 3.1934e-06 0.0023214 0.00075581 -2.3616e-05 0.0063102 -3.5391e-06 0.0046558 -4.7476e-06 0.19387 -1.1984e-05 3.2295e-05 -9.5663e-06 0.00022478 0.0062189 -0.0017853 -0.00075453 -0.00073698 0.00037587 1.2372e-05 -0.00012012 4.1001e-05 -0.00040509 -5.9009e-05 -9.6619e-05 6.4254e-05 -5.2656e-05 -0.00043207 0.0025228 7.4177e-05 -0.00013408 -0.0034287
1.9466e-06 -3.1935e-06 -7.1494e-07 -7.032e-06 -2.0629e-05 0.149 0.00067046 -6.5108e-05 3.1146e-08 0.00012586 -1.5919e-06 -4.7863e-06 1.628e-05 -5.084e-05 -1.0776e-06 1.3416e-05 -8.5044e-06 -6.2807e-06 2.4433e-05 -2.3512e-06 3.6932e-06 6.0219e-06 -9.9011e-06 1.8621e-06 0.00078079 -1.2821e-05 -3.9465e-05 6.0524e-06 -2.0873e-05 -2.4657e-05 1.7558e-05 8.6925e-06 -6.6905e-06 -9.6513e-05 -4.6546e-06 0.0021795 -8.775e-05 -2.0412e-05 -6.2933e-05 1.9204e-06 -0.00024123 -0.0031277 0.18064 1.6628e-05 -0.0001158 -5.3416e-05 -7.8302e-06 -0.00020528 -6.7273e-05 -1.366e-05 -0.00042223 6.6902e-06 2.7397e-06 3.3769e-05 4.218e-05 -0.00019215 0.00050111 -0.00019622 -0.00025145 0.00019897
-2.6043e-06 -1.9799e-05 -1.7846e-06 8.9841e-05 -0.00010033 0.00013398 0.00016453 2.7061e-05 8.2507e-06 0.00014643 -6.3471e-05 -0.00022843 1.0158e-06 -1.0931e-06 4.1449e-05 6.1416e-05 -1.7666e-05 -0.00069121 1.5956e-06 7.6621e-06 1.6791e-05 -3.957e-05 8.8052e-06 -2.3682e-05 9.7889e-05 -1.9606e-05 -0.00032592 0.0018603 0.0044044 -5.8338e-06 -3.9522e-05 0.00041317 3.8686e-07 0.44949 0.0018242 -0.00013025 0.00069433 8.5555e-06 8.5001e-06 -1.162e-05 0.0022353 0.00025326 0.0017452 -0.50439 4.3384e-05 7.5355e-05 4.3784e-05 1.6822e-05 8.7072e-05 3.4688e-05 -0.0002997 1.2505e-07 1.1786e-05 -9.842e-06 -2.8951e-05 0.0016822 -0.00011819 0.028462 0.0016249 -0.0065366
3.2166e-05 -7.365e-06 -2.3927e-07 3.013e-05 0.12748 0.18494 8.684e-07 0.00013658 0.039444 1.5139e-05 -6.6012e-06 -2.2498e-07 7.4295e-05 -0.0001015 0.4819 0.1252 1.0386e-05 1.0386e-07 1.3588e-05 -1.2599e-05 -7.5302e-06 0.00013667 -0.00016826 1.9626e-05 0.15363 -8.7288e-05 -7.914e-06 -1.2303e-05 -3.1801e-05 0.64377 0.16209 2.368e-05 0.00047787 0.00020643 3.757e-05 -4.9559e-05 -4.4764e-05 0.1326 1.1051e-05 7.4723e-05 -0.00011545 -1.6217e-05 -2.5951e-05 2.3381e-05 -4.3869e-05 5.2402e-05 0.0003358 0.00010456 0.00011956 -5.9285e-06 7.4548e-05 -1.2211e-05 -1.1939e-05 1.0163e-05 -0.00029097 -0.00040369 0.1632 0.00017191 -0.00010613 0.0022467
0.23623 -2.714e-07 -1.1288e-07 1.0138e-05 0.14772 1.6051e-05 -7.7545e-08 2.4297e-06 0.045875 0.25358 0.48893 1.1299e-06 1.225e-05 0.20049 -6.0965e-06 0.14563 0.32335 2.3621e-05 9.4929e-06 3.0882e-06 -3.8216e-08 6.937e-08 2.4902e-06 0.36231 -4.0655e-05 -2.0862e-05 -2.0151e-06 3.5051e-05 -1.5935e-05 2.0466e-06 -1.0043e-05 -1.3285e-05 1.1492e-05 1.4251e-05 2.7598e-05 -2.5545e-05 0.00011239 0.15281 6.1348e-06 -7.4445e-06 -5.2037e-05 1.3523e-05 3.1165e-05 2.6162e-05 -1.4687e-06 0.24741 -2.2598e-05 -2.3628e-06 -5.2244e-06 1.646e-05 -2.2584e-05 -1.2661e-06 6.9005e-06 9.7789e-05 0.48407 5.2536e-05 -6.9065e-05 3.4649e-06 0.44214 1.8128e-05
-2.6769e-06 1.6749e-05 9.7586e-07 1.7099e-05 9.221e-06 0.00049064 -1.4471e-05 0.0012453 2.3228e-06 5.7065e-06 3.091e-06 4.7707e-06 0.00013958 7.5675e-05 0.00081067 5.4277e-05 -1.866e-05 -5.1327e-06 -3.0626e-06 0.00086561 3.151e-05 0.00012924 0.00070768 -5.5254e-06 8.5614e-05 -0.00016604 -1.13e-05 4.0553e-05 -4.5896e-05 -0.00021416 0.094124 0.2409 2.3069e-06 -0.00012258 -1.886e-05 0.0065442 -7.205e-05 -3.0398e-06 0.0088323 0.00015138 3.3599e-05 -0.0001227 0.13023 -0.0039917 0.0034434 0.00051958 9.717e-05 0.00040098 -2.374e-06 -1.9072e-06 0.23459 1.1155e-05 0.00049959 0.00042093 -7.7232e-05 -0.0003455 0.094194 -0.0013904 -2.3291e-05 0.00016398
1.922e-06 4.2444e-07 -6.723e-08 4.1671e-06 3.0442e-05 -1.2962e-05 -1.1725e-07 0.00029857 -5.7429e-06 -5.97e-07 -8.8115e-06 -5.5279e-06 -5.8541e-05 -1.5739e-05 -1.8587e-05 5.3987e-06 2.7295e-06 2.7295e-06 3.649e-05 0.00058543 0.00020774 -4.8592e-05 -7.155e-06 -4.2718e-07 4.4397e-05 6.9016e-05 -5.4786e-06 -8.5809e-09 -2.1181e-08 1.7233e-06 -2.0107e-05 -1.4616e-06 0.75136 -1.9629e-06 0.00014544 1.0217e-05 -2.9415e-07 6.1984e-05 2.0499e-05 0.00039151 -1.2464e-06 -0.00017355 -2.7061e-06 -1.8359e-06 7.0801e-06 6.7149e-06 -7.0402e-06 1.4309e-05 -1.4841e-06 1.054e-05 2.0812e-05 2.1788e-06 -1.7743e-06 0.0033613 -1.745e-06 -2.1552e-06 0.00039075 5.9362e-05 3.6477e-06 -5.8944e-06
-2.3949e-06 -1.6919e-06 0.62322 -3.0295e-06 -4.671e-06 1.5318e-06 5.0767e-05 8.067e-05 1.0557e-06 0.00014385 -1.392e-06 -1.8111e-06 -0.00010755 7.7905e-07 6.5484e-06 2.6785e-06 -2.0857e-05 -4.2553e-06 2.1304e-06 1.4305e-06 -1.065e-06 -0.00013268 1.5731e-06 1.0399e-06 -3.3292e-05 0.00019871 -4.5211e-06 6.7852e-06 0.00028111 -1.3191e-05 -6.5354e-05 -3.6567e-06 -2.8639e-07 -3.7016e-05 0.00089562 -9.9822e-06 -1.0079e-06 -3.628e-05 1.9064e-06 -5.0601e-05 6.7524e-06 2.0758e-05 0.00016098 7.2843e-05 -5.0826e-05 -2.4392e-05 0.53576 -9.6611e-06 1.8867e-06 1.9827e-05 -2.145e-05 0.71097 -4.6251e-05 0.00012124 9.6155e-06 1.244e-05 0.0014133 1.6567e-05 -2.1917e-05 -3.1488e-05
1.1286e-07 -1.4937e-05 -2.15e-06 0.2807 5.3318e-05 -1.4105e-05 3.9407e-06 6.2436e-06 -4.6414e-05 -1.0421e-05 -5.9355e-06 -4.0807e-06 0.00017764 -9.6435e-06 1.4778e-05 -0.00013033 -1.4009e-06 -3.0598e-06 -2.8122e-05 0.00024675 5.1359e-05 0.00079541 -3.5831e-05 2.7093e-06 0.00011247 -0.00030709 0.0002249 -2.5779e-06 -7.0483e-05 8.0503e-06 0.21861 3.7456e-05 1.1303e-05 2.0747e-06 -2.3888e-05 5.6955e-05 2.6492e-06 0.0014503 0.58005 -4.8562e-05 0.0032453 -0.00045474 2.5022e-05 8.4788e-06 -5.6387e-06 -3.5233e-05 3.1509e-05 8.8664e-05 -1.3518e-05 4.7104e-07 0.0011116 3.0686e-06 0.5803 -0.00013577 -2.4286e-05 -3.658e-05 0.21932 2.2697e-05 -1.6904e-05 -0.00060575
1.4502e-05 3.7503e-05 -9.6295e-08 1.0467e-05 0.00015138 0.22682 4.5428e-05 0.36971 -1.1525e-05 -4.06e-05 -1.0943e-06 -6.6196e-06 -0.00016654 2.2462e-05 -2.276e-05 -0.00011821 5.9792e-06 1.8622e-06 -1.1182e-05 0.0017658 0.00011048 -0.00020868 -1.7727e-05 1.4523e-05 0.18826 0.00026328 -1.5652e-05 0.00011032 0.00071681 1.3663e-05 0.19947 3.9744e-05 -6.328e-06 -9.9084e-05 0.00014748 0.39271 2.8258e-06 5.9623e-05 -0.00017164 1.5137e-05 0.00045689 0.00018479 0.001842 0.0002247 0.70698 -1.4969e-05 0.00048255 -0.00030089 -2.8352e-05 -6.8109e-06 0.46185 -4.1523e-07 9.4017e-05 2.8897e-05 -0.00033801 -0.00013818 0.19665 0.0003985 -4.0265e-05 -0.00015969
1.8069e-06 1.3555e-06 1.7913e-07 -2.5731e-05 1.3844e-06 0.42365 8.5118e-05 0.34301 -2.3953e-06 4.7917e-06 -7.6391e-05 -5.3524e-06 -4.528e-05 3.1341e-05 -3.5626e-06 8.1397e-06 0.00059169 -1.2359e-05 4.246e-05 -3.6651e-05 -1.0637e-05 -1.1904e-05 1.3518e-05 0.00047806 0.17578 6.1953e-05 1.6907e-05 0.0016838 8.6081e-06 1.5859e-05 2.4762e-05 0.00048325 -1.7157e-05 0.00011311 -1.6228e-05 -0.00030711 0.47084 0.15093 -2.5783e-05 1.3172e-05 0.0014289 2.899e-05 0.0011723 -0.00070732 2.1881e-05 5.6568e-05 5.0735e-06 -2.112e-05 -3.0029e-06 1.2904e-05 5.0195e-05 -5.7773e-06 3.4867e-06 1.5387e-05 -0.00036299 0.0014493 -0.0001685 0.73041 0.0044524 2.1069e-05
-7.0798e-06 -3.0159e-06 -2.6569e-07 4.5613e-06 -8.5554e-05 4.3837e-05 0.50818 4.4139e-07 5.6256e-05 2.3567e-06 -1.8839e-07 3.2772e-08 1.3785e-06 -1.7154e-06 6.5552e-05 0.00018941 -1.6851e-06 1.0523e-06 -9.0974e-07 9.4421e-05 5.9441e-05 -5.8003e-06 1.5595e-06 -9.4837e-07 2.4354e-05 -4.2472e-06 1.1808e-07 -1.4051e-05 -1.3796e-05 -2.7955e-05 3.6121e-05 6.8509e-06 -1.6864e-06 1.4263e-06 -3.1758e-05 3.3677e-06 -3.5206e-06 -3.123e-05 -1.5842e-05 -8.1296e-06 -3.6858e-05 -4.0637e-05 0.0038106 -0.00029319 -5.1208e-06 1.0692e-05 -2.6872e-05 -2.364e-06 -2.1475e-05 -0.00013619 2.6898e-05 -1.6283e-05 -1.2287e-05 0.00010586 1.5957e-06 -3.049e-05 0.00022083 -6.918e-05 -1.4097e-05 1.0512e-06
3.1917e-06 5.3416e-06 1.4854e-07 -3.9634e-05 -1.0365e-05 -3.6049e-05 -3.6358e-06 -7.1092e-08 1.0044e-05 -8.0361e-06 -4.3203e-06 1.2812e-06 0.44838 -2.3511e-06 6.1732e-07 1.4217e-05 2.2102e-05 1.4508e-06 -3.3441e-05 0.00011323 3.4604e-05 0.39379 5.2759e-06 2.1425e-05 0.26466 0.26897 0.00056098 5.3266e-06 -5.6451e-07 1.5757e-05 0.00011212 2.4353e-06 -4.4306e-07 5.4869e-05 -1.4783e-05 -3.7307e-05 -7.3232e-05 0.22852 5.9463e-06 1.5023e-05 0.53504 -3.46e-05 1.9619e-05 0.00012381 -0.00013954 -6.3739e-05 -1.6724e-06 -5.3696e-05 7.795e-06 4.0208e-06 -5.3111e-05 -5.0545e-05 -1.9113e-06 2.4348e-05 -0.00053883 -1.2725e-05 -0.00036814 -0.00097189 -0.00022977 -0.00068392
5.0807e-06 -2.1425e-06 4.8046e-06 1.8126e-05 9.0169e-05 1.8857e-05 6.875e-07 1.2052e-06 -2.9661e-05 -1.2027e-05 1.9194e-06 -2.2386e-05 5.5455e-06 0.16508 3.1784e-05 -0.00011323 1.0576e-05 1.0665e-06 -4.5611e-06 -5.8971e-06 8.2711e-06 -8.1175e-06 0.68036 -2.9553e-05 -0.00043738 -4.9281e-06 6.1813e-06 -1.3403e-05 -5.8777e-05 1.3736e-05 0.1582 1.7586e-06 -5.6952e-06 1.7551e-05 -1.3169e-06 6.1956e-06 -2.8168e-06 0.1265 -0.00057119 -7.8742e-06 -3.8419e-05 -0.0011012 4.3255e-06 -6.4575e-06 3.5838e-07 -0.0002351 -2.191e-05 4.1356e-05 -3.1035e-06 9.2569e-07 -0.00032657 -9.3588e-06 0.00014129 6.8561e-05 -0.00031496 -3.2959e-05 0.15688 -1.939e-06 -1.3199e-05 -0.00020237
-7.9093e-06 5.6098e-05 -1.2217e-06 -1.6771e-06 -7.2753e-05 -2.8351e-05 2.4861e-05 -1.2845e-05 3.9987e-05 -0.00015152 2.1024e-06 1.6229e-06 0.00039884 0.00021551 8.9814e-05 0.00014265 -2.3595e-05 -8.8512e-06 4.2714e-06 -2.9682e-05 -1.5225e-05 0.00043275 -4.4134e-05 3.1316e-06 0.00017285 -0.00052861 -3.8905e-06 -1.03e-05 -0.00020536 -1.6154e-05 0.18734 1.9028e-05 -3.2498e-06 -1.0346e-05 0.017405 -2.7786e-05 9.5301e-07 5.6917e-05 -0.00074908 0.00023114 -5.0822e-05 -9.3126e-05 -3.6782e-05 1.6561e-05 -5.227e-05 0.0008294 0.43505 -3.3329e-05 -1.1189e-05 1.1784e-05 0.00065794 2.9594e-05 -3.998e-05 0.00083628 -0.00014319 -2.6797e-06 0.18211 6.9459e-05 -6.0418e-06 -0.00031661
0.29898 -5.3484e-07 -3.4989e-07 9.6044e-06 0.37379 -0.00011697 -5.2521e-06 -0.000405 0.1164 1.6979e-05 -2.1592e-06 0.00014048 3.8503e-06 3.4987e-05 5.1376e-06 0.36906 -3.8726e-05 -5.7599e-05 -2.1601e-05 -0.00016044 -2.7603e-05 -6.9884e-05 8.4794e-06 -3.3963e-05 -5.6744e-05 -1.8794e-06 0.0020148 -3.0634e-06 -6.0798e-05 1.2126e-05 -6.2577e-05 6.7555e-06 -1.803e-05 0.0023501 -1.7673e-05 0.45594 4.0289e-06 0.0013231 -9.4535e-06 4.2423e-05 -7.6417e-05 -0.002533 0.0020627 0.00026377 -0.00063814 -0.00031197 -1.1363e-05 -6.6316e-05 -4.7217e-05 2.8864e-06 -0.00010622 -2.8273e-05 5.1526e-05 8.4994e-05 -5.7795e-05 -5.9088e-06 -1.4216e-05 0.00074859 -0.00015765 -0.0053347
-3.2809e-06 1.263e-05 3.1397e-06 0.25533 0.15504 1.1763e-05 -1.4257e-05 4.1502e-06 0.048319 0.00010417 6.5967e-07 1.9575e-06 0.00044078 0.21114 0.00014723 0.15336 -3.8328e-05 1.3067e-05 -0.0004767 -2.189e-05 9.3135e-06 0.00043584 1.7844e-06 -9.4295e-06 -9.829e-07 -0.00056535 -9.2461e-06 -1.137e-07 9.034e-06 -5.4527e-05 8.7838e-05 2.2007e-05 8.1319e-05 5.4987e-06 0.00044415 7.6115e-06 -1.9419e-06 0.00026623 -3.9984e-05 0.56762 8.8417e-05 -9.6966e-05 0.00012465 6.0486e-06 -3.1446e-06 0.26085 0.00020377 -7.8307e-07 -2.0441e-05 4.6049e-06 0.0010414 -1.0634e-05 -5.7377e-06 0.70248 -0.00028425 1.137e-05 0.00080193 -1.5513e-05 0.00013836 -4.6065e-06
2.4128e-06 6.188e-05 -6.9173e-07 1.1383e-06 5.1851e-05 6.3995e-06 0.00010642 0.00042379 5.2686e-06 -1.1686e-05 1.3982e-06 -2.7347e-06 0.0025072 -3.3229e-05 -3.3422e-05 -2.5071e-05 -2.1256e-06 -1.3705e-05 0.00010129 0.00039015 7.2999e-05 0.001059 -0.00021269 -5.862e-06 0.00026921 -0.0024185 0.00014857 0.00015364 0.34019 5.0664e-06 0.16485 -5.6691e-06 -1.7913e-06 0.00021316 -3.4033e-05 0.00053981 -2.8796e-06 0.00056744 -0.00024432 2.2703e-06 0.0014456 4.0921e-05 0.0013064 0.00011607 0.0040605 3.7701e-05 0.00042799 -1.1016e-05 0.0011575 -8.6335e-05 0.00091499 1.3319e-05 9.7947e-05 4.2539e-05 -9.6679e-06 -0.00018835 0.17184 -0.0001997 -3.8581e-06 0.0019321
1.4502e-05 3.7503e-05 -9.6295e-08 1.0467e-05 0.00015138 0.22682 4.5428e-05 0.36971 -1.1525e-05 -4.06e-05 -1.0943e-06 -6.6196e-06 -0.00016654 2.2462e-05 -2.276e-05 -0.00011821 5.9792e-06 1.8622e-06 -1.1182e-05 0.0017658 0.00011048 -0.00020868 -1.7727e-05 1.4523e-05 0.18826 0.00026328 -1.5652e-05 0.00011032 0.00071681 1.3663e-05 0.19947 3.9744e-05 -6.328e-06 -9.9084e-05 0.00014748 0.39271 2.8258e-06 5.9623e-05 -0.00017164 1.5137e-05 0.00045689 0.00018479 0.001842 0.0002247 0.70698 -1.4969e-05 0.00048255 -0.00030089 -2.8352e-05 -6.8109e-06 0.46185 -4.1523e-07 9.4017e-05 2.8897e-05 -0.00033801 -0.00013818 0.19665 0.0003985 -4.0265e-05 -0.00015969
1.7797e-05 -2.5705e-06 -6.2206e-07 2.2902e-05 0.00012019 0.00022118 0.00010101 0.003409 -6.5131e-05 4.9719e-05 2.3201e-06 -8.2417e-06 -8.1346e-05 -1.7602e-05 2.5429e-06 -1.5841e-05 7.9783e-06 2.7062e-06 -8.3939e-06 0.0026008 0.0001589 -0.00014918 -7.4497e-05 5.3061e-06 0.00021733 0.00015832 -7.9751e-05 -0.00066032 -1.8889e-05 5.2789e-05 0.084994 0.22149 -3.0618e-07 -2.6777e-06 2.3003e-05 0.020692 -1.9331e-05 -0.00010535 -0.00021945 -9.8224e-07 -1.4677e-05 -3.0646e-05 0.00168 -0.00011604 0.010404 -5.5266e-06 0.00012503 7.4835e-05 3.1326e-05 1.6623e-07 5.2145e-05 8.6479e-06 -0.0001135 5.5186e-05 7.4875e-06 -0.00035823 0.083422 -0.0011297 -0.00010377 0.0014362
3.0573e-06 2.2994e-05 -1.577e-06 3.7282e-05 0.078412 8.9259e-05 0.00024363 0.0017275 0.024138 -3.3652e-06 -3.2742e-08 5.355e-05 0.0013168 -6.6094e-05 -3.5959e-06 0.076268 -8.3871e-05 -4.307e-05 6.4654e-05 0.13416 0.016317 0.00026338 -9.2504e-05 -1.6786e-06 0.00037139 -0.0011572 0.00084238 0.00012195 0.0016708 -2.913e-05 0.00042928 8.6071e-06 0.00030969 0.0010836 0.00017316 0.0083477 -2.7337e-05 0.00023028 3.9588e-05 -1.4895e-05 0.00096489 -0.0011648 0.2875 0.00019919 0.0063086 6.6227e-05 0.00022453 -4.1685e-05 -6.3497e-05 0.00012506 0.00070857 1.2315e-05 -1.5681e-05 3.8742e-05 3.2142e-05 -0.00095541 0.0042598 -0.00094172 -4.7367e-05 -0.00095146
5.7685e-23 5.5492e-23 -2.8136e-24 2.4529e-24 -1.1793e-22 2.8398e-24 -9.8673e-25 4.9809e-24 1.2361e-23 -1.0662e-23 -1.4673e-24 -1.4211e-23 -1.1759e-22 9.3288e-24 -7.0716e-24 7.6228e-23 2.3851e-24 -7.8951e-23 1.226e-26 -4.438e-23 -1.0668e-23 3.115e-23 -1.0276e-23 -4.3288e-25 -3.7362e-23 1.2785e-22 1.1456e-20 4.7677e-23 -5.2626e-20 -2.8779e-24 -7.0099e-23 2.5354e-23 3.3966e-24 4.508e-23 1.6599e-22 -8.2938e-23 -7.1388e-24 -3.0683e-23 1.9523e-23 -1.5722e-24 -7.1838e-22 2.5918e-23 1.2136e-22 4.02e-22 2.086e-22 -2.1379e-23 4.129e-23 4.8683e-23 6.2421e-24 4.4577e-23 6.4679e-24 -1.3425e-23 4.6139e-23 -2.3622e-23 6.8128e-24 -1.9366e-23 1.5156e-21 9.7391e-24 -2.7433e-23 -1.0029e-19
0.44817 -2.9573e-07 9.8702e-09 1.6694e-05 0.28023 2.3252e-06 1.3168e-06 2.8725e-06 0.087039 3.6846e-06 2.5405e-08 -1.4832e-06 1.4734e-05 0.38027 -1.2779e-05 0.2763 -1.4131e-05 4.4235e-06 -6.8797e-07 5.7079e-06 -2.8097e-06 2.9216e-06 1.0473e-06 -2.2239e-05 4.9447e-05 -1.8256e-05 -1.3651e-06 4.1184e-06 -3.5965e-05 7.7762e-06 -2.6707e-06 -7.6354e-07 -7.0374e-06 -3.3012e-06 -2.5553e-06 -3.5278e-05 2.9692e-06 0.2897 6.2705e-06 -1.186e-05 7.1917e-06 2.2759e-05 4.9435e-05 4.42e-06 -1.6471e-06 -1.836e-05 -2.329e-06 -9.7784e-06 -1.074e-05 2.2894e-06 -1.4127e-05 -1.4715e-05 3.4294e-06 5.2407e-05 1.8511e-05 -4.1498e-07 -0.00010893 3.8402e-06 3.3551e-05 -1.5328e-05
0.44817 -2.9573e-07 9.8702e-09 1.6694e-05 0.28023 2.3252e-06 1.3168e-06 2.8725e-06 0.087039 3.6846e-06 2.5405e-08 -1.4832e-06 1.4734e-05 0.38027 -1.2779e-05 0.2763 -1.4131e-05 4.4235e-06 -6.8797e-07 5.7079e-06 -2.8097e-06 2.9216e-06 1.0473e-06 -2.2239e-05 4.9447e-05 -1.8256e-05 -1.3651e-06 4.1184e-06 -3.5965e-05 7.7762e-06 -2.6707e-06 -7.6354e-07 -7.0374e-06 -3.3012e-06 -2.5553e-06 -3.5278e-05 2.9692e-06 0.2897 6.2705e-06 -1.186e-05 7.1917e-06 2.2759e-05 4.9435e-05 4.42e-06 -1.6471e-06 -1.836e-05 -2.329e-06 -9.7784e-06 -1.074e-05 2.2894e-06 -1.4127e-05 -1.4715e-05 3.4294e-06 5.2407e-05 1.8511e-05 -4.1498e-07 -0.00010893 3.8402e-06 3.3551e-05 -1.5328e-05
-3.2809e-06 1.263e-05 3.1397e-06 0.25533 0.15504 1.1763e-05 -1.4257e-05 4.1502e-06 0.048319 0.00010417 6.5967e-07 1.9575e-06 0.00044078 0.21114 0.00014723 0.15336 -3.8328e-05 1.3067e-05 -0.0004767 -2.189e-05 9.3135e-06 0.00043584 1.7844e-06 -9.4295e-06 -9.829e-07 -0.00056535 -9.2461e-06 -1.137e-07 9.034e-06 -5.4527e-05 8.7838e-05 2.2007e-05 8.1319e-05 5.4987e-06 0.00044415 7.6115e-06 -1.9419e-06 0.00026623 -3.9984e-05 0.56762 8.8417e-05 -9.6966e-05 0.00012465 6.0486e-06 -3.1446e-06 0.26085 0.00020377 -7.8307e-07 -2.0441e-05 4.6049e-06 0.0010414 -1.0634e-05 -5.7377e-06 0.70248 -0.00028425 1.137e-05 0.00080193 -1.5513e-05 0.00013836 -4.6065e-06
2.1908e-05 -9.9222e-07 2.9411e-06 1.3268e-05 0.00023764 2.3634e-06 0.23585 2.3337e-05 -4.3756e-05 0.19473 -1.0213e-05 7.2375e-05 1.8546e-05 -3.8114e-05 2.3074e-05 -0.0001195 -0.00048015 0.001952 -2.6166e-05 -5.4359e-05 -5.9398e-05 2.3825e-05 -1.647e-06 -4.0556e-05 5.453e-05 -4.1476e-05 0.00050113 1.4641e-05 0.25548 2.854e-05 -4.5756e-05 7.15e-07 4.5984e-06 0.00415 0.3557 2.7672e-05 5.7955e-06 0.0007328 -1.8774e-05 -0.00012703 -2.3328e-05 7.4783e-05 0.0037462 -0.0014622 -0.00019959 -0.00053625 0.34439 0.00011864 4.3131e-05 -0.00016758 -8.5895e-05 0.0006513 -9.177e-05 -0.00039508 3.1155e-06 -0.00018572 0.0021126 2.3265e-05 -9.4639e-05 -0.00020569
5.51e-06 9.9682e-06 0.00023617 0.22969 -0.00017536 0.0001086 -3.5493e-06 -4.2899e-05 0.00016991 0.24048 -7.1044e-06 0.00013982 0.0004215 0.00026709 0.00092655 0.00030152 -0.00038258 -0.00010969 -2.9456e-05 -2.768e-05 -3.792e-05 0.00038156 -5.7491e-05 -3.6042e-05 7.731e-05 -0.00054663 0.0014481 -4.5245e-06 -6.979e-05 -0.00022781 -6.0291e-05 2.9527e-05 2.0572e-05 0.4034 6.8573e-06 0.0018233 -1.8999e-06 0.14525 0.00029006 0.00023079 -1.8374e-05 -0.37653 0.0016792 0.0010065 -9.5526e-05 0.00080197 0.00020916 -0.00035098 -4.4726e-05 4.5133e-06 0.0010226 -7.9931e-05 -5.2377e-05 0.0007823 -0.00016969 0.0030367 0.0016678 -0.00039023 -0.00016123 -0.0019057
1.0799e-06 2.1926e-05 6.3384e-06 -1.1625e-05 1.8813e-05 -3.7703e-05 0.00044067 0.00022477 -3.422e-06 -0.00016871 2.8097e-07 -4.0302e-06 -5.0821e-05 7.8382e-06 2.7064e-06 -1.6793e-05 3.4306e-05 1.0253e-05 0.34363 0.00043556 0.00015498 -4.5475e-05 -9.9252e-06 1.4717e-06 -7.1098e-05 6.207e-05 2.8308e-05 -1.0314e-06 0.00026495 -1.305e-06 -3.0288e-05 -1.1094e-05 0.00055255 7.0109e-05 0.47827 -5.9149e-05 -7.191e-07 -4.1972e-06 2.1305e-05 -0.00011448 1.6673e-05 -4.2403e-05 2.4044e-05 0.00048689 -8.203e-06 4.9267e-05 -0.0071201 2.1132e-05 0.0012713 0.027648 3.4789e-05 1.4627e-05 1.2037e-05 0.000395 -4.3431e-06 -5.5663e-06 0.0010297 7.5359e-05 8.4189e-05 -0.00023338
5.4761e-05 1.1279e-05 -1.7258e-07 3.5352e-05 0.30393 -6.1671e-05 4.3023e-06 -0.00023081 0.76239 -9.2633e-07 -1.7573e-05 0.21126 -2.9359e-05 -0.00020249 -1.2966e-06 -0.17259 -6.6868e-05 0.0016563 1.9723e-05 -9.939e-05 -2.1789e-05 -7.672e-05 6.0125e-06 -8.7515e-06 5.5254e-06 3.0563e-05 0.2807 -3.1545e-05 0.00054567 -0.00010835 -4.8662e-05 0.00019286 1.3856e-05 0.29823 4.5737e-06 0.2482 2.8248e-05 0.00075563 0.00020945 -1.1052e-06 0.00012046 -0.0012338 0.0044136 0.00093078 -0.00024504 -0.00028263 0.0001337 -1.1294e-05 -0.00016274 2.4753e-05 0.00014724 -9.778e-06 4.531e-05 1.7413e-06 2.894e-05 -0.00021425 1.928e-05 0.00032037 0.00014354 -0.00095244
4.5043e-06 1.6621e-05 3.4949e-06 2.19e-05 -2.6322e-05 1.8924e-05 0.00039584 -5.0573e-05 3.2984e-05 -3.3703e-07 -5.5272e-06 9.9307e-05 -0.00013147 -2.6172e-05 2.4279e-06 0.00012329 8.3146e-06 0.0026109 5.429e-05 -0.0001034 -0.00011328 -0.0001478 1.2915e-05 -4.1155e-05 -1.5519e-06 0.00012607 0.00073777 5.6993e-05 0.6759 -1.234e-06 -4.6242e-05 -1.4441e-05 6.8995e-06 0.0051166 0.00083856 3.0392e-05 2.0223e-06 0.00089993 -4.2007e-06 -4.6323e-07 -8.9788e-05 0.00012806 0.0080376 0.00025461 -0.00036698 -0.00042578 0.00023278 2.8158e-06 -9.4864e-05 0.029548 -6.274e-05 4.3793e-05 -1.0636e-05 -1.0187e-05 -7.1295e-06 -0.0004251 -0.00047213 -0.00012455 4.1559e-05 -0.0031308
0 0 0 0 0 0 0 0 0 0 0 0 0 0 0 0 0 0 0 0 0 0 0 0 0 0 0 0 0 0 0 0 -0 0 0 0 0 0 0 -0 0 0 0 0 -0 0 0 0 0 0 0 0 0 0 0 0 0 0 0 0
3.4976e-06 0.24489 -3.2258e-06 2.3768e-05 3.3375e-05 0.00026947 9.0152e-07 -3.5556e-05 -1.4016e-05 0.00010663 5.6564e-06 -1.7076e-05 0.0035327 6.7253e-06 -1.7637e-05 -2.0259e-05 -4.4989e-07 -1.5657e-05 0.36089 0.0022218 0.0067525 0.0012344 -0.00013336 -5.1996e-07 0.17652 -0.0033272 5.1283e-05 -4.4013e-06 0.001655 2.4661e-05 0.18735 1.5103e-06 -8.9673e-06 0.00027744 -3.3578e-05 0.00081356 -0.00011839 0.00043133 -8.394e-05 -2.7936e-05 0.00090836 -0.0010102 0.00022368 -3.2653e-05 -0.00016208 1.2388e-05 -0.00012731 -0.00018627 -1.4801e-05 8.8004e-05 -0.00044669 1.4305e-05 4.9204e-05 0.0012635 -0.00025874 -7.1875e-05 0.18933 -0.00013865 -0.00015341 0.0022725
-4.2772e-05 -7.6635e-07 1.1266e-06 -4.3381e-05 0.10191 5.22e-05 0.00043658 -7.7359e-06 0.032061 3.9939e-06 -4.8665e-06 6.6312e-05 -5.2373e-05 6.7723e-06 -3.3408e-06 0.10178 2.0039e-05 0.0017824 0.25146 -4.7682e-06 -8.5574e-06 -0.00013312 9.2817e-07 -2.9862e-05 -9.7037e-05 8.5159e-05 0.0004748 3.0739e-06 0.0005736 -4.6577e-06 0.00077799 -3.2801e-06 -2.4209e-05 0.003464 -5.3595e-05 0.00011163 -3.5267e-05 0.0006574 -0.0001045 -3.7999e-05 -1.0307e-05 0.00013958 0.0034067 6.2386e-05 -1.1219e-05 -0.00027304 0.00022082 3.3015e-06 -5.7321e-05 0.00054086 -0.00010125 -1.2924e-05 -3.347e-05 0.00090808 -1.7853e-05 -0.00024744 0.00015984 -4.4069e-06 -8.8204e-05 -0.0018832
3.6061e-07 -1.8673e-06 1.3644e-08 6.601e-06 3.3519e-07 -1.5306e-05 -3.5945e-06 -4.1345e-06 -6.4168e-07 -3.3192e-06 1.8819e-06 2.7667e-08 -1.4814e-06 -3.0779e-06 -3.349e-05 -2.3285e-06 9.894e-07 1.1602e-07 8.2436e-06 -5.2071e-06 1.7868e-06 -5.1377e-06 -1.0832e-05 1.1878e-06 5.4314e-06 1.7051e-06 -5.3311e-06 -1.5818e-06 -2.3035e-05 -4.1977e-06 -0.00025584 6.9489e-06 6.0021e-06 1.1884e-06 -7.1406e-06 0.00040667 2.5173e-07 -1.974e-06 -0.00014345 -5.1847e-06 -5.3338e-05 -6.459e-05 -2.6095e-05 9.005e-05 4.5793e-05 -4.9121e-05 -1.8492e-05 -0.00011076 -3.9422e-06 9.7728e-07 0.42767 3.7163e-07 4.7587e-05 -1.517e-05 2.2535e-06 1.1186e-05 0.00011582 -1.227e-05 -1.3927e-06 -1.4004e-05
4.9435e-06 0.38547 9.3021e-07 -3.5218e-05 2.9511e-05 0.00010795 7.3353e-05 0.00035104 -2.5427e-05 5.4697e-06 -4.7492e-05 -9.849e-06 -4.6841e-05 1.4417e-06 -1.8267e-06 1.3585e-06 3.1943e-06 -3.7599e-05 -1.3345e-05 -2.572e-05 -3.0774e-05 -9.0122e-07 7.6886e-06 -1.8235e-05 0.00015488 3.8517e-05 -4.4825e-05 0.7071 0.25559 -1.0261e-05 2.1475e-05 0.38188 3.5209e-06 9.4369e-05 0.00022369 0.00040989 0.00053563 0.11846 -0.00011727 -5.3782e-07 0.28143 2.0813e-05 0.40283 -0.001597 0.0030314 4.9967e-06 0.00046589 -2.7777e-05 -8.8688e-06 -3.3858e-05 0.00080497 1.244e-05 -5.5831e-06 1.4159e-05 -2.5707e-05 0.0013818 0.00030177 0.021097 0.0013821 -0.00037252
8.9869e-06 -1.0321e-05 -6.2062e-07 -6.9107e-06 3.1788e-05 0.00035537 -2.9143e-05 0.32483 -5.5975e-06 7.6741e-06 3.7805e-07 -9.2e-07 -8.0354e-05 -0.00010535 0.00075753 -2.3576e-05 7.7474e-06 -9.2002e-07 2.4061e-05 0.00035575 0.0001424 -6.3102e-05 -0.00019686 -4.2307e-07 0.00046002 9.7098e-05 2.4049e-05 1.0386e-05 -0.00010438 6.8633e-05 0.1759 2.2407e-05 0.0011002 1.3176e-05 8.4441e-05 -3.6366e-05 -4.466e-05 0.0011264 -2.0881e-05 7.528e-05 -0.0001451 -0.00012126 0.0026919 -6.7769e-05 -0.00024554 1.6926e-05 -1.8804e-05 3.4899e-06 -1.1923e-05 4.747e-06 3.1538e-05 5.7413e-06 -8.2655e-05 5.0519e-05 -1.3771e-05 -0.00030047 0.1784 -0.00015862 -0.00012111 -0.00024984
-7.0798e-06 -3.0159e-06 -2.6569e-07 4.5613e-06 -8.5554e-05 4.3837e-05 0.50818 4.4139e-07 5.6256e-05 2.3567e-06 -1.8839e-07 3.2772e-08 1.3785e-06 -1.7154e-06 6.5552e-05 0.00018941 -1.6851e-06 1.0523e-06 -9.0974e-07 9.4421e-05 5.9441e-05 -5.8003e-06 1.5595e-06 -9.4837e-07 2.4354e-05 -4.2472e-06 1.1808e-07 -1.4051e-05 -1.3796e-05 -2.7955e-05 3.6121e-05 6.8509e-06 -1.6864e-06 1.4263e-06 -3.1758e-05 3.3677e-06 -3.5206e-06 -3.123e-05 -1.5842e-05 -8.1296e-06 -3.6858e-05 -4.0637e-05 0.0038106 -0.00029319 -5.1208e-06 1.0692e-05 -2.6872e-05 -2.364e-06 -2.1475e-05 -0.00013619 2.6898e-05 -1.6283e-05 -1.2287e-05 0.00010586 1.5957e-06 -3.049e-05 0.00022083 -6.918e-05 -1.4097e-05 1.0512e-06
9.5574e-06 0.1591 -1.8835e-06 -3.1457e-06 -6.4688e-06 -9.6453e-05 -4.2291e-06 -1.6838e-05 1.4578e-07 0.003162 -1.3398e-05 -4.3732e-07 0.0024492 -9.3258e-05 -1.0678e-05 8.478e-06 0.00010104 -2.4231e-05 0.46679 0.0003096 4.2546e-05 0.0011521 -0.00011257 -4.4003e-05 0.22889 -0.0024026 0.00010672 -8.6219e-06 0.0010458 -6.6243e-06 0.12133 8.6498e-06 -1.3439e-05 0.00018578 -0.00022558 -0.00016196 -4.4378e-06 0.0005618 -0.00036937 -5.861e-05 0.00035122 5.5884e-05 0.00013237 8.2387e-06 6.0763e-06 -0.00066414 0.0020482 3.8227e-07 -9.9661e-06 0.00011881 0.00025667 -3.3742e-05 -0.0002067 0.0016751 -0.00038984 -0.00025048 0.12812 4.1892e-05 0.00015271 0.0012672
7.7367e-07 1.6012e-06 -4.3789e-06 -7.8752e-07 6.2875e-06 -1.8109e-05 2.3684e-06 -4.3438e-06 -6.5829e-06 -1.0004e-06 -1.9873e-09 0.76788 -3.273e-06 -4.7363e-06 -2.138e-05 -1.4911e-05 4.2695e-06 -7.8405e-06 -2.542e-05 -8.1819e-08 -2.3166e-06 -2.4313e-06 -3.8406e-05 4.1479e-06 5.2959e-06 3.3588e-06 -4.812e-05 -4.4051e-07 2.4779e-06 4.5971e-06 -7.0717e-05 -2.804e-06 2.2944e-05 -2.5217e-05 -2.1606e-06 -0.00025445 -5.9983e-07 -8.7883e-06 0.00040303 -6.3889e-06 2.2679e-05 -0.48944 -3.3217e-05 -5.203e-05 2.3169e-05 3.3999e-06 -4.0435e-06 0.00011475 1.6938e-05 -1.9965e-08 0.000117 2.7151e-06 1.5314e-05 -1.2303e-05 2.6937e-06 -4.4093e-05 -4.4162e-05 3.3125e-05 1.6034e-06 6.7795e-05
4.2016e-06 0.40168 7.1331e-08 0.3906 -5.6504e-06 7.8139e-07 -5.4908e-07 -1.9542e-06 -2.7615e-06 6.374e-06 -4.2738e-06 -1.3614e-06 0.00012894 1.449e-06 -1.2096e-05 6.0286e-06 1.0347e-05 2.7152e-06 -1.8306e-05 6.9952e-07 -3.2354e-06 0.00013013 -2.1435e-06 -1.2766e-05 -9.2762e-06 -0.00021589 8.8888e-06 -2.8628e-07 -5.4639e-05 3.0484e-06 3.182e-05 -6.1753e-06 1.5348e-06 2.0874e-05 -1.3431e-05 -1.4011e-05 -5.923e-07 0.24698 -7.668e-06 -3.9027e-05 3.5701e-05 -1.4272e-06 3.29e-06 -2.7409e-05 2.1044e-05 -9.0057e-05 -1.0755e-05 1.4436e-05 3.7356e-05 -8.4202e-07 7.9398e-06 -3.9692e-05 -1.2562e-06 1.5023e-05 -3.5828e-06 5.032e-05 -3.6947e-05 6.1592e-05 -4.19e-05 -2.3936e-05
-9.3363e-07 -5.0945e-06 -1.2619e-06 -9.8075e-06 -4.8462e-05 0.00063096 2.3948e-07 -0.00010101 8.3809e-06 4.6476e-05 2.4482e-06 3.8831e-07 2.7225e-05 -6.1696e-05 2.2379e-06 3.9574e-05 -9.951e-06 5.9515e-06 1.5569e-05 1.6281e-07 -8.2514e-07 3.6208e-06 -3.2653e-07 2.1642e-06 0.0015225 -2.2078e-05 -1.1139e-05 4.8784e-07 -2.303e-06 -2.2711e-05 -2.1633e-05 -5.5358e-08 -2.5224e-06 -5.5902e-05 -2.6459e-06 0.0030482 -0.00016059 3.0854e-05 -5.7246e-05 -5.9314e-06 -0.00032812 -0.0064959 2.8671e-05 -3.1615e-07 -2.5901e-05 -5.414e-05 3.5605e-06 -0.00039428 -7.4653e-05 -1.8342e-06 -0.00065701 6.5656e-07 -2.5029e-06 6.5051e-05 5.7977e-05 -5.2446e-05 0.0007873 -0.00021176 -0.00040549 9.8706e-05
1.1286e-07 -1.4937e-05 -2.15e-06 0.2807 5.3318e-05 -1.4105e-05 3.9407e-06 6.2436e-06 -4.6414e-05 -1.0421e-05 -5.9355e-06 -4.0807e-06 0.00017764 -9.6435e-06 1.4778e-05 -0.00013033 -1.4009e-06 -3.0598e-06 -2.8122e-05 0.00024675 5.1359e-05 0.00079541 -3.5831e-05 2.7093e-06 0.00011247 -0.00030709 0.0002249 -2.5779e-06 -7.0483e-05 8.0503e-06 0.21861 3.7456e-05 1.1303e-05 2.0747e-06 -2.3888e-05 5.6955e-05 2.6492e-06 0.0014503 0.58005 -4.8562e-05 0.0032453 -0.00045474 2.5022e-05 8.4788e-06 -5.6387e-06 -3.5233e-05 3.1509e-05 8.8664e-05 -1.3518e-05 4.7104e-07 0.0011116 3.0686e-06 0.5803 -0.00013577 -2.4286e-05 -3.658e-05 0.21932 2.2697e-05 -1.6904e-05 -0.00060575
-1.2227e-07 -1.7434e-06 -1.2547e-07 2.2508e-05 0.00029806 4.676e-05 -1.9552e-06 -2.3892e-06 -4.8411e-05 -1.1207e-05 -2.5478e-06 1.0237e-07 -0.00014393 -6.4024e-06 -1.5195e-05 -0.00023725 4.5894e-06 -1.8618e-06 4.716e-06 0.0011287 0.00042644 -0.00017392 -1.5984e-05 -1.2498e-05 1.2567e-05 0.00019385 -3.5886e-05 -6.1997e-06 -2.361e-05 -1.8003e-05 0.00025199 -3.6489e-06 4.5259e-06 4.6227e-07 -4.1703e-06 0.00025062 -7.95e-06 0.00085525 0.0098855 -3.8384e-06 -6.6674e-06 -4.7713e-05 -2.4982e-05 0.00011094 9.384e-06 -9.9854e-05 -1.1097e-05 -5.9247e-05 -6.1557e-06 5.537e-07 0.25892 -5.1306e-06 0.014305 1.8953e-05 -3.6282e-06 1.6909e-06 0.0016128 -3.3749e-05 -4.9854e-05 -1.4853e-05
7.8744e-06 3.6378e-07 -1.9474e-06 6.2622e-05 0.0002094 -9.141e-08 4.2282e-06 0.00014515 -4.5705e-05 -3.2622e-05 -2.836e-06 -0.0001217 5.804e-05 1.1854e-05 -3.7477e-05 -0.00012653 1.8252e-05 7.3314e-06 -7.0596e-06 0.00031554 8.5431e-05 9.753e-05 0.003201 -2.4007e-06 5.129e-06 -8.0238e-05 -5.4173e-05 1.7008e-06 -6.5137e-06 8.6553e-06 0.00012427 8.4971e-05 0.00038949 -3.2965e-05 9.5411e-05 -0.00029965 -9.7355e-07 0.00050481 0.012216 -6.8677e-06 0.00020523 -0.51983 -1.8638e-05 -2.6501e-05 4.1758e-05 6.6676e-06 0.00024227 0.70481 0.0001047 3.9622e-06 0.0013933 -6.3291e-06 0.00065977 -1.4488e-05 -7.2964e-05 -0.00011579 0.0054492 2.1089e-06 -1.0219e-05 0.0028099
2.5826e-06 -4.9265e-07 1.7408e-07 3.1882e-06 2.7325e-05 -5.0435e-07 2.8948e-07 4.681e-07 5.9886e-06 0.35941 -4.2262e-06 2.0405e-06 -4.8789e-06 0.28438 -9.487e-06 -2.1036e-05 -0.00050725 3.4262e-05 -1.0239e-05 8.9508e-06 -1.8979e-06 -1.1624e-05 1.2218e-05 1.1876e-06 0.25227 2.3871e-05 1.342e-05 -3.2978e-06 -2.2053e-05 1.4722e-05 5.0127e-05 1.4268e-06 1.1108e-07 2.9631e-05 3.8424e-05 -1.4884e-05 1.2497e-06 0.21667 1.075e-05 -1.4127e-05 -2.4639e-05 -2.352e-06 1.0242e-05 1.7129e-05 2.4972e-06 0.35108 -5.1005e-05 -2.1701e-06 7.5814e-07 1.2684e-06 -4.3853e-06 -2.8424e-06 9.3936e-06 9.0853e-05 -0.0004528 3.0541e-05 -0.00013085 2.5668e-05 0.00010049 -0.0001045
3.0547e-06 -1.099e-06 3.6028e-08 3.6479e-06 2.6596e-05 -1.139e-06 3.4364e-07 2.7835e-07 6.4302e-06 0.00016723 1.9892e-06 -1.1846e-05 -8.4845e-06 0.31519 -1.2933e-05 -2.0554e-05 1.1522e-05 0.75788 -2.8597e-05 8.2689e-06 -2.6247e-06 -9.9086e-06 1.118e-05 3.9315e-05 0.27961 3.1341e-05 -1.0962e-06 -3.8144e-06 -4.6557e-05 1.684e-05 8.4298e-05 4.897e-06 5.9994e-07 -0.00033564 -1.6462e-05 6.0433e-06 2.6009e-06 0.24016 6.0909e-07 -1.5027e-05 -3.1361e-05 1.2888e-05 -6.2854e-05 6.0835e-05 8.4969e-06 0.38909 -5.0471e-05 -8.5256e-06 3.2125e-05 2.2405e-06 1.0005e-05 -2.0319e-06 2.0658e-06 9.052e-05 -0.00050499 3.1379e-05 -0.00011081 1.5372e-05 8.357e-05 -4.8105e-06
-3.3004e-07 -5.9985e-06 0.51842 -3.0437e-06 -4.9495e-06 -6.4025e-06 3.2765e-05 5.8607e-05 -1.4365e-06 0.00011406 -1.1784e-06 -1.6763e-06 1.8628e-05 2.2393e-06 6.9169e-06 6.1112e-06 -1.2948e-05 -1.9079e-05 -8.9066e-06 -1.6728e-06 1.7214e-06 2.7933e-05 1.1613e-06 2.556e-07 -3.175e-05 -3.4949e-05 -3.6021e-05 1.3752e-05 0.00019933 -8.9375e-06 -3.8116e-05 -3.6104e-06 -4.8012e-07 -8.1917e-05 0.00061134 -8.8664e-05 -3.3276e-06 -3.2156e-05 2.0084e-06 -4.3343e-05 7.8406e-07 3.3655e-05 0.25918 8.9359e-05 -0.00018208 -1.3549e-05 0.44773 -7.1172e-06 -1.5073e-06 1.2176e-05 -3.8265e-05 0.00091256 -3.4971e-05 0.00010228 6.5791e-06 3.5286e-05 0.0011017 -0.00037334 -1.8217e-05 2.9862e-05
-2.5842e-06 8.743e-05 3.1446e-07 1.8724e-05 1.8855e-05 0.10227 0.14801 0.00026125 8.9073e-06 7.1912e-05 -3.424e-05 -8.6669e-06 -1.5212e-05 -9.1216e-06 -1.088e-05 1.2071e-05 -1.615e-05 1.1857e-06 0.00013363 5.8578e-05 3.5477e-05 -5.9694e-06 3.9844e-06 -1.0334e-05 3.4316e-05 1.1749e-05 -4.42e-05 0.0009984 0.00082936 -1.9534e-05 0.00052225 0.00019966 -4.5606e-06 -6.4685e-05 0.0011366 0.00044828 0.00030521 6.9741e-05 -0.00012603 2.5361e-06 0.0014463 1.867e-05 0.0031146 -0.0031916 0.0021154 -9.4248e-06 0.010194 -3.0026e-06 -1.7775e-05 0.014062 0.0004021 0.00031619 -4.269e-05 -1.3236e-05 -1.0025e-05 0.00074273 0.0010556 0.014342 0.00077757 8.4272e-05
4.9306e-07 6.6362e-07 -3.7255e-07 -3.2483e-06 3.8912e-05 1.6017e-05 6.6418e-08 -2.9229e-06 -2.5769e-05 9.3506e-07 3.0799e-06 -9.7455e-07 7.8511e-06 2.7559e-05 3.8757e-05 -6.2109e-05 5.7162e-06 -2.2272e-10 3.4629e-05 3.0806e-06 6.2315e-07 4.9667e-06 9.9068e-06 6.1254e-07 -4.7741e-05 -9.5398e-06 -2.8526e-06 1.9039e-07 4.2699e-06 0.41366 2.722e-05 -1.4368e-06 2.3953e-06 -3.9147e-07 -1.5092e-06 0.00042374 9.8393e-06 -4.3301e-05 8.4279e-06 -1.9052e-06 2.7088e-05 8.5847e-08 5.8313e-06 -1.2154e-05 -1.5228e-05 8.0442e-06 -7.6973e-06 -4.4919e-06 -1.8287e-05 -1.39e-07 -4.1348e-05 1.249e-06 -3.7949e-06 6.4385e-06 -4.1755e-06 3.5001e-05 -3.8376e-05 5.9565e-05 9.5142e-06 5.278e-05
2.9913e-05 9.0758e-07 1.6135e-06 -0.0001132 0.16089 -7.7276e-05 -1.9864e-05 -7.0359e-06 0.049929 -1.2958e-05 7.6028e-07 -1.8284e-06 -3.5848e-05 -9.7314e-06 1.9856e-05 0.15874 -1.9203e-05 -1.4539e-05 -2.6536e-05 -9.7337e-07 1.3678e-05 -2.3118e-05 -6.7737e-06 2.9464e-06 -4.1457e-05 4.8844e-05 -5.1886e-05 0.00020746 -5.7944e-05 2.211e-05 0.20515 0.53587 2.2837e-06 -4.3505e-05 -8.3159e-06 -0.00011378 -7.653e-05 -0.00010613 -3.446e-05 1.3961e-06 0.40398 4.4142e-05 0.28133 -7.9689e-05 -0.0002528 4.2766e-05 -2.7948e-05 -5.4089e-05 -9.0245e-06 -1.5939e-06 1.8604e-05 1.906e-05 -8.6609e-05 7.4652e-05 -4.9505e-06 2.3501e-05 0.20148 -0.0011401 -0.00017951 -0.00071131
1.2167e-05 4.6542e-06 -1.1362e-06 0.15939 2.8658e-05 -3.231e-05 -5.8479e-09 -5.108e-05 -2.1806e-05 -2.0396e-06 -1.1435e-07 -2.9114e-08 0.20097 -1.138e-05 -3.8812e-06 -7.0829e-05 6.9768e-06 -9.5381e-06 4.2363e-05 0.39294 0.39623 0.17597 -0.00011307 1.0956e-06 0.11745 0.11674 0.26708 1.5514e-06 0.0010504 2.3708e-05 0.12424 1.5702e-05 7.6782e-06 0.00038274 -1.4273e-05 -0.0002002 -3.0611e-05 0.10184 0.32986 -2.3692e-05 0.24015 -0.00023858 0.00019159 4.4864e-05 -0.00020258 5.3912e-07 6.4681e-06 4.2589e-05 -3.5587e-06 5.7298e-07 0.00060509 -1.6407e-05 0.3298 -7.6804e-05 -0.00023698 -6.5149e-05 0.12893 -0.00039737 -0.00011935 0.0046714
-7.3473e-06 4.464e-06 2.4924e-06 -9.3717e-06 -8.3127e-05 0.14174 0.00064242 1.9488e-05 3.2345e-05 3.0763e-06 -6.7805e-07 2.0157e-05 0.00023407 0.00012271 0.38079 0.00012702 -2.7825e-05 -1.3855e-05 1.3885e-05 -3.1445e-05 -9.8215e-06 0.00026659 0.27239 3.066e-06 0.11753 -0.00029684 5.404e-05 -4.594e-05 -5.3257e-05 -0.00083459 0.12475 0.00021688 -2.2937e-05 -0.00026887 5.9327e-05 -0.00011712 -6.1615e-05 -2.9193e-05 -0.00012154 0.00020036 -0.00021665 -5.2162e-05 0.00068383 -0.33299 -0.00017047 0.00061507 0.00017016 -8.6677e-05 -1.7673e-05 -7.3286e-06 0.30105 8.5002e-06 -8.2814e-06 0.00056039 -0.00029895 -0.00046533 0.12434 -0.00064979 -7.8367e-05 0.00048683
4.546e-07 -2.4838e-06 4.125e-07 -4.525e-06 1.2641e-05 -5.5596e-05 5.2655e-07 5.3761e-06 -4.6732e-06 -1.3172e-05 4.1597e-07 -6.2402e-08 -3.5057e-06 1.4464e-05 -3.3434e-05 -1.6181e-05 -1.9105e-05 -1.5675e-06 0.32867 -4.8444e-07 5.0969e-06 7.498e-07 2.3277e-06 -3.7239e-06 -0.00018731 3.4539e-06 3.7252e-06 1.0133e-06 7.0274e-06 0.00034973 -4.2185e-05 2.0744e-06 -1.5105e-06 1.3931e-06 -0.00016807 -2.6077e-05 7.6625e-06 -1.2052e-05 2.1806e-05 -2.9283e-05 1.3793e-05 4.5129e-05 1.2652e-06 1.0603e-05 1.0353e-06 8.7759e-05 -0.00018389 3.2115e-06 -5.7692e-07 7.6701e-05 9.4609e-05 -2.9766e-07 1.5104e-06 0.0010676 -4.8105e-06 3.0739e-05 -3.2595e-05 4.4965e-06 7.993e-05 -4.5463e-05
-1.8565e-08 -7.2797e-07 6.4745e-07 1.1672e-07 5.9796e-07 2.122e-05 0.00062684 6.2169e-07 2.6523e-07 -2.8977e-06 3.1479e-07 -1.5147e-06 -4.9666e-07 -5.8501e-08 9.1577e-08 -1.407e-07 1.0954e-06 6.0754e-07 1.2483e-05 1.2169e-09 -5.7417e-07 -3.8032e-08 3.9247e-07 6.8686e-07 -2.6421e-07 3.728e-07 5.3681e-06 9.0124e-06 0.00049578 -1.1448e-06 -2.0431e-06 -1.4466e-06 5.8746e-06 2.4935e-05 0.0010852 -2.198e-06 3.1519e-07 -6.5193e-06 2.1014e-06 -2.5524e-07 -5.7055e-07 4.4006e-06 2.6957e-05 1.0448e-06 -2.0908e-06 -2.4678e-07 -8.2171e-05 4.8063e-07 3.4017e-06 0.99908 -9.7686e-06 3.5573e-05 3.5013e-08 -1.6502e-05 2.7238e-07 -1.2251e-05 -1.0869e-05 2.9414e-05 7.1521e-08 -8.2507e-05
0.24681 -4.7629e-07 2.6354e-10 9.8873e-06 0.15433 1.5817e-05 -8.3016e-08 2.7766e-06 0.047927 0.26493 0.51082 1.1773e-06 -5.344e-06 0.20946 -7.8966e-06 0.15215 0.33761 2.5144e-05 1.2845e-05 6.1301e-06 -8.2692e-07 -8.6836e-06 9.091e-06 0.37838 0.18583 1.805e-05 1.0736e-05 3.5023e-05 -1.0485e-05 1.1279e-05 3.8489e-05 -1.1628e-05 8.9181e-06 1.4439e-05 2.5067e-05 -2.6413e-05 0.00011506 0.15962 7.3935e-06 -6.243e-06 -6.8309e-05 7.4738e-06 2.4785e-05 3.0205e-05 -1.1262e-06 0.25849 -3.0212e-05 -4.8568e-06 -5.6749e-06 1.7302e-05 -3.4558e-06 -2.2734e-06 6.8591e-06 8.9245e-05 -0.00040417 6.3487e-05 -9.2448e-05 1.2197e-05 0.46193 -7.9409e-05
2.4128e-06 6.188e-05 -6.9173e-07 1.1383e-06 5.1851e-05 6.3995e-06 0.00010642 0.00042379 5.2686e-06 -1.1686e-05 1.3982e-06 -2.7347e-06 0.0025072 -3.3229e-05 -3.3422e-05 -2.5071e-05 -2.1256e-06 -1.3705e-05 0.00010129 0.00039015 7.2999e-05 0.001059 -0.00021269 -5.862e-06 0.00026921 -0.0024185 0.00014857 0.00015364 0.34019 5.0664e-06 0.16485 -5.6691e-06 -1.7913e-06 0.00021316 -3.4033e-05 0.00053981 -2.8796e-06 0.00056744 -0.00024432 2.2703e-06 0.0014456 4.0921e-05 0.0013064 0.00011607 0.0040605 3.7701e-05 0.00042799 -1.1016e-05 0.0011575 -8.6335e-05 0.00091499 1.3319e-05 9.7947e-05 4.2539e-05 -9.6679e-06 -0.00018835 0.17184 -0.0001997 -3.8581e-06 0.0019321
0.25476 -4.8696e-07 8.9876e-08 1.0707e-05 0.1593 3.9903e-05 1.1364e-06 5.4548e-06 0.049473 0.27347 1.6964e-05 1.1105e-06 -7.044e-06 0.21621 -6.7814e-06 0.15705 0.34933 2.5136e-05 1.0052e-06 6.2388e-06 -1.482e-07 -1.0304e-05 9.6341e-06 0.39096 0.19181 2.1301e-05 1.1965e-05 6.7394e-06 -1.165e-05 1.1804e-05 4.014e-05 -5.2285e-06 2.3709e-06 1.5913e-05 2.6073e-05 -2.2011e-05 0.51366 0.16476 7.0736e-06 -6.8642e-06 -7.5904e-05 9.0435e-06 1.8309e-05 6.3114e-05 -4.2349e-06 0.26679 -3.0717e-05 -5.0932e-06 -5.6782e-06 1.2644e-05 -5.0061e-06 -2.7834e-06 7.1254e-06 7.7756e-05 -0.00042471 2.7511e-05 -9.7194e-05 0.00021639 0.004685 -8.0367e-05
4.8862e-06 2.9358e-06 -2.1954e-06 8.4448e-06 1.3073e-05 -1.1103e-05 2.8999e-05 -7.2355e-06 1.8458e-06 -6.9144e-05 2.1423e-06 -3.5157e-06 0.0038315 -6.0754e-05 -1.3786e-05 -3.278e-06 9.7844e-06 -2.0825e-05 -0.00013794 0.00069871 0.00015134 0.0015503 -0.00020131 -6.116e-06 0.00069226 -0.0036362 0.00021998 1.0642e-06 0.0021123 1.9291e-06 7.3581e-05 1.3844e-06 6.0647e-06 0.00044116 0.63715 -5.1727e-05 -2.2852e-07 0.00088972 0.00020089 -0.00016085 0.0015223 1.1483e-05 0.00037012 0.00055305 -5.9539e-05 1.0489e-05 0.0083028 -1.4174e-06 3.3456e-06 -0.00016304 2.0455e-05 -4.6836e-05 8.9592e-05 -0.00092202 -5.4162e-06 -0.00012254 0.0097752 -1.9117e-05 -2.2467e-05 0.0032155
1.4303e-05 1.5108e-05 -1.6642e-08 -2.4215e-06 -2.5504e-06 -2.871e-05 -2.7331e-06 -6.6732e-05 5.7477e-06 -3.8366e-06 -8.1966e-07 4.9696e-06 0.24393 -3.1021e-05 -1.3951e-05 3.9041e-06 1.1005e-05 -1.1739e-05 7.2121e-05 0.47701 0.4813 0.21323 -0.00011766 6.8313e-06 0.14283 0.14209 0.32424 6.3455e-06 0.0013241 1.7422e-05 0.00015269 -6.3183e-06 4.9753e-07 0.0004402 -7.9469e-07 -0.00028202 -3.9508e-05 0.12348 0.00046051 4.9702e-06 0.28912 2.4996e-05 0.00020928 5.3163e-05 -0.0002424 -3.5118e-05 -1.327e-05 -9.0823e-06 4.4441e-06 3.5201e-07 -3.1465e-05 -2.7804e-05 8.569e-05 2.4865e-06 -0.00029613 -6.4557e-05 0.0053327 -0.00049005 -0.00013786 0.005511
2.3471e-05 -4.1663e-06 4.0799e-07 -4.9449e-05 0.16681 0.00043912 1.0897e-06 0.00017109 0.051748 2.8739e-05 -8.3556e-06 -2.6207e-07 2.9376e-06 -0.0001257 0.00089574 0.16429 2.6221e-05 1.433e-06 -4.7846e-05 -3.3047e-06 -1.1044e-06 3.5083e-06 -0.00021281 -5.8241e-07 0.20132 1.8624e-05 1.4137e-05 -2.4767e-06 -3.6472e-05 7.7605e-05 0.00011758 4.9966e-06 0.65989 -1.0852e-05 -0.00014222 9.0624e-06 -5.5413e-05 0.17387 7.4997e-07 0.59633 -9.9669e-05 -0.00012035 4.3541e-06 4.468e-06 -6.8149e-05 -9.737e-06 -8.5069e-05 -1.4156e-05 1.0654e-05 5.0132e-06 3.8839e-05 -1.2815e-05 1.8163e-06 0.023255 -0.00036442 -0.00012215 0.0027557 -0.00029305 -6.0178e-05 -0.00011893
0.20494 1.1933e-05 -7.6122e-08 5.248e-05 0.12838 -1.6631e-06 -1.2042e-06 6.4496e-06 0.039749 4.7944e-06 -9.8817e-07 8.5802e-06 0.26445 -6.5923e-05 4.6092e-05 0.12621 -3.1678e-06 -1.8821e-05 8.3003e-05 0.0006034 0.00010185 0.23127 -0.0001384 -9.5865e-06 0.00047734 0.15433 0.35253 -2.503e-07 0.0014493 7.1924e-06 4.895e-05 5.7331e-06 -3.2228e-06 0.36789 3.2754e-05 -3.0492e-05 1.2439e-06 0.00077584 0.00043475 1.0586e-05 0.0013294 -2.9023e-06 0.00020553 0.00025569 -5.7919e-07 2.19e-05 0.00022235 5.6315e-05 5.9698e-05 7.7491e-06 -1.5709e-05 -2.5101e-05 0.00029057 -7.7252e-06 -2.675e-06 -4.7337e-05 0.0074269 -4.1087e-05 -3.0015e-05 0.70729
0.20494 1.1011e-05 -2.0563e-07 4.34e-05 0.12838 -7.8287e-07 -1.2127e-06 6.0457e-06 0.039749 -4.4772e-06 -6.1677e-06 1.0956e-05 0.26436 -9.1793e-05 4.713e-05 0.12621 -1.4718e-06 -2.1276e-05 8.4369e-05 0.00041984 8.6814e-05 0.23127 -0.00014383 -1.5927e-06 0.00071909 0.1544 0.35246 2.6598e-06 0.0014487 8.7216e-07 6.1871e-05 6.2132e-06 -4.3437e-06 0.36787 3.2827e-05 -2.998e-05 7.0797e-07 0.001604 0.00026351 1.0862e-05 0.00092161 -1.6434e-06 0.00019881 0.00026058 -7.8408e-07 -4.3267e-05 0.00022301 5.6681e-05 5.9094e-05 7.7284e-06 -1.5467e-05 -3.1345e-05 -1.6531e-05 -5.404e-06 -2.9783e-05 -5.8883e-05 0.0074132 -3.2043e-05 -3.4935e-05 0.70666
2.5826e-06 -4.9265e-07 1.7408e-07 3.1882e-06 2.7325e-05 -5.0435e-07 2.8948e-07 4.681e-07 5.9886e-06 0.35941 -4.2262e-06 2.0405e-06 -4.8789e-06 0.28438 -9.487e-06 -2.1036e-05 -0.00050725 3.4262e-05 -1.0239e-05 8.9508e-06 -1.8979e-06 -1.1624e-05 1.2218e-05 1.1876e-06 0.25227 2.3871e-05 1.342e-05 -3.2978e-06 -2.2053e-05 1.4722e-05 5.0127e-05 1.4268e-06 1.1108e-07 2.9631e-05 3.8424e-05 -1.4884e-05 1.2497e-06 0.21667 1.075e-05 -1.4127e-05 -2.4639e-05 -2.352e-06 1.0242e-05 1.7129e-05 2.4972e-06 0.35108 -5.1005e-05 -2.1701e-06 7.5814e-07 1.2684e-06 -4.3853e-06 -2.8424e-06 9.3936e-06 9.0853e-05 -0.0004528 3.0541e-05 -0.00013085 2.5668e-05 0.00010049 -0.0001045
0.25154 -2.8438e-07 -3.1719e-08 1.129e-05 0.15729 4.037e-05 1.1241e-06 5.1432e-06 0.048851 0.27002 1.8398e-05 1.0997e-06 1.1536e-05 0.21348 -5.1393e-06 0.15506 0.34514 2.4344e-05 -1.9904e-06 3.2006e-06 6.5576e-07 -1.2501e-06 2.8987e-06 0.38618 -4.8913e-05 -1.9578e-05 -1.274e-06 8.2823e-06 -1.7786e-05 2.3389e-06 -1.0288e-05 -7.4568e-06 5.4888e-06 1.6171e-05 2.9582e-05 -2.2014e-05 0.50718 0.16271 5.9813e-06 -8.3418e-06 -6.0735e-05 1.5711e-05 2.6002e-05 5.9391e-05 -4.5975e-06 0.26342 -2.3601e-05 -2.5948e-06 -5.3858e-06 1.2377e-05 -2.5468e-05 -1.7793e-06 7.3925e-06 8.9945e-05 0.51544 1.84e-05 -7.5287e-05 0.00020492 0.0046276 2.0883e-05
1.278e-05 -2.1671e-06 2.575e-07 8.2362e-06 0.20285 -2.2602e-05 5.2626e-06 -2.1185e-05 0.062933 -1.5639e-05 2.3826e-06 -1.846e-06 -0.00010337 -5.5695e-05 2.575e-07 0.1997 -1.8729e-06 -3.9259e-07 -4.5512e-05 9.34e-06 4.2572e-06 -8.4491e-05 3.572e-05 1.1533e-05 0.24943 9.3e-05 2.5855e-05 -1.2353e-06 1.2974e-05 -6.0698e-05 -0.00037984 9.9749e-07 -2.2597e-06 2.0157e-05 5.4732e-06 1.0803e-05 1.805e-06 -9.9517e-05 -0.00017387 -3.7165e-05 -0.00018426 -1.9133e-05 3.911e-06 6.6202e-07 5.2974e-06 -0.00010389 8.3102e-06 -7.1575e-06 -1.0499e-05 1.2715e-06 -0.00011207 7.83e-06 -8.697e-05 -2.6107e-06 -0.00024059 -0.00012203 -0.00017922 6.8276e-06 -1.1462e-05 -7.9433e-05
5.0807e-06 -2.1425e-06 4.8046e-06 1.8126e-05 9.0169e-05 1.8857e-05 6.875e-07 1.2052e-06 -2.9661e-05 -1.2027e-05 1.9194e-06 -2.2386e-05 5.5455e-06 0.16508 3.1784e-05 -0.00011323 1.0576e-05 1.0665e-06 -4.5611e-06 -5.8971e-06 8.2711e-06 -8.1175e-06 0.68036 -2.9553e-05 -0.00043738 -4.9281e-06 6.1813e-06 -1.3403e-05 -5.8777e-05 1.3736e-05 0.1582 1.7586e-06 -5.6952e-06 1.7551e-05 -1.3169e-06 6.1956e-06 -2.8168e-06 0.1265 -0.00057119 -7.8742e-06 -3.8419e-05 -0.0011012 4.3255e-06 -6.4575e-06 3.5838e-07 -0.0002351 -2.191e-05 4.1356e-05 -3.1035e-06 9.2569e-07 -0.00032657 -9.3588e-06 0.00014129 6.8561e-05 -0.00031496 -3.2959e-05 0.15688 -1.939e-06 -1.3199e-05 -0.00020237
4.0542e-06 -3.2138e-06 0.58553 0.00020234 1.1063e-05 -9.8729e-06 0.35036 3.3777e-05 -4.6802e-06 -8.0395e-06 2.0561e-05 -2.0347e-05 -1.0501e-05 5.562e-05 0.00052893 -1.5055e-05 5.1295e-05 -4.2349e-05 -1.1163e-05 -1.1344e-06 5.8845e-06 -8.1379e-07 -1.1085e-05 3.3756e-05 0.2016 2.1608e-05 -6.9677e-07 -3.7703e-05 -5.957e-05 -8.9608e-05 0.21286 -2.0574e-05 -2.4393e-06 0.00047727 -1.7981e-05 -5.2252e-05 5.3282e-06 -4.0689e-05 6.8002e-05 7.551e-06 -9.3405e-05 -0.002352 0.29269 0.00022927 -0.00015593 3.1848e-05 -3.9032e-05 -0.00015334 -2.8162e-05 -9.9343e-05 0.00012043 4.8367e-05 3.4016e-05 2.7195e-05 -0.00037839 0.77632 0.21071 -0.00060502 0.00030657 -0.00070294
-1.575e-05 1.4891e-05 -5.8038e-07 0.26737 0.16407 1.8556e-06 0.17088 -0.00025017 0.050393 -2.9712e-05 -2.9108e-06 -1.658e-05 7.62e-05 -9.2635e-05 1.7107e-05 0.15983 -5.1788e-05 0.2664 -2.2047e-05 -7.7842e-05 -1.6687e-05 0.00010263 -3.4994e-06 1.3799e-05 4.7837e-05 -0.00010029 -4.5772e-05 -1.0296e-05 6.7852e-05 -1.5568e-05 3.1324e-05 -1.1191e-06 1.4822e-06 -0.00012135 2.1091e-06 0.20125 -2.5226e-06 4.4538e-05 -8.4749e-06 -6.4169e-05 -4.5968e-05 5.9135e-05 -0.00011549 1.9838e-05 -0.00038719 6.9158e-05 0.00020263 9.6414e-05 0.99999 -4.082e-05 -6.3554e-05 -1.077e-05 -1.615e-06 -0.00023597 3.2727e-05 6.2284e-05 0.0018644 0.00037908 2.299e-05 0.0014338
-1.8156e-05 6.2508e-05 -1.5376e-07 0.001496 -0.00023277 -5.5961e-05 3.8455e-05 -2.5254e-05 9.7054e-05 -3.5691e-05 5.5468e-06 -1.6952e-06 1.4663e-05 0.00030844 -1.7357e-05 0.00036435 5.7749e-05 -8.674e-06 0.32974 2.6375e-05 8.5897e-05 1.5772e-05 -2.0668e-05 -2.2882e-06 0.00018885 -2.5865e-05 8.8389e-06 -1.4438e-05 6.155e-05 -4.1199e-07 0.00064081 -9.8792e-06 -0.00035444 2.9925e-05 0.42436 0.00040486 1.2823e-05 -8.0145e-05 -0.00039353 0.003443 -0.00012449 5.7484e-05 0.00089404 -0.00015414 -0.00012592 0.00019575 0.39163 -9.1742e-06 -7.358e-05 -1.4453e-05 -0.00025769 0.00010362 -0.00015274 0.094702 -6.4786e-05 2.5523e-07 0.001127 2.436e-06 7.2615e-05 -6.8008e-05
-1.0997e-06 5.0048e-05 -7.4714e-08 -1.0764e-05 0.13773 0.00073591 -1.9266e-05 -4.2471e-06 0.042869 -4.8452e-06 1.5251e-05 -1.7837e-06 3.9128e-06 -1.875e-05 3.5081e-07 0.13611 -1.9131e-05 -1.4793e-06 -1.3797e-05 5.9694e-06 7.4099e-07 5.5345e-06 1.6571e-06 -1.566e-05 -6.5324e-06 -7.8213e-06 1.346e-05 1.9816e-05 0.00043685 -1.0955e-05 -3.3621e-06 6.0297e-06 -1.1136e-05 1.0297e-05 -2.2553e-06 0.00044632 -0.00017058 -1.7553e-06 9.8298e-06 -1.3107e-05 -0.0001801 -4.5714e-05 0.00289 9.7705e-06 -4.8794e-05 6.183e-06 -2.175e-05 -2.8973e-06 -2.1829e-05 0.00025096 -0.00010723 2.4021e-06 3.4145e-06 1.246e-05 6.0618e-07 -0.00011751 1.9769e-05 -0.00021737 -0.00047312 -4.4271e-05
1.4303e-05 1.5108e-05 -1.6642e-08 -2.4215e-06 -2.5504e-06 -2.871e-05 -2.7331e-06 -6.6732e-05 5.7477e-06 -3.8366e-06 -8.1966e-07 4.9696e-06 0.24393 -3.1021e-05 -1.3951e-05 3.9041e-06 1.1005e-05 -1.1739e-05 7.2121e-05 0.47701 0.4813 0.21323 -0.00011766 6.8313e-06 0.14283 0.14209 0.32424 6.3455e-06 0.0013241 1.7422e-05 0.00015269 -6.3183e-06 4.9753e-07 0.0004402 -7.9469e-07 -0.00028202 -3.9508e-05 0.12348 0.00046051 4.9702e-06 0.28912 2.4996e-05 0.00020928 5.3163e-05 -0.0002424 -3.5118e-05 -1.327e-05 -9.0823e-06 4.4441e-06 3.5201e-07 -3.1465e-05 -2.7804e-05 8.569e-05 2.4865e-06 -0.00029613 -6.4557e-05 0.0053327 -0.00049005 -0.00013786 0.005511
7.8744e-06 3.6378e-07 -1.9474e-06 6.2622e-05 0.0002094 -9.141e-08 4.2282e-06 0.00014515 -4.5705e-05 -3.2622e-05 -2.836e-06 -0.0001217 5.804e-05 1.1854e-05 -3.7477e-05 -0.00012653 1.8252e-05 7.3314e-06 -7.0596e-06 0.00031554 8.5431e-05 9.753e-05 0.003201 -2.4007e-06 5.129e-06 -8.0238e-05 -5.4173e-05 1.7008e-06 -6.5137e-06 8.6553e-06 0.00012427 8.4971e-05 0.00038949 -3.2965e-05 9.5411e-05 -0.00029965 -9.7355e-07 0.00050481 0.012216 -6.8677e-06 0.00020523 -0.51983 -1.8638e-05 -2.6501e-05 4.1758e-05 6.6676e-06 0.00024227 0.70481 0.0001047 3.9622e-06 0.0013933 -6.3291e-06 0.00065977 -1.4488e-05 -7.2964e-05 -0.00011579 0.0054492 2.1089e-06 -1.0219e-05 0.0028099
4.2653e-07 0.37613 5.7481e-06 1.9259e-05 3.2688e-05 3.4422e-05 0.15656 0.00028501 -8.6406e-06 2.9978e-05 -9.6109e-07 -3.4186e-06 -4.8725e-06 -6.0657e-06 -1.9763e-06 -2.1035e-05 -6.3251e-06 7.3089e-06 7.9035e-05 2.0058e-06 -2.7163e-06 -7.4112e-06 -2.426e-06 -5.1702e-07 2.0313e-05 8.3935e-06 -4.3182e-06 7.2491e-05 0.00068431 -5.1949e-06 -1.966e-05 -2.2958e-05 3.5082e-06 -7.3573e-05 0.24152 0.000355 -2.6672e-06 9.4649e-05 -1.5265e-05 -7.9536e-05 0.00036071 -1.6082e-05 0.0006798 -0.00088934 0.002237 -2.4294e-05 0.22535 2.5973e-05 0.00065948 -6.2718e-05 0.00058128 0.00041643 -1.3194e-05 -0.00031079 3.474e-06 -6.9848e-05 0.0013974 4.2421e-05 6.0054e-06 3.5061e-05
1.3093e-06 0.24756 2.0637e-06 -8.9201e-07 -9.3191e-05 7.9737e-05 -3.7156e-06 -2.3433e-05 4.2152e-05 -2.2996e-06 -1.335e-06 1.5025e-06 0.18328 0.00023414 0.00014053 0.00016746 -2.9858e-05 -1.2067e-06 7.9981e-06 2.8281e-05 -0.00022483 0.32401 -2.1447e-05 -4.1375e-05 -8.6547e-05 -0.2734 1.451e-05 -2.4268e-07 9.0118e-06 -4.7139e-05 1.1776e-05 5.0342e-05 -6.9366e-06 2.2269e-05 1.2382e-05 0.00074575 -2.17e-06 0.1528 -3.6291e-05 0.00029014 1.1295e-05 -0.00013371 0.00010594 -0.00010804 -9.0475e-05 0.00068601 0.0004133 5.4346e-07 -4.145e-06 -6.0785e-07 0.0010525 -0.00019944 -1.0649e-05 0.00083824 -0.00016379 1.6935e-05 0.00016592 -2.9536e-05 -5.8362e-05 4.8623e-05
8.0729e-06 -7.8421e-08 -8.2154e-07 6.3969e-06 2.5466e-05 0.00017049 -5.3882e-06 0.002556 -3.8625e-06 -6.992e-06 1.3947e-06 -1.8263e-06 -9.223e-05 3.2821e-06 -7.5713e-06 -1.8868e-05 2.2367e-06 1.32e-06 -3.6289e-06 0.0019825 0.0001275 -0.00016304 -3.1796e-05 2.7729e-06 0.00010118 0.00015983 -4.5655e-05 -2.5346e-05 -7.7363e-06 9.9274e-06 0.00066491 3.9721e-05 1.8622e-07 -6.4215e-05 1.1335e-05 0.014875 -1.3157e-05 -4.5435e-05 -0.00010163 1.3432e-06 -2.6959e-06 7.7998e-05 0.0016909 9.095e-06 0.0079816 1.9153e-06 -3.4808e-05 5.2541e-06 -2.9318e-05 5.859e-08 3.2745e-05 6.218e-06 -7.4774e-05 1.3311e-06 -6.4403e-07 -0.00020031 -2.0113e-05 -0.0008693 -4.5209e-05 0.00020846
0.23623 -2.714e-07 -1.1288e-07 1.0138e-05 0.14772 1.6051e-05 -7.7545e-08 2.4297e-06 0.045875 0.25358 0.48893 1.1299e-06 1.225e-05 0.20049 -6.0965e-06 0.14563 0.32335 2.3621e-05 9.4929e-06 3.0882e-06 -3.8216e-08 6.937e-08 2.4902e-06 0.36231 -4.0655e-05 -2.0862e-05 -2.0151e-06 3.5051e-05 -1.5935e-05 2.0466e-06 -1.0043e-05 -1.3285e-05 1.1492e-05 1.4251e-05 2.7598e-05 -2.5545e-05 0.00011239 0.15281 6.1348e-06 -7.4445e-06 -5.2037e-05 1.3523e-05 3.1165e-05 2.6162e-05 -1.4687e-06 0.24741 -2.2598e-05 -2.3628e-06 -5.2244e-06 1.646e-05 -2.2584e-05 -1.2661e-06 6.9005e-06 9.7789e-05 0.48407 5.2536e-05 -6.9065e-05 3.4649e-06 0.44214 1.8128e-05
6.6545e-06 -1.5043e-06 0.00016794 0.00011125 2.2527e-05 0.00011991 0.00062634 0.0017006 -4.5654e-06 -3.512e-06 -5.9614e-07 -1.567e-05 -5.5255e-05 2.3191e-05 0.00041989 -2.3066e-05 4.2931e-06 -1.6759e-05 1.9604e-05 0.0013216 8.1195e-05 -0.0001098 -3.7734e-05 6.8689e-07 0.00014045 0.00010011 -3.3017e-05 -1.6571e-05 -1.8521e-05 0.00019255 0.0004288 2.5446e-05 -3.7171e-07 0.00029872 7.4887e-06 0.010039 -1.2773e-05 -3.8782e-05 -6.844e-05 1.1171e-06 -2.1198e-06 -0.0014107 0.0010035 6.6452e-05 0.0052122 -5.6114e-06 -5.1409e-05 -7.9609e-05 -3.5959e-05 -3.2553e-06 1.6793e-05 -5.0401e-05 -6.1894e-05 -6.5592e-07 -3.7251e-06 0.0021085 0.00059848 -0.00077257 -0.00014062 -0.00016429
-1.734e-06 -1.8213e-06 2.169e-07 -2.3491e-07 -1.0116e-06 -1.752e-05 3.7503e-05 0.28208 2.7796e-06 0.00011519 -1.5551e-06 2.1132e-06 -2.0812e-05 8.5694e-06 -1.9205e-06 2.9427e-06 -2.4992e-05 5.6177e-07 -4.708e-05 -4.8544e-05 2.6465e-06 7.8586e-06 -2.9609e-05 -2.7478e-06 -0.00014183 1.8647e-05 2.1431e-05 5.7099e-06 9.7477e-05 1.378e-05 0.1528 2.8532e-06 -1.8651e-06 2.3312e-05 -0.00017158 -0.00037594 3.1359e-06 -8.4769e-05 -0.00010134 6.5948e-06 -2.8603e-05 3.2868e-05 5.6687e-05 -5.9948e-05 -9.3564e-05 1.3346e-05 0.01543 -1.0789e-05 -4.672e-06 2.715e-06 5.1616e-05 0.0005781 7.6281e-05 3.1105e-05 2.7566e-06 -2.1201e-05 0.153 -7.1798e-05 -6.1807e-06 -0.00024072
0.24681 -4.7629e-07 2.6354e-10 9.8873e-06 0.15433 1.5817e-05 -8.3016e-08 2.7766e-06 0.047927 0.26493 0.51082 1.1773e-06 -5.344e-06 0.20946 -7.8966e-06 0.15215 0.33761 2.5144e-05 1.2845e-05 6.1301e-06 -8.2692e-07 -8.6836e-06 9.091e-06 0.37838 0.18583 1.805e-05 1.0736e-05 3.5023e-05 -1.0485e-05 1.1279e-05 3.8489e-05 -1.1628e-05 8.9181e-06 1.4439e-05 2.5067e-05 -2.6413e-05 0.00011506 0.15962 7.3935e-06 -6.243e-06 -6.8309e-05 7.4738e-06 2.4785e-05 3.0205e-05 -1.1262e-06 0.25849 -3.0212e-05 -4.8568e-06 -5.6749e-06 1.7302e-05 -3.4558e-06 -2.2734e-06 6.8591e-06 8.9245e-05 -0.00040417 6.3487e-05 -9.2448e-05 1.2197e-05 0.46193 -7.9409e-05
9.3672e-06 3.6034e-06 5.4282e-07 -1.7788e-05 1.1957e-05 -8.6693e-05 -2.9132e-06 3.7923e-06 4.8168e-06 0.35628 -1.7068e-05 1.6902e-06 -1.3805e-05 5.3155e-05 -4.9705e-06 -9.0483e-06 0.45017 -1.2018e-05 0.50376 -2.2383e-06 6.1054e-06 -1.0132e-05 -6.7615e-06 0.0005482 0.24782 3.7481e-05 1.9364e-05 -6.9489e-06 -3.0802e-05 3.9046e-05 0.00070582 6.1829e-06 -1.3287e-05 3.0569e-05 1.6675e-05 -0.00015192 0.00018887 0.21287 -0.00016726 -5.0143e-05 -5.6131e-05 3.2735e-05 -4.8759e-06 2.8969e-05 3.9479e-06 -0.00070258 -0.00014286 1.0264e-05 -3.0034e-06 0.00013748 0.00047037 -1.8165e-05 -0.00014752 0.0018019 -0.00052761 -1.8414e-05 0.0032472 2.7025e-05 0.0016517 -0.00020937
4.882e-07 0.41633 4.3592e-08 -6.4891e-06 -6.9294e-05 0.09003 -1.589e-06 -9.0977e-07 2.272e-05 -1.2674e-07 -1.0098e-06 1.235e-07 -1.4845e-05 6.3374e-06 -1.0227e-05 0.00015639 -5.8062e-06 -7.9055e-07 1.5091e-05 1.116e-05 6.8393e-06 -1.172e-05 1.3925e-05 4.6553e-06 -0.00026307 2.2494e-05 1.2651e-05 8.7501e-06 -7.5838e-05 -1.7553e-06 0.0011899 1.1001e-05 -7.2293e-06 3.2284e-06 -7.4791e-06 -4.8594e-05 -7.8316e-05 -2.0095e-05 -0.00024114 -1.5175e-06 -9.4773e-05 7.6793e-07 -2.0494e-05 5.727e-06 -1.4095e-05 2.1936e-05 -1.2068e-05 -5.0452e-06 1.2482e-07 1.347e-07 0.0024041 6.6402e-07 4.3732e-05 -1.5805e-05 -7.4664e-06 1.9578e-05 0.0029245 5.2463e-05 -0.00011583 -1.2825e-05
1.5897e-06 2.0257e-06 -1.0295e-07 -1.4821e-05 1.2153e-06 0.39533 7.6205e-05 0.32012 -7.8835e-06 6.8157e-06 0.0056215 1.5945e-07 -3.0233e-05 2.4823e-05 -0.00021013 9.1516e-06 -0.00015324 -7.847e-06 5.2146e-05 -2.9414e-05 -1.0389e-05 -6.9374e-06 1.3449e-05 1.5779e-05 0.1641 4.3997e-05 1.943e-05 0.0015707 1.3483e-05 2.2922e-05 6.6716e-05 0.00042525 -1.1621e-05 7.0564e-05 -1.2407e-05 -0.00026097 0.00021046 0.14087 -2.2461e-05 1.2445e-05 0.0013002 7.5906e-05 0.0012564 -0.00062409 2.476e-05 7.5768e-05 1.321e-05 -2.1291e-05 -2.9299e-06 1.3387e-05 5.9669e-05 -5.583e-06 3.3664e-06 3.2403e-05 -0.00034024 0.63031 -0.00010712 0.6816 0.4268 9.1504e-05
1.2167e-05 4.6542e-06 -1.1362e-06 0.15939 2.8658e-05 -3.231e-05 -5.8479e-09 -5.108e-05 -2.1806e-05 -2.0396e-06 -1.1435e-07 -2.9114e-08 0.20097 -1.138e-05 -3.8812e-06 -7.0829e-05 6.9768e-06 -9.5381e-06 4.2363e-05 0.39294 0.39623 0.17597 -0.00011307 1.0956e-06 0.11745 0.11674 0.26708 1.5514e-06 0.0010504 2.3708e-05 0.12424 1.5702e-05 7.6782e-06 0.00038274 -1.4273e-05 -0.0002002 -3.0611e-05 0.10184 0.32986 -2.3692e-05 0.24015 -0.00023858 0.00019159 4.4864e-05 -0.00020258 5.3912e-07 6.4681e-06 4.2589e-05 -3.5587e-06 5.7298e-07 0.00060509 -1.6407e-05 0.3298 -7.6804e-05 -0.00023698 -6.5149e-05 0.12893 -0.00039737 -0.00011935 0.0046714
2.771e-05 0.28301 8.8612e-07 8.8707e-06 0.083516 -3.7949e-05 -1.5504e-05 3.5672e-05 0.57611 -6.6798e-06 2.7385e-06 6.3935e-06 -3.856e-05 -2.0269e-05 0.00011001 -0.30888 -2.0858e-05 -1.432e-05 -3.1112e-06 -0.00018036 -2.8783e-05 -2.3934e-05 -9.5678e-05 9.379e-06 -2.2887e-05 4.3519e-05 8.7868e-05 3.4424e-05 -9.728e-05 2.422e-05 0.21594 0.56044 1.3948e-06 -0.00031121 0.00016551 -1.6304e-05 -4.9139e-05 5.5628e-06 5.6415e-05 -1.1557e-06 -0.0001023 1.7996e-05 -5.6279e-05 -0.57115 9.7801e-06 -2.0527e-06 -0.00013418 -2.0259e-05 -5.2056e-06 -1.9464e-06 6.4006e-05 8.3026e-06 1.2673e-06 6.5909e-05 1.1642e-06 -0.0001118 0.21309 -0.00077521 -4.4607e-05 0.00048973
-4.8039e-06 -2.7558e-07 -1.8454e-07 5.8058e-05 -2.9032e-05 8.8613e-05 -1.1689e-06 -0.00011045 -4.2651e-06 8.9101e-05 1.2475e-06 -2.6099e-05 1.2165e-05 -3.8772e-06 0.00013729 -2.0846e-06 1.9254e-06 -8.179e-07 6.1109e-06 2.2917e-05 -9.0824e-06 5.3476e-06 0.00022689 -2.7957e-06 0.0001212 -1.9414e-05 -2.0027e-05 5.1673e-06 -4.1482e-05 -0.00010638 0.00011608 8.4422e-05 4.3539e-06 0.00029308 -1.1881e-05 0.0042608 4.9985e-06 4.744e-05 0.01392 5.9158e-06 0.00019861 -0.00076155 1.5017e-05 0.00017274 -8.268e-05 -5.4595e-05 -2.4116e-05 0.00050186 1.0114e-05 8.0816e-07 0.33209 2.7927e-08 0.00089896 -1.2897e-05 -7.1819e-07 -4.7589e-06 0.0024917 1.5298e-05 2.08e-06 -5.0162e-05
-9.7747e-07 1.5761e-05 2.5511e-07 -4.2653e-06 -1.2957e-05 -6.682e-07 -7.7627e-07 8.7881e-07 6.5911e-06 6.2105e-08 1.8182e-06 -1.7131e-06 0.45446 2.3014e-06 -2.2957e-06 1.7131e-05 1.5527e-06 8.5336e-07 0.00018168 2.0037e-05 -0.00019199 0.39881 -1.2724e-06 2.6501e-06 2.8426e-05 0.2702 2.1372e-05 -9.2638e-07 2.6848e-05 4.1229e-06 6.1851e-05 -7.0909e-06 8.9884e-07 2.5115e-05 -1.3679e-05 5.2777e-06 -3.2566e-08 -1.1505e-05 1.1204e-05 7.6216e-06 -2.6537e-06 -3.2546e-06 1.1356e-05 3.2966e-06 -7.0015e-07 -2.6906e-05 -1.324e-05 -1.3021e-06 3.5724e-06 -3.8483e-07 -3.9337e-05 -3.2237e-05 1.7394e-05 3.2033e-06 -1.1331e-05 2.4011e-05 -6.5129e-05 -1.2271e-06 -3.9419e-06 4.7198e-05
2.5917e-05 -3.7813e-06 -7.9167e-07 0.52074 0.31816 -7.8268e-06 4.1968e-06 7.1291e-06 0.098787 -2.5014e-05 -5.5561e-06 -2.0501e-06 -4.797e-05 5.1096e-06 3.3272e-05 0.31353 -3.0397e-05 -2.1179e-06 -6.411e-05 -6.7805e-06 6.7821e-06 -3.3253e-05 2.1643e-05 -1.0846e-05 3.2971e-05 5.1918e-05 4.2683e-05 -2.3591e-06 -6.5421e-05 2.8519e-05 0.40461 1.0903e-06 4.8807e-06 5.5042e-06 -3.8893e-05 -8.6401e-06 9.6282e-07 -0.00011097 0.00013487 -4.8793e-05 8.3268e-06 9.5387e-05 -3.1897e-07 -1.6028e-06 9.1794e-07 5.018e-05 -6.8896e-05 -1.4633e-05 7.4625e-06 2.2831e-06 0.00021577 2.022e-05 0.00010597 9.3128e-05 6.1497e-06 9.6912e-05 0.39874 -4.4367e-06 6.6264e-05 -0.00053306
3.8883e-07 -5.7231e-09 5.0836e-08 5.1789e-07 4.5496e-07 4.1194e-05 -1.5438e-06 -1.7791e-06 -2.1752e-07 -5.0876e-09 3.5355e-07 -4.7391e-08 -1.2754e-06 -1.9791e-07 3.2339e-07 -7.8629e-07 2.6053e-08 -3.8298e-08 2.4882e-08 -3.8084e-09 -1.8449e-07 -3.3484e-07 2.8121e-08 3.4022e-07 -4.3789e-07 1.7792e-06 1.0825e-07 1.0308e-06 -6.3649e-07 -3.1147e-06 -1.0909e-06 4.7932e-07 5.862e-08 -2.8588e-07 3.7376e-07 -3.1803e-06 -2.773e-06 -2.8347e-06 2.2241e-06 -1.1597e-08 -8.537e-06 -3.8476e-06 0.00022634 1.3287e-06 -1.2488e-06 1.5582e-06 -2.5955e-06 -7.848e-07 -2.38e-07 -5.3208e-08 -1.1351e-05 6.6913e-07 2.4967e-07 8.2827e-08 1.0758e-06 -2.3917e-05 -3.3997e-07 -5.0669e-05 1.9852e-06 2.9378e-06
2.4128e-06 6.188e-05 -6.9173e-07 1.1383e-06 5.1851e-05 6.3995e-06 0.00010642 0.00042379 5.2686e-06 -1.1686e-05 1.3982e-06 -2.7347e-06 0.0025072 -3.3229e-05 -3.3422e-05 -2.5071e-05 -2.1256e-06 -1.3705e-05 0.00010129 0.00039015 7.2999e-05 0.001059 -0.00021269 -5.862e-06 0.00026921 -0.0024185 0.00014857 0.00015364 0.34019 5.0664e-06 0.16485 -5.6691e-06 -1.7913e-06 0.00021316 -3.4033e-05 0.00053981 -2.8796e-06 0.00056744 -0.00024432 2.2703e-06 0.0014456 4.0921e-05 0.0013064 0.00011607 0.0040605 3.7701e-05 0.00042799 -1.1016e-05 0.0011575 -8.6335e-05 0.00091499 1.3319e-05 9.7947e-05 4.2539e-05 -9.6679e-06 -0.00018835 0.17184 -0.0001997 -3.8581e-06 0.0019321
4.9435e-06 0.38547 9.3021e-07 -3.5218e-05 2.9511e-05 0.00010795 7.3353e-05 0.00035104 -2.5427e-05 5.4697e-06 -4.7492e-05 -9.849e-06 -4.6841e-05 1.4417e-06 -1.8267e-06 1.3585e-06 3.1943e-06 -3.7599e-05 -1.3345e-05 -2.572e-05 -3.0774e-05 -9.0122e-07 7.6886e-06 -1.8235e-05 0.00015488 3.8517e-05 -4.4825e-05 0.7071 0.25559 -1.0261e-05 2.1475e-05 0.38188 3.5209e-06 9.4369e-05 0.00022369 0.00040989 0.00053563 0.11846 -0.00011727 -5.3782e-07 0.28143 2.0813e-05 0.40283 -0.001597 0.0030314 4.9967e-06 0.00046589 -2.7777e-05 -8.8688e-06 -3.3858e-05 0.00080497 1.244e-05 -5.5831e-06 1.4159e-05 -2.5707e-05 0.0013818 0.00030177 0.021097 0.0013821 -0.00037252
0.25154 -2.8438e-07 -3.1719e-08 1.129e-05 0.15729 4.037e-05 1.1241e-06 5.1432e-06 0.048851 0.27002 1.8398e-05 1.0997e-06 1.1536e-05 0.21348 -5.1393e-06 0.15506 0.34514 2.4344e-05 -1.9904e-06 3.2006e-06 6.5576e-07 -1.2501e-06 2.8987e-06 0.38618 -4.8913e-05 -1.9578e-05 -1.274e-06 8.2823e-06 -1.7786e-05 2.3389e-06 -1.0288e-05 -7.4568e-06 5.4888e-06 1.6171e-05 2.9582e-05 -2.2014e-05 0.50718 0.16271 5.9813e-06 -8.3418e-06 -6.0735e-05 1.5711e-05 2.6002e-05 5.9391e-05 -4.5975e-06 0.26342 -2.3601e-05 -2.5948e-06 -5.3858e-06 1.2377e-05 -2.5468e-05 -1.7793e-06 7.3925e-06 8.9945e-05 0.51544 1.84e-05 -7.5287e-05 0.00020492 0.0046276 2.0883e-05
9.0408e-06 2.8396e-05 -2.068e-07 4.9843e-05 0.096241 2.4914e-06 0.00031956 0.00047868 0.029593 3.9625e-06 -7.2127e-06 0.00013054 0.0015949 -9.1975e-05 -2.0019e-06 0.093505 -6.7669e-05 0.0016022 0.000109 0.0023346 0.00069683 0.00032552 -9.2014e-05 -2.7342e-05 0.00037255 -0.0014152 0.0014826 0.00015152 0.0026029 -4.9472e-05 8.667e-05 -2.1391e-05 0.00037819 0.0045961 0.00020727 0.00074748 -8.3207e-06 0.0010184 9.7667e-05 -1.3977e-05 0.0011115 -0.0013847 0.35196 0.00029086 0.0026911 -0.0002165 0.00051099 -5.2106e-05 -0.00011465 0.00016258 0.00084884 -2.8792e-06 1.5247e-05 4.0153e-05 2.6323e-05 -0.0010091 0.0052753 -0.00061654 4.9675e-05 -0.0028113
-2.131e-05 7.1138e-06 -1.5976e-06 0.13729 0.083485 8.7379e-05 0.00012458 0.0015471 0.0259 -1.8327e-05 1.7554e-07 -4.3042e-06 -0.00033866 0.00020807 6.2399e-06 0.082148 -7.3401e-06 -3.8552e-06 0.00016824 0.17172 0.17467 -0.00073844 -2.5541e-05 -9.5443e-06 6.3412e-05 0.00052316 -5.0996e-05 -1.6493e-05 -6.473e-05 4.1803e-06 0.21274 2.2211e-05 0.00011112 -2.3056e-05 0.0010239 0.0083334 -9.1769e-06 -0.00013794 -0.00010278 0.0025006 -8.0622e-06 3.2939e-05 0.00080517 2.4141e-05 0.0043268 0.00016406 0.00010127 7.2563e-06 -7.1778e-05 1.8253e-06 0.00017295 1.5892e-05 -0.00012774 0.058842 -5.1205e-05 -7.0923e-05 0.20928 -0.00047125 -1.8529e-05 -9.4873e-05
1.5766e-07 1.4327e-05 -2.3987e-06 5.9968e-05 -1.8274e-05 0.26233 2.1949e-06 0.00019608 1.6897e-05 6.8987e-05 -1.724e-06 -1.2807e-05 -7.3974e-05 -7.6962e-05 0.00050329 6.0485e-05 -2.9269e-05 0.00032762 0.0027632 9.8494e-05 8.1057e-05 -5.2604e-05 -9.6165e-05 1.8544e-05 0.0014973 0.00010278 -1.1684e-05 -2.1552e-05 -0.00010188 6.001e-06 0.11652 -7.528e-06 0.00069809 -0.00015822 0.00025367 0.43875 -0.00019032 0.00070045 -0.00033805 5.3271e-05 -0.00033675 -0.0030687 -0.00023266 -4.7253e-05 -0.00041072 -2.2719e-06 0.00032161 -0.00022516 0.00024264 -1.1406e-05 -0.00019755 2.4464e-06 7.1704e-05 8.5621e-05 5.07e-05 -3.3309e-05 0.11877 0.00064014 -0.00046075 -9.0311e-05
2.8045e-05 1.7526e-06 3.6197e-08 9.4817e-06 1.459e-06 -5.1863e-06 1.7076e-05 1.0005e-05 -1.9738e-07 2.0023e-05 -6.2266e-06 0.37601 -5.5643e-05 -2.713e-05 -1.6454e-05 -1.5745e-05 1.1753e-05 0.5955 5.205e-05 2.8521e-07 -4.6724e-06 -8.6166e-05 1.7544e-06 -4.1258e-05 2.6542e-05 7.7564e-05 0.49842 -3.5904e-06 0.0010141 -2.0258e-05 -8.3556e-06 -1.122e-05 7.4091e-08 0.52486 1.9815e-05 3.1063e-05 2.6092e-06 0.0012465 0.00049941 4.0038e-06 0.00046469 3.5936e-05 0.0058114 0.00095066 2.0483e-05 -0.00047679 0.00023434 1.0744e-05 -7.5467e-05 4.2454e-05 1.4949e-05 -1.5745e-05 1.2199e-05 -4.4847e-06 -1.0213e-05 -0.00039285 6.2457e-05 -0.00013988 3.0211e-05 0.0074264
2.4041e-06 5.3906e-06 -6.8757e-07 1.9361e-05 -5.2484e-05 0.2509 -1.4645e-06 -3.3844e-05 1.6312e-05 0.001561 -1.7943e-05 -4.9845e-05 -1.3377e-05 6.2033e-05 0.00047763 4.3599e-05 2.1464e-05 -9.6389e-06 2.7572e-05 -1.7696e-05 1.8421e-05 -4.559e-06 0.0028303 -2.9139e-05 -0.00027021 5.4164e-06 -8.1338e-06 -1.0843e-05 -9.7583e-05 -0.00014929 0.22276 1.7106e-05 -7.8019e-06 0.00047893 -1.7918e-05 0.0020933 -9.3842e-06 0.00037466 -0.00050744 2.2084e-06 -9.1563e-05 -0.0017277 -9.4629e-05 0.00031525 -0.00011043 -0.00020463 -6.5824e-05 -0.00025131 3.5228e-07 -9.058e-06 0.25974 6.8956e-06 -2.9332e-05 3.9222e-05 -8.0619e-05 -6.326e-05 0.22255 0.0004432 -1.7779e-05 -0.0005254
