-3.0576e-07 4.662e-08 3.6329e-05 -5.5423e-09 -1.9886e-07 -2.0044e-06 0.00035261 -1.6098e-06 -5.666e-07 6.11e-08 7.4771e-08 1.6485e-06 2.6245e-06 5.2255e-08 -1.6405e-06 -2.2427e-05 -1.3903e-05 2.6041e-06 8.9239e-09 -1.1795e-06
4.1578e-06 1.3496e-06 0.00030154 6.0315e-07 0.00029908 3.1543e-05 0.00014424 0.00017904 2.8712e-06 4.5333e-06 9.9638e-07 -4.4845e-05 0.00019281 1.0473e-06 -5.4597e-07 0.00050319 0.00066698 0.00048498 3.2349e-06 -5.6988e-06
0.00022129 9.6821e-05 1.7224e-05 8.2964e-07 6.7007e-06 5.6574e-05 0.162 1.1854e-05 4.8489e-05 0.00036729 -2.087e-05 -0.0001241 4.9447e-06 -9.1053e-05 3.5174e-05 0.00011403 0.00058143 0.00014102 -6.1817e-05 -0.00022947
5.1698e-07 -2.1604e-06 2.0175e-05 -1.0527e-08 1.9718e-06 3.8701e-05 0.00046133 6.7846e-05 -1.0589e-07 8.9913e-07 -1.2623e-07 1.7517e-06 6.1832e-05 9.8931e-07 1.4282e-06 -2.2852e-05 9.6872e-07 1.7049e-06 -1.7195e-06 -1.0346e-05
7.6927e-06 -1.3792e-05 1.054e-05 -2.2524e-07 1.8654e-05 2.8731e-06 0.21378 1.3556e-07 1.8307e-06 6.4402e-06 -1.8091e-05 0.00019587 0.00015446 -5.4725e-05 -1.6509e-05 -0.00010539 0.0001355 0.00028056 0.00054285 0.00069493
8.4884e-05 5.9762e-05 -3.4489e-06 5.8696e-07 1.4707e-05 1.8643e-05 0.26552 5.6548e-05 1.6849e-05 0.00017854 -2.5267e-05 -0.0001023 6.2659e-06 -4.9524e-05 3.0821e-05 -1.0795e-05 0.00025253 -5.8662e-07 -3.8379e-05 -0.00025926
4.5307e-05 4.819e-05 0.00038497 -2.442e-07 0.18217 0.00094546 0.26364 7.9679e-05 -1.892e-05 -2.3926e-05 -2.8674e-05 -0.00019942 0.21 2.169e-05 -6.8343e-05 0.0021186 0.0014371 0.011698 -0.00010907 -0.0025367
4.8504e-05 6.9796e-05 2.5036e-06 0.0001971 0.00033637 4.6512e-05 4.7459e-05 -9.0301e-07 -1.5583e-05 -1.4409e-05 -3.1743e-05 -0.00013175 0.032354 4.8481e-05 -0.00012471 -6.5417e-05 -6.0223e-05 0.19021 -1.822e-05 -0.0030133
-8.6814e-06 7.5449e-06 -8.435e-06 2.3233e-06 0.47921 -1.3353e-05 0.0056916 -6.3238e-06 -2.1875e-06 -5.35e-06 4.8716e-06 -0.00032715 -3.8607e-05 4.1923e-06 3.7733e-05 0.0064092 0.0004853 4.2591e-05 -5.8649e-05 -0.00024989
-3.0013e-07 2.5229e-06 3.5024e-06 1.167e-08 1.6616e-07 -4.7069e-06 9.7626e-07 0.47887 0.00012938 3.6748e-06 1.4746e-07 1.3523e-05 6.1289e-06 -1.5588e-05 -5.6229e-07 8.3158e-06 2.4817e-06 -1.273e-05 -2.8004e-07 0.00018774
0.1313 3.8996e-05 -4.065e-06 3.2333e-06 2.9657e-06 3.8067e-05 0.18324 2.3277e-06 0.00010346 -0.0001498 -2.7234e-05 1.5851e-05 -0.00033429 4.1676e-05 -1.367e-05 0.15295 0.17059 0.13249 4.6244e-05 0.00078334
5.1739e-05 0.00012583 0.00042352 1.216e-05 0.19368 0.1604 0.00026107 -1.3772e-05 -6.2055e-06 -3.6937e-05 2.7547e-06 -3.8141e-05 0.3943 7.178e-05 -9.2965e-06 0.12332 0.13958 0.10585 -0.00021609 -0.0013894
8.8291e-06 -3.3042e-06 -6.46e-07 1.8062e-06 1.0443e-06 -2.5422e-06 5.5034e-05 0.00082268 5.7029e-07 -5.4462e-06 -5.8293e-06 -3.9249e-05 1.1797e-05 2.2235e-06 -3.3613e-05 3.76e-05 0.0017549 0.0020016 3.6614e-06 -0.00039736
-2.7942e-05 1.5724e-05 0.00011308 7.6758e-07 -3.7277e-06 0.2621 0.00025967 -5.5203e-06 0.00016729 2.8101e-06 -1.6053e-07 7.8156e-07 -1.6374e-05 3.4985e-06 -4.2353e-08 0.00013188 0.00030664 -5.7046e-07 3.7957e-05 -1.7484e-05
0.12667 -2.6921e-05 -4.0942e-06 -1.8162e-07 5.0215e-06 -2.1297e-05 0.00022373 0.00018082 3.2359e-05 -2.834e-05 2.9975e-07 -4.2514e-06 9.7087e-05 -6.6415e-05 1.897e-05 3.2923e-05 3.8453e-05 -2.6243e-06 -6.4548e-05 0.00032529
0.00010152 6.0463e-05 1.5327e-05 7.6365e-07 2.0524e-05 1.3666e-05 0.28806 1.2055e-05 2.2494e-05 0.17117 -2.5687e-05 0.00036145 -3.0867e-05 -0.00013131 4.0411e-05 0.23825 0.12562 0.00055769 -3.3269e-06 0.000833
7.7856e-06 2.1884e-05 -1.3995e-05 0.00026829 3.797e-06 0.0001838 0.0004455 -1.117e-05 -2.2365e-05 0.0001358 -9.0311e-06 -6.2444e-05 -6.8901e-05 -6.7657e-06 -9.0259e-05 0.00017044 0.020227 0.0017777 2.507e-05 -0.00025749
2.0847e-05 -1.7913e-06 6.5506e-05 -3.739e-07 -2.7264e-08 -6.8702e-07 0.00042989 0.0003471 -7.8095e-06 3.1957e-05 1.0237e-06 -5.7021e-05 1.8393e-05 -6.8643e-06 6.7855e-06 0.0012074 0.00068014 -5.749e-05 6.7223e-06 -8.2278e-05
0.1908 6.5554e-05 1.4588e-05 -3.9603e-07 4.8109e-06 -2.1395e-05 -2.0737e-05 2.1004e-05 0.00012925 3.8245e-05 -9.8395e-06 2.1521e-05 -0.00039821 -3.0446e-06 -3.8528e-05 -8.0394e-05 0.0026253 0.19095 5.3251e-05 -0.00028975
-4.0708e-06 -8.5661e-06 -3.5885e-06 2.4078e-07 1.0469e-05 -8.8076e-06 0.14728 0.00086253 4.2064e-06 0.00012999 -1.3697e-05 -8.6731e-05 2.9029e-06 -2.8684e-06 -1.0117e-05 0.00084297 0.00050198 0.00085893 1.1764e-05 -0.00040662
-5.1484e-06 3.401e-05 8.2896e-05 6.7368e-07 2.5952e-05 0.00021324 0.00066409 0.00021856 0.00039021 0.001064 2.2371e-05 -2.0309e-05 -3.4115e-06 -0.00018255 -4.4248e-06 0.00031255 0.00018394 7.9618e-05 -7.1285e-05 -9.3834e-05
0.1313 3.8996e-05 -4.065e-06 3.2333e-06 2.9657e-06 3.8067e-05 0.18324 2.3277e-06 0.00010346 -0.0001498 -2.7234e-05 1.5851e-05 -0.00033429 4.1676e-05 -1.367e-05 0.15295 0.17059 0.13249 4.6244e-05 0.00078334
0.15221 0.23638 -2.1732e-06 4.7594e-07 3.4687e-05 9.2052e-06 0.00016979 4.4443e-06 9.4301e-05 0.25376 0.48893 0.20501 -0.00014608 0.32485 0.3621 -0.0063461 9.2781e-05 0.15217 -0.00017502 0.25681
0.00011222 -2.2185e-05 0.00054509 6.3132e-06 -5.0754e-06 1.459e-06 0.0013081 0.00011766 0.001121 -2.2642e-05 3.9897e-06 -1.3963e-05 0.0003231 -2.3714e-05 -1.3231e-05 0.0018842 0.097726 0.0004105 0.00027037 8.3389e-05
3.1158e-05 -1.7534e-05 2.6958e-07 -1.8466e-07 -1.4392e-06 -0.0001054 -1.7121e-06 1.641e-06 -1.9459e-05 4.673e-07 -3.1406e-06 -2.281e-05 0.00047098 -3.1275e-06 3.1379e-06 0.00013641 -3.1037e-05 9.3879e-05 0.0051012 -0.00040911
-1.3019e-06 -3.2376e-06 0.0001743 0.62338 8.9016e-07 -4.4042e-06 -6.7333e-06 8.6818e-05 3.7964e-08 0.0010327 -1.0494e-05 -1.9086e-05 -9.6974e-07 -0.00015469 -6.4096e-05 -3.5577e-05 0.00037012 0.00082932 0.00012815 -0.0009035
1.5085e-05 5.6245e-06 7.4495e-06 1.8905e-05 6.2762e-05 0.28029 -9.6428e-05 -1.3408e-05 6.9427e-06 -5.7219e-05 -1.0036e-05 -0.00036508 0.0034666 4.1823e-05 -2.071e-05 0.0078483 0.23921 0.0023606 -0.00014984 -0.0024908
0.00016614 0.00011446 5.0767e-05 1.1948e-05 0.00023209 2.7704e-05 0.23195 8.0367e-05 3.6729e-05 0.00025154 -1.2683e-05 5.496e-06 0.00080563 -2.6358e-05 9.8406e-05 0.19315 0.20065 -0.00063077 -0.00013575 0.00092786
3.3353e-05 0.00016705 -1.8073e-05 9.1227e-07 0.00024336 -4.4197e-05 0.42771 0.00013189 -1.6667e-05 -9.9479e-05 -0.0004387 0.0007207 -0.00019122 0.00051377 0.0018266 0.17706 0.00018621 0.14879 -0.00042025 0.0098785
1.7922e-05 -3.3094e-06 -3.1004e-07 6.0688e-08 1.5102e-06 -6.095e-07 5.2069e-05 0.50792 -7.412e-06 2.3812e-06 1.4169e-07 1.4721e-05 9.3362e-05 1.2092e-06 7.5681e-07 3.1939e-05 8.1997e-05 -1.4529e-05 -7.6102e-07 1.5224e-05
8.4967e-05 8.2896e-05 0.00090229 -2.3041e-06 0.43589 0.0020505 0.00067047 -5.4254e-06 -4.1804e-05 -7.2916e-05 -1.0622e-05 0.00037287 0.040875 0.0001247 -5.0837e-05 0.26538 0.0016267 0.23982 -0.00027337 -0.00049217
1.6037e-05 2.5096e-06 2.0387e-05 2.2094e-05 1.3087e-05 -2.1102e-05 4.3392e-06 1.6348e-05 1.4783e-05 -7.3691e-05 1.4347e-05 0.16848 -0.00023036 -9.2552e-06 -0.00012938 -0.0016342 0.17224 0.12813 -6.4857e-06 -5.2234e-05
2.9692e-05 -7.6212e-06 0.0002647 0.00015823 1.12e-06 3.3995e-05 -3.6023e-05 3.8256e-05 5.6964e-06 0.00062968 4.396e-07 0.0001329 -2.6878e-05 -0.00015367 -1.8808e-05 6.7542e-05 0.17861 -0.00022995 0.00064101 0.00062108
0.38542 0.29895 -1.6977e-05 1.1206e-06 -1.8056e-06 4.3553e-05 0.0018117 2.0626e-05 0.00033208 0.00041101 -1.2441e-05 -9.9167e-05 -6.1518e-05 -0.00013842 2.7026e-05 0.00010882 0.00056404 0.001275 -7.2189e-05 -0.00048487
0.15999 1.0566e-05 3.2222e-06 -2.574e-07 -7.0728e-07 0.25569 -8.3841e-05 -9.6541e-06 8.6564e-05 0.00058557 2.6339e-05 0.2094 0.00010194 0.00020125 6.0708e-06 0.00086137 0.00013399 0.0010083 0.58004 0.25323
1.9377e-05 1.7292e-06 0.00033934 6.1625e-06 0.00031102 5.7525e-05 6.8157e-05 0.00012337 1.6163e-05 -2.6039e-06 -1.7353e-06 -0.00010725 0.00012686 -1.0388e-05 -2.471e-05 0.00033562 0.15816 0.00062663 -2.2178e-06 1.231e-05
0.00016614 0.00011446 5.0767e-05 1.1948e-05 0.00023209 2.7704e-05 0.23195 8.0367e-05 3.6729e-05 0.00025154 -1.2683e-05 5.496e-06 0.00080563 -2.6358e-05 9.8406e-05 0.19315 0.20065 -0.00063077 -0.00013575 0.00092786
0.00013291 -1.0677e-05 0.00048681 1.9573e-06 -4.42e-06 3.3319e-05 0.00068001 0.00011016 0.0010121 6.4643e-05 4.9781e-07 -0.00010783 0.0010675 -1.2454e-06 1.5624e-05 0.00024958 0.081194 -0.00020076 -6.6313e-07 -6.5785e-05
0.080201 -5.6412e-06 3.7852e-05 1.7172e-06 0.00025109 6.0228e-05 0.00035916 0.0005745 5.4013e-05 4.3323e-06 -3.2992e-06 -3.7462e-05 0.033508 -3.919e-05 -1.8462e-05 0.00064686 0.0022625 0.0016577 -2.6481e-05 -0.00038157
8.0176e-30 -4.2175e-30 6.6776e-30 -6.8921e-27 -3.925e-28 5.1363e-28 3.9731e-28 -1.5273e-28 2.5849e-28 4.0364e-29 4.3846e-30 -1.0145e-28 -8.0185e-28 -2.8637e-28 -2.17e-28 1.6177e-26 -2.1542e-25 -1.1731e-27 -3.5281e-28 3.0624e-27
0.28873 0.44792 -5.146e-06 -1.1098e-06 6.0083e-06 1.2315e-05 -8.0986e-05 5.3207e-06 0.00020393 3.8996e-05 8.1902e-07 0.37706 -0.0004329 -2.242e-05 2.6676e-05 0.00024399 -0.00020555 0.28514 7.1292e-06 0.0010763
0.28873 0.44792 -5.146e-06 -1.1098e-06 6.0083e-06 1.2315e-05 -8.0986e-05 5.3207e-06 0.00020393 3.8996e-05 8.1902e-07 0.37706 -0.0004329 -2.242e-05 2.6676e-05 0.00024399 -0.00020555 0.28514 7.1292e-06 0.0010763
0.15999 1.0566e-05 3.2222e-06 -2.574e-07 -7.0728e-07 0.25569 -8.3841e-05 -9.6541e-06 8.6564e-05 0.00058557 2.6339e-05 0.2094 0.00010194 0.00020125 6.0708e-06 0.00086137 0.00013399 0.0010083 0.58004 0.25323
8.1062e-05 9.4198e-06 0.00061832 0.00011776 2.4684e-06 1.5669e-05 -2.4873e-06 0.23582 -8.514e-06 0.19512 -8.9716e-06 -3.5155e-06 -2.4027e-05 -0.00033551 -3.1912e-05 8.5882e-05 0.00044783 0.0011942 0.0003576 -0.0014173
5.6409e-05 4.2879e-05 8.9522e-06 0.00024174 3.2818e-05 0.22922 0.0002379 -6.4247e-06 0.00032503 0.24075 4.3435e-07 0.00027452 -0.00020327 -0.00016419 -1.9254e-05 0.00020271 0.00040976 0.14324 0.00038206 -0.00033609
5.1168e-06 2.1605e-06 0.00092559 -3.1352e-07 -6.8101e-06 -2.3034e-05 -0.00013823 0.00053518 -4.6288e-06 0.00038881 -3.8047e-06 -0.00010063 0.00036246 0.00011416 -1.8895e-05 0.0022871 0.00012739 -1.4493e-05 0.00053184 -0.00082908
0.20962 0.00023789 -1.5098e-05 6.6132e-07 0.00014538 0.00025346 0.0010292 4.4923e-05 0.77021 0.000821 -1.1961e-05 -0.00019825 0.0018075 -0.00019429 1.155e-05 0.00078326 0.0011036 0.00099597 -8.6608e-05 -0.00034823
3.3259e-05 -3.6772e-06 0.0005109 1.0364e-06 5.3477e-06 9.9349e-06 2.4844e-05 0.00045097 4.2594e-06 8.7411e-06 -1.0565e-05 -8.7109e-06 -8.1417e-05 -5.0964e-06 -0.00010772 1.102e-05 8.7816e-05 0.0020408 1.4593e-06 -0.00014561
0 0 0 0 0 0 0 0 0 0 0 0 0 0 0 0 0 0 0 0
1.9148e-05 4.4593e-07 0.24472 2.7493e-06 0.00038447 4.2158e-05 0.00019333 1.1456e-05 -3.926e-05 0.00014127 2.9766e-06 0.00027404 0.0059469 0.00018139 6.312e-06 0.17639 0.17864 0.00022037 0.00018363 0.00087463
0.10551 -1.9936e-05 0.00032725 -3.5025e-07 -4.5134e-06 -4.0272e-05 -2.1703e-05 0.00044027 1.6996e-05 3.7162e-05 -3.9833e-06 -7.6996e-05 -1.4162e-05 0.00011566 -3.6394e-05 0.0016325 0.00083461 0.00071721 0.00011312 -0.0006172
-1.8076e-06 2.0223e-06 -7.325e-06 2.5591e-06 -3.9397e-06 -3.8383e-05 0.00092194 -5.7984e-06 4.0625e-06 -1.326e-05 9.6825e-06 -4.326e-06 -4.5237e-05 6.5422e-06 4.5752e-06 0.0032751 0.0096466 -0.00039552 -4.5508e-06 -0.00037706
0.00015328 -3.8537e-05 0.38701 -4.3938e-06 6.5886e-06 0.00099953 0.0007839 0.00052961 0.0016664 -1.2503e-05 2.1148e-05 -4.7484e-05 -0.00021921 8.4857e-06 -2.5674e-05 0.0026159 0.0021765 0.12026 -0.00014185 -0.00071009
1.4328e-05 8.3149e-06 2.0348e-05 7.8526e-06 0.00019563 2.4291e-05 0.0036112 1.0287e-05 8.0525e-06 1.0583e-05 -1.9334e-06 -0.00034715 0.00033238 4.7821e-06 2.4826e-05 0.0039959 0.16787 0.00081279 1.2915e-05 -0.00020633
1.7922e-05 -3.3094e-06 -3.1004e-07 6.0688e-08 1.5102e-06 -6.095e-07 5.2069e-05 0.50792 -7.412e-06 2.3812e-06 1.4169e-07 1.4721e-05 9.3362e-05 1.2092e-06 7.5681e-07 3.1939e-05 8.1997e-05 -1.4529e-05 -7.6102e-07 1.5224e-05
1.0732e-05 1.0292e-05 0.15932 2.8128e-06 0.00024047 -4.1554e-06 -0.0002676 7.8127e-06 -2.66e-05 0.0031744 -5.3772e-06 0.00027084 0.00014732 0.00037223 -3.1466e-05 0.22888 0.11658 0.00040444 0.00023064 0.00047061
-1.4276e-06 2.4426e-06 1.3314e-06 6.33e-08 -4.3764e-07 6.8849e-06 0.00011003 6.5688e-05 0.00020992 4.3927e-05 -7.0726e-09 -2.7312e-05 3.6135e-06 -4.8465e-05 -2.9221e-05 0.00019603 0.00021199 0.0001274 -3.3239e-07 8.8676e-05
-1.2268e-05 2.1312e-05 0.4006 -5.3862e-06 3.6861e-07 0.38971 -1.192e-05 -1.0767e-05 -3.8559e-05 2.0721e-05 -4.1593e-06 6.1735e-05 -0.00037321 3.2783e-06 4.2075e-06 -0.00012259 6.1319e-05 0.24312 -0.0001004 0.00014992
-1.8892e-06 7.3741e-07 -5.2803e-06 -6.8189e-07 1.756e-06 -1.6251e-06 0.0007183 2.73e-07 4.8291e-08 5.3704e-05 3.423e-07 -6.0801e-05 1.0276e-07 -1.0397e-05 3.2174e-06 0.0016495 1.88e-05 2.4202e-05 -8.4489e-06 -0.00012559
1.5085e-05 5.6245e-06 7.4495e-06 1.8905e-05 6.2762e-05 0.28029 -9.6428e-05 -1.3408e-05 6.9427e-06 -5.7219e-05 -1.0036e-05 -0.00036508 0.0034666 4.1823e-05 -2.071e-05 0.0078483 0.23921 0.0023606 -0.00014984 -0.0024908
3.5924e-05 -5.3268e-06 -5.0518e-06 1.6271e-06 -4.1398e-07 -8.0793e-06 0.00061717 -3.2793e-06 2.6669e-06 -1.9506e-05 2.007e-06 -2.327e-06 0.0010634 8.1854e-06 -1.1056e-05 0.0019818 0.0076065 0.00079117 -4.6648e-06 -0.00034466
7.0369e-05 1.0144e-05 -1.8831e-06 8.6358e-07 5.6823e-07 5.782e-05 0.00023386 -3.3496e-06 -1.4016e-05 3.2809e-05 -3.6701e-06 1.092e-06 0.00027619 -8.5675e-06 -4.1638e-05 0.00042233 0.0026403 0.0007609 1.1771e-05 -0.00035391
7.7e-06 5.0679e-05 -1.7045e-05 -3.9296e-07 1.0029e-05 -1.7913e-06 -0.00013333 8.9699e-06 2.9401e-06 0.35911 0.00014816 0.28261 -0.00020156 0.00033596 0.00017195 0.24968 -5.4762e-05 0.21421 0.00011105 0.3393
7.4337e-06 8.7554e-05 -1.7298e-05 -2.8803e-07 1.2617e-05 -1.5755e-06 -0.00015472 1.0134e-05 4.3637e-06 0.001034 6.0532e-05 0.31385 -0.0001929 -0.00014615 4.5154e-05 0.27672 2.5944e-05 0.23772 6.1773e-05 0.39093
2.8387e-06 -7.4793e-06 0.00014539 0.51842 2.0415e-07 -6.7739e-06 2.7907e-05 0.00032513 -1.0171e-06 0.00085889 -4.4473e-06 -2.4796e-05 -8.9085e-06 -0.0001383 -3.3677e-05 -1.2418e-06 0.00092869 0.0012029 0.0001086 -0.00047803
1.8384e-07 -7.8567e-06 0.00010308 -7.6656e-08 4.8816e-06 3.3803e-05 0.10122 0.14797 2.8652e-06 0.00010578 1.8731e-06 -2.2462e-05 5.5393e-05 -1.9881e-05 6.1083e-06 0.00010635 0.0005398 9.9014e-05 2.3293e-06 -0.00013521
9.9933e-05 2.6182e-06 -1.4646e-06 1.4571e-07 -8.4129e-06 -3.3137e-06 0.00036557 1.5844e-06 3.5765e-05 -9.3082e-05 -4.6167e-06 -0.0001072 -4.8805e-05 -6.6377e-06 -7.6462e-07 0.0010744 0.00016273 0.00053547 -3.2371e-05 -0.00029729
0.16607 -2.1301e-05 0.0018644 7.15e-06 1.4864e-05 0.0014575 0.0004372 0.00027916 0.0025547 -3.0785e-05 2.8755e-06 -0.0001859 -3.5076e-05 -7.0209e-06 1.2524e-06 0.0032554 0.19732 0.0010553 -0.00020245 -0.00067258
5.1739e-05 0.00012583 0.00042352 1.216e-05 0.19368 0.1604 0.00026107 -1.3772e-05 -6.2055e-06 -3.6937e-05 2.7547e-06 -3.8141e-05 0.3943 7.178e-05 -9.2965e-06 0.12332 0.13958 0.10585 -0.00021609 -0.0013894
1.8432e-05 -8.7534e-06 5.6371e-05 1.0782e-05 1.0861e-05 -2.2247e-05 0.14089 0.0006535 8.4511e-05 -7.7326e-05 -1.9584e-06 0.002231 -0.00010201 -8.7706e-07 -8.1758e-05 0.1176 0.14732 0.0021985 0.00036971 0.0011524
5.0892e-06 5.4881e-07 0.00042803 -3.3337e-07 -7.0916e-06 -2.5004e-05 -0.00015067 8.5905e-07 -4.5421e-06 4.0291e-05 7.7296e-07 -9.4093e-05 2.9634e-06 0.00016546 -1.4394e-05 0.0022112 7.3771e-05 1.6245e-07 0.0001858 -0.00073134
-1.0436e-07 4.0157e-08 2.7444e-08 8.627e-11 7.5222e-09 -1.5242e-06 4.5705e-05 0.00071614 4.037e-08 4.8899e-07 -3.068e-08 -1.0263e-07 -6.2035e-08 1.0649e-06 -6.7638e-07 -8.6637e-08 -7.8954e-06 1.6936e-05 1.109e-06 -2.6953e-05
0.15901 0.2468 -1.8474e-05 -1.4137e-07 1.0955e-05 -2.2944e-06 0.00015112 8.3862e-06 0.00010214 0.26528 0.51075 0.2082 -0.00014888 0.3368 0.37747 0.18406 -4.9628e-05 0.15778 5.9251e-05 0.25233
1.9377e-05 1.7292e-06 0.00033934 6.1625e-06 0.00031102 5.7525e-05 6.8157e-05 0.00012337 1.6163e-05 -2.6039e-06 -1.7353e-06 -0.00010725 0.00012686 -1.0388e-05 -2.471e-05 0.00033562 0.15816 0.00062663 -2.2178e-06 1.231e-05
0.16419 0.2548 -1.9183e-05 2.262e-07 9.0353e-06 -2.6844e-05 0.002578 8.4979e-06 7.791e-05 0.27356 -0.00033624 0.21544 -0.00015945 0.34813 0.39121 0.18994 -4.5473e-05 0.16282 -0.00034279 0.26769
-1.8892e-06 4.4166e-06 0.00059588 1.0903e-06 0.00047332 4.9126e-05 -1.8219e-05 9.7465e-05 4.9384e-07 0.00047418 -4.3585e-06 -7.2204e-05 0.00030155 -7.6671e-05 -1.2603e-05 0.0007804 0.00108 0.00075634 0.00048667 -0.00016019
5.2046e-05 0.00014797 0.00050921 1.4651e-06 0.23522 0.0015157 0.00038515 -7.2934e-06 -1.2121e-05 -1.4581e-05 5.5161e-06 0.00018371 0.47667 6.0561e-05 9.7303e-06 0.1446 0.0045456 0.12779 -0.00015727 -6.09e-05
0.17181 6.5392e-06 -2.2574e-05 -1.2063e-06 -4.0591e-07 -0.00030448 0.00043748 2.3638e-06 7.9e-05 2.5908e-05 -2.0561e-06 0.0003478 -0.00026607 0.00014799 4.9766e-05 0.1985 0.00048778 0.17117 0.57156 0.0019426
0.13217 0.20507 2.4977e-05 3.8085e-07 0.25494 0.00037086 2.2832e-05 1.0423e-06 0.00029792 0.00076282 -1.5696e-05 -0.00033537 0.026605 -0.00011081 -6.3189e-05 0.0015789 0.0018509 0.0094968 -2.7414e-05 -0.0019859
0.13216 0.20507 2.4821e-05 9.1274e-08 0.25492 0.00036302 2.4451e-05 1.2473e-06 0.00029815 0.00075287 -2.0851e-05 -0.00035899 0.02667 -0.00010841 -5.5879e-05 0.0018057 0.0018359 0.010388 -2.5376e-05 -0.0020848
7.7e-06 5.0679e-05 -1.7045e-05 -3.9296e-07 1.0029e-05 -1.7913e-06 -0.00013333 8.9699e-06 2.9401e-06 0.35911 0.00014816 0.28261 -0.00020156 0.00033596 0.00017195 0.24968 -5.4762e-05 0.21421 0.00011105 0.3393
0.16213 0.25176 -2.4266e-06 8.7421e-07 3.4691e-05 -1.4365e-05 0.0025722 4.5758e-06 7.3241e-05 0.26995 -0.00026751 0.21882 -0.00016126 0.34638 0.38713 -0.0068055 0.00010448 0.16199 -0.00058522 0.28059
0.20886 1.1577e-05 -2.7908e-05 2.8295e-07 -4.3579e-05 -1.8946e-05 -8.0428e-05 6.8425e-06 0.00011387 -4.2409e-05 4.7849e-06 0.00056547 -8.5732e-06 8.4502e-05 4.6718e-05 0.24561 -0.000495 -7.0551e-05 -7.2254e-06 0.0021206
1.6037e-05 2.5096e-06 2.0387e-05 2.2094e-05 1.3087e-05 -2.1102e-05 4.3392e-06 1.6348e-05 1.4783e-05 -7.3691e-05 1.4347e-05 0.16848 -0.00023036 -9.2552e-06 -0.00012938 -0.0016342 0.17224 0.12813 -6.4857e-06 -5.2234e-05
1.8611e-05 4.5687e-06 6.8388e-06 0.58536 -2.14e-05 0.0002328 2.3947e-05 0.35129 3.8266e-06 -5.9752e-05 5.3671e-07 0.0002013 -7.1083e-05 6.1373e-05 -2.4382e-06 0.2014 0.20449 0.0013546 -7.4378e-06 0.0013181
0.16831 2.8462e-06 1.1259e-05 4.152e-07 -4.327e-06 0.27006 0.00085929 0.17115 4.8505e-05 0.0002117 -3.8059e-05 0.00016677 -1.4626e-05 -0.00025178 6.6284e-06 0.00010342 0.00043724 0.00015314 -0.00059471 0.0049529
2.2473e-05 -1.6374e-05 0.0010156 0.00013899 -4.9453e-06 0.0019852 -0.00015414 0.00014637 -9.7103e-06 0.00093625 -3.8701e-05 0.00027349 6.3077e-05 7.2906e-05 -3.8168e-05 0.0024464 0.0013329 -0.00013733 0.017003 -0.00026857
0.14202 1.7733e-06 4.9784e-05 -2.0193e-08 5.5793e-07 -9.9597e-06 0.00073134 7.3031e-06 4.5625e-05 -6.5413e-06 -5.0459e-07 1.791e-06 -7.9559e-06 -8.1777e-06 -1.3465e-05 -2.6506e-05 3.1051e-06 6.9987e-07 -1.0329e-05 -2.8291e-06
5.2046e-05 0.00014797 0.00050921 1.4651e-06 0.23522 0.0015157 0.00038515 -7.2934e-06 -1.2121e-05 -1.4581e-05 5.5161e-06 0.00018371 0.47667 6.0561e-05 9.7303e-06 0.1446 0.0045456 0.12779 -0.00015727 -6.09e-05
7.0369e-05 1.0144e-05 -1.8831e-06 8.6358e-07 5.6823e-07 5.782e-05 0.00023386 -3.3496e-06 -1.4016e-05 3.2809e-05 -3.6701e-06 1.092e-06 0.00027619 -8.5675e-06 -4.1638e-05 0.00042233 0.0026403 0.0007609 1.1771e-05 -0.00035391
-4.063e-06 -1.5534e-06 0.37541 7.3417e-05 -1.9363e-06 1.5846e-05 7.0944e-05 0.15654 -5.2658e-05 0.0006052 -3.0108e-06 3.4459e-06 6.2641e-07 -0.00010691 -1.0739e-05 -2.1885e-05 0.00019738 9.749e-05 0.00023354 -0.00020627
5.2683e-05 5.6209e-05 0.24688 -4.1117e-06 0.00028121 3.9158e-05 0.00014264 -3.5561e-06 -5.3922e-05 -1.0415e-05 -1.8657e-05 0.00010563 0.027343 -2.8296e-05 -0.000117 -0.00012223 9.4541e-05 0.1603 0.00051344 -0.00095091
1.3644e-06 -1.2942e-06 -1.6203e-07 -7.7855e-08 -3.1781e-06 7.994e-06 0.00050753 -8.1154e-07 -9.0446e-08 -8.4778e-07 3.4702e-07 -3.9791e-05 0.00082442 -7.5975e-09 7.0062e-06 0.00017705 0.00065381 -7.8733e-05 -5.1387e-07 -1.2484e-05
0.15221 0.23638 -2.1732e-06 4.7594e-07 3.4687e-05 9.2052e-06 0.00016979 4.4443e-06 9.4301e-05 0.25376 0.48893 0.20501 -0.00014608 0.32485 0.3621 -0.0063461 9.2781e-05 0.15217 -0.00017502 0.25681
-7.5924e-07 -1.4488e-07 -1.2259e-06 0.00017056 -8.2413e-07 0.00011293 0.00034225 0.0006285 1.5069e-07 2.921e-07 -2.921e-07 -1.7281e-05 0.00054045 1.3992e-06 2.351e-06 0.00017091 0.00048642 -2.912e-05 7.6287e-07 -1.0295e-05
5.7195e-06 -4.7029e-07 2.6357e-05 6.908e-06 0.00017451 2.4831e-05 0.0027966 3.635e-05 7.2795e-06 0.00017204 -1.852e-06 -0.00021468 -7.5916e-06 -4.3716e-05 1.9284e-05 0.0030003 0.14579 -0.0003673 -2.9404e-05 -0.00016586
0.15901 0.2468 -1.8474e-05 -1.4137e-07 1.0955e-05 -2.2944e-06 0.00015112 8.3862e-06 0.00010214 0.26528 0.51075 0.2082 -0.00014888 0.3368 0.37747 0.18406 -4.9628e-05 0.15778 5.9251e-05 0.25233
1.4907e-05 1.2829e-05 0.0006437 -6.2589e-07 -5.6384e-06 -5.7093e-05 -0.00025932 1.7971e-06 -3.0542e-06 0.35582 -3.5745e-06 0.00052051 -0.00032345 0.44825 -0.00036901 0.24763 0.0013442 0.20962 0.00025761 0.00074896
9.5145e-06 -2.702e-06 0.4152 -5.1927e-06 5.6393e-06 -1.2728e-05 0.088932 -2.0109e-06 -7.7593e-05 -5.6673e-06 -7.6667e-06 -4.5847e-06 4.4362e-06 -1.2992e-05 4.519e-06 -0.00029522 0.0018274 -3.8098e-05 -1.3465e-06 -3.9581e-05
-1.5988e-05 0.00011106 -2.3249e-05 6.2196e-07 0.00020236 -3.6904e-06 0.39709 0.00075932 5.6943e-06 4.8596e-05 0.012862 1.0295e-05 -0.00019994 6.9882e-05 6.9172e-05 0.16772 0.0013993 0.13925 -5.4026e-05 0.0021234
5.1739e-05 0.00012583 0.00042352 1.216e-05 0.19368 0.1604 0.00026107 -1.3772e-05 -6.2055e-06 -3.6937e-05 2.7547e-06 -3.8141e-05 0.3943 7.178e-05 -9.2965e-06 0.12332 0.13958 0.10585 -0.00021609 -0.0013894
0.00027127 -1.6372e-05 0.28356 3.6468e-06 -4.5489e-06 7.1105e-05 0.00026917 8.6146e-07 0.63778 -2.0198e-06 2.0543e-06 -7.9217e-05 -0.00012191 -1.8847e-05 6.5255e-06 -0.0001208 0.20656 -0.00016076 -2.4686e-05 -0.00011312
-4.1453e-06 2.7264e-06 -5.5908e-06 1.7238e-06 -3.0692e-06 1.6147e-05 0.0008386 -7.8437e-06 1.3304e-06 8.1085e-05 5.9161e-06 -6.9384e-05 3.1757e-06 7.7292e-06 -1.0235e-07 0.0028684 0.0092588 -0.00019226 8.7283e-06 -0.00045247
6.0149e-05 8.2061e-05 1.9399e-05 -9.676e-07 0.44046 5.6381e-05 0.00011563 -8.5972e-07 -2.3981e-05 -2.9742e-05 -1.7577e-05 -0.00021257 0.041532 2.2991e-05 -0.00012404 0.00012861 4.578e-05 0.015101 -2.7083e-05 -0.0027514
0.3278 3.2991e-05 5.562e-05 1.3681e-05 3.6842e-08 0.51961 -3.654e-05 1.1819e-05 0.00022511 -1.1588e-05 -3.3851e-06 -0.0001289 -8.1101e-05 -2.6158e-05 1.3361e-05 -0.00016906 0.38456 -0.00080131 -0.00013897 -8.2989e-05
-3.1059e-08 5.2123e-08 -4.6307e-09 2.2631e-09 -1.4227e-07 1.1429e-07 4.7259e-05 1.5408e-06 8.7509e-09 -5.6034e-09 -1.0778e-08 3.4134e-07 -1.4222e-07 6.8926e-07 -2.1519e-08 -1.7793e-06 -1.1763e-06 9.4182e-07 2.1796e-07 -6.7586e-06
1.9377e-05 1.7292e-06 0.00033934 6.1625e-06 0.00031102 5.7525e-05 6.8157e-05 0.00012337 1.6163e-05 -2.6039e-06 -1.7353e-06 -0.00010725 0.00012686 -1.0388e-05 -2.471e-05 0.00033562 0.15816 0.00062663 -2.2178e-06 1.231e-05
0.00015328 -3.8537e-05 0.38701 -4.3938e-06 6.5886e-06 0.00099953 0.0007839 0.00052961 0.0016664 -1.2503e-05 2.1148e-05 -4.7484e-05 -0.00021921 8.4857e-06 -2.5674e-05 0.0026159 0.0021765 0.12026 -0.00014185 -0.00071009
0.16213 0.25176 -2.4266e-06 8.7421e-07 3.4691e-05 -1.4365e-05 0.0025722 4.5758e-06 7.3241e-05 0.26995 -0.00026751 0.21882 -0.00016126 0.34638 0.38713 -0.0068055 0.00010448 0.16199 -0.00058522 0.28059
0.098414 -6.7171e-06 4.6701e-05 1.5337e-06 0.00023174 3.8814e-05 0.00010399 0.00071996 7.7572e-05 1.4725e-05 -8.4073e-06 -7.8143e-05 0.0015789 -4.3669e-05 -5.5012e-05 0.00051454 0.0013891 0.0028775 -1.3644e-05 -0.00057865
0.085897 -2.4784e-05 4.1116e-05 7.6693e-06 8.8789e-05 0.13738 0.00029084 0.00013569 4.2576e-05 2.3691e-06 -1.8561e-05 0.0002101 0.16506 5.8916e-06 9.003e-06 0.00019231 0.20285 -0.0011966 0.010023 0.00057273
0.00020209 0.00012856 2.8769e-05 3.7174e-06 1.0533e-05 0.00014715 0.26114 2.6478e-05 2.1851e-05 0.00045335 -2.8308e-05 -0.00028805 0.00019121 -0.0001167 5.5431e-05 0.001746 0.11168 0.00046105 -7.8536e-05 -0.00041073
4.4881e-05 0.00022961 3.3997e-06 2.9198e-07 0.00026727 0.00037672 -1.5519e-05 6.0776e-05 0.00044835 0.0012364 -8.8768e-05 0.00029361 0.0032717 -0.0005415 -0.00013248 0.0012983 0.0013874 0.0018761 -8.0955e-05 0.0097919
5.0568e-07 -5.6275e-06 3.7756e-05 9.6737e-06 1.4069e-05 3.8203e-05 0.24843 6.7282e-06 2.1585e-05 0.0015496 -2.4012e-05 -1.5248e-05 -6.471e-05 1.7195e-05 -2.1947e-05 0.0016372 0.21879 -0.00024171 9.3866e-06 -0.00065724
