-1.631e-06 -2.7979e-07 3.5974e-05 -1.9063e-08 3.5514e-06 -2.5817e-06 0.00031825 -3.469e-06 -4.3849e-05 -5.0587e-08 -1.1791e-06 1.5273e-07 1.0575e-05 4.1701e-06 2.2741e-06 4.6962e-07 -1.9495e-06 -1.074e-05 8.5652e-07 6.333e-05 -2.5474e-06 -1.4758e-05 -9.7032e-07 -7.5259e-06 4.6702e-06 -2.6288e-05 6.5277e-06 8.5159e-07 0.00093701 -2.2967e-05 4.2201e-06 3.6923e-05 -1.1831e-07 -3.1402e-05 3.4714e-06 -0.00058265 4.5425e-06 8.8136e-05 -6.393e-06 -4.352e-06
4.2446e-06 -3.0774e-07 0.00027053 -4.2187e-07 -6.2522e-06 -7.5457e-06 0.00015042 0.00017904 -3.5809e-06 1.4078e-06 -1.4581e-06 3.3051e-08 -3.7278e-06 2.0689e-06 6.6301e-06 -1.1391e-07 4.4661e-06 -6.1501e-06 -3.4225e-06 9.588e-06 6.4381e-06 -9.2068e-06 1.4999e-05 -1.2461e-05 0.00013229 -4.5634e-05 -3.3856e-05 0.00053296 -1.246e-07 -1.7638e-05 -1.5874e-05 4.7282e-05 -8.6103e-07 -7.8197e-05 -5.2516e-06 -7.5922e-05 1.8853e-07 0.25677 -9.5547e-06 -1.1204e-06
0.00010407 1.5396e-05 1.9836e-05 -9.9573e-07 -5.7389e-06 2.8115e-05 0.16231 -6.5412e-06 -0.00027975 3.3522e-05 0.00012583 -1.3434e-05 -6.746e-05 -4.7581e-07 0.0006699 -1.9865e-05 -1.5478e-05 -2.8611e-05 -4.7176e-06 0.00016855 3.8543e-06 1.7838e-05 0.0013427 -1.9349e-05 -4.8105e-05 4.6413e-05 1.5383e-05 4.9866e-05 0.27561 -8.4121e-05 9.0379e-05 2.1818e-05 2.3812e-05 -7.9481e-05 0.001206 0.0010202 -1.6767e-05 8.8325e-05 -1.5754e-05 -9.2361e-06
3.5112e-07 -2.3341e-06 1.9816e-05 -4.0418e-08 2.1447e-06 3.7373e-05 0.00045137 6.5254e-05 -7.9003e-06 -2.1244e-07 2.2633e-07 5.9525e-08 6.4551e-05 1.1559e-06 -4.5843e-07 8.8985e-07 -4.6149e-06 8.475e-06 1.0956e-06 3.5789e-06 3.3608e-06 -1.7645e-05 4.03e-06 -7.263e-07 -3.8533e-06 1.5249e-06 -1.8349e-06 0.00028268 0.00050219 3.7698e-06 -6.0502e-06 -3.6698e-06 -1.9383e-06 -4.1433e-05 0.0011709 -1.0078e-05 4.5887e-07 9.3356e-05 -2.233e-06 3.4496e-09
1.6522e-05 -5.8267e-06 1.1042e-05 -2.4751e-07 5.961e-06 1.5699e-05 0.21569 -3.4876e-07 -4.6101e-05 -8.4946e-06 5.9066e-06 -1.8537e-05 0.00012335 0.00023992 0.00016873 -4.1417e-05 -3.6662e-06 0.00058376 3.1223e-06 0.000544 -1.5426e-05 -5.7166e-05 -5.2426e-06 -1.9758e-05 4.4514e-06 8.2431e-05 2.8259e-05 1.1394e-05 -6.3671e-05 -0.00020176 0.00019249 3.3074e-05 0.00050193 -3.5711e-05 0.00011104 -6.6785e-05 0.00082098 0.00017673 -4.6021e-06 -0.00016712
-3.2719e-06 -6.503e-07 -3.95e-08 -5.0943e-07 -2.0378e-06 6.5439e-07 0.267 4.5133e-05 -0.00019341 -4.3199e-06 -2.1256e-05 -1.9712e-05 -3.3416e-05 1.035e-05 5.5822e-06 1.2816e-05 -1.4258e-05 -2.8273e-05 4.8086e-06 2.412e-06 -3.655e-07 -6.8892e-05 -3.5364e-05 -2.4608e-05 -3.4e-05 -0.0001277 -1.1428e-06 -1.7276e-06 0.22485 -0.00012729 -5.0528e-07 5.0284e-05 2.0849e-05 -2.2604e-05 -3.4915e-05 0.0010778 3.2559e-05 1.6788e-05 5.2538e-07 -4.85e-06
-6.3008e-07 -1.6272e-06 1.1817e-05 -2.538e-06 0.18205 -1.7484e-05 0.26566 8.0297e-05 -7.3249e-05 -7.6508e-07 1.6114e-06 -2.2392e-05 0.1861 -7.6143e-06 6.3483e-06 4.7859e-06 -2.8624e-06 0.18568 1.6346e-06 0.35048 3.8462e-06 -1.2198e-05 5.5172e-05 -2.0392e-05 1.3885e-05 -8.8623e-05 -1.4109e-05 6.5844e-06 -0.00015965 -0.00063754 -1.3957e-05 1.1791e-05 2.3534e-05 0.22774 0.0013031 -0.00018504 6.6914e-06 0.00015623 -5.7892e-06 2.5741e-05
-7.0319e-07 3.2383e-06 -4.9416e-07 0.00019594 5.3749e-06 -7.7682e-06 1.0597e-06 -5.3358e-07 2.3168e-07 6.3215e-06 1.3668e-05 -1.8623e-05 -0.0001655 -4.6297e-06 -1.2269e-05 1.5672e-05 -1.6969e-06 -3.6325e-05 -2.4447e-05 0.33403 -2.9627e-05 -6.3605e-05 1.7808e-05 5.5717e-06 -1.2101e-05 -7.2085e-06 4.3169e-06 0.00017215 -1.3144e-07 -6.6641e-06 0.18095 -4.637e-05 4.9564e-06 -5.5329e-06 -2.0834e-05 4.28e-06 -0.00063647 -2.2475e-05 1.183e-07 -0.00012341
1.3445e-06 1.1922e-08 -1.4791e-06 2.6219e-07 0.47975 -8.0161e-07 -6.0652e-05 1.4504e-05 0.56553 -8.1516e-07 2.4902e-07 3.2872e-07 -5.4948e-05 1.2349e-06 1.207e-06 -6.3845e-07 4.0043e-06 -2.699e-05 -1.463e-07 5.9476e-05 8.3615e-06 8.3361e-06 4.7943e-05 -5.3137e-07 -0.00010432 3.391e-06 -1.5065e-06 -2.6622e-05 -0.00053077 -9.122e-05 -6.7327e-06 -1.0638e-06 3.8151e-06 -1.2443e-05 -0.00016483 0.00071716 1.1946e-05 7.8466e-05 -9.5912e-08 5.2764e-05
3.0268e-08 1.0584e-05 2.855e-06 3.9059e-08 -6.0677e-06 -1.2993e-05 -1.0935e-07 0.47895 -1.2441e-05 0.00013365 -4.8859e-06 -2.1219e-08 -5.7006e-05 9.3833e-06 -4.3396e-06 -1.0675e-05 -9.4607e-08 -1.1683e-05 -5.0333e-07 2.9443e-05 -9.6429e-07 4.491e-06 0.0014238 -1.7677e-05 -5.0882e-06 -1.984e-05 3.4322e-05 -2.7998e-05 0.0011172 1.7817e-06 -6.4498e-06 -9.7919e-05 -1.683e-07 -3.7926e-05 -6.7488e-05 6.8079e-05 0.00015127 -2.8537e-07 5.7637e-09 -2.4527e-06
0.13139 3.4662e-05 2.2273e-05 5.7387e-06 -1.3105e-05 6.59e-05 0.18479 9.9678e-06 7.0817e-05 0.00021651 -9.8697e-05 -2.623e-05 -6.3038e-05 -0.00020805 0.48931 -2.841e-06 -1.001e-05 5.7823e-05 -0.00013138 0.00017634 1.6918e-05 0.15466 -8.5257e-06 -1.8852e-05 5.007e-05 0.15955 5.0495e-05 9.8184e-05 -0.00027836 -0.00017926 0.13313 6.2577e-06 6.4715e-06 -0.0001631 -6.538e-05 -0.0001152 -0.00028316 0.00096801 2.1884e-06 0.0011745
-4.0782e-06 1.1361e-05 6.514e-06 3.1636e-06 0.19327 0.15919 4.7841e-06 -1.1173e-07 -2.6011e-05 1.4353e-05 -3.3851e-05 -3.7194e-06 0.3967 2.6975e-05 -0.00015267 1.5264e-05 -9.8983e-06 0.39441 -6.1138e-05 0.18661 -1.236e-05 0.11704 0.2571 -2.7775e-06 8.202e-05 0.12975 -2.0328e-05 3.6801e-06 -0.00026442 -5.7348e-05 0.10155 0.3298 -5.0682e-05 0.24072 -0.00013109 -0.00017879 -8.9611e-05 0.20083 2.4289e-07 0.00099384
-5.3952e-06 2.7707e-06 -4.0822e-07 4.1187e-07 -4.2435e-07 1.1086e-05 -1.8644e-05 0.00026384 7.0814e-05 -1.0812e-06 -3.8234e-06 1.7155e-06 2.6001e-05 1.2974e-05 -1.9383e-05 3.2091e-06 -3.0394e-06 -4.8939e-07 -6.1015e-05 -8.3981e-06 4.9841e-06 -4.9283e-05 -9.4779e-05 3.2242e-05 -4.0939e-05 0.00059751 1.8574e-05 -3.7439e-05 -7.2834e-05 -2.6427e-06 -0.00010742 -2.1527e-05 1.8869e-06 -0.00010745 0.43149 -0.00019108 1.7552e-05 -9.3204e-05 2.215e-07 9.4696e-07
-3.76e-05 1.1669e-05 7.5481e-05 -1.7489e-06 -4.2609e-06 0.26229 0.00024532 -1.1297e-05 -3.2679e-05 0.00014649 -1.1866e-05 1.8166e-06 -1.8598e-05 7.3272e-06 0.00036949 2.1187e-06 0.00054127 -4.1179e-06 6.6188e-06 -9.7122e-06 1.0435e-07 0.00012789 0.00040666 -0.00022768 6.2987e-05 0.00016762 0.0030155 0.0076682 -5.9716e-05 -2.0495e-05 -3.3765e-06 -0.00017337 -8.5684e-05 -4.2804e-05 2.941e-05 0.00018021 3.9888e-06 3.3727e-05 -1.566e-05 1.5847e-05
0.12674 -2.5725e-05 -3.7092e-07 -1.9357e-07 3.8732e-06 -2.3727e-05 0.00020451 0.00017627 -6.9365e-05 0.00013327 -3.5048e-05 3.3978e-07 0.00011874 -2.5488e-06 0.0001139 -5.4715e-05 2.7064e-07 1.6826e-05 5.9307e-06 2.6e-06 2.0278e-05 2.7213e-05 -2.1112e-05 -1.2804e-06 -7.6667e-06 2.4145e-05 1.5125e-05 -2.8761e-06 0.002735 -5.9402e-05 -3.106e-06 4.8251e-06 -6.4016e-05 -3.0415e-05 0.0020506 1.3043e-06 0.00029418 0.0022028 -4.7961e-06 -2.8681e-07
3.2504e-06 1.1396e-06 4.3959e-05 -3.0875e-06 -1.5063e-06 1.0472e-05 0.28956 -6.1862e-06 -0.00011531 -1.4384e-06 0.17097 -2.5837e-05 -6.9928e-05 -5.7607e-05 0.00087732 -0.00021362 0.002973 -1.3985e-05 -9.8738e-05 2.4019e-05 -4.866e-05 0.24093 -7.2896e-05 -3.2822e-05 -1.1141e-05 0.12907 6.7067e-06 -3.8837e-05 0.24683 -0.0004617 0.00076277 -0.00059995 7.1667e-05 -0.0003471 6.4317e-06 0.00096006 -0.00094375 0.0006977 3.0581e-06 0.0019286
-4.2169e-06 2.9894e-06 -2.0729e-06 0.00027219 2.9207e-06 0.00018791 0.00037813 -3.0036e-06 -5.2688e-05 9.2238e-07 0.0001645 -1.928e-06 -3.5348e-06 4.7198e-05 0.61574 -7.695e-06 6.2283e-06 1.4755e-06 -0.00016604 -3.2904e-07 -5.5303e-07 1.0645e-05 0.00010905 -1.5013e-06 2.0679e-07 -0.00032016 1.7995e-05 -1.1212e-05 0.0020169 -3.2621e-05 -0.00020198 2.9682e-06 3.0894e-06 8.8899e-05 0.00014395 -7.8022e-05 8.7559e-05 6.9861e-05 -1.6132e-05 8.6912e-06
1.4116e-05 -2.1079e-06 5.468e-05 -7.1615e-07 -4.3424e-06 -6.8063e-07 0.00037588 0.00033811 -6.3381e-05 -3.9705e-05 2.5565e-05 9.1621e-07 2.4129e-05 -5.7308e-05 -1.1669e-05 -7.7184e-06 0.00012415 1.5704e-06 -5.4205e-06 -9.0776e-06 6.4e-06 0.0011205 -1.903e-05 -0.0004528 -1.5858e-05 0.00057289 0.001952 0.00035428 0.0020361 -0.00010973 -6.4654e-05 -0.00023863 6.7706e-07 -0.00018846 0.002191 -4.6545e-05 -2.6677e-05 0.00041392 -5.1771e-06 4.6676e-05
0.19092 5.9962e-05 2.5438e-05 6.0347e-07 -1.1706e-06 -1.2219e-05 -3.215e-05 9.3163e-06 -0.0001057 0.00029045 4.1653e-05 -1.2738e-05 -0.00010463 -8.7647e-06 -6.7245e-06 -4.3732e-06 5.2148e-05 -0.00019023 -0.00011059 -0.0002006 -5.1398e-05 -0.00010266 0.0012103 -9.4863e-06 0.0010179 0.0028323 0.00066658 3.7675e-06 0.0046826 -4.6501e-06 0.19369 3.1339e-05 4.2853e-05 -8.2716e-06 0.0062876 -0.00083984 -0.00046081 -0.00010886 -5.6513e-06 -5.0154e-05
-5.7106e-06 -3.2827e-07 -1.3004e-06 -3.5814e-07 1.76e-07 1.6715e-06 0.14852 0.00065517 -0.00011078 -2.5283e-06 0.00012942 -1.1173e-05 7.5942e-06 -5.3716e-05 -1.3256e-05 1.379e-06 -9.7872e-06 4.4091e-06 -8.0823e-06 1.0111e-05 -4.5241e-06 0.00075373 -6.0211e-05 -3.1725e-06 -1.6122e-05 1.2804e-05 4.2015e-06 -1.1417e-05 0.0022821 -0.00018717 -2.4268e-05 -4.5307e-05 1.7437e-06 -0.00022045 0.18021 -0.00012923 -5.0414e-05 2.6327e-06 -2.6044e-06 5.6551e-05
-9.7539e-06 4.2386e-05 5.4054e-05 -4.412e-07 8.3447e-06 0.00020752 0.00056568 0.00019575 -6.7763e-05 0.00034962 0.0010441 2.6514e-05 -4.4246e-05 -6.9523e-06 0.00033303 -0.00016588 3.2583e-08 -0.00010486 1.1963e-05 0.00049517 -6.3226e-05 0.00024539 0.011814 0.0017018 0.0045649 4.4388e-05 0.0030679 0.0023218 0.001042 0.0012471 0.000128 -0.00070336 -7.1214e-05 0.0019981 0.0021225 3.5978e-05 -8.2958e-05 0.00032552 -1.0053e-05 -2.0074e-05
0.13139 3.4662e-05 2.2273e-05 5.7387e-06 -1.3105e-05 6.59e-05 0.18479 9.9678e-06 7.0817e-05 0.00021651 -9.8697e-05 -2.623e-05 -6.3038e-05 -0.00020805 0.48931 -2.841e-06 -1.001e-05 5.7823e-05 -0.00013138 0.00017634 1.6918e-05 0.15466 -8.5257e-06 -1.8852e-05 5.007e-05 0.15955 5.0495e-05 9.8184e-05 -0.00027836 -0.00017926 0.13313 6.2577e-06 6.4715e-06 -0.0001631 -6.538e-05 -0.0001152 -0.00028316 0.00096801 2.1884e-06 0.0011745
0.15221 0.23631 -8.1656e-07 -1.7101e-07 6.8886e-08 4.7001e-06 0.00025505 3.245e-06 7.8078e-06 0.00024811 0.25393 0.48889 7.0408e-06 0.20046 2.92e-06 0.32368 -2.5016e-06 5.3699e-06 2.9243e-06 6.0198e-07 0.36247 -0.0005412 -0.00010781 -2.7197e-06 -9.3698e-06 -3.583e-05 1.2235e-06 2.6436e-05 -2.6156e-05 -1.0507e-05 0.15286 1.0768e-05 -2.7046e-06 -3.9091e-05 3.0088e-05 -3.2165e-05 0.2457 -1.4157e-05 -4.5411e-06 0.48412
2.2115e-05 -4.7072e-06 3.7038e-05 5.5629e-06 1.0402e-07 2.3373e-05 0.00099435 -2.6115e-05 0.0011705 -1.4922e-05 -2.7179e-05 6.1112e-06 0.00038885 6.6456e-05 0.0012491 -1.8983e-05 -5.3711e-05 0.00026862 0.00072007 0.00016753 -4.0311e-06 0.0017031 -8.569e-05 5.3839e-05 1.3419e-06 0.098945 0.2405 9.7727e-06 0.009082 -0.0001562 -0.00020459 0.0056277 0.00025751 -0.00011198 0.12992 0.0065049 0.00043284 0.00075372 -5.5058e-06 9.4765e-05
3.2158e-05 -1.8555e-05 1.7258e-07 -1.1042e-07 -1.3785e-06 -8.6365e-05 -9.9449e-07 1.574e-06 0.00029762 -1.9797e-05 -1.6258e-08 -2.2857e-05 0.00052674 -2.3018e-05 5.4706e-07 -4.6245e-07 3.1047e-05 6.0839e-05 -3.6571e-08 -3.6396e-05 -8.6815e-07 0.00010505 -5.3104e-06 7.577e-08 -8.7584e-07 -2.6114e-05 -1.301e-06 0.00012615 1.3723e-05 -2.9597e-05 0.0001217 -4.5182e-06 0.0039558 -4.5057e-05 -8.4689e-06 6.6907e-06 -0.00027364 0.00023888 -7.3431e-08 3.409e-05
-1.8506e-06 -4.595e-06 0.00011454 0.62338 -3.67e-06 -6.0015e-06 -9.3286e-06 7.7074e-05 0.00011278 -1.5597e-08 0.00091513 -1.0184e-05 -3.5809e-05 -1.2769e-05 -8.1626e-07 -0.00015264 0.0011773 3.1046e-05 -1.5285e-05 0.00053304 -6.0219e-05 -5.2751e-05 -3.0664e-05 1.0884e-05 0.00028486 0.00034018 -2.4186e-05 0.028307 -3.0952e-05 -1.0358e-06 0.00062592 -0.00019965 4.118e-05 -7.891e-05 0.00062927 -1.1057e-05 -0.00059889 -3.7307e-05 -5.1768e-06 -1.0928e-05
-2.1893e-06 4.3104e-06 7.3914e-06 9.1067e-06 4.2442e-05 0.28032 1.1313e-05 2.1908e-06 5.4225e-05 3.7543e-05 -3.1791e-05 -8.2355e-06 0.0032899 7.6447e-06 -0.00028302 8.8698e-07 -2.7609e-05 0.00062663 -0.00010912 0.00059185 -2.867e-05 0.00035512 0.0030294 -3.3202e-06 -4.924e-05 0.22864 -1.2019e-05 1.6608e-05 -9.1244e-05 -5.8241e-07 0.0018767 0.58026 -0.00011078 0.0051824 -0.00015984 -1.2377e-05 -1.9279e-05 0.0035096 1.9828e-06 0.00015105
1.8173e-05 5.2696e-06 6.7531e-05 5.4095e-06 2.2405e-06 4.056e-06 0.22709 5.9049e-05 0.369 3.9945e-06 -6.3242e-05 -9.5055e-07 0.00077805 5.7212e-05 0.00060681 2.0364e-05 -0.00012607 0.00060749 1.1855e-05 -5.4514e-05 9.7313e-06 0.19105 -0.00027723 9.1646e-05 0.00074686 0.20538 9.5906e-05 0.00025444 0.39404 -0.0001695 -0.00033366 -0.0016865 1.9533e-05 0.00023243 0.0017361 0.70689 -0.00018685 0.0015902 1.6633e-06 0.0017205
1.3144e-06 -4.2595e-06 -1.8715e-06 -4.7647e-07 -3.0179e-07 -3.1842e-06 0.42496 0.00012575 0.34505 -2.7917e-06 6.9621e-06 1.6041e-05 -3.3403e-05 6.3158e-05 -5.1942e-05 2.498e-06 -2.2083e-06 -1.4177e-05 1.2001e-05 -5.4928e-06 1.3825e-06 0.17528 -4.9123e-06 0.0019125 7.5393e-05 -0.00019742 0.00038602 -1.1985e-05 -0.0024043 0.47471 0.15115 1.7894e-05 2.7677e-05 0.0021698 0.0020259 -0.00044405 -0.00048285 -1.4444e-05 -2.4083e-05 0.0012768
1.735e-05 -2.6716e-06 -2.5304e-06 -4.8756e-07 -1.6041e-06 8.3448e-07 4.7486e-05 0.508 1.5536e-05 -8.39e-06 1.184e-06 1.563e-07 9.5272e-05 6.3444e-06 7.8739e-05 -3.9613e-07 1.3037e-06 1.4228e-05 8.4007e-07 -1.9006e-05 8.2642e-07 2.9346e-05 -9.0179e-06 -1.8744e-05 -1.6563e-05 3.3751e-05 4.7936e-06 -2.7457e-05 3.3215e-07 -5.552e-06 -3.8118e-05 -7.728e-06 -2.3304e-06 -2.5569e-05 0.003722 1.086e-05 1.7578e-05 0.00028974 1.782e-07 2.7152e-06
-3.1709e-06 3.739e-06 8.2599e-06 -3.6891e-06 0.43627 5.589e-06 -1.4993e-05 1.6283e-06 -3.2002e-05 1.7271e-06 3.3415e-05 -1.0367e-05 5.306e-05 3.0795e-05 -5.537e-06 1.332e-05 1.3758e-05 1.6338e-05 2.9913e-06 0.4201 2.1029e-05 0.26406 0.00078035 8.3483e-06 6.4308e-06 -6.9293e-05 -2.0372e-05 1.0914e-05 -2.9976e-05 -0.00013081 0.22828 3.7903e-05 3.6391e-05 0.53494 1.6394e-05 -0.0001216 -0.00016619 0.00010893 -2.0755e-06 0.001998
1.142e-05 7.2627e-06 2.3596e-05 9.0129e-06 8.7381e-07 4.4031e-05 2.6482e-05 7.4164e-06 1.7498e-05 4.1536e-06 5.7261e-06 9.6998e-07 -3.1177e-05 0.165 4.7694e-05 9.5292e-06 -1.0848e-06 3.593e-05 0.68035 1.4716e-06 -2.5929e-05 -0.00044218 -5.2014e-05 -1.6129e-05 3.4501e-05 0.15603 7.7532e-06 1.7763e-05 0.00012086 -7.3875e-06 0.12645 -0.00044259 -1.5878e-05 3.7208e-05 3.7041e-05 -8.7175e-06 -0.0005039 0.00090051 1.3561e-06 -0.00023566
2.949e-05 -7.8176e-06 0.0001892 0.00015117 -9.9572e-06 3.4392e-05 -2.7459e-05 5.2779e-05 3.0275e-05 3.1889e-07 0.00046867 1.1614e-06 -0.00011243 0.00022105 0.00012048 -0.00012607 0.00091182 4.984e-05 6.1707e-06 0.00042575 -1.0839e-05 0.00012747 -4.71e-05 -1.3081e-05 -0.00024815 0.18449 1.7325e-05 0.042935 8.9084e-05 4.5412e-07 4.5923e-05 -0.00074257 0.00049836 -0.00020778 0.00043265 -1.5645e-05 0.00069059 0.0030546 -1.6234e-06 -0.00010022
0.38536 0.29896 -2.7916e-06 -1.696e-06 -5.6309e-06 -2.3591e-05 9.1238e-05 -6.5345e-06 -0.0002086 0.00066205 2.0544e-05 -2.2466e-06 -7.1742e-05 -2.8601e-06 -6.3131e-06 -3.2089e-05 -2.0361e-05 -3.2088e-05 5.9369e-06 -7.0214e-05 -2.0106e-05 -8.4099e-05 0.0021486 -3.0322e-06 -7.9694e-05 -0.0001526 -5.1828e-06 -1.8823e-05 0.45436 5.9608e-05 0.0012826 2.9245e-05 6.8846e-05 -3.568e-05 0.0020816 0.001902 -0.00033009 7.424e-05 -9.8731e-06 -7.5799e-06
0.16008 -2.4707e-05 3.8349e-06 -4.92e-07 1.7482e-06 0.25592 2.7646e-05 -2.1749e-05 9.1421e-06 0.00022433 0.00045626 -1.6415e-05 -3.5271e-05 0.21126 0.00019208 0.00018135 7.0026e-05 3.717e-05 1.7172e-06 0.00039111 -2.3839e-05 5.209e-05 -4.7038e-05 -6.9619e-07 3.2267e-06 0.00018135 2.5674e-05 0.0017891 -4.7697e-05 1.2917e-05 0.00037504 -6.2552e-05 0.57765 -0.00016283 0.00012941 1.6367e-05 0.26068 3.6306e-06 -3.3099e-06 3.1066e-05
1.7025e-05 -8.0391e-07 7.2121e-05 1.658e-06 -2.5058e-05 1.6835e-05 2.9086e-05 0.00011601 0.00041856 5.2154e-06 -1.4567e-05 -8.4413e-07 -2.1153e-05 8.5897e-06 -4.8915e-07 -3.0605e-06 1.1576e-05 3.4484e-05 -3.4972e-05 2.9178e-05 1.6776e-07 -0.00018808 -9.833e-05 0.00014144 0.33933 0.16275 5.9605e-06 2.1685e-05 0.00067096 -6.6972e-06 -4.8664e-05 -0.00027875 -4.2878e-06 0.0005394 0.0010623 0.0048038 8.4809e-05 0.26371 1.5121e-05 2.4746e-05
1.8173e-05 5.2696e-06 6.7531e-05 5.4095e-06 2.2405e-06 4.056e-06 0.22709 5.9049e-05 0.369 3.9945e-06 -6.3242e-05 -9.5055e-07 0.00077805 5.7212e-05 0.00060681 2.0364e-05 -0.00012607 0.00060749 1.1855e-05 -5.4514e-05 9.7313e-06 0.19105 -0.00027723 9.1646e-05 0.00074686 0.20538 9.5906e-05 0.00025444 0.39404 -0.0001695 -0.00033366 -0.0016865 1.9533e-05 0.00023243 0.0017361 0.70689 -0.00018685 0.0015902 1.6633e-06 0.0017205
5.2487e-05 9.9278e-06 1.4152e-05 1.4761e-06 7.7179e-06 4.25e-05 0.00020446 0.00010308 0.003287 -6.8547e-05 5.1338e-05 8.9046e-07 0.0012336 -3.877e-05 8.7196e-06 6.5879e-06 -5.4306e-06 0.00085333 -5.2544e-05 -1.883e-05 5.0486e-06 0.00019346 -8.5658e-05 -0.00064957 1.2965e-05 0.08353 0.22111 4.3063e-05 0.019192 -3.5001e-05 -0.0001028 -0.00014043 1.2495e-07 4.2313e-08 0.001676 0.013246 3.2601e-06 0.0005339 3.8985e-06 6.0104e-05
0.080242 1.5594e-06 1.3964e-05 -2.1202e-06 1.7053e-06 1.7949e-05 8.9766e-05 0.00021898 0.0016334 0.00011875 2.4848e-06 1.0944e-07 0.049327 -4.1356e-06 8.5168e-06 -5.0391e-05 4.7838e-06 0.10903 -1.7146e-05 -0.00023435 7.6536e-06 5.6161e-05 0.00086676 0.00010663 0.00087453 0.00023064 1.603e-05 0.00018199 0.0078814 -3.0214e-05 -0.00010853 -6.1505e-06 -2.3866e-05 0.00024405 0.28668 0.0078703 5.509e-05 0.16 -4.2602e-07 2.4783e-05
-1.7119e-20 4.6153e-20 3.9498e-18 -8.474e-21 -7.2336e-19 -8.027e-20 -5.4755e-19 -6.1592e-20 3.985e-19 -2.641e-20 1.5348e-19 -1.3254e-19 -6.2351e-19 2.0812e-21 -6.5627e-20 3.1093e-21 -2.7528e-19 -1.4936e-19 -4.3294e-19 2.9277e-20 -1.2716e-19 -2.5416e-18 1.7473e-18 4.822e-18 -5.1858e-15 3.5163e-18 1.3417e-18 1.6485e-17 7.3309e-19 3.9395e-20 -4.722e-18 -1.4057e-19 -5.5338e-20 1.1551e-17 1.2247e-17 1.5006e-17 1.1779e-18 5.6175e-17 2.2124e-15 -8.8012e-19
0.28874 0.44809 -7.7288e-07 -6.4383e-07 -7.4124e-07 7.3557e-06 -9.322e-06 4.9379e-06 1.9073e-06 0.00048263 5.0183e-05 -1.5095e-07 2.4745e-06 0.38006 -1.3394e-05 1.3767e-05 -3.9786e-06 4.5773e-06 3.0285e-06 1.5686e-06 6.5315e-06 4.8448e-05 -3.8007e-05 2.5624e-06 -2.1358e-05 9.2504e-06 4.6064e-06 -1.0544e-05 -1.3294e-05 1.4768e-05 0.28953 -5.6515e-06 -2.1664e-05 -6.1019e-07 5.7645e-05 -1.0677e-05 -0.00067096 -1.9319e-05 -7.3297e-06 0.00018651
0.28874 0.44809 -7.7288e-07 -6.4383e-07 -7.4124e-07 7.3557e-06 -9.322e-06 4.9379e-06 1.9073e-06 0.00048263 5.0183e-05 -1.5095e-07 2.4745e-06 0.38006 -1.3394e-05 1.3767e-05 -3.9786e-06 4.5773e-06 3.0285e-06 1.5686e-06 6.5315e-06 4.8448e-05 -3.8007e-05 2.5624e-06 -2.1358e-05 9.2504e-06 4.6064e-06 -1.0544e-05 -1.3294e-05 1.4768e-05 0.28953 -5.6515e-06 -2.1664e-05 -6.1019e-07 5.7645e-05 -1.0677e-05 -0.00067096 -1.9319e-05 -7.3297e-06 0.00018651
0.16008 -2.4707e-05 3.8349e-06 -4.92e-07 1.7482e-06 0.25592 2.7646e-05 -2.1749e-05 9.1421e-06 0.00022433 0.00045626 -1.6415e-05 -3.5271e-05 0.21126 0.00019208 0.00018135 7.0026e-05 3.717e-05 1.7172e-06 0.00039111 -2.3839e-05 5.209e-05 -4.7038e-05 -6.9619e-07 3.2267e-06 0.00018135 2.5674e-05 0.0017891 -4.7697e-05 1.2917e-05 0.00037504 -6.2552e-05 0.57765 -0.00016283 0.00012941 1.6367e-05 0.26068 3.6306e-06 -3.3099e-06 3.1066e-05
7.9787e-05 5.2958e-06 5.73e-05 8.3732e-05 8.7699e-07 8.912e-06 -8.3919e-06 0.23578 3.7413e-05 -1.4192e-05 0.19469 -5.3083e-06 -3.6067e-05 -2.8221e-05 1.0625e-05 -0.0003748 0.0010142 -6.0178e-06 1.0678e-06 4.5163e-05 -1.4959e-05 5.7504e-05 0.00075373 1.0134e-05 0.25587 0.00031496 -6.7186e-06 0.36487 3.7857e-05 1.2879e-05 0.00068547 -0.00010215 -0.00025959 -6.5571e-05 0.004053 -0.00020097 -0.00091136 2.6039e-05 -3.2142e-06 -5.7507e-06
3.941e-05 4.5508e-05 1.3033e-05 0.00024124 1.0538e-05 0.2294 0.00020593 -9.1938e-06 -6.6513e-05 0.00032409 0.24069 -3.864e-06 -9.2557e-05 0.00024218 0.0010455 -0.0002863 -8.4923e-06 -8.5299e-05 -2.4623e-05 0.0008097 -3.3601e-05 0.00021377 0.012898 3.8293e-06 6.6868e-06 0.0002585 2.7467e-05 2.3343e-05 0.0041535 1.2104e-05 0.14539 -0.00049196 0.00032618 -0.0002883 0.0018643 -0.00026305 -2.261e-05 0.00044972 -8.3059e-06 -0.00014405
9.4575e-07 4.8334e-08 -1.4146e-05 -4.6004e-05 2.3809e-06 -1.3601e-05 -3.9762e-05 0.00044237 0.00021123 7.6477e-08 -0.00029002 1.3803e-06 0.00040863 5.8629e-06 5.1343e-06 2.6244e-05 0.34376 4.4368e-05 -1.7294e-06 -3.1628e-05 8.306e-06 -4.8716e-05 -1.0233e-05 -5.7801e-07 0.00024548 6.3461e-06 -7.1341e-06 0.47138 -5.7501e-05 -2.7853e-06 -1.6817e-05 4.5537e-05 -0.00046617 8.7164e-05 -4.0488e-05 -1.4856e-05 8.0179e-05 0.00045333 -7.3281e-06 7.9603e-06
0.20889 3.213e-05 1.5781e-05 -5.6751e-07 2.0999e-06 4.8138e-05 5.4776e-05 2.1469e-05 -0.00017973 0.77159 0.00055486 -1.1233e-06 -5.5139e-05 5.058e-06 3.4481e-06 -0.00011091 1.9098e-05 -6.7054e-05 8.2122e-06 0.00025292 -1.88e-05 -7.9786e-06 0.27752 -1.5332e-05 0.00051033 -0.00015905 0.00021293 -2.8656e-06 0.24895 2.685e-05 0.00079536 -0.00015494 -1.6355e-05 0.00019028 0.0044376 0.0011448 -0.0001581 0.0003631 -4.3586e-06 -2.2296e-05
3.359e-05 -7.8436e-06 9.0604e-06 -9.094e-07 -1.0101e-05 1.2825e-05 1.7249e-05 0.00039561 -6.8294e-05 -9.1514e-06 5.7193e-06 -4.6797e-06 -1.274e-05 -1.6833e-06 6.9797e-07 -2.5651e-06 5.2739e-05 5.2039e-06 3.3873e-06 -0.00013524 -4.5593e-05 -4.4159e-05 0.0009854 5.1212e-05 0.67679 -7.0597e-05 -1.4227e-05 0.00083107 5.2309e-05 2.764e-06 0.00088774 1.7493e-05 -3.1836e-06 -9.2469e-05 0.0080781 -0.00039517 -0.00013654 0.0010854 -5.048e-06 -3.9762e-05
0 0 0 0 0 0 0 0 0 0 0 0 0 0 0 0 0 0 0 0 0 0 0 0 0 0 0 0 0 0 0 0 0 0 0 0 0 0 0 0
1.7953e-05 -1.1598e-06 0.24489 -1.9098e-06 4.3894e-05 3.9785e-05 0.00029139 1.4881e-05 -2.5087e-05 -8.0346e-06 0.00011412 1.0762e-06 0.0058291 7.703e-05 1.1434e-05 -3.4061e-05 0.36063 0.0018876 5.1849e-05 0.00012282 5.5872e-06 0.17554 -0.00019066 -1.1905e-05 0.0002396 0.18387 1.0613e-05 0.00061956 0.00097998 -0.00015059 -0.00020226 -0.00013774 -2.4511e-05 -7.6533e-05 -3.627e-05 -0.00022335 -3.3734e-05 0.29702 1.3716e-05 0.0014043
0.10558 -1.9382e-05 -1.3856e-06 -5.849e-07 -5.4358e-07 -1.7006e-05 4.9788e-05 0.00043627 -1.1591e-05 0.00010499 1.037e-05 -4.032e-06 -1.7374e-05 3.9946e-07 -6.229e-06 -4.8157e-06 0.25134 -7.6267e-06 7.9093e-07 -9.6797e-05 -2.5821e-05 -9.0924e-05 0.00070555 2.7728e-06 0.00057584 0.00079293 -3.3074e-06 0.00038922 0.00013161 -2.2358e-05 0.00061851 -5.9745e-05 -4.8133e-05 9.0182e-06 0.0034221 -1.6097e-05 -9.0808e-05 1.8755e-05 -2.6673e-06 -1.6883e-05
-5.537e-06 -8.0136e-07 -4.3275e-06 3.1092e-06 -3.577e-06 -3.2944e-05 0.00075861 -6.7709e-06 -1.9119e-05 4.1511e-06 -2.8223e-05 8.5879e-06 -2.4126e-05 4.3094e-08 0.00055789 3.9732e-06 -8.4075e-05 2.0942e-05 -3.2283e-05 1.9319e-05 4.0084e-06 0.0031897 -0.00019614 -1.8444e-06 -4.7583e-06 0.0090238 5.249e-05 9.7874e-06 0.0037226 -5.3198e-05 -0.00035914 -0.0016579 -4.2047e-06 -0.00038147 -1.9303e-05 0.0034781 -0.00018557 -2.3266e-05 -3.4225e-06 0.00026748
-1.972e-06 4.5305e-06 0.38548 -3.253e-06 -4.2375e-06 -8.3177e-06 0.00029382 5.9649e-05 0.00029729 -3.7077e-05 1.5724e-05 2.0094e-05 1.93e-05 6.1884e-06 1.4864e-05 1.1379e-05 1.9279e-05 1.953e-05 1.9307e-06 1.0178e-05 -3.1889e-05 0.0002197 8.613e-06 0.7071 0.25594 -3.1082e-06 0.38121 0.00030731 0.00026213 0.0009381 0.11842 -0.0001119 1.0046e-05 0.2814 0.40195 0.0035123 -2.9409e-05 0.000295 1.9051e-05 3.3472e-06
1.8433e-05 6.8615e-06 2.4403e-05 3.6618e-06 -1.1442e-06 3.677e-05 0.00032361 -1.8809e-05 0.32404 3.0577e-06 7.8037e-06 -9.4046e-07 0.00031854 -9.2056e-05 0.00071006 9.3005e-06 2.9492e-05 5.4037e-05 -0.00011706 -1.6441e-05 8.041e-06 0.00041879 -4.5512e-05 2.5896e-06 -3.7124e-06 0.17316 3.5841e-05 9.3069e-05 0.00014472 -0.00012438 0.0011245 -1.7167e-05 5.5846e-05 -4.9672e-05 0.0027096 0.00013202 4.2217e-05 0.0010239 3.5977e-06 1.9665e-05
1.735e-05 -2.6716e-06 -2.5304e-06 -4.8756e-07 -1.6041e-06 8.3448e-07 4.7486e-05 0.508 1.5536e-05 -8.39e-06 1.184e-06 1.563e-07 9.5272e-05 6.3444e-06 7.8739e-05 -3.9613e-07 1.3037e-06 1.4228e-05 8.4007e-07 -1.9006e-05 8.2642e-07 2.9346e-05 -9.0179e-06 -1.8744e-05 -1.6563e-05 3.3751e-05 4.7936e-06 -2.7457e-05 3.3215e-07 -5.552e-06 -3.8118e-05 -7.728e-06 -2.3304e-06 -2.5569e-05 0.003722 1.086e-05 1.7578e-05 0.00028974 1.782e-07 2.7152e-06
6.0273e-06 8.7934e-06 0.15911 -2.4532e-07 1.7298e-05 1.7656e-05 -9.6278e-05 8.6617e-06 -1.2408e-05 -2.2787e-06 0.0031343 -1.111e-05 -7.4982e-05 -3.7318e-05 -9.8176e-06 5.4736e-05 0.46662 1.3241e-05 1.1226e-05 0.00038581 -3.7677e-05 0.22798 -4.2517e-05 -1.3555e-05 0.00013231 0.1198 3.9362e-06 0.00090214 -3.9595e-05 -4.8282e-06 0.00012561 -0.00022838 -4.7318e-05 -0.00026017 -3.5495e-05 3.8884e-06 -0.00067209 0.19323 8.7925e-06 0.0017397
-1.321e-06 1.514e-05 4.4879e-06 1.3622e-07 -1.046e-05 -6.5635e-06 0.00010291 6.4144e-05 -2.039e-05 0.00021694 3.2652e-05 -1.3296e-08 -9.5403e-05 -2.0823e-05 -7.3475e-06 -3.7944e-05 -6.1085e-06 -2.2504e-05 -1.8858e-06 4.4482e-05 -3.5178e-05 0.0001657 0.0024953 2.7146e-06 -1.096e-06 0.00013611 5.2042e-05 6.8579e-06 0.0027345 3.987e-06 0.00011881 -0.00011307 -8.6565e-07 -0.00012378 -8.7203e-06 5.3945e-06 8.917e-05 -1.9305e-05 -8.1595e-07 1.9236e-06
-2.0041e-05 1.166e-05 0.40167 -3.6361e-06 -4.4531e-07 0.39 2.3976e-05 -8.5286e-06 -2.7765e-06 2.7788e-05 3.521e-05 -6.8752e-06 -3.2519e-06 8.3831e-06 -2.3593e-05 5.4983e-06 3.7039e-06 5.5494e-06 -4.9261e-06 1.29e-05 -9.3742e-06 7.7494e-06 1.5879e-06 8.9631e-06 -4.395e-05 8.4064e-05 -1.3102e-05 9.0735e-06 -6.0103e-05 -3.2417e-06 0.24689 5.3789e-06 -0.00015437 0.00014768 1.5808e-05 1.7966e-05 -0.00015317 -4.1176e-05 2.1784e-05 2.5633e-05
-5.8447e-06 -1.4765e-07 -3.2162e-06 -7.8245e-07 1.6663e-06 -2.6834e-06 0.00063408 -2.6914e-07 -0.00010482 5.7967e-08 5.0059e-05 9.4167e-08 -1.5053e-07 -6.5807e-05 -7.0884e-06 -1.0853e-05 -1.9214e-05 -1.8624e-06 3.0284e-08 7.601e-06 1.0387e-06 0.0015291 -1.7768e-05 2.3415e-07 1.6956e-07 -6.8769e-07 -1.886e-07 1.6193e-06 0.0032089 -0.00019649 2.9945e-05 -4.8234e-05 -7.4194e-06 -0.00029881 3.2267e-05 -6.5286e-05 -5.6063e-05 -8.5118e-06 -7.6558e-06 6.4119e-05
-2.1893e-06 4.3104e-06 7.3914e-06 9.1067e-06 4.2442e-05 0.28032 1.1313e-05 2.1908e-06 5.4225e-05 3.7543e-05 -3.1791e-05 -8.2355e-06 0.0032899 7.6447e-06 -0.00028302 8.8698e-07 -2.7609e-05 0.00062663 -0.00010912 0.00059185 -2.867e-05 0.00035512 0.0030294 -3.3202e-06 -4.924e-05 0.22864 -1.2019e-05 1.6608e-05 -9.1244e-05 -5.8241e-07 0.0018767 0.58026 -0.00011078 0.0051824 -0.00015984 -1.2377e-05 -1.9279e-05 0.0035096 1.9828e-06 0.00015105
3.3901e-05 -6.5407e-06 -3.5108e-06 1.9395e-06 -1.0941e-06 -4.9495e-06 0.00051332 -3.9823e-06 -1.181e-05 2.7407e-06 -2.7266e-05 7.6541e-07 0.001131 1.7493e-07 0.00033561 5.6857e-06 -4.9716e-05 0.00018748 -3.3784e-05 -0.00013502 -1.1168e-05 0.0018824 -7.3007e-05 -5.5621e-06 -3.1683e-05 0.0067819 2.2157e-05 6.0327e-06 0.0022821 -4.2044e-05 0.00075005 0.0027759 -4.595e-06 -0.00011579 -3.1154e-05 0.0021426 -0.0001821 0.0007249 -1.4747e-06 0.00014957
6.9096e-05 8.1337e-06 -2.8197e-07 7.1046e-07 7.1281e-07 6.5848e-05 0.00022704 -2.3167e-06 0.00016456 -1.1185e-05 3.6643e-05 -3.2309e-06 0.00027274 -8.5479e-06 -3.9065e-05 -1.3022e-05 1.0859e-05 3.8467e-05 0.0032487 0.00010748 -4.1625e-05 0.00020714 0.00036949 4.012e-06 -4.2545e-07 0.0015403 8.5895e-05 0.00014911 0.0010342 -1.3378e-05 0.00065185 0.0092013 1.284e-05 0.00018333 2.4118e-06 -0.00027058 -0.00017812 0.00055967 -4.7518e-06 -5.5321e-05
1.962e-06 6.0523e-06 -8.8799e-07 -2.1621e-07 1.905e-06 5.8693e-06 -5.7043e-06 5.4169e-06 -8.5927e-06 4.9688e-06 0.35893 3.5592e-06 8.2694e-06 0.28429 -2.3711e-05 9.1035e-05 -2.3695e-06 6.7952e-06 1.1415e-05 -1.0889e-05 5.0839e-05 0.25165 -0.00015557 -3.8288e-06 -1.2906e-05 -8.0707e-05 -4.5082e-06 1.2508e-05 -4.6763e-05 6.2367e-05 0.21672 0.00010737 -2.2323e-05 3.4849e-05 -1.435e-05 4.1514e-06 0.34916 1.2643e-05 5.3192e-07 0.0022057
1.7916e-06 5.1563e-05 -1.5042e-06 -6.5654e-08 -1.1359e-05 6.3603e-06 -6.6554e-06 6.434e-06 -1.588e-05 5.5943e-06 0.00093153 -9.3089e-06 -4.7701e-05 0.31596 -3.5438e-05 -0.00013646 -2.1219e-05 4.189e-05 5.613e-06 2.1954e-05 9.2796e-06 0.27886 0.001277 -9.6708e-06 -1.3681e-05 -2.9304e-05 -1.1875e-05 -2.3893e-05 5.8957e-05 -4.5037e-05 0.24055 0.00012897 -8.5828e-05 8.5419e-05 2.6369e-05 -2.9619e-05 0.39981 -2.9277e-05 3.9774e-07 0.0025048
-3.0471e-06 -3.4994e-06 9.5912e-05 0.51842 1.1698e-06 -3.3862e-06 -1.7239e-05 2.8448e-05 6.2283e-05 -1.026e-06 0.00076317 -7.3759e-07 6.7702e-06 2.6077e-06 1.4403e-07 -0.00013191 0.00097774 1.0048e-05 3.6396e-06 -8.4083e-06 -1.3236e-05 -7.4702e-05 -5.4467e-05 1.0938e-05 0.00023004 0.00028557 -2.8024e-05 0.023427 -0.00010561 -5.4422e-06 -6.798e-05 -0.00014451 3.5229e-05 -5.925e-05 0.25896 -0.00015662 -0.00017288 -2.6428e-05 -4.3656e-06 2.2579e-05
3.545e-06 -3.8643e-06 9.2081e-05 -8.6028e-07 -3.0146e-06 2.5977e-05 0.10205 0.14797 0.00024401 -1.8052e-06 0.00010129 3.621e-06 5.8057e-05 -3.6202e-06 -8.7484e-06 -1.309e-05 0.00013691 8.5058e-06 2.2133e-06 -1.2962e-06 -2.4254e-05 4.1235e-05 -4.4248e-05 0.00099627 0.00082943 0.00053908 0.00017508 0.0016376 0.00035219 0.00052122 4.4205e-05 -9.7134e-05 -2.0538e-06 0.0014624 0.0031941 0.0024444 -9.4686e-06 0.00021897 -6.6946e-06 -1.0143e-05
0.0001032 3.0993e-06 -4.7189e-08 8.9616e-07 -7.2055e-06 -2.3328e-06 0.00032226 1.9064e-06 -3.1241e-05 3.6958e-05 -9.4583e-05 -5.2294e-06 -7.8553e-06 -9.9313e-05 0.0093014 -1.5122e-05 2.444e-05 1.2288e-05 -3.9626e-05 -1.8277e-06 -6.089e-07 0.0010192 -4.2339e-05 5.2769e-06 -1.4329e-07 -6.3254e-05 -6.6427e-07 1.0993e-05 0.00022447 3.7805e-06 0.00045888 -2.7307e-05 -3.968e-05 -0.00011732 -2.4016e-05 -8.2964e-05 -0.00019437 -3.8042e-06 2.5122e-07 1.4555e-05
0.16595 2.6392e-05 4.312e-05 5.3849e-06 -1.628e-06 -5.2866e-05 -4.744e-05 -2.5725e-05 -1.6101e-05 0.00013719 -1.1049e-05 -6.0513e-07 -1.5202e-05 -3.0331e-06 7.005e-05 -5.3149e-06 2.1905e-06 5.7114e-05 4.4477e-05 -2.5098e-07 9.1425e-06 -1.1319e-06 2.4737e-05 0.00023514 5.1695e-05 0.20161 0.53502 2.3378e-06 3.9217e-05 -0.00012638 -8.6503e-05 -3.5193e-05 5.5484e-06 0.404 0.28066 -0.00029087 6.6517e-05 0.0012761 9.3214e-08 5.0172e-05
-4.0782e-06 1.1361e-05 6.514e-06 3.1636e-06 0.19327 0.15919 4.7841e-06 -1.1173e-07 -2.6011e-05 1.4353e-05 -3.3851e-05 -3.7194e-06 0.3967 2.6975e-05 -0.00015267 1.5264e-05 -9.8983e-06 0.39441 -6.1138e-05 0.18661 -1.236e-05 0.11704 0.2571 -2.7775e-06 8.202e-05 0.12975 -2.0328e-05 3.6801e-06 -0.00026442 -5.7348e-05 0.10155 0.3298 -5.0682e-05 0.24072 -0.00013109 -0.00017879 -8.9611e-05 0.20083 2.4289e-07 0.00099384
1.3899e-05 -2.1437e-06 6.4486e-05 7.306e-06 -5.3598e-06 2.5282e-05 0.14199 0.00065098 -5.4198e-05 6.6304e-05 -1.5052e-05 -4.0015e-06 -8.1517e-05 0.0001423 0.37673 -2.1102e-05 -6.5792e-05 3.6593e-05 0.27241 0.00027645 -3.5815e-06 0.11937 9.2852e-05 -0.00016691 5.2653e-05 0.12962 0.0019758 0.00035933 0.003092 -0.00020023 -0.00036884 -0.0012622 0.00032706 -0.00035787 0.00075954 0.0025032 0.0005089 0.00079898 -1.0043e-05 0.00098057
-1.3011e-07 2.6705e-08 -2.8371e-06 -1.0533e-06 1.6277e-06 -2.4576e-06 -5.7825e-05 7.615e-07 5.3897e-06 1.1691e-07 -1.6476e-05 4.003e-08 -3.3938e-07 9.895e-06 1.3214e-05 -4.2079e-05 0.32856 4.6836e-07 -4.5058e-07 -3.5212e-06 5.2115e-08 -0.00016248 -2.5069e-07 1.4218e-06 4.1264e-06 -3.6482e-05 2.6709e-06 0.00033856 -2.4539e-05 6.3246e-06 1.1966e-05 2.6077e-05 -3.0583e-05 3.8459e-05 3.1879e-07 3.5488e-06 8.1661e-05 2.072e-05 2.7036e-07 4.6311e-06
4.4284e-08 -6.694e-08 4.6601e-07 -8.3197e-07 -2.7394e-08 -5.6184e-07 4.5383e-05 0.00070184 4.9801e-07 3.023e-07 -4.0682e-06 2.3236e-07 9.4269e-07 -8.9329e-09 -4.66e-08 1.6352e-06 2.4396e-06 8.9402e-08 2.4921e-07 1.2518e-07 7.7275e-07 -2.9521e-07 2.529e-06 8.4247e-06 0.00065315 -1.5648e-05 -1.1148e-06 0.0012466 -6.4917e-06 -7.4646e-06 -6.2419e-06 3.8509e-06 -2.7937e-06 -5.6183e-06 3.5583e-05 -3.8714e-06 4.9945e-06 -4.2221e-05 -1.4235e-07 5.961e-08
0.15902 0.24689 -8.972e-07 -9.6311e-08 1.5275e-06 3.8409e-06 0.00026437 5.7388e-06 -6.1489e-07 0.00025987 0.26528 0.51078 7.5976e-06 0.20945 -7.9238e-06 0.338 1.2987e-05 6.3147e-06 8.7384e-06 -3.1209e-07 0.37868 0.18543 -9.5515e-05 -4.9956e-06 -6.9713e-06 -7.2932e-05 -2.1098e-06 2.3186e-05 -3.7643e-05 -2.6548e-05 0.15969 6.8035e-05 -4.9296e-06 -2.2554e-05 3.0184e-06 -2.8327e-05 0.25706 5.5012e-06 -4.6197e-06 0.0021307
1.7025e-05 -8.0391e-07 7.2121e-05 1.658e-06 -2.5058e-05 1.6835e-05 2.9086e-05 0.00011601 0.00041856 5.2154e-06 -1.4567e-05 -8.4413e-07 -2.1153e-05 8.5897e-06 -4.8915e-07 -3.0605e-06 1.1576e-05 3.4484e-05 -3.4972e-05 2.9178e-05 1.6776e-07 -0.00018808 -9.833e-05 0.00014144 0.33933 0.16275 5.9605e-06 2.1685e-05 0.00067096 -6.6972e-06 -4.8664e-05 -0.00027875 -4.2878e-06 0.0005394 0.0010623 0.0048038 8.4809e-05 0.26371 1.5121e-05 2.4746e-05
0.16414 0.25472 -9.2115e-07 2.6624e-07 1.3045e-06 6.7256e-06 -3.8087e-05 5.8622e-06 -3.7274e-05 0.00027597 0.27361 -6.2133e-05 7.0991e-06 0.21615 -1.6985e-05 0.34886 9.6931e-06 5.8204e-06 8.9279e-06 -8.9329e-06 0.39076 0.19133 -0.00010384 7.947e-06 -4.9919e-06 -5.434e-05 -1.1162e-05 2.0807e-05 -6.1286e-06 0.51244 0.16478 7.7535e-05 -1.1072e-05 -6.4251e-05 -7.3973e-06 1.6994e-05 0.26542 9.043e-06 -1.8798e-06 0.002058
-2.915e-07 2.259e-07 -5.2775e-05 -5.1898e-05 -1.5099e-05 -2.7942e-05 7.2797e-06 2.6542e-05 -1.6577e-05 -5.6126e-07 -0.00012439 1.1868e-06 -3.8687e-05 -9.4928e-06 9.8458e-06 3.0852e-05 0.00012708 -1.5972e-05 -1.1155e-06 6.2528e-05 4.7596e-06 7.851e-05 3.9099e-05 -6.2775e-06 -5.0457e-05 1.578e-05 2.8829e-06 0.62472 -3.3244e-05 -4.4533e-07 -1.5186e-05 2.343e-05 -0.00052554 -0.00020333 -5.979e-05 -8.3043e-05 2.0785e-06 0.40375 1.2195e-06 4.7446e-06
-3.8994e-06 9.9144e-06 1.7368e-06 -2.6072e-06 0.23474 2.3026e-05 -9.7907e-07 -1.7515e-06 -6.9493e-05 -8.1554e-06 -2.8383e-05 -4.3316e-06 0.47968 3.0218e-06 1.0944e-05 1.9327e-05 1.06e-05 0.47847 -2.9786e-06 0.22633 1.1905e-05 0.14216 0.31007 1.6442e-06 0.00014979 -8.4946e-05 -1.6272e-05 -6.1711e-06 -0.00025503 -7.0353e-05 0.12284 0.00034824 1.5854e-05 0.28851 -5.2498e-05 -0.0002081 -0.00015065 0.23966 -1.0651e-06 0.0010893
0.17191 9.2628e-06 1.7669e-07 -4.9152e-07 -3.4799e-06 -0.00027372 0.00042278 3.4032e-06 0.00016285 0.00021505 6.7722e-05 -2.1712e-05 9.5958e-07 -0.00015326 0.00081665 5.7963e-05 -7.5265e-05 -6.6255e-06 -0.00017023 2.403e-05 6.8101e-06 0.20082 2.5677e-05 -3.7976e-06 -1.5689e-05 0.00022586 2.2295e-07 -0.00051883 2.3943e-05 -0.00010462 0.17383 6.0335e-05 0.57649 -5.4789e-05 -2.633e-05 -8.3554e-05 -0.00058578 -0.00016497 -2.0748e-07 0.0015626
0.13211 0.20501 2.7499e-06 -2.1939e-06 0.25469 0.00010149 9.3556e-06 -3.4575e-06 -2.8583e-05 0.00040702 0.00070022 -1.5514e-06 -0.00045487 -7.37e-05 4.2511e-05 -0.00010189 2.6739e-06 0.00018443 -8.8328e-06 0.24625 2.8676e-06 8.9787e-05 0.38003 -3.3372e-06 0.00013456 6.5295e-06 4.6371e-06 6.2327e-05 0.00067495 -1.2793e-05 0.00021202 -0.00090251 -2.5718e-05 -0.0015579 -6.8105e-05 1.3785e-05 -9.2775e-05 0.26283 -3.426e-06 0.00011779
0.13211 0.20501 1.5803e-06 -2.3771e-06 0.25468 9.3349e-05 1.0454e-05 -3.571e-06 -2.9117e-05 0.00040735 0.00069025 -7.5108e-06 -0.00042326 -0.00010025 4.381e-05 -0.00010038 6.5581e-06 -6.8161e-05 -1.3146e-05 0.24629 1.0619e-05 0.00033615 0.37984 -3.7776e-07 0.00015212 1.2804e-05 4.7818e-06 6.321e-05 0.00067849 -1.3973e-05 0.0010395 -0.00095881 -2.4623e-05 -0.0019288 -7.1907e-05 1.4393e-05 -0.00015253 0.26078 -3.4178e-06 0.00010276
1.962e-06 6.0523e-06 -8.8799e-07 -2.1621e-07 1.905e-06 5.8693e-06 -5.7043e-06 5.4169e-06 -8.5927e-06 4.9688e-06 0.35893 3.5592e-06 8.2694e-06 0.28429 -2.3711e-05 9.1035e-05 -2.3695e-06 6.7952e-06 1.1415e-05 -1.0889e-05 5.0839e-05 0.25165 -0.00015557 -3.8288e-06 -1.2906e-05 -8.0707e-05 -4.5082e-06 1.2508e-05 -4.6763e-05 6.2367e-05 0.21672 0.00010737 -2.2323e-05 3.4849e-05 -1.435e-05 4.1514e-06 0.34916 1.2643e-05 5.3192e-07 0.0022057
0.16207 0.25151 -8.6459e-07 1.7894e-07 -1.9539e-07 7.7307e-06 -3.5466e-05 3.3946e-06 -2.7863e-05 0.00027183 0.27017 -6.0809e-05 6.7633e-06 0.2134 -5.5854e-06 0.34462 -6.3291e-06 5.0289e-06 3.023e-06 -7.861e-06 0.38584 -0.0006488 -0.00011998 1.0042e-05 -7.8009e-06 -1.7475e-05 -7.5675e-06 2.5062e-05 4.4622e-06 0.50598 0.16272 1.8682e-05 -8.7882e-06 -8.2078e-05 2.1658e-05 1.14e-05 0.2617 -1.1753e-05 -1.983e-06 0.51536
0.20899 1.6631e-05 -2.6834e-06 2.4259e-07 -4.7203e-05 -1.2882e-06 -3.4485e-05 6.4661e-06 -3.3027e-05 0.00028134 -4.5909e-06 1.8923e-06 3.3149e-06 -1.6627e-05 -1.3077e-05 1.0323e-05 -3.176e-05 1.2678e-05 3.3721e-05 -3.5536e-06 1.6493e-05 0.24866 2.7793e-05 -4.2579e-06 1.048e-05 -0.00058428 -4.5166e-06 6.0379e-06 -3.2638e-05 -3.5766e-06 -0.00012922 -0.0001359 -2.1059e-05 -0.00013481 -4.7085e-05 -4.5683e-06 -0.0001958 -6.2339e-05 -4.394e-06 0.0020287
1.142e-05 7.2627e-06 2.3596e-05 9.0129e-06 8.7381e-07 4.4031e-05 2.6482e-05 7.4164e-06 1.7498e-05 4.1536e-06 5.7261e-06 9.6998e-07 -3.1177e-05 0.165 4.7694e-05 9.5292e-06 -1.0848e-06 3.593e-05 0.68035 1.4716e-06 -2.5929e-05 -0.00044218 -5.2014e-05 -1.6129e-05 3.4501e-05 0.15603 7.7532e-06 1.7763e-05 0.00012086 -7.3875e-06 0.12645 -0.00044259 -1.5878e-05 3.7208e-05 3.7041e-05 -8.7175e-06 -0.0005039 0.00090051 1.3561e-06 -0.00023566
1.1969e-05 1.0286e-05 2.4133e-05 0.58536 -1.1122e-05 0.00024321 -6.8869e-06 0.35099 0.0016667 7.322e-07 -3.4713e-05 2.4076e-06 -4.2072e-05 -0.0001572 0.00058192 1.2037e-05 -1.6465e-05 4.8529e-05 -7.8623e-05 -8.3165e-06 -2.7206e-06 0.20367 -0.00012482 7.7331e-07 1.1956e-05 0.2104 -2.0742e-06 -9.1923e-05 -0.00043077 7.4787e-06 0.00019883 1.0174e-05 -4.5137e-06 -6.6546e-05 0.29966 -0.00020917 -0.00020584 0.0012068 4.2929e-06 0.0017242
0.16831 -6.2004e-05 1.6658e-05 -6.1413e-07 -6.2477e-06 0.27023 5.5319e-05 0.17116 -9.7595e-05 0.00019224 4.7587e-05 -2.6957e-06 -7.9271e-05 0.00031858 6.3529e-06 -0.00017733 -2.0654e-05 -1.5643e-06 -1.1165e-05 0.00012038 1.9016e-05 2.2801e-05 0.000504 -8.2438e-06 8.5259e-05 8.072e-05 -2.6608e-05 4.8343e-07 0.20289 -2.2601e-05 0.00015389 -2.4487e-05 -0.00053866 -0.00014436 -9.5712e-05 0.00048 0.0045577 0.00020862 -3.3521e-06 3.4905e-05
1.8413e-05 -2.079e-05 0.00013056 9.8911e-05 2.5317e-06 0.0020212 -6.2201e-05 4.8437e-05 -1.1541e-05 -5.6227e-06 0.00044842 -7.2659e-06 6.3001e-05 0.0004214 -2.911e-05 -2.7596e-05 0.33072 4.1566e-05 -1.4148e-05 -1.541e-06 -1.1814e-05 0.00016487 -8.1554e-06 -9.1836e-06 6.4315e-05 0.0010601 -3.4976e-05 0.43543 0.00039822 1.1143e-05 -0.00010945 -0.0004035 0.014225 -0.00019627 0.0012205 -0.00011852 0.00029865 0.00030648 -4.9562e-06 -9.9376e-05
0.14211 5.3055e-06 4.4341e-05 -2.4139e-07 -8.343e-06 -7.528e-06 0.00071437 -2.2871e-05 -8.0484e-06 0.00015993 -4.1537e-06 1.7808e-07 2.814e-06 3.1728e-06 5.5755e-07 -7.7184e-06 -1.5911e-05 1.6266e-05 7.7883e-07 1.6735e-06 -1.0961e-05 -3.3605e-05 4.9474e-06 1.516e-05 0.00040969 -2.1487e-05 8.0243e-06 -2.6203e-06 0.00043983 -0.00015025 -2.0562e-05 1.0893e-06 -1.7574e-05 -0.00020776 0.0028699 -5.8953e-05 9.2283e-06 0.00092404 0.0054444 2.5009e-06
-3.8994e-06 9.9144e-06 1.7368e-06 -2.6072e-06 0.23474 2.3026e-05 -9.7907e-07 -1.7515e-06 -6.9493e-05 -8.1554e-06 -2.8383e-05 -4.3316e-06 0.47968 3.0218e-06 1.0944e-05 1.9327e-05 1.06e-05 0.47847 -2.9786e-06 0.22633 1.1905e-05 0.14216 0.31007 1.6442e-06 0.00014979 -8.4946e-05 -1.6272e-05 -6.1711e-06 -0.00025503 -7.0353e-05 0.12284 0.00034824 1.5854e-05 0.28851 -5.2498e-05 -0.0002081 -0.00015065 0.23966 -1.0651e-06 0.0010893
6.9096e-05 8.1337e-06 -2.8197e-07 7.1046e-07 7.1281e-07 6.5848e-05 0.00022704 -2.3167e-06 0.00016456 -1.1185e-05 3.6643e-05 -3.2309e-06 0.00027274 -8.5479e-06 -3.9065e-05 -1.3022e-05 1.0859e-05 3.8467e-05 0.0032487 0.00010748 -4.1625e-05 0.00020714 0.00036949 4.012e-06 -4.2545e-07 0.0015403 8.5895e-05 0.00014911 0.0010342 -1.3378e-05 0.00065185 0.0092013 1.284e-05 0.00018333 2.4118e-06 -0.00027058 -0.00017812 0.00055967 -4.7518e-06 -5.5321e-05
5.4348e-07 -3.0334e-06 0.37616 5.1718e-05 1.992e-07 1.5991e-05 3.768e-05 0.15652 0.00028697 -5.1703e-06 0.00032235 -1.6052e-07 -1.2997e-06 -3.847e-06 -3.1988e-06 -5.5183e-05 0.00076912 -2.0875e-07 6.1245e-07 3.6833e-06 -6.5821e-06 2.1379e-05 -2.0262e-05 7.4842e-05 0.00067389 0.0001607 -3.0199e-05 0.24804 0.00034473 -5.4023e-06 5.8363e-05 -7.6604e-05 -0.00018644 0.00033025 0.00085458 0.0026226 -8.6555e-05 0.00041667 1.0902e-05 1.2734e-05
1.4402e-05 4.7538e-06 0.24755 -4.1167e-06 1.3016e-05 4.3286e-07 8.7571e-05 -3.7101e-06 -3.0258e-05 -4.3666e-06 1.3958e-05 -4.6802e-06 -0.00016552 0.00022732 0.00015571 -3.3539e-05 2.6456e-05 -8.6884e-05 -2.1378e-05 0.2829 -3.8375e-05 -4.3006e-05 3.8464e-05 4.1688e-06 3.0558e-06 8.6706e-05 5.4813e-05 7.8286e-05 0.00073403 -6.3077e-06 0.15268 -3.4691e-05 0.00050542 2.2337e-05 0.00012064 -0.00011344 0.00064732 -0.00031734 3.0888e-05 -0.00014097
2.8695e-06 2.8832e-06 -3.4746e-07 -9.7341e-07 4.8982e-06 7.086e-06 0.00015399 -6.6134e-06 0.0024595 -1.7323e-07 -7.1646e-06 9.7713e-07 0.00096942 -1.4857e-05 -1.0021e-05 1.3449e-06 -3.8107e-06 0.00063456 -3.3167e-05 -7.8518e-05 2.875e-06 9.0263e-05 -5.1976e-05 -2.9145e-05 -1.408e-05 0.0005323 4.4833e-05 4.0845e-06 0.013794 -2.2909e-05 -4.8055e-05 -5.3875e-05 7.6898e-07 -1.3602e-05 0.0016599 0.010177 2.5567e-06 5.8906e-05 2.6904e-06 2.0716e-05
0.15221 0.23631 -8.1656e-07 -1.7101e-07 6.8886e-08 4.7001e-06 0.00025505 3.245e-06 7.8078e-06 0.00024811 0.25393 0.48889 7.0408e-06 0.20046 2.92e-06 0.32368 -2.5016e-06 5.3699e-06 2.9243e-06 6.0198e-07 0.36247 -0.0005412 -0.00010781 -2.7197e-06 -9.3698e-06 -3.583e-05 1.2235e-06 2.6436e-05 -2.6156e-05 -1.0507e-05 0.15286 1.0768e-05 -2.7046e-06 -3.9091e-05 3.0088e-05 -3.2165e-05 0.2457 -1.4157e-05 -4.5411e-06 0.48412
1.6238e-07 2.2957e-06 -9.1265e-07 0.00017 5.0846e-06 0.00011397 0.00010626 0.0006235 0.00164 4.7991e-08 -4.3064e-06 1.8228e-07 0.00063643 3.6479e-06 0.00047474 2.4374e-06 1.9051e-05 0.00042336 -3.946e-05 -5.4962e-05 2.8435e-07 0.00011652 -1.3395e-05 -1.8675e-05 -1.309e-05 0.00036927 2.8991e-05 -3.4073e-06 0.0093239 -1.6701e-05 -2.4519e-05 -3.6665e-05 1.2849e-06 -1.066e-05 0.0010172 0.0066257 -4.576e-07 1.1862e-05 1.7264e-06 1.2903e-05
1.1544e-05 -2.1886e-06 2.6673e-05 3.6695e-06 1.1669e-06 3.0464e-05 -3.109e-05 4.9262e-05 0.2814 3.4508e-06 0.00016767 -1.6967e-06 -5.3437e-05 1.1919e-05 1.5428e-05 -3.832e-05 -7.3041e-06 2.2475e-05 1.4632e-05 8.8604e-06 1.7158e-06 -0.00016707 -4.296e-05 -1.0901e-06 0.00018679 0.1506 1.0064e-05 0.00040373 -0.00023674 -5.1869e-05 -9.251e-05 -8.8303e-05 1.4529e-06 3.9763e-05 6.9887e-05 0.00021237 2.8085e-05 0.00088927 1.0896e-06 3.078e-05
0.15902 0.24689 -8.972e-07 -9.6311e-08 1.5275e-06 3.8409e-06 0.00026437 5.7388e-06 -6.1489e-07 0.00025987 0.26528 0.51078 7.5976e-06 0.20945 -7.9238e-06 0.338 1.2987e-05 6.3147e-06 8.7384e-06 -3.1209e-07 0.37868 0.18543 -9.5515e-05 -4.9956e-06 -6.9713e-06 -7.2932e-05 -2.1098e-06 2.3186e-05 -3.7643e-05 -2.6548e-05 0.15969 6.8035e-05 -4.9296e-06 -2.2554e-05 3.0184e-06 -2.8327e-05 0.25706 5.5012e-06 -4.6197e-06 0.0021307
3.4412e-06 8.1155e-06 2.9123e-06 -1.3253e-06 -2.4183e-06 -8.3964e-06 -9.5046e-05 1.8566e-06 -6.3955e-06 3.6689e-06 0.35594 -1.6887e-05 -6.8936e-06 8.2684e-05 -2.261e-05 0.45026 0.50351 9.0908e-06 -5.7649e-06 9.494e-09 9.2447e-05 0.24719 -4.213e-05 -6.2901e-06 -2.5899e-05 0.0011886 3.6967e-07 0.00090953 -0.00014441 -1.9185e-05 0.21277 -4.7616e-06 -3.7075e-05 2.8972e-05 -2.61e-05 1.0104e-05 -0.0017105 0.00010788 6.9514e-07 0.0020905
1.5797e-05 -5.4552e-07 0.41625 -3.847e-06 6.3598e-07 1.6285e-06 0.089599 -8.4467e-07 -1.7152e-05 -2.2791e-05 -1.9923e-06 -7.6779e-06 2.6186e-06 2.7284e-06 -1.1061e-05 -2.9979e-07 2.8102e-05 1.6339e-05 1.1531e-05 -4.2632e-06 7.6077e-07 -0.00016285 -5.2789e-06 8.5371e-06 -2.7911e-05 0.0019865 -7.5589e-06 5.1462e-05 -4.4643e-05 -0.00010002 -3.1328e-05 -0.00018645 -4.295e-06 -5.6863e-05 -1.7412e-05 2.0673e-05 2.1415e-05 -3.0159e-05 0.99999 1.1334e-06
5.5395e-06 0.00010615 -6.4356e-06 -6.5433e-07 -1.2138e-05 4.224e-06 0.39686 0.00072949 0.32338 -1.0807e-05 0.00010019 0.012896 -4.054e-05 -0.00011704 -0.00024718 2.0135e-05 -1.0779e-05 -1.6758e-05 -8.6945e-05 3.9638e-06 -0.00010387 0.16591 -6.3429e-05 0.0017865 4.7632e-05 0.00081625 0.00036409 -1.0494e-05 -0.0027185 0.0048072 0.14139 -6.8341e-05 2.3343e-05 0.0019268 0.0083217 -0.00049627 -0.00074509 -0.00010569 -2.2884e-05 0.0015594
-4.0782e-06 1.1361e-05 6.514e-06 3.1636e-06 0.19327 0.15919 4.7841e-06 -1.1173e-07 -2.6011e-05 1.4353e-05 -3.3851e-05 -3.7194e-06 0.3967 2.6975e-05 -0.00015267 1.5264e-05 -9.8983e-06 0.39441 -6.1138e-05 0.18661 -1.236e-05 0.11704 0.2571 -2.7775e-06 8.202e-05 0.12975 -2.0328e-05 3.6801e-06 -0.00026442 -5.7348e-05 0.10155 0.3298 -5.0682e-05 0.24072 -0.00013109 -0.00017879 -8.9611e-05 0.20083 2.4289e-07 0.00099384
-0.00053462 -2.2949e-05 0.28311 3.022e-06 -4.9205e-06 8.5603e-05 0.00020754 5.9531e-06 -8.2e-06 0.63612 -6.5797e-06 1.351e-06 -0.0001107 1.695e-06 0.00046078 -4.8833e-07 4.2115e-06 -0.00012586 -3.0674e-05 7.4378e-06 1.1898e-06 9.9339e-05 0.00033078 -0.00011106 7.069e-05 0.21302 0.56246 0.00063182 0.00015338 -3.3572e-05 3.2469e-05 -0.00012603 -2.7267e-05 4.7007e-06 7.1266e-05 0.00016913 2.7837e-05 0.0011847 3.8514e-06 4.5447e-05
-8.6129e-06 -2.5649e-06 -2.4369e-06 2.1295e-06 -3.4974e-06 2.9919e-05 0.00068372 -7.246e-06 -0.00012281 4.7564e-06 6.918e-05 6.06e-06 1.2971e-05 -1.4197e-05 0.00062526 1.948e-06 -6.8371e-05 2.7179e-05 0.00021041 1.5548e-05 -9.9076e-07 0.0025492 1.6881e-05 5.7042e-06 -1.4123e-05 0.0078726 0.0001213 5.8678e-06 0.0070694 -3.5085e-05 -0.00021222 0.0090463 1.4217e-05 1.4649e-05 1.6903e-05 0.002605 -0.00016348 0.00037338 -8.7777e-06 0.00021504
-9.6948e-07 -3.4255e-07 1.5744e-05 -2.5606e-06 0.44088 -7.0303e-06 -2.9461e-06 -7.8978e-07 -1.1093e-05 6.2594e-06 -6.3911e-06 2.1187e-06 -0.00016565 -2.4685e-06 -3.0309e-06 4.476e-06 0.00018995 -4.7448e-05 -3.5531e-06 0.42526 3.5191e-06 6.7205e-05 4.6224e-05 1.8592e-08 1.0074e-05 6.5317e-05 -8.3671e-06 -9.976e-06 -6.3031e-06 1.055e-07 -0.00012248 1.8505e-05 4.6496e-06 4.5667e-06 6.903e-06 1.6185e-05 -6.1129e-06 0.0007244 1.1131e-06 5.2901e-05
0.32799 3.4276e-05 6.2221e-05 7.6654e-06 -3.0188e-06 0.51999 3.9787e-05 1.4161e-05 4.8937e-05 0.00049802 -2.4686e-05 -8.0848e-07 -5.8611e-05 1.5007e-05 8.3345e-05 -2.5546e-06 -5.8532e-05 9.1855e-05 0.00011933 -1.4594e-05 1.101e-06 2.2538e-07 -0.00010527 -1.1854e-05 0.00011031 0.39786 1.9951e-05 -2.666e-05 0.00021838 -3.5503e-06 -7.7896e-05 7.8303e-05 -0.00022572 0.00033738 4.2174e-05 -1.1252e-05 8.9256e-05 0.0024411 -5.5334e-06 8.3652e-05
-5.3308e-08 1.4454e-07 -5.6552e-09 6.5811e-08 -1.5979e-07 4.0683e-07 4.3297e-05 -2.0305e-06 -2.5764e-06 -1.3237e-09 -1.7119e-08 3.4256e-08 -1.2006e-07 1.2982e-07 -2.2635e-07 3.1243e-07 -1.7633e-08 -7.014e-08 2.9128e-08 8.8071e-07 3.445e-07 -1.0801e-06 2.6247e-07 8.0706e-07 -6.2653e-07 -1.7281e-06 4.7323e-07 7.6348e-08 -3.6027e-06 -3.8583e-06 -3.0692e-06 1.9771e-06 -3.8153e-09 -8.927e-06 0.00023153 -2.2023e-06 2.2852e-06 9.8883e-08 -1.5622e-08 9.3208e-07
1.7025e-05 -8.0391e-07 7.2121e-05 1.658e-06 -2.5058e-05 1.6835e-05 2.9086e-05 0.00011601 0.00041856 5.2154e-06 -1.4567e-05 -8.4413e-07 -2.1153e-05 8.5897e-06 -4.8915e-07 -3.0605e-06 1.1576e-05 3.4484e-05 -3.4972e-05 2.9178e-05 1.6776e-07 -0.00018808 -9.833e-05 0.00014144 0.33933 0.16275 5.9605e-06 2.1685e-05 0.00067096 -6.6972e-06 -4.8664e-05 -0.00027875 -4.2878e-06 0.0005394 0.0010623 0.0048038 8.4809e-05 0.26371 1.5121e-05 2.4746e-05
-1.972e-06 4.5305e-06 0.38548 -3.253e-06 -4.2375e-06 -8.3177e-06 0.00029382 5.9649e-05 0.00029729 -3.7077e-05 1.5724e-05 2.0094e-05 1.93e-05 6.1884e-06 1.4864e-05 1.1379e-05 1.9279e-05 1.953e-05 1.9307e-06 1.0178e-05 -3.1889e-05 0.0002197 8.613e-06 0.7071 0.25594 -3.1082e-06 0.38121 0.00030731 0.00026213 0.0009381 0.11842 -0.0001119 1.0046e-05 0.2814 0.40195 0.0035123 -2.9409e-05 0.000295 1.9051e-05 3.3472e-06
0.16207 0.25151 -8.6459e-07 1.7894e-07 -1.9539e-07 7.7307e-06 -3.5466e-05 3.3946e-06 -2.7863e-05 0.00027183 0.27017 -6.0809e-05 6.7633e-06 0.2134 -5.5854e-06 0.34462 -6.3291e-06 5.0289e-06 3.023e-06 -7.861e-06 0.38584 -0.0006488 -0.00011998 1.0042e-05 -7.8009e-06 -1.7475e-05 -7.5675e-06 2.5062e-05 4.4622e-06 0.50598 0.16272 1.8682e-05 -8.7882e-06 -8.2078e-05 2.1658e-05 1.14e-05 0.2617 -1.1753e-05 -1.983e-06 0.51536
0.098463 -2.6976e-06 1.7389e-05 -1.3203e-06 -8.9797e-06 2.0381e-05 1.0025e-05 0.00029025 0.00041661 0.00015656 1.4467e-05 -3.7843e-06 0.0015977 2.3983e-07 1.2801e-05 -5.0382e-05 4.214e-05 0.00064884 2.1862e-06 -0.00030196 -1.6794e-05 -5.4951e-06 0.0016866 0.0001381 0.0016081 -7.0134e-05 -1.4696e-05 0.00022606 0.00086852 -1.5529e-05 0.00054362 2.7258e-05 -2.2054e-05 0.00030796 0.35095 0.003174 -6.057e-05 0.19556 -1.7878e-06 -1.0461e-05
0.085954 -1.9864e-05 4.1261e-05 3.4568e-06 -2.5346e-06 0.13744 9.9784e-05 0.00012914 0.0015176 0.00011019 -1.4243e-05 -6.5386e-06 0.17483 0.00027253 3.5387e-05 9.9468e-06 0.00013831 0.17054 2.6635e-05 -0.00061917 -8.3517e-06 3.3069e-05 -5.1104e-05 -2.2647e-05 4.6449e-05 0.20898 3.9535e-05 0.0013235 0.0078969 -1.5464e-05 -0.00012214 -6.7087e-05 0.0089001 8.1439e-05 0.00083306 0.0055183 0.00036194 0.001533 -4.598e-07 -2.74e-05
1.7781e-05 1.9245e-06 3.8478e-05 -4.1068e-07 -5.9815e-07 9.9741e-05 0.26166 7.0023e-06 0.00034216 -8.2867e-06 6.4861e-05 -1.7699e-05 0.00015631 -5.9757e-05 0.00043733 -1.7908e-05 0.0027326 -1.3197e-05 -5.0587e-05 -9.89e-06 2.7111e-06 0.0014416 -6.1542e-05 -3.0613e-05 -4.2438e-05 0.11473 -1.0237e-06 0.00031687 0.43747 -0.00034241 0.00070325 -0.00024068 5.9063e-05 -0.00021072 -0.00019427 0.0020644 2.9038e-05 0.00073605 -9.0608e-07 8.9218e-05
1.0015e-05 9.7196e-05 8.0279e-06 5.1278e-07 7.7495e-06 9.1942e-05 -1.5369e-05 4.5563e-05 -8.5313e-05 0.00040712 0.0011634 -1.5122e-05 9.6519e-06 0.00064008 -6.212e-07 -0.00045208 5.6912e-05 -6.993e-05 4.0418e-06 0.00048406 -6.8672e-05 5.7311e-05 0.4933 -1.7112e-06 0.00098921 -0.00012033 6.0021e-06 1.7751e-05 0.002581 -7.6947e-05 0.0015952 -0.00017129 -8.6534e-05 0.00070607 0.0059758 -7.1937e-06 0.0090757 0.00048275 2.5783e-07 1.886e-05
4.4491e-06 1.5956e-06 4.1652e-05 6.4572e-06 -6.3461e-06 5.5906e-05 0.25053 7.8181e-06 -7.0233e-05 6.0736e-06 0.0015395 -2.5928e-05 -6.34e-05 4.9317e-05 0.00093325 3.0938e-05 -5.3429e-05 6.3375e-05 0.0028963 2.7588e-05 -3.7499e-05 0.0017275 -0.00016328 -2.6292e-05 4.673e-05 0.22536 5.5691e-05 1.4502e-05 0.0044729 -0.00017741 0.00015292 -0.0013313 -4.2246e-06 -0.00020061 -4.8967e-05 0.0020254 -0.00024275 0.0012713 -6.2293e-06 0.00012102
