7.1034e-06 -3.6813e-06 1.3092e-06 9.9195e-06 2.7191e-06 0.00013472 -7.8049e-07 -2.9804e-08 -1.7632e-07 -8.5424e-07 8.0588e-07 1.411e-06 -7.2629e-07 4.5993e-06 -2.1298e-08 0.0001215 -2.7001e-06 -1.8152e-05 -4.6408e-05 5.1626e-07
7.2815e-07 -0.0001083 9.4527e-06 0.17625 0.12976 0.00013911 2.3035e-06 -6.0967e-06 -5.0929e-07 2.1746e-05 5.9225e-05 3.6891e-05 -1.9118e-05 9.6313e-05 2.8795e-06 0.24265 -4.1369e-05 -0.00042982 -0.00017048 6.7982e-05
9.9473e-06 3.1461e-05 0.00027674 -2.7086e-05 0.00054567 0.31578 0.00026271 0.00061398 3.2336e-05 0.00068841 7.1143e-05 0.0011791 0.0001652 2.1951e-05 -1.0934e-05 2.0787e-05 -5.5222e-05 -0.00020979 6.9854e-05 -0.0003356
6.1945e-06 -5.3693e-06 6.1131e-05 5.7239e-06 0.00020091 -2.2452e-06 -9.4492e-07 -1.5655e-06 0.00032128 -1.284e-06 9.2279e-05 3.5935e-05 3.0798e-06 4.3128e-07 1.0569e-06 0.00050229 1.1621e-06 -4.6279e-05 0.00026255 7.6612e-05
2.1151e-05 7.5502e-06 7.0285e-06 -2.1444e-05 0.00032325 0.00013332 4.374e-06 0.00059292 3.0476e-05 0.00074574 -1.8549e-06 5.1892e-05 0.00010753 -3.1208e-06 1.4735e-06 0.00016658 8.1788e-05 -2.8144e-05 0.00096835 -1.2824e-05
2.4566e-06 -1.4863e-05 7.8909e-05 -2.4933e-05 0.00031556 8.2699e-05 0.00024615 0.00059294 4.3448e-05 0.00073488 5.469e-05 0.0010235 8.5389e-05 -1.0621e-06 -7.452e-06 1.5967e-06 -2.858e-05 -1.9176e-05 8.3148e-05 -0.00011255
0.28881 0.0013319 0.00042406 0.00039407 0.13165 -6.1306e-05 -0.00010496 0.00061665 5.2157e-05 0.00093542 8.9275e-05 -0.00018587 0.00018403 -4.5887e-05 -1.5041e-05 0.0081855 5.0371e-06 0.0076529 0.30262 -0.00014149
0.28837 0.1735 1.2051e-05 0.1762 0.12959 2.5648e-06 2.6628e-06 4.6369e-06 1.4466e-05 5.2893e-06 4.8665e-06 5.0679e-05 5.3176e-06 1.0808e-05 4.9322e-06 -0.00011175 -2.9708e-05 -1.5095e-07 7.64e-05 3.9322e-05
-5.2673e-05 1.5988e-05 -7.3701e-06 8.134e-06 -1.5769e-06 -7.8113e-06 -3.315e-06 3.9797e-05 4.9237e-07 0.00016551 1.5718e-05 1.4388e-05 5.6072e-05 2.3237e-06 -2.0309e-06 -5.4683e-07 -3.8679e-07 -0.00036823 0.29497 8.9106e-06
2.4155e-06 2.8866e-07 4.9794e-05 0.00028438 5.6878e-06 0.0015302 -8.4911e-06 0.0001284 1.8162e-05 4.7829e-05 6.7217e-06 5.6177e-06 3.3496e-05 0.00011663 8.1057e-07 -1.7249e-05 -1.9011e-05 -2.3291e-07 -1.7283e-05 -1.0046e-05
-3.9979e-06 0.17368 9.6979e-05 0.00060237 0.00037434 0.31576 -3.8635e-06 0.1964 3.2623e-05 0.184 0.1855 0.00039755 0.1818 0.00074599 2.139e-06 -9.4006e-05 6.5398e-05 -0.00014769 0.00011392 -3.016e-05
0.28888 0.17635 0.27813 0.17668 0.13168 0.00061701 0.00012577 0.19635 -4.8811e-06 0.18052 0.00012676 -0.00027957 0.18227 -0.00013059 -2.6856e-05 0.25714 -7.294e-05 0.45493 0.30554 -0.0012299
-1.4876e-06 2.7407e-05 -2.4269e-06 2.1492e-05 3.7099e-05 -5.952e-06 -7.5751e-07 1.5943e-05 1.5565e-06 0.0012446 3.6731e-05 -1.4552e-05 1.2811e-05 0.00034632 9.2764e-07 0.00056854 -5.6841e-07 -5.6179e-05 1.3997e-05 -3.9738e-05
4.0341e-06 8.2789e-06 0.27698 -3.8757e-07 3.7692e-06 6.0301e-06 -7.1351e-06 2.3815e-05 0.00031632 3.8276e-05 4.8774e-06 1.4648e-05 0.00035637 2.1616e-05 -1.483e-06 2.006e-05 -4.6606e-07 2.3956e-05 -1.9279e-05 -0.00016666
4.124e-06 -4.1248e-05 6.2743e-05 3.3156e-05 0.0002 7.2864e-07 1.989e-07 1.3361e-05 4.7415e-06 0.00029642 0.18631 5.785e-05 3.5167e-05 -8.8586e-06 4.6761e-07 0.00057593 3.0984e-05 -7.7771e-05 0.00022458 0.00012131
-1.0786e-06 9.5273e-05 0.00010209 -3.4396e-05 0.00029161 0.00016296 0.0002309 0.19637 2.2324e-05 0.18266 0.00012305 0.27711 0.18187 6.9778e-05 -3.9883e-05 0.00012878 -0.00014512 4.7954e-05 0.00012076 0.00014451
7.3558e-07 0.00013911 0.00017696 5.7766e-06 0.00015815 5.0601e-05 -4.407e-07 2.6427e-05 -1.8332e-06 0.00048793 0.00015533 0.00023558 8.928e-05 3.5657e-06 -1.5106e-07 -2.2629e-05 -1.0703e-05 -7.2526e-06 -8.1827e-05 -0.00025213
3.7308e-06 -2.4243e-05 -3.4965e-07 1.4129e-05 0.12982 1.406e-05 8.0921e-07 0.00011004 1.2635e-05 0.00069075 2.2056e-05 1.4936e-05 0.00026486 4.9057e-05 8.461e-07 6.5437e-05 -3.0661e-05 -4.3885e-05 -6.9395e-05 -2.9196e-05
-1.303e-09 0.17352 8.8472e-06 0.00029611 0.1296 2.3008e-05 0.00014898 0.00029181 1.6456e-05 0.00042967 0.18531 0.00012886 0.00020608 0.00023545 7.381e-06 -7.2827e-05 6.071e-06 4.731e-05 -4.6254e-05 9.4737e-05
3.8753e-06 2.8575e-05 -5.3319e-06 1.9033e-05 0.13013 1.5025e-05 -1.7286e-06 0.00063773 4.4994e-05 0.0014912 2.1778e-05 0.00024586 7.9719e-05 0.00034762 2.211e-06 0.00054609 -1.2057e-06 -6.2331e-05 0.00011892 -0.00010854
0.00012532 8.9738e-05 0.0001993 5.8037e-06 1.122e-05 0.00019041 9.0126e-07 6.0516e-05 5.8548e-06 3.7426e-05 0.00039426 0.00025449 0.0003519 7.4204e-05 -8.8926e-06 0.00098865 -2.1083e-05 -4.3773e-06 2.0618e-06 -4.3167e-05
-3.9979e-06 0.17368 9.6979e-05 0.00060237 0.00037434 0.31576 -3.8635e-06 0.1964 3.2623e-05 0.184 0.1855 0.00039755 0.1818 0.00074599 2.139e-06 -9.4006e-05 6.5398e-05 -0.00014769 0.00011392 -3.016e-05
-3.1141e-06 0.17369 4.7579e-05 0.17653 0.12987 8.4858e-06 0.2886 0.00076852 2.5793e-06 -4.1342e-05 0.18668 0.2774 -1.9869e-05 1.3508e-05 0.50001 -6.1581e-05 0.25017 6.0523e-05 -0.00017316 0.30218
2.166e-05 3.4915e-05 1.2442e-05 2.9139e-05 0.13002 -9.2667e-06 3.5455e-07 0.00011007 8.9953e-06 0.18249 0.0010503 -1.4922e-05 0.18192 0.00071024 -1.2002e-06 0.00051628 7.3877e-05 -8.6437e-05 9.9019e-05 -7.5679e-05
-5.8454e-06 4.3285e-05 8.9726e-05 2.9178e-06 0.00021222 0.0002787 -3.6952e-06 1.7453e-05 0.00010751 6.2707e-06 0.0001079 -1.8339e-05 0.00011958 -8.3787e-06 1.7712e-06 0.00067839 8.753e-06 -7.8297e-06 -5.2784e-05 -2.3871e-06
6.1317e-06 -4.7037e-05 1.4808e-06 -7.0202e-06 0.00047216 3.6747e-05 -6.8242e-07 5.1675e-06 7.2908e-05 0.00051071 -1.6139e-05 6.1301e-05 0.0002738 2.2477e-05 -5.6918e-07 1.981e-06 3.0507e-07 -3.2933e-05 -1.1098e-05 2.6304e-06
8.7059e-05 0.0015083 0.27706 0.17624 0.00023907 -0.0001561 -1.6459e-05 0.00031372 -6.1877e-07 0.17999 -1.3709e-05 -6.7448e-05 0.18208 -3.9745e-05 2.671e-06 0.0025141 -9.9691e-05 0.43461 0.0029993 -0.00022918
6.3059e-06 1.7657e-05 8.5266e-05 -6.4083e-06 0.13038 7.7145e-05 0.00024727 0.19628 4.5903e-05 0.18058 8.5525e-05 0.001016 0.18167 0.00025469 -1.3006e-05 2.3391e-05 -3.8218e-05 5.1014e-05 0.00017434 -0.00020476
-7.0999e-06 0.17353 2.3415e-06 6.965e-05 0.00017165 3.4775e-06 0.00039404 0.19608 3.8038e-05 0.00086744 0.00011229 9.1741e-05 6.1093e-05 9.6393e-05 -5.2512e-05 -0.00013135 -6.8145e-06 1.976e-05 8.8402e-05 0.0013645
6.9252e-06 -6.3313e-06 5.2144e-05 0.00028795 0.00015576 0.0015355 -9.804e-06 0.00012187 0.00019209 0.00072061 0.00026431 3.8575e-05 8.2958e-05 0.00010931 3.857e-06 0.00053095 -4.7067e-05 -5.963e-05 0.0002492 6.6526e-05
0.28872 0.17454 0.00025449 4.8111e-05 0.0014805 -2.2699e-05 -2.4085e-06 0.19555 -7.6481e-06 4.8422e-05 0.00013155 -0.0001109 5.601e-05 8.6004e-05 3.3679e-06 0.0028092 1.012e-06 0.00063472 0.29838 -0.00017629
-2.1428e-07 0.17403 9.7979e-05 0.17663 0.12991 0.00036901 -7.3711e-06 3.4735e-05 1.2498e-05 0.18323 -8.2222e-06 3.7785e-05 0.18288 0.00071895 1.5457e-05 -8.3346e-05 0.25025 3.7852e-05 4.9209e-05 0.00084453
2.448e-05 -1.0745e-05 9.6255e-05 0.00037537 0.12991 0.00039723 4.0097e-06 2.7737e-05 2.0629e-05 0.18438 -1.5398e-05 0.00012726 0.18236 0.00077833 2.9178e-06 0.00020691 0.00018526 -3.2661e-05 -3.4335e-05 -9.8207e-07
3.6997e-06 2.3236e-05 9.5965e-05 2.1601e-05 0.12973 9.2942e-05 0.28875 3.0019e-05 1.8469e-05 2.0857e-06 0.18517 0.0010709 2.7957e-05 -5.6413e-06 -4.285e-05 3.9617e-05 -2.3294e-06 1.5392e-05 3.1328e-05 4.581e-05
2.7157e-05 4.2203e-05 0.27712 0.1764 0.12964 8.0368e-06 -3.6569e-06 3.6483e-05 2.0111e-05 3.6864e-05 0.1852 0.00012573 3.903e-05 4.5636e-06 -0.00015132 3.8564e-05 0.2498 2.9171e-05 8.9237e-06 0.27587
-4.9145e-06 -0.00014653 0.00011014 0.17879 0.13062 0.00053994 -1.8253e-07 0.00023727 9.0748e-05 0.18418 7.5524e-05 5.7052e-05 0.18677 0.0011075 1.2735e-05 0.24904 -1.0403e-06 -0.00062265 -0.0012495 -5.5333e-05
6.3059e-06 1.7657e-05 8.5266e-05 -6.4083e-06 0.13038 7.7145e-05 0.00024727 0.19628 4.5903e-05 0.18058 8.5525e-05 0.001016 0.18167 0.00025469 -1.3006e-05 2.3391e-05 -3.8218e-05 5.1014e-05 0.00017434 -0.00020476
5.692e-06 5.4561e-05 9.2865e-05 0.00036699 0.12998 0.31583 -2.6822e-06 4.9239e-05 1.2136e-05 0.18358 3.8857e-05 0.00024691 0.18266 0.00083807 2.1347e-06 3.4099e-05 1.4956e-05 -0.00020919 9.2425e-05 -6.2056e-05
1.2964e-05 0.00036261 0.00019153 0.00026579 0.13156 0.00025737 -7.56e-05 0.00026812 0.00068313 0.00065006 0.18685 -9.2403e-05 0.00022827 0.0005125 -1.7879e-05 0.24933 1.8905e-05 0.005991 0.0041923 1.7852e-05
4.4836e-06 -2.6234e-06 5.8492e-07 2.7478e-05 0.12951 4.735e-06 1.3296e-07 4.185e-06 1.2055e-05 -6.2142e-07 -1.4834e-06 8.7333e-06 -3.0259e-06 -1.0339e-06 1.9598e-08 -1.9904e-06 1.1756e-05 -4.307e-07 -3.7787e-06 1.4759e-06
-1.0065e-06 0.17347 2.305e-07 0.17622 0.12952 5.876e-06 0.28833 1.0056e-05 1.3025e-05 3.1629e-06 0.1851 8.6007e-05 -4.7676e-06 8.9477e-06 -2.2432e-05 -9.8932e-05 0.24938 4.1706e-05 5.1406e-05 0.0011042
-1.0065e-06 0.17347 2.305e-07 0.17622 0.12952 5.876e-06 0.28833 1.0056e-05 1.3025e-05 3.1629e-06 0.1851 8.6007e-05 -4.7676e-06 8.9477e-06 -2.2432e-05 -9.8932e-05 0.24938 4.1706e-05 5.1406e-05 0.0011042
2.7157e-05 4.2203e-05 0.27712 0.1764 0.12964 8.0368e-06 -3.6569e-06 3.6483e-05 2.0111e-05 3.6864e-05 0.1852 0.00012573 3.903e-05 4.5636e-06 -0.00015132 3.8564e-05 0.2498 2.9171e-05 8.9237e-06 0.27587
-7.9938e-06 -7.224e-05 6.474e-05 0.00026853 0.0004824 0.31679 -1.4571e-05 0.00013064 0.0023355 0.00045873 -2.1931e-05 0.27806 0.00031819 0.00075967 -2.0499e-05 0.0023284 -0.00010841 -0.0002366 -3.0269e-05 0.0003306
0.00014346 0.17372 0.27731 0.00035103 0.00024261 0.00056667 2.2209e-05 1.4771e-05 -7.2297e-06 0.0031994 0.00037371 0.27528 0.0002636 0.00067732 -1.2414e-05 0.00095432 0.00016019 2.057e-05 -3.5721e-05 6.516e-05
-4.8839e-06 5.7754e-05 9.3914e-05 0.0021982 0.13027 0.00051328 -1.3111e-05 0.00016925 0.50157 0.00038002 0.00017657 0.00031243 0.00022312 0.00043452 -3.9824e-06 0.0030194 -4.7062e-05 -9.3524e-05 -6.2648e-05 2.3924e-05
0.00018427 0.00020357 0.00051592 6.2703e-07 0.00019186 0.00097362 0.00031806 0.00053853 1.9016e-06 0.00026693 0.18585 0.0012795 9.9144e-05 6.0025e-05 -3.2163e-05 0.0064694 -3.8832e-05 0.011279 0.00067144 -0.00090829
-3.5915e-07 -2.1597e-05 3.2603e-07 -1.8767e-05 0.00028344 2.2508e-05 1.3037e-06 -6.1183e-06 0.49855 4.3088e-05 0.00010628 -1.5818e-05 1.458e-05 0.00019229 -8.0022e-07 6.5018e-05 -2.2397e-05 1.2138e-06 -3.5388e-05 6.035e-07
3.3866e-06 -2.0105e-06 5.8216e-07 2.66e-05 0.1295 4.8954e-06 -4.2416e-09 4.6313e-06 1.2448e-05 -6.204e-07 2.7167e-07 8.9633e-06 -2.7029e-06 -7.9178e-07 1.8576e-08 -1.5622e-06 1.0532e-05 -4.3907e-07 -2.911e-06 3.7872e-07
0.00012676 2.7984e-05 0.00010263 0.00039585 6.5003e-05 0.0004052 1.8856e-05 0.19708 0.00084021 0.18612 5.9448e-05 8.8628e-05 0.18213 0.33485 -4.2277e-06 0.24327 6.838e-05 -0.00033057 0.0011137 -9.9254e-05
9.3812e-06 8.5761e-05 2.6096e-06 6.6422e-05 0.12977 1.2002e-05 -1.3849e-07 0.00018231 0.0014158 0.00020953 0.18538 8.9292e-05 0.00012326 1.3825e-05 -2.5078e-06 9.6577e-05 -6.2128e-06 2.0465e-06 -3.8223e-05 8.6473e-05
3.8047e-06 -6.2696e-06 1.3154e-06 2.4133e-05 0.12958 5.0374e-06 4.682e-07 1.2696e-05 9.8504e-06 8.3296e-05 -5.5167e-06 7.7957e-06 3.4583e-05 -2.9317e-07 5.1443e-07 -5.4947e-06 4.2277e-06 -5.5742e-06 -4.3324e-06 4.8011e-06
0.00037841 0.17445 0.00024817 0.17864 0.13152 3.4974e-05 -6.8272e-06 0.00032689 9.5951e-05 0.00058569 3.5073e-05 -0.00010704 0.00021347 0.33359 5.2342e-06 0.0025176 -0.00012282 0.0011372 0.0015612 -0.00029321
-8.363e-06 0.00013693 0.00018144 0.00034842 0.00018368 0.0006827 -8.1138e-06 0.00013212 0.00010945 0.18418 0.00023137 0.0002601 0.18188 0.00069998 -4.9847e-06 0.00072562 7.4198e-05 -8.1925e-05 -3.4684e-06 -4.1695e-05
6.9252e-06 -6.3313e-06 5.2144e-05 0.00028795 0.00015576 0.0015355 -9.804e-06 0.00012187 0.00019209 0.00072061 0.00026431 3.8575e-05 8.2958e-05 0.00010931 3.857e-06 0.00053095 -4.7067e-05 -5.963e-05 0.0002492 6.6526e-05
0.00012208 1.5549e-05 0.00010987 0.00039204 0.00020771 0.0003952 1.9164e-05 0.19721 0.00084285 0.18453 3.4671e-05 6.8938e-05 0.18205 0.33493 -5.9718e-06 0.24423 4.2575e-05 -0.00048626 0.0010453 -0.0001068
2.0883e-07 -6.9994e-10 4.1452e-08 -6.476e-08 2.1675e-07 2.0462e-08 2.328e-08 3.5713e-06 -9.43e-10 -1.0782e-07 6.0864e-06 -2.6942e-07 6.3746e-08 -2.2446e-08 1.5198e-07 2.0977e-08 2.4768e-07 4.3658e-06 -2.9154e-07 3.7901e-06
4.4075e-05 0.17359 0.27686 2.2163e-05 0.12951 1.8668e-05 -5.5181e-06 3.9239e-05 3.2369e-06 -4.6692e-06 5.0501e-06 6.5003e-05 1.4697e-05 0.33172 9.9825e-06 -0.00010347 1.2055e-05 4.8834e-05 -4.6513e-05 -0.00012969
1.9897e-07 2.6719e-07 -3.0703e-06 -1.0791e-06 2.9955e-05 1.7978e-06 3.2299e-07 6.0515e-07 -6.3396e-07 0.00036741 -5.714e-07 7.4713e-06 8.4841e-06 -3.5635e-10 2.887e-07 -5.5237e-06 -7.9342e-07 6.4925e-06 2.4891e-06 3.011e-06
8.7059e-05 0.0015083 0.27706 0.17624 0.00023907 -0.0001561 -1.6459e-05 0.00031372 -6.1877e-07 0.17999 -1.3709e-05 -6.7448e-05 0.18208 -3.9745e-05 2.671e-06 0.0025141 -9.9691e-05 0.43461 0.0029993 -0.00022918
2.6235e-05 2.5982e-05 0.00011685 6.7815e-05 0.12979 2.19e-06 -1.537e-06 0.00026611 9.4712e-06 0.00018934 0.00079162 3.4128e-06 0.0001482 -4.0758e-05 -3.5864e-06 0.0015184 -2.8041e-05 0.0037641 -7.318e-05 -6.2313e-05
-1.2964e-07 -1.3784e-05 9.6427e-05 2.3594e-05 0.13023 0.31562 -4.9075e-06 4.0343e-06 0.00011988 0.00041619 8.0509e-05 -1.2178e-05 0.00094151 5.4186e-06 -2.8441e-08 0.00079433 0.00016794 -0.00024928 -8.537e-05 -3.9678e-06
-3.529e-06 0.17356 4.743e-05 0.17619 7.4461e-06 4.0758e-06 9.3846e-07 0.19551 -1.0426e-05 8.2529e-08 -0.00083238 0.28107 -2.446e-05 2.6657e-05 -0.000162 -9.6442e-05 0.25091 4.4823e-05 1.7495e-05 0.2722
-6.171e-06 0.17354 8.3901e-05 0.1762 2.3417e-05 5.4501e-05 -1.4764e-05 0.1955 -1.4207e-06 6.6237e-06 3.455e-06 0.00012871 -6.9148e-06 2.4653e-05 -0.00013318 -9.5868e-05 0.24935 3.5329e-05 7.6045e-08 0.27221
-3.9579e-06 -3.639e-05 7.3192e-07 1.1307e-05 0.00048044 3.7434e-05 -1.0372e-06 2.3547e-05 7.4415e-05 0.00083782 -1.1606e-05 5.6705e-05 0.00027552 0.00036786 4.7091e-07 0.00056946 -6.612e-08 -7.574e-05 6.8319e-06 -3.8012e-05
1.3801e-05 -6.0311e-05 0.00010706 0.00025509 0.0013099 0.0015473 -1.019e-05 0.00098623 0.50178 0.0010977 0.00028421 2.1134e-05 0.00017607 0.00039744 6.8702e-06 0.00046907 -4.8083e-05 -8.4991e-05 0.00033852 -4.1748e-05
-1.4541e-06 3.4791e-06 5.9475e-08 3.1263e-06 -7.2181e-06 0.00027412 -1.2511e-06 4.2803e-05 1.7512e-07 8.5115e-07 1.3621e-06 4.062e-06 1.8428e-09 4.8359e-07 -4.7167e-07 -4.5978e-06 -1.4878e-06 1.7154e-07 -1.0313e-05 -1.5958e-05
0.00037718 0.00087773 0.00025722 0.1765 0.131 3.1469e-07 -3.6158e-06 0.00030941 3.8483e-06 0.18019 0.18526 -8.3676e-05 0.18164 0.00053745 8.9445e-07 0.0026507 -6.0849e-05 0.001166 0.0016291 -0.00019463
0.28888 0.17635 0.27813 0.17668 0.13168 0.00061701 0.00012577 0.19635 -4.8811e-06 0.18052 0.00012676 -0.00027957 0.18227 -0.00013059 -2.6856e-05 0.25714 -7.294e-05 0.45493 0.30554 -0.0012299
2.9959e-05 0.0001097 0.00012781 0.00032469 0.13058 0.00038122 6.7114e-06 0.19661 4.0024e-05 0.18546 0.0011934 3.6555e-05 0.18279 0.00074045 7.5301e-06 -2.0185e-05 0.00014491 -7.1131e-05 7.8132e-05 -0.00021926
3.7381e-06 0.0001004 -1.8287e-06 0.17652 3.5866e-05 1.8055e-06 -1.1339e-06 0.00016918 0.00085918 0.00012291 7.2526e-05 9.7521e-06 0.00012103 1.267e-05 -1.8299e-06 4.6627e-05 -3.1842e-05 -4.327e-06 2.4183e-05 1.0635e-05
1.8163e-06 -1.4937e-07 -6.332e-07 -2.0867e-07 2.925e-05 -7.4508e-07 7.4083e-08 -1.7745e-06 0.49805 -3.2642e-07 3.3283e-06 -3.0036e-05 -5.0654e-06 -1.8405e-05 1.9628e-07 -4.4799e-05 1.5925e-07 1.8032e-06 2.3265e-06 -9.963e-08
-1.9856e-06 0.17368 3.8927e-05 0.17649 0.12986 8.2037e-06 0.28859 0.19623 1.2382e-06 -3.7523e-05 0.18626 0.27692 -2.6171e-05 2.8766e-05 0.49999 -2.1189e-05 0.24987 5.7816e-05 -0.0001711 0.29402
-4.9145e-06 -0.00014653 0.00011014 0.17879 0.13062 0.00053994 -1.8253e-07 0.00023727 9.0748e-05 0.18418 7.5524e-05 5.7052e-05 0.18677 0.0011075 1.2735e-05 0.24904 -1.0403e-06 -0.00062265 -0.0012495 -5.5333e-05
-2.9992e-06 0.1737 4.0692e-05 0.17643 0.12986 5.5784e-06 0.28896 0.1957 1.0627e-06 -1.7998e-05 0.18513 0.27603 1.3078e-05 2.6467e-05 0.00071604 -5.7256e-05 0.24976 5.4519e-05 4.7664e-05 0.29426
-1.9302e-06 -0.00014328 1.1648e-05 2.4775e-05 0.12962 4.7633e-05 1.4491e-06 -9.2304e-06 0.0021574 4.2751e-05 -7.1757e-06 0.00035736 1.785e-05 0.00048962 -1.8351e-06 0.24443 2.5012e-05 -0.00033481 -6.5029e-05 7.7374e-05
0.28882 0.17512 0.00068296 0.00040492 0.13146 0.00064812 -4.9799e-05 0.19609 -5.0507e-06 0.00047834 0.00017642 -0.00025354 0.00019192 -9.3144e-05 -2.5693e-05 0.25543 2.4242e-05 0.018528 0.30337 -0.00098432
-5.4831e-06 0.17359 9.1062e-06 3.5018e-05 0.12969 6.4703e-05 -6.5678e-06 0.1955 1.1923e-05 7.0917e-06 0.18524 0.00034294 -7.008e-06 1.7195e-05 -4.829e-06 -0.00011856 0.00015062 4.1981e-05 -1.5761e-05 8.5288e-05
0.28853 0.00012229 0.00080826 4.6847e-05 0.00014769 0.31686 0.28879 0.00061863 -1.2583e-05 0.00026377 0.18607 0.00020715 0.00012851 -8.6083e-05 -3.6611e-05 0.24901 -8.5374e-06 0.011882 0.30012 -0.00071499
0.28856 0.00040319 0.0004245 1.0914e-05 0.00016957 0.31674 0.2886 0.00066975 -1.3371e-05 0.00021079 0.18611 0.00016574 0.00012623 -8.8386e-05 -3.2776e-05 0.24981 -1.1046e-05 0.010089 0.30095 -0.00069858
-3.529e-06 0.17356 4.743e-05 0.17619 7.4461e-06 4.0758e-06 9.3846e-07 0.19551 -1.0426e-05 8.2529e-08 -0.00083238 0.28107 -2.446e-05 2.6657e-05 -0.000162 -9.6442e-05 0.25091 4.4823e-05 1.7495e-05 0.2722
-4.1277e-06 0.1737 4.9344e-05 0.17647 0.12987 5.8605e-06 0.28898 0.00024328 2.4039e-06 -2.1817e-05 0.18555 0.27651 1.938e-05 1.1208e-05 0.00072836 -9.7647e-05 0.25007 5.7227e-05 4.5606e-05 0.30242
2.9657e-06 6.5331e-08 -5.0365e-07 0.17615 0.12955 9.0577e-06 -5.1281e-07 0.19541 1.2383e-05 1.1982e-05 0.1851 5.8237e-05 -4.5031e-06 1.4644e-05 -7.7098e-06 7.0543e-06 -1.8168e-05 8.0421e-06 2.867e-05 7.3e-05
-2.1428e-07 0.17403 9.7979e-05 0.17663 0.12991 0.00036901 -7.3711e-06 3.4735e-05 1.2498e-05 0.18323 -8.2222e-06 3.7785e-05 0.18288 0.00071895 1.5457e-05 -8.3346e-05 0.25025 3.7852e-05 4.9209e-05 0.00084453
-9.3019e-07 0.0001606 5.9898e-05 0.17644 7.0733e-05 0.0015166 -9.0754e-06 0.19557 1.7185e-05 0.17991 5.6991e-06 7.8349e-05 0.1815 0.00049533 -3.4561e-06 0.00057435 -8.2436e-05 8.0812e-06 0.00010917 -3.7889e-05
4.0652e-06 5.2262e-05 0.27732 0.0027723 0.00012726 0.31748 0.00020822 0.00014706 2.1498e-05 0.0035905 0.18535 0.0010774 0.00028348 0.0008605 -9.3642e-06 0.00018469 -3.6595e-05 -0.00025868 -4.8717e-05 0.00017542
4.2661e-06 3.6977e-05 0.0001393 0.0001091 0.12972 7.7518e-05 8.9151e-08 0.0001101 0.0030615 0.0006383 0.0002345 0.00039564 0.00042437 0.0004666 -2.6123e-05 0.0028589 0.00017149 -0.00012258 0.0001759 0.0042634
6.3738e-07 -1.8506e-05 -1.9601e-07 -2.0396e-05 0.0004151 1.1985e-06 1.344e-06 -2.9772e-06 0.00039358 1.0374e-06 0.18516 4.3317e-05 1.3745e-05 1.462e-06 -2.4972e-06 2.476e-05 8.9129e-06 1.1632e-05 -5.4222e-06 6.369e-05
0.28882 0.17512 0.00068296 0.00040492 0.13146 0.00064812 -4.9799e-05 0.19609 -5.0507e-06 0.00047834 0.00017642 -0.00025354 0.00019192 -9.3144e-05 -2.5693e-05 0.25543 2.4242e-05 0.018528 0.30337 -0.00098432
-1.2964e-07 -1.3784e-05 9.6427e-05 2.3594e-05 0.13023 0.31562 -4.9075e-06 4.0343e-06 0.00011988 0.00041619 8.0509e-05 -1.2178e-05 0.00094151 5.4186e-06 -2.8441e-08 0.00079433 0.00016794 -0.00024928 -8.537e-05 -3.9678e-06
2.7402e-07 -5.8861e-05 0.0001873 0.0027705 0.0011066 0.0021879 -1.6275e-05 0.00039383 0.0026925 0.0040235 4.1572e-05 0.00043591 0.00058512 0.33496 2.5089e-06 0.0025269 5.3929e-06 -0.00016442 -3.9785e-05 -9.7371e-05
0.28844 0.17392 2.3497e-05 2.3227e-05 0.12973 1.6816e-05 3.7501e-06 4.3579e-05 6.5635e-06 8.7198e-06 2.3926e-06 3.4527e-05 6.4344e-05 0.33176 7.8541e-06 -0.00013513 0.00013587 1.4502e-05 2.1613e-05 -9.1714e-06
-6.0049e-07 2.3346e-06 -1.2433e-07 1.6606e-07 4.9405e-06 -3.8834e-07 1.6989e-08 -4.3801e-07 1.5023e-07 3.8668e-07 6.3946e-05 -3.8623e-06 -3.7747e-08 -1.1127e-05 1.1447e-06 7.7502e-05 4.3089e-07 -3.4167e-06 -4.4901e-06 2.0978e-05
-3.1141e-06 0.17369 4.7579e-05 0.17653 0.12987 8.4858e-06 0.2886 0.00076852 2.5793e-06 -4.1342e-05 0.18668 0.2774 -1.9869e-05 1.3508e-05 0.50001 -6.1581e-05 0.25017 6.0523e-05 -0.00017316 0.30218
-5.6658e-07 4.7536e-06 2.6079e-08 2.5008e-06 1.1497e-05 5.9148e-06 9.9421e-07 1.2381e-05 4.5269e-07 6.2157e-06 6.05e-05 0.00010822 5.4311e-06 -9.3871e-06 3.317e-06 7.9677e-05 5.1407e-07 -2.7217e-06 -4.3653e-06 4.8835e-05
1.6355e-06 -1.6497e-05 9.1301e-05 0.00035375 0.13024 0.00037071 4.0807e-06 4.877e-05 7.3404e-05 0.18341 -2.8308e-06 4.2922e-05 0.18173 0.00071062 8.9909e-07 3.9173e-05 4.6728e-05 -3.0129e-05 1.5836e-05 -5.6466e-06
-1.9856e-06 0.17368 3.8927e-05 0.17649 0.12986 8.2037e-06 0.28859 0.19623 1.2382e-06 -3.7523e-05 0.18626 0.27692 -2.6171e-05 2.8766e-05 0.49999 -2.1189e-05 0.24987 5.7816e-05 -0.0001711 0.29402
7.3011e-07 0.17372 2.5951e-05 0.00016311 0.12988 1.6049e-05 9.7418e-06 0.19566 0.00085974 0.0001803 1.9059e-05 0.27516 0.00013839 7.7561e-05 -3.1273e-05 -6.3948e-05 8.6246e-06 3.5421e-05 -3.2023e-05 0.020646
8.0101e-06 9.9623e-06 -2.9982e-07 2.0525e-06 0.12966 1.9945e-05 -6.6657e-08 0.0006142 3.7687e-05 0.00072626 2.8586e-05 2.705e-05 7.4017e-05 0.3319 1.6454e-06 3.7304e-05 1.2026e-05 -1.437e-05 0.00010615 -1.6465e-05
-6.4588e-06 0.17377 3.284e-06 0.00013936 0.00016253 5.5598e-06 1.5135e-05 0.19666 3.8442e-05 0.00085452 0.0012633 0.00093743 5.5e-05 9.622e-05 0.0010162 -0.00010556 0.00010689 2.9783e-05 -0.00013651 0.00065983
0.28888 0.17635 0.27813 0.17668 0.13168 0.00061701 0.00012577 0.19635 -4.8811e-06 0.18052 0.00012676 -0.00027957 0.18227 -0.00013059 -2.6856e-05 0.25714 -7.294e-05 0.45493 0.30554 -0.0012299
7.9877e-06 7.4656e-05 0.00012406 0.00035729 0.00012867 0.00039037 6.6511e-07 6.5097e-05 -7.6219e-06 0.18293 6.1204e-05 1.9656e-05 0.18225 0.33265 3.4684e-07 7.7002e-05 5.96e-05 4.3989e-05 7.124e-05 -5.7739e-05
6.3262e-06 4.1292e-05 0.00018044 1.2738e-05 0.12989 0.00025303 -6.0707e-07 0.00034554 8.9588e-06 0.00034829 3.5435e-06 8.6594e-06 0.00011893 -5.6432e-07 2.4088e-06 -2.4146e-05 -1.2476e-05 -2.1723e-05 -3.1567e-05 -0.00023492
0.2884 -3.109e-05 3.0364e-06 5.5011e-06 -8.5517e-06 2.1616e-05 1.2761e-05 0.0014886 6.2711e-06 0.0011574 -6.7057e-06 1.9662e-05 0.00028622 0.0026188 -4.0643e-06 0.0011575 -8.0555e-06 -0.00041177 0.29588 -0.00015323
8.4013e-06 1.0015e-05 0.27686 2.4138e-05 0.12951 -7.3283e-06 -6.4075e-06 1.191e-05 1.1597e-05 0.17942 0.1851 7.9462e-05 0.18141 1.8884e-05 -2.1185e-06 2.9084e-05 1.1564e-05 9.143e-05 7.8962e-05 -6.9511e-05
6.7302e-08 -4.4561e-07 -6.163e-11 -1.3381e-06 3.1333e-05 -9.3831e-07 1.2012e-07 -1.9868e-07 -7.267e-07 3.238e-06 7.3606e-07 -3.4976e-07 -7.8657e-07 7.1688e-09 2.1561e-09 5.1721e-07 -1.4454e-06 -9.5956e-07 -4.1998e-06 1.4987e-06
-4.9145e-06 -0.00014653 0.00011014 0.17879 0.13062 0.00053994 -1.8253e-07 0.00023727 9.0748e-05 0.18418 7.5524e-05 5.7052e-05 0.18677 0.0011075 1.2735e-05 0.24904 -1.0403e-06 -0.00062265 -0.0012495 -5.5333e-05
0.00037841 0.17445 0.00024817 0.17864 0.13152 3.4974e-05 -6.8272e-06 0.00032689 9.5951e-05 0.00058569 3.5073e-05 -0.00010704 0.00021347 0.33359 5.2342e-06 0.0025176 -0.00012282 0.0011372 0.0015612 -0.00029321
-4.1277e-06 0.1737 4.9344e-05 0.17647 0.12987 5.8605e-06 0.28898 0.00024328 2.4039e-06 -2.1817e-05 0.18555 0.27651 1.938e-05 1.1208e-05 0.00072836 -9.7647e-05 0.25007 5.7227e-05 4.5606e-05 0.30242
2.1895e-06 -0.00012886 0.00014469 4.0413e-05 0.13098 0.00029673 2.0528e-05 0.00025515 0.00067736 0.0005273 0.18681 5.9685e-05 0.00021156 0.0005601 1.8363e-06 0.24652 2.8191e-06 -0.00043503 -0.00010967 3.524e-05
4.8089e-05 0.00056344 0.27745 0.00070578 0.00067037 0.00061252 -0.00010263 -5.0845e-05 0.00012405 0.1837 0.18636 -0.00011894 0.18228 0.00062426 -4.1907e-05 0.0075061 0.00029037 0.0069843 0.0042426 0.0041687
-6.4086e-06 5.996e-05 0.00019138 -4.4301e-05 0.00040498 0.00045181 0.00023543 0.0008075 0.00048862 0.18318 0.0003286 0.0012921 0.18219 3.8707e-05 -1.0754e-05 0.00079397 -5.1815e-05 -6.0752e-05 6.9709e-06 -0.00018991
0.00018401 0.0002719 0.00046473 6.6855e-06 5.3274e-05 0.00093416 3.3499e-05 0.00053456 -1.2443e-06 0.00026359 0.00053609 0.0002106 7.4013e-05 -0.00019949 -2.4863e-05 0.006424 -2.7912e-05 0.011243 0.00069434 -0.00047542
1.1183e-05 7.4387e-05 0.00019242 -2.8525e-07 0.13001 3.2906e-05 -2.3286e-06 0.00069393 4.4023e-05 0.18092 -5.9012e-06 0.00017285 0.18242 6.8424e-05 -1.0613e-06 -1.2558e-05 0.00018485 -8.2078e-06 0.00016319 -0.00025936
