1.0476e-07 -2.7525e-08 3.6536e-05 -2.1936e-06 -1.6488e-06 6.8783e-07 -6.8183e-08 9.7806e-06 -1.516e-07 1.8754e-05
4.1547e-06 1.126e-06 0.00030149 4.121e-05 0.00017966 -2.2438e-06 4.607e-06 -6.3701e-05 -2.0118e-06 0.00090016
0.0002766 0.00010304 4.8243e-05 3.7208e-05 1.2266e-05 -6.229e-06 0.0003394 -3.9768e-05 -8.3413e-05 0.0019961
5.5273e-07 -2.2081e-06 2.117e-05 3.9406e-05 6.7782e-05 1.5563e-07 7.4602e-07 -3.7918e-07 1.9358e-08 2.1719e-05
8.4521e-05 -1.4186e-05 4.742e-05 -3.489e-05 1.7694e-07 5.0486e-05 1.7982e-05 0.00044611 -2.8159e-05 0.0022009
0.00017833 6.5251e-05 4.4913e-05 -2.6677e-05 5.6645e-05 4.7732e-05 0.00016046 5.4545e-05 -6.6101e-05 0.0028795
0.00014781 4.5946e-05 0.00042726 0.0010329 8.3246e-05 8.6032e-05 -5.2397e-05 -0.000878 -8.741e-05 0.013425
5.9113e-05 0.00013611 2.2468e-06 7.3128e-05 1.8785e-06 3.4464e-05 0.00047409 0.0010019 0.00059923 0.0023437
3.5404e-05 2.9462e-05 -1.2506e-05 0.00016181 -7.9841e-07 1.3877e-05 -6.9265e-05 -0.0025972 -0.0001293 0.026779
-4.2068e-07 2.8258e-06 3.268e-06 -7.3041e-06 0.47886 -0.00012965 1.2951e-05 1.8843e-05 -1.4398e-06 9.5523e-06
0.13123 -7.1e-05 3.4426e-05 0.00022698 4.5669e-05 0.002141 0.00019933 0.00087785 0.00038677 0.15765
8.3911e-05 0.0002033 0.00042446 0.16053 3.0426e-05 0.00011451 0.00012215 -0.00065624 0.00022867 0.13681
8.1564e-06 -9.0792e-06 -5.2891e-08 2.5311e-05 0.00083104 7.396e-06 -1.7999e-06 -3.2188e-05 -6.8097e-06 0.00022599
-2.3931e-05 4.6729e-05 0.00011289 0.26177 -6.7796e-06 1.0653e-05 2.8413e-07 -5.4469e-06 8.302e-07 0.00021324
0.12652 -0.00018608 -4.5568e-06 -2.213e-05 0.00018063 0.0020767 -8.5113e-06 3.9185e-06 -2.0005e-05 2.2804e-05
0.00021426 5.7575e-05 6.5949e-05 0.00013719 5.0297e-05 3.8326e-05 0.17203 0.00048545 -0.00030693 0.2365
1.047e-05 1.7111e-05 -5.9199e-06 0.00019414 1.5319e-06 1.8196e-05 0.00014811 -9.4588e-05 -1.2403e-05 0.0010153
2.1761e-05 -1.8125e-06 6.6986e-05 -2.5148e-06 0.00034831 8.8528e-06 2.4338e-05 -8.347e-05 -1.5865e-05 0.0013946
0.1906 -8.8863e-05 1.4933e-05 -1.8837e-05 2.8636e-05 0.003072 0.00054968 0.0011673 0.0006633 0.0021998
4.7922e-05 -1.1352e-05 2.34e-05 -3.5201e-05 0.00086403 3.1974e-05 0.00013385 -3.0359e-07 -2.9703e-05 0.0025007
-4.7822e-06 3.3262e-05 8.325e-05 0.00021819 0.0002194 -0.00038535 0.00095066 -3.6176e-05 -0.00011001 0.00052791
0.13123 -7.1e-05 3.4426e-05 0.00022698 4.5669e-05 0.002141 0.00019933 0.00087785 0.00038677 0.15765
0.15235 0.23659 -2.2708e-06 2.3744e-05 8.4963e-06 0.0034491 0.25317 0.20942 0.3293 -0.00077907
0.00011929 -2.5422e-05 0.00055069 0.00017602 0.0001484 -0.0011222 -3.2901e-05 -7.9075e-05 -7.6296e-05 0.0070806
3.8189e-05 -3.4441e-05 4.8206e-07 -5.7688e-06 9.8312e-07 3.8998e-05 -1.2443e-07 -2.1062e-05 1.4847e-06 0.00023611
-1.6025e-06 -8.3159e-06 0.00017839 -8.0028e-07 8.7158e-05 -1.087e-06 0.0009342 -8.7081e-06 -0.00011137 0.00029798
1.7715e-05 3.4938e-05 2.0813e-05 0.2803 4.4384e-05 0.00015029 -7.2341e-05 -0.00068963 -0.00016787 0.021631
0.00025253 0.00012139 9.6992e-05 0.00031738 0.00013237 8.2223e-06 0.00015722 -3.6278e-05 -0.00014881 0.19763
0.00019055 0.00021723 5.3031e-05 -0.00014343 0.00013767 0.00013879 0.00034245 0.0016382 0.0024505 0.17563
1.7993e-05 -3.9934e-06 -4.4384e-07 -2.5449e-07 0.50792 9.2343e-06 9.0135e-06 1.5553e-05 -1.078e-06 5.2051e-05
0.00013361 0.000197 0.00088857 0.0022291 4.8681e-06 8.2415e-05 0.00040855 -0.00012698 0.00076215 0.27656
3.3258e-05 0.00060674 3.1322e-05 0.00027448 3.9745e-05 3.3341e-05 0.00013562 0.16613 -1.3403e-05 0.0077237
3.0868e-05 -1.1981e-05 0.00027194 0.00033096 7.4827e-05 -1.7554e-05 0.0005834 0.00012569 -0.00013877 0.0079216
0.38512 0.29792 -1.4546e-05 4.9327e-05 2.214e-05 0.0071707 0.00038594 -4.9865e-06 -5.5374e-05 0.00045744
0.16014 0.00046541 -6.1713e-06 0.25641 -1.1223e-05 0.0028713 0.0022967 0.20866 0.015534 0.0020808
1.8896e-05 -1.8607e-06 0.00034462 0.0003306 0.00015546 -2.7953e-05 -5.0629e-06 -0.00021953 -6.7698e-05 0.00775
0.00025253 0.00012139 9.6992e-05 0.00031738 0.00013237 8.2223e-06 0.00015722 -3.6278e-05 -0.00014881 0.19763
0.0001371 -1.2732e-05 0.00048985 0.00018522 0.00012928 -0.0010143 6.8125e-05 -0.00021331 -3.5481e-05 0.0039815
0.080107 -0.00011071 3.7546e-05 5.7508e-05 0.00057921 0.0012848 8.1792e-06 -7.6803e-05 -3.8866e-05 0.0010703
-7.7084e-31 -3.89e-31 9.8537e-31 1.3513e-30 3.9588e-31 -4.9875e-31 5.5045e-30 7.8671e-30 4.2667e-30 -1.1323e-27
0.28863 0.44812 -2.9037e-06 1.7177e-05 9.8943e-06 0.0063469 0.00050809 0.37198 0.00037977 0.0033877
0.28863 0.44812 -2.9037e-06 1.7177e-05 9.8943e-06 0.0063469 0.00050809 0.37198 0.00037977 0.0033877
0.16014 0.00046541 -6.1713e-06 0.25641 -1.1223e-05 0.0028713 0.0022967 0.20866 0.015534 0.0020808
9.0992e-05 1.4091e-06 0.00061922 1.9218e-05 0.23581 8.4693e-06 0.196 -8.7397e-05 -0.00043284 0.00017853
8.7644e-05 0.00013128 9.9557e-06 0.22893 -5.3918e-06 -0.00014462 0.24242 0.001107 0.0001352 0.0019017
5.8402e-06 3.196e-06 0.0009242 -2.3063e-05 0.00053563 4.755e-06 0.00033628 -0.00016703 0.00020949 0.0029457
0.21118 0.00020451 -1.3011e-05 0.00027425 4.7282e-05 -0.76865 0.00076565 -0.00024865 -0.00011402 0.0014307
3.3281e-05 -7.88e-06 0.00051106 9.3071e-06 0.00045128 -3.471e-06 1.3585e-05 -3.8208e-06 -1.8803e-06 1.5655e-05
0 0 0 0 0 0 0 0 0 0
2.0265e-05 -2.285e-06 0.24472 0.00030623 4.5537e-05 2.3098e-05 7.3648e-05 0.00019227 0.00023506 0.1775
0.1054 -0.00015408 0.00032625 -4.6715e-05 0.00044014 0.0017448 4.0196e-05 -0.0001161 0.00018508 0.0022013
-8.7247e-07 4.2461e-06 -4.3486e-06 -5.3346e-06 2.3517e-06 -4.1047e-07 -3.1827e-05 -2.9001e-05 -4.7567e-05 0.0050056
0.00018082 2.3933e-05 0.38701 0.0010335 0.00053577 -0.0016384 0.00028153 0.00059787 0.00036333 0.0050768
1.8703e-05 3.4893e-06 2.7729e-05 0.00031735 4.7724e-05 -2.0472e-05 7.3469e-06 -0.00048882 -8.9971e-05 0.011397
1.7993e-05 -3.9934e-06 -4.4384e-07 -2.5449e-07 0.50792 9.2343e-06 9.0135e-06 1.5553e-05 -1.078e-06 5.2051e-05
1.2283e-05 9.6973e-06 0.15931 0.00014622 3.1404e-05 1.6821e-05 0.0030808 0.00017826 0.00042267 0.22532
-1.5979e-06 4.1201e-06 1.6728e-06 8.3879e-06 6.6715e-05 -0.00021033 4.4227e-05 -3.0533e-05 -1.8312e-05 0.00028671
1.7725e-05 0.00018403 0.40059 0.3892 -1.1386e-05 0.00033049 0.00065051 0.0015486 0.00083522 0.0025517
-8.5905e-07 7.1149e-07 -3.5854e-06 -3.4739e-06 2.3175e-07 -3.2865e-08 4.4139e-05 -8.3095e-05 -2.176e-05 0.0017113
1.7715e-05 3.4938e-05 2.0813e-05 0.2803 4.4384e-05 0.00015029 -7.2341e-05 -0.00068963 -0.00016787 0.021631
3.6165e-05 -3.0974e-06 -2.8372e-06 1.1411e-05 1.4463e-06 -6.8735e-07 -2.64e-05 -1.9629e-05 -3.1171e-05 0.0031273
6.897e-05 1.114e-05 -1.4658e-06 5.4608e-05 2.3929e-06 1.1951e-05 2.9012e-05 -3.139e-05 -3.2801e-05 0.00095198
6.9121e-05 0.0011058 -2.3581e-05 -5.6206e-05 1.6782e-05 0.0001027 0.36401 0.28188 0.021425 0.24201
5.2327e-05 0.0012842 -2.4889e-05 -6.2207e-05 1.8145e-05 0.00011305 0.0040177 0.31366 0.024146 0.26823
2.8477e-06 -1.1759e-05 0.0001488 -1.6596e-06 0.00032743 2.632e-06 0.00077825 -2.6499e-05 -9.9501e-05 0.00038448
3.6082e-05 -8.0466e-06 0.00012079 1.2423e-05 0.14797 2.1642e-05 9.2464e-05 4.0505e-05 -2.384e-05 0.0013163
9.8043e-05 1.8266e-06 -1.3818e-06 -3.3302e-06 2.1604e-06 -2.0721e-05 -7.8867e-05 -0.00011462 -4.7472e-05 0.0014417
0.16589 -0.0002337 0.0018706 0.001826 0.00031978 0.00020358 -3.3304e-05 -0.00031134 -9.3332e-05 0.012822
8.3911e-05 0.0002033 0.00042446 0.16053 3.0426e-05 0.00011451 0.00012215 -0.00065624 0.00022867 0.13681
7.1602e-05 -1.1738e-05 9.0706e-05 0.00018372 0.00068978 -5.7178e-05 -0.00010675 0.0023146 -7.1378e-05 0.12132
5.2852e-06 1.6292e-06 0.00042661 -2.6299e-05 8.7225e-07 4.691e-06 2.549e-05 -0.00015382 0.00023332 0.0028198
8.171e-08 -6.6373e-09 2.4107e-08 -1.7368e-06 0.00071619 2.1658e-08 3.5755e-07 2.5049e-08 2.4869e-07 3.0562e-07
0.15916 0.24699 -2.246e-05 -2.6448e-05 1.4306e-05 0.0035954 0.26459 0.21103 0.339 0.17831
1.8896e-05 -1.8607e-06 0.00034462 0.0003306 0.00015546 -2.7953e-05 -5.0629e-06 -0.00021953 -6.7698e-05 0.00775
0.16433 0.25499 -2.3206e-05 -4.9621e-05 1.4004e-05 0.003728 0.27157 0.2178 0.35134 0.18401
-1.1979e-06 4.0142e-06 0.00059576 6.4913e-05 9.8303e-05 4.8723e-08 0.00042815 -0.00010175 -5.2084e-05 0.0013868
8.9163e-05 0.00022233 0.0005011 0.0016689 6.3938e-06 3.5335e-05 0.00019398 -0.0003367 0.00039114 0.1515
0.17191 -0.00020085 -3.3225e-05 0.00048139 7.8447e-06 0.0028666 0.00040205 0.0018223 0.00072482 0.19255
0.13211 0.20454 2.0576e-05 0.00046432 5.1602e-06 0.0026546 0.00067821 -0.0014437 -0.00013667 0.013651
0.13211 0.20454 2.0375e-05 0.00045571 5.2105e-06 0.0026545 0.00067354 -0.0014601 -0.00013932 0.013894
6.9121e-05 0.0011058 -2.3581e-05 -5.6206e-05 1.6782e-05 0.0001027 0.36401 0.28188 0.021425 0.24201
0.16227 0.25195 -2.4398e-06 3.2431e-06 8.2945e-06 0.0036892 0.26805 0.22296 0.35204 -0.00088078
0.20862 -0.0002529 -3.6036e-05 -7.9857e-05 8.8587e-06 0.0033617 -9.0736e-05 0.00064018 0.00012189 0.23539
3.3258e-05 0.00060674 3.1322e-05 0.00027448 3.9745e-05 3.3341e-05 0.00013562 0.16613 -1.3403e-05 0.0077237
1.8674e-05 -5.311e-06 1.0677e-05 0.00051644 0.35133 -2.0563e-05 -0.00010496 0.00014569 -2.0356e-05 0.20214
0.16812 -0.00016721 1.2106e-05 0.26971 0.17114 0.0029279 0.00016888 0.00032424 -4.771e-05 0.00019498
4.5465e-05 -2.5614e-05 0.0010149 0.0021928 0.00014714 2.2347e-05 0.000837 0.0003608 0.00015288 0.0032638
0.14186 -0.00017657 5.058e-05 -1.5793e-05 7.2737e-06 0.0023191 8.0008e-06 -7.707e-07 1.035e-05 2.1617e-05
8.9163e-05 0.00022233 0.0005011 0.0016689 6.3938e-06 3.5335e-05 0.00019398 -0.0003367 0.00039114 0.1515
6.897e-05 1.114e-05 -1.4658e-06 5.4608e-05 2.3929e-06 1.1951e-05 2.9012e-05 -3.139e-05 -3.2801e-05 0.00095198
-3.1842e-06 -2.3819e-06 0.37541 1.9421e-05 0.15654 5.1808e-05 0.00055108 8.4946e-06 -7.1449e-05 5.5181e-05
6.3974e-05 0.00011066 0.24688 6.5692e-05 -1.1013e-06 7.1354e-05 0.00041839 0.0011861 0.00049254 0.0019146
1.313e-06 -1.8917e-06 -9.7924e-08 1.6624e-05 5.6928e-07 1.7381e-07 -2.5423e-06 -7.7321e-05 -3.6184e-06 0.000374
0.15235 0.23659 -2.2708e-06 2.3744e-05 8.4963e-06 0.0034491 0.25317 0.20942 0.3293 -0.00077907
-8.5472e-07 -8.1795e-07 -1.099e-06 0.0001213 0.00062954 1.646e-08 2.6751e-07 -4.2887e-05 1.853e-07 0.00027384
9.4112e-06 -3.2973e-06 3.1587e-05 0.00026906 6.5909e-05 -1.9371e-05 0.00014335 -0.00034457 -9.539e-05 0.0092812
0.15916 0.24699 -2.246e-05 -2.6448e-05 1.4306e-05 0.0035954 0.26459 0.21103 0.339 0.17831
0.00010611 0.00011165 0.00063817 -9.7843e-05 4.7296e-06 3.5728e-05 0.35001 0.0010156 0.42425 0.24031
4.1416e-05 -2.5664e-06 0.41521 -2.7171e-05 -1.792e-06 9.8842e-05 -3.3618e-06 6.425e-05 -1.3703e-05 0.00091866
0.00014178 0.00017566 4.2975e-05 -0.00011242 0.00076757 0.00010955 0.00032018 0.0010678 0.00047076 0.16701
8.3911e-05 0.0002033 0.00042446 0.16053 3.0426e-05 0.00011451 0.00012215 -0.00065624 0.00022867 0.13681
0.0017789 0.00016506 0.28357 0.00045874 4.5246e-05 -0.63939 -8.1064e-06 -0.00016943 -7.8507e-05 0.0088073
-2.8403e-06 4.4931e-06 -3.3762e-06 3.2263e-05 3.4506e-06 -1.3644e-06 6.3929e-05 -0.00013283 -5.1307e-05 0.0045405
8.3972e-05 8.2965e-05 1.3549e-05 0.0002363 7.1266e-07 3.2718e-05 -5.3101e-05 -0.0021332 -9.8553e-05 0.019022
0.32743 -0.00032387 6.5657e-05 0.51954 7.8615e-05 0.005549 1.2374e-05 -0.0003036 -9.8635e-05 0.015871
3.9925e-10 1.0956e-09 -4.2944e-10 -6.8365e-08 1.5173e-06 4.424e-10 1.7983e-08 -2.8442e-07 -1.718e-07 1.9637e-06
1.8896e-05 -1.8607e-06 0.00034462 0.0003306 0.00015546 -2.7953e-05 -5.0629e-06 -0.00021953 -6.7698e-05 0.00775
0.00018082 2.3933e-05 0.38701 0.0010335 0.00053577 -0.0016384 0.00028153 0.00059787 0.00036333 0.0050768
0.16227 0.25195 -2.4398e-06 3.2431e-06 8.2945e-06 0.0036892 0.26805 0.22296 0.35204 -0.00088078
0.098299 -0.00013759 4.6326e-05 4.5866e-05 0.00072312 0.0015651 2.2863e-05 -7.2637e-05 -3.7289e-05 0.0010208
0.085818 -0.00012346 4.6522e-05 0.13769 0.00017503 0.0014705 -1.3695e-05 0.00013064 -6.6152e-05 0.0087397
0.00029293 0.00013482 8.202e-05 0.00028938 4.6808e-05 3.3075e-05 0.00040666 -0.0002297 -0.00018449 0.0098637
4.0125e-05 0.00024644 3.5607e-06 0.00033967 6.3915e-05 -0.00044005 0.0010219 0.00056739 -0.0001379 0.0021782
8.8719e-05 -6.7229e-06 8.9954e-05 0.0003471 5.1468e-05 2.1795e-05 0.0015366 4.3629e-05 -0.00012546 0.014601
