-1.3017e-06 2.9333e-06 3.348e-06 0.00013309 2.7909e-06 -1.2114e-06 -2.8594e-06 -4.7366e-09 2.6559e-07 -2.2624e-06 0.0002368 -1.4324e-05 9.9149e-06 3.8015e-07 1.7169e-06 9.3323e-05 -2.2398e-07 -8.0286e-05 -4.7161e-06 -0.00018829 1.8002e-05 3.3339e-07 1.0898e-05 0.00014903 -1.5547e-05 1.5482e-06 -1.4587e-06 -1.2827e-06 -7.1589e-05 -2.2146e-07 1.3913e-05 5.0607e-07 -4.0625e-06 -6.2558e-07 -2.992e-07 -3.7969e-05 -4.4607e-05 -4.4941e-06 -4.8159e-05 -7.0007e-05 5.2982e-08 1.0447e-05 0.00010856 -2.1655e-07 -1.3116e-06 8.7496e-06 -3.138e-05 -2.9107e-05 -4.1636e-06 2.5792e-07 1.5845e-06 4.9114e-07 0.00018958 7.1401e-06 -0.00029849 -1.222e-05 0.01329 -0.00015258 1.4666e-05 3.5265e-07
4.57e-06 3.0411e-06 0.13019 0.00013338 1.0525e-05 -8.7356e-07 -1.1828e-06 -3.0824e-06 5.4165e-05 1.5041e-05 0.00010913 -4.3179e-06 1.7446e-05 1.175e-06 4.461e-06 0.25005 6.6667e-05 0.16181 -1.874e-06 -0.00013064 4.553e-05 1.2507e-06 0.00019503 0.17658 -4.7032e-05 -3.2105e-05 -2.9525e-06 3.4539e-05 -0.00015902 1.7838e-05 0.010488 0.00026992 -0.00012361 0.00034728 2.5736e-06 0.028344 -0.00026329 3.4019e-06 -0.00022399 -0.00010363 5.632e-06 2.6777e-05 -2.6524e-05 -2.8567e-06 -0.00019816 -1.2424e-05 -0.0001204 -1.9235e-06 -1.0728e-05 2.295e-05 1.6016e-05 3.7608e-06 5.5108e-05 4.1572e-05 -0.00061986 7.6004e-06 0.01337 -3.6305e-05 -0.00013636 -5.0639e-05
5.7713e-05 0.00017603 0.00053534 0.31636 -3.2941e-05 2.2782e-05 0.00059623 1.2756e-05 1.9431e-05 3.0745e-05 0.00043496 -0.00013321 1.832e-05 1.9049e-07 -1.915e-05 -3.0872e-06 0.00018241 -5.5581e-05 -1.6328e-05 -0.00036012 -0.00066795 -1.3635e-05 1.1769e-05 1.5127e-05 5.3123e-07 -7.0629e-06 4.2735e-05 0.00025883 4.0913e-06 -9.873e-06 2.0134e-05 0.0002637 -7.7849e-05 3.6892e-05 -0.00028228 -8.7717e-05 0.00082425 4.5347e-06 8.8406e-05 0.0017192 0.00043409 -9.1746e-05 0.32981 3.2664e-06 4.8522e-05 9.6197e-06 0.0018935 0.00011901 3.7343e-05 -3.6985e-05 0.00043957 1.2867e-05 0.49432 0.00021194 0.00014863 -9.7879e-05 3.1659e-06 -1.865e-06 0.00013352 9.2467e-05
1.9205e-06 3.9306e-05 0.00017239 -1.8436e-05 8.8362e-05 1.0202e-06 -1.1045e-06 0.00032382 3.0372e-05 -1.6271e-07 2.7231e-05 -4.6331e-05 -1.9103e-06 -3.4923e-07 5.8759e-07 -9.286e-07 5.1049e-05 7.8704e-05 1.7597e-06 -3.3335e-05 1.2218e-05 2.9639e-05 0.0070687 -0.00011613 2.239e-05 -1.0804e-05 -0.00018534 1.2514e-05 3.482e-06 0.0016517 0.32303 0.00012946 1.4384e-05 8.4766e-05 -5.2362e-06 0.00010537 -0.00042822 7.2515e-06 2.4494e-05 -0.0001285 -6.3125e-06 1.4483e-05 1.9097e-05 -1.8868e-05 -2.7162e-06 0.00086187 -0.00015019 5.0679e-05 5.0701e-06 -1.9744e-06 0.0043845 -1.1757e-05 5.6023e-05 1.4203e-06 -0.0048632 4.3139e-05 -1.7537e-05 -5.4902e-07 -8.6163e-05 3.2525e-05
9.1843e-06 1.0517e-05 0.0002459 0.00010817 2.0075e-06 2.0996e-06 0.00058969 3.2422e-05 1.3549e-06 5.178e-05 8.7447e-06 0.00028292 6.852e-07 1.5501e-06 -9.898e-06 2.9997e-05 -1.6216e-06 -3.8123e-05 9.8446e-05 0.00021428 -2.9425e-06 -1.3795e-05 2.4596e-05 -8.5609e-07 -4.5505e-05 -3.1768e-05 6.5557e-05 2.3381e-05 0.0011297 5.1028e-06 0.00095636 0.00026262 6.0524e-06 -4.4503e-05 -5.5443e-06 -5.2833e-05 0.0017433 9.4502e-07 -0.00019436 0.00011587 0.00043847 -2.4051e-05 0.00010954 -4.7732e-06 3.5537e-05 -2.564e-05 0.00021378 -7.6751e-05 4.9298e-05 -3.3114e-05 0.00038675 -4.6153e-05 -2.2626e-05 -9.4438e-06 -0.00034292 -7.4194e-05 0.71231 -0.0001208 0.0016233 0.00021372
9.4035e-06 -5.071e-06 0.00031432 7.9422e-06 9.7553e-05 -1.4422e-06 0.00057953 2.3146e-05 1.691e-05 -1.4964e-05 0.00015622 0.00013305 4.1016e-07 2.9791e-06 -1.3127e-05 -2.3295e-05 9.4004e-06 -7.1465e-05 -1.5549e-06 -9.449e-05 2.4991e-05 -1.4567e-05 1.3448e-05 5.2769e-05 -3.3607e-05 -2.6509e-05 -1.2005e-05 4.2872e-05 0.00010323 3.058e-05 0.00010215 0.00035321 1.0312e-05 2.643e-05 -2.3953e-05 -0.00018774 0.0015168 4.0905e-06 -0.00010432 -2.2457e-05 0.00043192 -3.0254e-05 0.3356 -2.5254e-06 0.00076221 0.00087506 -3.8573e-05 3.7755e-06 4.8889e-05 -6.1675e-05 0.0011197 4.7813e-05 -0.00017567 8.7631e-06 3.5352e-05 -6.0399e-05 4.4078e-05 4.6283e-06 0.00024111 0.00010831
-1.6461e-05 -1.4836e-05 0.13034 -3.1954e-05 5.7376e-06 -1.735e-06 0.0005716 3.6899e-05 -4.2303e-05 4.5825e-05 0.28228 0.00019644 1.5415e-06 6.1525e-06 7.0553e-07 -0.00053598 1.1709e-05 1.7221e-05 -3.2008e-05 0.28593 -5.6355e-05 -1.6415e-05 -0.00021519 -0.00010371 0.00051342 -1.8482e-05 0.35463 -8.9473e-05 0.30263 -4.9242e-05 0.32619 0.00024727 0.31689 -0.00029016 -7.6904e-05 -9.2009e-05 0.0019204 3.5787e-05 -0.00071425 1.7893e-05 0.0004215 -6.2539e-06 5.2407e-05 -9.3815e-06 6.9258e-05 -4.8045e-05 4.737e-06 0.0012171 5.9738e-05 -4.0837e-05 0.0002974 -4.2722e-05 0.00010541 0.00019894 0.00039248 0.00073333 0.0053231 1.7243e-05 0.38747 0.00022621
0.17402 1.9163e-06 0.13005 6.7184e-07 2.56e-06 -5.4154e-07 -1.9434e-05 4.2974e-07 -2.3718e-05 8.0157e-06 0.28327 3.7492e-05 -3.1236e-06 5.9467e-07 1.5638e-05 -3.82e-05 4.402e-06 0.16165 2.3002e-05 0.28426 -2.0875e-05 1.2226e-06 2.9741e-05 0.17671 0.00059662 -1.1771e-05 6.5336e-05 3.7545e-05 -0.00027028 2.3624e-06 3.114e-06 -1.0277e-05 -0.00013947 1.8332e-06 1.8895e-06 0.02721 8.5255e-05 2.9371e-05 8.8937e-06 8.4023e-06 5.4842e-06 1.3979e-05 -8.6218e-07 -3.5726e-06 1.0893e-06 -1.3792e-05 1.3036e-05 0.0013038 -5.0743e-06 1.7352e-05 -2.0612e-06 -1.2825e-05 -8.6524e-06 5.7181e-05 5.5286e-06 0.00037562 -1.0238e-05 -0.00045938 -0.00068367 -1.9601e-05
1.6462e-06 2.1491e-07 4.0933e-08 -8.1766e-06 5.1308e-07 -3.7485e-06 -4.0514e-06 6.2353e-07 -9.3761e-06 1.3513e-07 -0.0002626 -2.5728e-06 -5.9912e-07 -3.1449e-07 2.6405e-06 -3.8222e-06 1.2541e-06 -8.4778e-06 -7.0059e-07 0.00022758 -3.5697e-06 -4.6598e-07 1.6469e-05 9.4051e-06 3.9683e-05 -8.0076e-07 5.5235e-05 2.2208e-06 0.30121 7.2256e-07 2.8076e-05 -3.6347e-06 6.1927e-06 -5.4691e-07 -1.975e-06 -1.7735e-06 1.3506e-05 -2.9084e-07 2.5793e-05 1.683e-06 0.37689 -2.4269e-06 1.966e-05 6.4894e-07 9.1399e-08 2.3125e-06 2.807e-06 -2.7346e-06 4.6192e-06 -2.1504e-06 1.1607e-05 4.8826e-06 -7.6097e-06 1.2487e-05 4.3044e-06 -3.0641e-05 1.9555e-05 0.00015792 0.00043052 8.3682e-06
1.815e-06 -1.0167e-05 2.6459e-06 1.3286e-05 0.35346 -4.4077e-06 -6.0455e-05 1.8298e-06 6.449e-06 4.1211e-10 0.00012153 3.604e-06 3.7566e-07 3.2429e-07 3.5862e-06 7.4673e-06 1.3912e-06 2.7372e-05 -4.824e-08 -0.00018059 -1.0038e-05 -7.0909e-07 -3.6787e-06 -3.1638e-05 -4.9562e-06 -9.7061e-07 5.1576e-06 -7.426e-06 -8.931e-06 8.3008e-07 1.8357e-05 -4.948e-06 1.1856e-05 -1.2166e-05 2.5387e-05 7.3014e-05 -3.5421e-05 -2.076e-06 0.0066039 1.0738e-05 4.0502e-06 -5.3624e-05 0.00012002 1.6492e-06 -1.9731e-06 -1.6858e-05 0.00032513 2.9813e-06 7.7417e-07 1.5331e-06 -3.239e-05 1.9406e-06 -4.0326e-06 9.8231e-06 -1.4553e-05 0.00012035 -9.7843e-07 0.00013391 -0.00076033 -1.3784e-05
0.17411 -0.00010092 0.00031353 0.31608 -1.5198e-05 -5.2907e-07 0.19685 2.2758e-05 0.18583 0.00026902 0.00025973 0.18482 -1.3694e-05 1.6582e-06 -6.1193e-05 -0.00012742 -4.9477e-05 -0.00058732 -1.5613e-05 -0.00027335 0.18846 -2.6818e-05 0.22742 0.0012851 6.4522e-05 -0.00028707 -0.00017921 1.3802e-05 1.697e-05 -1.6372e-05 -0.00010936 0.00028262 2.5875e-05 -0.00010129 -3.6711e-05 -0.00032737 0.20362 -1.2988e-05 -4.7815e-05 -7.8019e-05 0.00041746 -5.0485e-05 0.00018155 -2.0057e-05 1.3874e-05 3.1998e-05 1.0566e-05 0.00027915 6.4832e-05 6.3303e-05 0.00021638 -0.00018498 0.0081634 -0.0012303 0.00046679 -2.6231e-05 -0.00015373 8.4342e-05 -0.0004778 -0.00010691
0.17399 0.27728 0.13001 -1.8336e-05 4.0133e-06 2.5787e-06 0.19583 -9.2803e-06 -2.5519e-05 -3.8527e-06 0.28237 0.1816 1.4594e-05 -6.4883e-07 2.25e-05 0.24962 4.5129e-05 0.16131 3.6408e-06 0.28558 0.18151 1.9216e-05 6.8814e-05 0.17701 0.44758 6.01e-05 0.35216 7.7524e-05 0.30055 -2.1914e-05 -2.3202e-05 -2.3566e-05 0.3157 -0.00011697 -5.4875e-05 0.027067 0.17164 -9.453e-07 0.33048 0.00062688 -9.5219e-06 0.40818 -0.00010239 1.8355e-06 -4.6348e-06 -8.5425e-06 -1.1428e-05 0.44788 5.2156e-06 1.8964e-05 -0.00013646 1.4595e-06 -0.00098742 0.49988 0.00092035 0.44751 -8.9559e-05 0.33169 0.37146 -7.2125e-05
-6.4192e-06 1.5578e-06 1.5359e-06 -2.211e-05 -6.3868e-06 2.6321e-08 -1.66e-06 4.0462e-07 2.9921e-05 -5.4277e-06 3.395e-06 0.00047577 8.4759e-06 4.187e-07 -4.8847e-06 -3.752e-05 7.8741e-05 -0.00010573 7.1901e-07 -8.9456e-07 0.00044862 -3.4548e-05 0.0039408 0.00012659 -1.4551e-05 -3.6012e-05 0.00092271 0.31031 -6.6459e-06 -9.1612e-06 0.00088498 -1.1614e-05 4.2319e-05 -8.4154e-05 4.0977e-06 -0.00016679 0.0012286 3.7998e-05 -2.086e-05 -0.00021884 3.0018e-06 1.0159e-05 -3.7822e-05 -7.9591e-06 5.6012e-05 -5.7357e-05 -4.6751e-05 -0.0002305 -0.00011088 0.00034748 0.0050435 -0.0001238 -2.6847e-05 1.3338e-05 -0.0018174 -9.019e-05 -1.2133e-05 -6.9382e-05 0.00039239 -0.00084688
-7.0543e-06 0.27733 1.6042e-06 -2.621e-05 8.515e-05 4.593e-06 2.2556e-05 0.00031325 -1.2865e-05 -7.0252e-06 -3.9061e-05 -0.0001252 1.7029e-05 -9.5654e-07 -7.3438e-06 2.3964e-05 -2.2642e-05 7.7832e-05 -2.6406e-06 2.3443e-05 -0.00060562 6.0786e-05 0.0072718 -0.00010921 6.9462e-05 9.742e-06 -0.0001934 -8.5482e-05 -7.874e-06 -1.288e-05 0.0027727 0.00012749 -2.7399e-05 0.0001733 -2.3243e-05 0.00012527 0.0060853 8.9679e-06 -1.6135e-05 -0.00011916 3.2765e-06 4.3391e-06 -8.1204e-05 -3.0576e-06 1.3356e-06 -2.4869e-05 0.00076637 -0.00025606 2.0596e-05 -3.7528e-05 0.00030946 -2.1307e-05 -5.9024e-05 -0.0001034 -0.0055916 -3.9927e-05 2.112e-05 -7.1339e-05 -1.539e-05 0.0001456
-3.109e-05 4.5687e-05 0.00016914 2.5397e-06 0.00031106 2.4448e-06 1.0849e-05 4.3752e-06 0.18665 4.5902e-05 2.888e-05 0.00022414 -3.7133e-06 2.0191e-07 6.6754e-07 5.8073e-05 -1.6225e-06 0.0019842 5.0254e-05 -0.00011463 0.00028564 1.3731e-05 0.00046638 -0.0023364 -3.3396e-05 1.0727e-05 -1.1169e-05 0.00019541 -4.8216e-05 -8.4448e-06 0.33055 -9.4854e-05 -0.00017281 3.7179e-05 -2.7435e-05 0.00079185 -0.00035469 4.0367e-05 3.2131e-05 -8.3839e-05 -3.0703e-05 2.549e-05 0.0011436 -2.2697e-06 -0.0002082 -4.6056e-05 -9.1089e-05 2.968e-05 7.1244e-06 1.291e-05 -1.648e-06 -2.3765e-05 -1.0491e-05 1.3106e-05 -0.00027707 0.00010345 1.4536e-05 -4.2501e-05 -0.00029087 -0.00012751
-7.8026e-06 -0.00015282 0.00024173 2.2153e-05 6.6562e-06 1.9543e-07 0.19682 1.115e-05 7.917e-05 0.27697 0.00015213 0.18598 1.9875e-05 -3.0778e-06 -1.1297e-05 -3.0728e-06 -0.00010491 -1.4501e-06 -8.2547e-05 -0.00011918 0.18857 -0.00010002 -8.5026e-05 -8.8145e-05 -2.6651e-05 -0.00032058 -0.00010758 3.9554e-05 6.7139e-05 0.44341 -1.6638e-05 0.00027165 1.5089e-05 -8.324e-05 -7.0722e-06 -6.8222e-05 0.20669 3.8346e-05 -9.7557e-05 -8.7566e-05 0.00043359 -2.1372e-05 0.33369 -2.298e-05 3.6173e-05 -3.4532e-05 -4.2485e-05 7.6775e-05 5.4077e-05 0.00014314 0.00015512 -0.00011691 0.49429 -0.0010569 -0.00020386 -8.5437e-05 -0.00010448 9.1587e-06 -0.00081598 -0.0001016
0.00013849 0.00016199 0.00016148 1.4518e-05 2.467e-05 1.5882e-06 2.3741e-05 -1.6334e-06 0.00014265 9.0141e-05 -1.4057e-05 -1.5916e-05 3.6393e-06 2.3426e-06 -1.0228e-05 -6.0807e-05 2.5552e-05 -0.00011046 3.0575e-06 -1.855e-06 -0.0010037 3.0826e-05 0.00035764 0.00013173 1.9742e-06 1.233e-05 3.9665e-06 3.4572e-05 -2.6095e-05 2.2907e-06 1.5533e-05 1.4779e-06 -2.6911e-06 2.7858e-05 -0.00028939 -3.6843e-05 0.0016702 -7.1588e-06 -0.00021161 -3.9051e-05 -6.9122e-06 -1.7706e-05 6.3953e-05 8.2669e-06 -1.7852e-06 6.0976e-06 0.0013519 0.00018203 6.5968e-06 2.8082e-05 0.00012445 6.3976e-06 0.49262 0.00016926 0.00013079 8.5406e-05 1.0452e-05 4.8845e-05 8.7222e-05 -0.00012376
-3.5309e-05 -8.3108e-06 0.13025 -3.4409e-06 1.1339e-05 2.5132e-06 0.00010062 -7.3704e-06 -1.3748e-05 -2.3734e-05 6.0482e-05 0.00034773 5.5333e-05 2.3475e-06 7.1409e-05 2.7499e-05 0.00020786 -7.2396e-05 -4.6507e-05 -8.1695e-05 -0.00040445 -7.778e-06 0.0011711 5.3159e-05 -4.6823e-05 0.00033142 -0.00010839 0.00028474 -5.2032e-05 0.45045 0.0006124 -4.6883e-05 -0.000112 0.00064777 -3.6724e-05 4.7084e-05 0.0030664 4.3955e-05 -0.00010522 0.0072715 3.0769e-06 -0.0002609 0.00061334 -7.8644e-06 0.0013875 -5.1111e-05 -2.4381e-05 -0.00023138 3.7283e-07 -5.0201e-06 0.0091952 -3.8821e-05 -0.00088174 0.00015577 -0.0021489 -1.2619e-05 1.1875e-05 -0.00013085 -0.00021477 6.5129e-05
0.17405 -7.1659e-06 0.13005 1.7304e-05 -1.2023e-05 0.00015243 0.0002785 1.7842e-06 0.18571 0.00010601 0.0001369 -3.048e-05 0.00022826 4.4208e-06 -4.5846e-05 1.7028e-05 -1.4411e-05 -0.00047311 -8.2534e-06 -0.00018814 -0.00042205 1.4622e-05 0.00022501 0.0012129 7.6035e-06 -1.7766e-05 -6.3582e-05 0.00026823 -3.8657e-05 4.4821e-06 0.0002284 7.1671e-05 -7.0298e-06 7.6383e-06 -1.5373e-05 -0.0002838 0.0024296 1.1005e-05 6.8428e-05 0.0003833 -4.6817e-05 -3.3812e-05 0.00045685 -2.8919e-05 0.00049968 3.4648e-05 0.0020821 4.6226e-05 -1.1404e-05 -5.6195e-06 -1.6493e-05 -8.0349e-05 -3.749e-05 -5.2032e-06 -0.00025367 -7.2192e-05 1.6434e-05 0.00012528 2.2611e-05 0.00016676
7.9036e-07 -1.164e-05 0.13052 -4.8388e-06 6.9435e-05 -3.9339e-06 0.00060317 3.167e-05 1.5904e-05 0.00023239 0.00017734 0.00023679 2.4647e-05 2.1673e-06 -1.2044e-05 -6.5498e-05 -1.8543e-05 -0.00016932 -9.6521e-06 -0.00010279 -2.5534e-05 -2.0251e-05 0.00012647 0.00014074 -2.0604e-05 -4.8359e-05 -8.6354e-05 0.31202 9.5272e-05 0.45022 0.0011626 0.00024 -4.142e-05 -5.0187e-05 -2.2958e-05 -9.8774e-05 0.0019826 6.8603e-05 -3.4612e-05 -0.00033813 0.0004373 2.8824e-06 0.0027084 -1.1145e-05 7.2354e-05 0.00071541 1.6445e-05 -1.5722e-05 -6.7334e-05 0.00037719 0.50254 -0.00018096 0.00014232 3.1111e-05 8.2787e-05 -5.5365e-05 5.8576e-05 4.1033e-05 0.00033979 -0.00078784
-1.1782e-05 1.8948e-05 1.7433e-05 9.1367e-06 3.1488e-05 -3.0336e-05 5.0948e-05 1.1377e-05 -3.949e-05 -2.9225e-05 -5.6933e-05 -0.00011838 9.5783e-05 4.1331e-06 -1.2024e-05 -8.1722e-06 -1.6567e-05 -0.00010064 -2.472e-05 0.00012714 -0.00078385 3.0674e-05 0.00012114 0.00028609 4.4437e-05 1.0433e-05 -8.825e-05 0.002533 7.2532e-06 -2.3425e-05 3.5036e-05 0.0003637 2.7158e-05 0.0008738 -2.0866e-05 -4.4445e-06 0.0065242 -0.00017087 -3.1954e-05 -0.00014357 4.9792e-05 2.4677e-05 -0.00010968 5.3534e-06 -1.7951e-05 7.103e-06 0.40683 -0.00027174 0.0015642 -0.0057181 0.00035487 0.0009044 -8.0451e-05 -0.00011362 -0.0005598 -9.7215e-05 7.1617e-06 1.4198e-05 0.00033577 0.015609
0.17411 -0.00010092 0.00031353 0.31608 -1.5198e-05 -5.2907e-07 0.19685 2.2758e-05 0.18583 0.00026902 0.00025973 0.18482 -1.3694e-05 1.6582e-06 -6.1193e-05 -0.00012742 -4.9477e-05 -0.00058732 -1.5613e-05 -0.00027335 0.18846 -2.6818e-05 0.22742 0.0012851 6.4522e-05 -0.00028707 -0.00017921 1.3802e-05 1.697e-05 -1.6372e-05 -0.00010936 0.00028262 2.5875e-05 -0.00010129 -3.6711e-05 -0.00032737 0.20362 -1.2988e-05 -4.7815e-05 -7.8019e-05 0.00041746 -5.0485e-05 0.00018155 -2.0057e-05 1.3874e-05 3.1998e-05 1.0566e-05 0.00027915 6.4832e-05 6.3303e-05 0.00021638 -0.00018498 0.0081634 -0.0012303 0.00046679 -2.6231e-05 -0.00015373 8.4342e-05 -0.0004778 -0.00010691
0.17401 5.5372e-06 0.12998 1.8441e-06 1.3054e-06 0.28863 3.0042e-07 1.3196e-06 0.18553 0.27619 0.00012965 -3.6661e-06 -5.866e-06 0.5 2.0914e-06 1.9424e-05 -1.7647e-06 0.16129 0.24965 -0.00016952 -5.5099e-05 -3.0708e-07 2.6906e-05 0.17696 8.4826e-06 2.5465e-06 4.2549e-05 -0.00011533 -9.5547e-06 5.5382e-06 -4.7528e-05 1.5802e-06 2.4352e-05 -0.00011186 0.28807 0.027088 -0.00022384 0.35435 -1.0914e-06 3.4259e-05 6.7034e-07 5.6189e-06 2.56e-05 0.5 -1.1656e-05 -8.1736e-06 -1.4373e-05 7.4849e-05 -7.6443e-05 0.30925 -9.4668e-05 0.44679 -2.8056e-05 2.536e-05 6.7383e-05 -4.0345e-06 -2.3637e-05 1.3617e-05 -0.00024952 0.43979
-3.0972e-05 4.8739e-05 0.13044 -1.742e-05 -3.5158e-06 -1.0989e-06 8.4975e-05 -6.5158e-06 0.0010262 -5.9074e-05 -4.4659e-05 0.18262 0.00036887 -7.5822e-07 -1.2102e-05 -8.6047e-05 9.8946e-05 -0.00012546 6.9267e-05 0.00010639 0.18182 4.635e-05 0.0010668 0.00016469 -9.0294e-05 -0.00018957 -0.00013047 0.31309 1.0787e-05 -1.2107e-05 -0.00018092 -0.00015537 5.2085e-05 -0.00013251 -2.01e-05 -0.00014169 0.18659 7.9255e-05 5.62e-05 0.00011605 1.0325e-05 1.0511e-05 -5.2454e-05 -1.5363e-05 9.04e-06 -7.442e-05 0.00024763 -0.0003178 -9.0886e-05 0.00045179 -0.00014531 -0.00016938 -0.00196 3.7536e-05 -0.0012538 -2.7947e-06 0.0014164 -0.00011998 -0.00024068 -0.0010815
4.06e-05 6.6761e-05 0.00019391 0.00025239 -1.5749e-05 -8.8218e-10 1.5097e-05 9.4563e-05 8.7196e-05 -3.4854e-05 -1.6719e-05 4.3777e-05 3.0121e-08 1.7474e-06 2.6423e-07 0.00043063 0.00011084 0.00028109 8.8729e-06 -1.4057e-06 0.00027072 -1.8451e-05 0.0026679 -0.0005168 -4.8068e-05 2.4055e-06 0.0023687 0.000413 -6.5844e-05 0.0018159 0.0013368 3.2714e-06 -2.3659e-05 0.0005442 -2.6195e-06 0.000528 0.0018172 1.6571e-05 -0.00014837 0.0019683 5.1186e-06 -0.00013763 0.00065696 5.3591e-06 0.00017393 0.00098779 -0.00019845 -0.00059081 1.061e-05 1.9258e-05 -3.2045e-05 -5.3551e-05 -0.00018906 -8.0117e-05 -0.0025041 -0.00043758 -3.0995e-05 -0.00016298 0.0040991 5.2775e-05
1.0852e-05 -3.6891e-06 2.6589e-05 3.4429e-05 8.9761e-05 1.5013e-07 7.3776e-06 -0.00011457 -8.5967e-06 3.3042e-05 -5.6278e-05 -3.062e-05 1.5711e-05 -2.7688e-07 -7.7743e-06 -0.0001294 1.4691e-05 0.00022459 -2.652e-06 8.5486e-05 -0.0002442 -9.6698e-06 0.00075901 -0.00019043 -3.2515e-05 0.00047754 -2.0343e-05 0.0012756 -8.1548e-07 1.8627e-06 0.00039655 0.40766 -3.1194e-05 0.0086216 -1.6464e-06 0.0001563 0.0017571 2.1631e-06 1.0758e-05 -3.6769e-05 -8.1773e-06 7.8525e-06 -4.9633e-05 -5.3693e-07 5.4898e-05 -4.4792e-05 -6.0557e-06 2.944e-06 -1.2327e-06 6.6813e-06 -2.2752e-05 -2.6692e-05 -4.0685e-06 -2.381e-05 -0.00071616 -4.7838e-05 2.4712e-08 -1.087e-05 7.3414e-05 -6.8537e-06
1.1368e-06 0.27727 5.6206e-06 1.3627e-06 3.1867e-06 1.4646e-06 8.8075e-06 -3.553e-06 -7.872e-07 -2.6559e-05 -0.00013594 0.18144 -4.9753e-07 -2.0285e-08 7.8747e-06 0.00015311 3.1763e-05 0.16132 9.218e-06 0.0011574 0.18128 2.6959e-05 0.00013447 0.17694 0.44666 4.4445e-05 0.00014489 4.829e-05 1.0704e-05 9.6865e-06 -3.8476e-05 -1.9343e-05 9.4726e-05 -0.00010527 -3.924e-05 0.027141 0.17104 3.7876e-06 9.5243e-05 0.00066621 -5.0934e-06 0.40805 -3.7445e-05 4.8197e-06 -6.3245e-06 1.1426e-05 -2.6867e-05 0.4462 4.6554e-06 6.0235e-05 -0.0001217 -1.4809e-05 -0.0012104 0.00061056 0.00079134 0.44677 -0.0001049 0.00063445 -0.00079275 -0.00015597
-1.2245e-05 4.2471e-05 0.13031 -2.7841e-06 5.2764e-06 3.187e-06 0.19643 9.4909e-06 -3.0745e-05 -7.3326e-05 7.062e-05 0.18183 7.04e-06 5.3137e-07 -6.8919e-06 5.4305e-06 0.29999 2.8314e-05 -2.9453e-05 6.132e-05 0.18116 2.8441e-05 0.0001053 -9.608e-05 8.599e-06 -0.00010927 9.0138e-06 0.0011315 0.00010484 -1.895e-06 -5.6596e-05 0.00021774 1.3116e-05 -6.9974e-05 -3.6181e-06 -2.0498e-05 0.1781 3.8222e-06 8.596e-05 0.00062076 0.37734 -2.0542e-05 0.33254 3.3357e-06 1.6164e-05 1.2688e-05 -3.6648e-05 -2.4911e-05 6.6539e-05 4.5199e-05 0.00027158 -1.7203e-05 -0.0011636 0.00033019 4.4607e-05 4.6532e-05 0.000535 0.00012177 2.4305e-06 -6.5833e-05
0.174 2.0136e-06 0.00017699 4.2473e-06 2.3228e-05 -3.5271e-05 0.19645 4.2046e-05 6.2798e-06 1.3989e-05 0.00013218 0.00012986 7.9402e-05 -1.7075e-05 -1.5012e-05 -2.9569e-05 4.2615e-05 -0.00011384 -3.2497e-05 -0.00010191 -1.795e-05 -1.5235e-05 3.917e-05 0.00026084 -3.7502e-05 -2.2506e-05 2.2547e-06 0.0025616 0.00010058 -1.1333e-05 9.8963e-05 0.00029303 1.8267e-05 -2.8596e-06 2.2998e-05 -8.6724e-05 0.0018106 -0.00013046 5.195e-05 1.1701e-05 0.37893 -1.6617e-05 0.00012488 -4.4071e-06 6.0105e-05 -2.2833e-05 0.00027164 3.5542e-05 0.50103 -0.0064117 0.00039382 0.0013597 -2.9069e-05 -2.4438e-05 -4.7191e-06 -5.7351e-05 4.3792e-05 7.5838e-08 0.00020355 0.016478
1.7413e-06 -2.2291e-05 0.00012692 3.6112e-06 0.35356 -3.2569e-07 -1.0537e-05 2.413e-05 2.4581e-05 -2.2131e-06 -3.1928e-05 0.00017224 -1.9774e-05 -6.2227e-08 -2.1873e-06 -7.68e-05 0.00024726 -8.7302e-05 -4.6429e-06 2.8067e-05 -1.0455e-05 -3.7757e-05 0.0034369 6.0269e-05 2.4837e-05 7.306e-06 0.00083242 0.0008152 -3.3409e-05 9.917e-05 0.359 -8.3831e-05 -0.00015369 -0.0002952 -4.7629e-06 -9.3666e-05 0.0021663 5.2293e-05 5.5223e-05 0.007144 -2.2101e-05 -0.00022843 -4.7346e-05 -1.4248e-05 0.44969 5.9879e-05 -5.0273e-05 -0.00026908 -1.9473e-07 4.4153e-05 0.50705 -6.1103e-05 -3.4447e-06 0.00011341 -0.0015873 -0.00014315 1.488e-05 3.7716e-05 -0.00025157 -0.00010181
0.17401 1.052e-06 -1.9923e-05 -5.5152e-06 -1.6744e-07 -2.3423e-06 0.19588 4.3219e-06 2.0399e-05 1.0729e-05 0.3006 -7.471e-05 -6.6678e-06 -1.4293e-06 -1.5407e-05 0.00020366 3.7023e-06 -5.222e-05 -3.401e-06 0.29511 -7.7102e-06 -3.9892e-06 -5.0828e-06 4.186e-05 -0.00075103 1.2834e-05 0.00011422 -3.5402e-05 0.3011 2.9291e-07 5.8941e-05 2.2602e-05 0.31589 -4.8938e-06 3.2789e-05 -1.6001e-05 -9.3129e-05 -2.7831e-05 0.00010245 1.6252e-05 -6.807e-06 -1.3068e-05 9.9053e-06 -1.0062e-06 3.7326e-06 1.431e-06 5.2137e-05 -0.0012065 -2.5653e-06 -2.1712e-05 -1.1806e-05 -7.8449e-06 -2.2504e-05 -1.5934e-05 7.5649e-06 -0.00058551 6.8307e-06 0.001701 -0.00055865 5.4455e-05
0.17452 2.4868e-05 0.13031 1.3219e-06 1.7673e-06 -1.1631e-05 2.242e-05 -9.9558e-06 -4.0309e-05 -5.3718e-05 0.00024355 0.18166 5.5763e-06 3.7012e-06 1.1247e-05 4.6048e-05 2.4397e-05 0.16125 0.25048 -0.00027025 0.18106 7.0203e-05 0.2276 0.17714 -2.7861e-05 -1.1238e-05 -4.9565e-06 -2.162e-05 6.0468e-05 -3.5661e-06 -0.00016941 -1.1821e-05 -1.2962e-05 -0.00010733 -5.9221e-05 0.027129 0.17667 3.1563e-05 0.00014178 -4.8982e-05 -1.8034e-05 -7.6729e-06 -0.00018158 -1.9252e-05 -1.3715e-05 6.5995e-06 -1.3997e-06 -3.4969e-05 -1.6508e-05 0.00011827 -0.00020077 -2.264e-05 -0.0015824 0.0003781 0.0012161 9.2106e-05 -0.00014278 0.00010708 -2.1988e-05 -0.00020321
-6.2911e-05 3.2498e-05 0.13029 3.4235e-05 8.1295e-05 1.6067e-06 1.8692e-05 -0.00013417 -2.7062e-05 1.0261e-05 7.3432e-05 0.18379 8.5484e-05 2.183e-06 7.5979e-05 5.7618e-05 3.4392e-05 4.6144e-05 0.00010463 1.2139e-06 0.1812 1.7363e-05 0.22943 -8.5449e-05 -1.5531e-05 0.00086371 -0.00015668 0.001074 -6.9998e-05 3.5764e-05 0.0008452 0.0019213 -0.000122 0.0095073 -1.2411e-05 0.00023231 0.1747 -1.8735e-06 0.00012288 -0.00015254 2.0188e-05 6.7887e-06 -0.00016857 9.7592e-07 -2.4828e-05 -3.9073e-05 0.0002261 0.00043156 1.1911e-05 3.7471e-05 -0.00022741 -7.3495e-05 -0.0021594 0.00052126 -0.0015825 2.5806e-05 0.00080805 -4.3417e-05 0.00010101 -7.78e-05
4.5419e-05 1.2561e-05 0.13017 1.0064e-05 2.3502e-06 0.2888 9.9016e-06 -1.6763e-05 0.18553 0.00010014 0.00013772 1.1806e-05 -1.7696e-06 4.5892e-06 1.2573e-06 6.1087e-07 0.00016016 2.9416e-06 2.0712e-05 -0.00018448 -3.09e-05 -1.4912e-06 3.9124e-06 -3.0605e-06 -6.3349e-06 -9.8541e-06 -3.8793e-06 0.00021993 -8.9256e-06 9.5505e-06 -2.212e-05 -1.55e-05 -6.8918e-06 2.4609e-05 -3.2783e-05 -1.872e-05 -0.00015088 1.0205e-05 0.00022597 0.0017226 7.0586e-06 -8.8001e-05 0.32981 -1.1366e-07 2.9103e-06 1.6085e-05 0.0015764 2.379e-05 4.3632e-06 1.6084e-05 1.2258e-05 -7.6546e-06 9.9472e-05 3.2186e-05 3.8487e-05 -5.3545e-05 2.6426e-05 0.00030624 -0.00016786 0.00019859
1.4415e-05 0.27745 0.13007 -1.4301e-06 2.098e-06 4.3795e-06 -6.1542e-05 -0.00011799 0.18561 6.4778e-05 9.466e-05 0.00021373 -1.0283e-05 -7.7997e-06 -1.4031e-05 -6.1532e-05 -8.2949e-06 0.161 0.25011 -7.1057e-05 7.1106e-05 -2.3643e-06 0.00019192 0.17797 2.974e-05 0.0029767 2.6186e-05 1.3179e-05 1.6414e-06 4.1266e-06 7.4605e-05 -5.5063e-06 -2.4143e-05 0.0035957 0.2913 0.02687 0.00064938 -0.00013422 -0.00056267 0.00030352 2.7337e-07 -7.5011e-06 -4.3893e-05 3.5865e-05 5.9944e-06 -1.7262e-05 0.0002368 -9.6987e-05 -5.0112e-05 0.00012928 6.7425e-05 -5.2717e-05 -9.2019e-05 7.7755e-05 -5.6132e-05 -8.5115e-05 0.00090636 -6.4344e-05 0.0065465 -6.4707e-05
-3.3607e-05 3.4382e-05 0.13043 1.3099e-05 1.949e-05 -3.4696e-06 -1.0302e-05 9.256e-05 2.705e-06 -3.5332e-05 8.2653e-05 0.18174 0.00022743 2.5525e-07 1.1371e-05 0.25 0.30057 0.26702 -3.2246e-05 -7.9423e-05 0.18178 0.57735 0.22881 0.014906 -2.6569e-05 6.892e-05 2.4136e-05 8.8307e-05 -3.4172e-05 2.0023e-05 -4.5988e-05 0.00028011 4.9577e-06 0.00039377 -7.8318e-06 0.41576 0.17544 4.5868e-05 -0.00013622 2.62e-05 9.189e-06 5.1103e-06 -0.0001424 -1.9886e-06 -5.0125e-05 0.00016628 4.7226e-05 -4.6178e-05 6.7079e-06 2.2219e-05 -0.00015021 -2.5271e-05 -0.0012757 0.00053076 0.57728 0.00018992 -4.5105e-05 0.00015977 -0.0004983 -1.2675e-05
-1.2245e-05 4.2471e-05 0.13031 -2.7841e-06 5.2764e-06 3.187e-06 0.19643 9.4909e-06 -3.0745e-05 -7.3326e-05 7.062e-05 0.18183 7.04e-06 5.3137e-07 -6.8919e-06 5.4305e-06 0.29999 2.8314e-05 -2.9453e-05 6.132e-05 0.18116 2.8441e-05 0.0001053 -9.608e-05 8.599e-06 -0.00010927 9.0138e-06 0.0011315 0.00010484 -1.895e-06 -5.6596e-05 0.00021774 1.3116e-05 -6.9974e-05 -3.6181e-06 -2.0498e-05 0.1781 3.8222e-06 8.596e-05 0.00062076 0.37734 -2.0542e-05 0.33254 3.3357e-06 1.6164e-05 1.2688e-05 -3.6648e-05 -2.4911e-05 6.6539e-05 4.5199e-05 0.00027158 -1.7203e-05 -0.0011636 0.00033019 4.4607e-05 4.6532e-05 0.000535 0.00012177 2.4305e-06 -6.5833e-05
-1.4354e-05 1.2699e-05 0.13035 0.31614 -1.3539e-06 -7.1108e-06 3.7014e-05 -9.945e-06 1.0634e-06 0.0001524 -3.8094e-05 0.18193 7.7089e-05 1.62e-06 -1.9653e-05 -0.00013231 -2.6746e-05 -0.00024672 -7.015e-05 0.00011732 0.18034 3.5798e-05 0.23444 0.00028796 2.1902e-06 -0.00013901 0.00076903 0.00075493 -5.094e-06 0.0011062 0.00081824 -7.0545e-05 0.00011367 -0.00017699 -9.2292e-06 -0.00021783 0.18868 -7.8618e-06 -0.0001783 -8.1953e-05 -4.7918e-05 -2.7736e-05 0.0021528 -2.5046e-06 1.7828e-05 5.607e-06 -7.2625e-05 -0.0002878 2.392e-05 5.0393e-05 0.005133 -4.7632e-05 -0.002983 4.0736e-05 -0.0032969 -5.9592e-05 -0.00019727 -0.00013003 -0.0004985 -0.00012313
-4.3461e-05 7.9325e-05 0.13075 0.00023816 -2.2677e-05 2.683e-05 3.5994e-06 0.00011997 0.18608 7.4595e-05 0.00045439 -8.0857e-05 -5.3104e-05 -2.4833e-08 -7.3593e-06 0.25088 0.30655 0.00025289 -1.2732e-05 -0.00060568 0.00035501 -7.0026e-06 0.0023898 -0.00066597 -0.00016543 3.2412e-05 0.35563 0.33749 -0.00022793 0.0017907 0.3259 -7.3694e-05 2.8976e-05 0.00058294 3.1109e-05 0.00051488 0.0010178 0.00013058 6.8023e-05 0.50679 -4.3476e-05 -0.00069795 0.00059305 -1.9432e-05 0.44677 0.50212 0.001068 -0.00079832 -0.00012287 0.00054724 0.00032423 -0.00015713 -7.7986e-05 0.0001422 -0.0027009 -0.00078366 -0.00036081 0.0002351 -0.0014255 -0.0013193
9.5872e-07 -1.0137e-08 0.12996 1.4537e-06 6.149e-08 9.5981e-08 -1.9513e-06 -5.7818e-07 -2.4333e-07 1.9779e-06 6.5215e-05 8.1154e-06 -5.3121e-07 -5.432e-09 5.78e-07 7.7594e-07 -7.6028e-07 2.0308e-05 3.8956e-06 -5.9447e-05 7.4478e-06 3.8702e-08 2.0111e-06 -1.3235e-05 -1.9678e-07 -9.5561e-07 2.6022e-06 6.9796e-07 3.1077e-06 1.8329e-06 1.4083e-06 -1.2632e-05 4.7769e-06 2.1837e-07 -2.3982e-07 4.2612e-06 -3.8442e-05 1.6901e-06 7.5093e-07 4.4794e-06 -8.2571e-08 8.5333e-07 2.4852e-07 -3.1221e-07 -6.9327e-07 -1.5722e-06 -1.5806e-06 -4.4538e-06 -5.418e-07 2.7158e-06 1.6275e-06 -2.1033e-06 1.0218e-05 -5.8385e-07 2.095e-07 -2.9491e-06 8.6691e-06 6.8401e-06 3.6962e-08 1.6228e-06
0.17399 -3.5278e-07 0.12998 1.202e-06 2.5516e-06 0.28862 -2.9452e-08 -6.6624e-07 0.1855 9.3978e-05 0.00014035 -9.4002e-06 -1.0363e-06 4.6114e-06 1.8885e-06 1.1833e-05 -6.6451e-07 0.16129 0.24965 -0.0001869 -1.8459e-05 -6.5053e-07 1.9243e-05 0.17696 8.5253e-06 -1.2922e-05 3.8426e-05 3.3833e-05 -1.031e-05 4.9364e-06 -1.069e-05 -1.748e-07 2.368e-05 7.6686e-06 1.3122e-05 0.027104 -0.00010028 1.2895e-05 1.5339e-05 2.0227e-05 2.3785e-06 2.251e-06 1.0642e-05 1.0023e-05 1.0128e-08 -8.0483e-06 -1.0095e-05 6.8283e-05 1.8068e-05 7.3106e-05 3.4669e-06 -6.6559e-06 -6.818e-06 2.4253e-05 2.966e-05 3.4553e-06 -1.8796e-05 3.2545e-06 -6.4991e-05 9.6113e-05
0.17399 -3.5278e-07 0.12998 1.202e-06 2.5516e-06 0.28862 -2.9452e-08 -6.6624e-07 0.1855 9.3978e-05 0.00014035 -9.4002e-06 -1.0363e-06 4.6114e-06 1.8885e-06 1.1833e-05 -6.6451e-07 0.16129 0.24965 -0.0001869 -1.8459e-05 -6.5053e-07 1.9243e-05 0.17696 8.5253e-06 -1.2922e-05 3.8426e-05 3.3833e-05 -1.031e-05 4.9364e-06 -1.069e-05 -1.748e-07 2.368e-05 7.6686e-06 1.3122e-05 0.027104 -0.00010028 1.2895e-05 1.5339e-05 2.0227e-05 2.3785e-06 2.251e-06 1.0642e-05 1.0023e-05 1.0128e-08 -8.0483e-06 -1.0095e-05 6.8283e-05 1.8068e-05 7.3106e-05 3.4669e-06 -6.6559e-06 -6.818e-06 2.4253e-05 2.966e-05 3.4553e-06 -1.8796e-05 3.2545e-06 -6.4991e-05 9.6113e-05
1.4415e-05 0.27745 0.13007 -1.4301e-06 2.098e-06 4.3795e-06 -6.1542e-05 -0.00011799 0.18561 6.4778e-05 9.466e-05 0.00021373 -1.0283e-05 -7.7997e-06 -1.4031e-05 -6.1532e-05 -8.2949e-06 0.161 0.25011 -7.1057e-05 7.1106e-05 -2.3643e-06 0.00019192 0.17797 2.974e-05 0.0029767 2.6186e-05 1.3179e-05 1.6414e-06 4.1266e-06 7.4605e-05 -5.5063e-06 -2.4143e-05 0.0035957 0.2913 0.02687 0.00064938 -0.00013422 -0.00056267 0.00030352 2.7337e-07 -7.5011e-06 -4.3893e-05 3.5865e-05 5.9944e-06 -1.7262e-05 0.0002368 -9.6987e-05 -5.0112e-05 0.00012928 6.7425e-05 -5.2717e-05 -9.2019e-05 7.7755e-05 -5.6132e-05 -8.5115e-05 0.00090636 -6.4344e-05 0.0065465 -6.4707e-05
-4.6207e-05 -1.0583e-05 2.5832e-05 0.31593 0.3534 -6.0611e-07 1.0627e-05 3.8477e-05 5.6074e-05 0.27882 3.8663e-05 0.00015536 0.00011725 3.5241e-06 -5.5447e-06 -4.7634e-05 0.00015914 0.00011166 -8.2165e-05 -5.7375e-05 0.00069084 -1.613e-05 0.00069912 -0.00010847 2.5062e-05 0.00051431 -4.5367e-05 0.0013453 -5.0757e-05 -1.8666e-05 0.00053287 0.4082 -2.2656e-05 0.44351 -0.00020682 0.00022267 0.0020972 -0.00011177 7.1866e-05 0.00034229 3.5283e-06 -1.9614e-05 -0.00015725 -7.7645e-05 0.00052982 0.00010605 0.002277 -3.405e-05 8.2595e-06 4.6712e-05 -1.4528e-05 -7.3985e-05 -0.00028944 -6.241e-05 -4.3446e-06 -8.598e-05 -6.0656e-05 1.1815e-05 -0.00070774 7.6539e-05
0.17407 0.27742 0.00016881 1.3701e-05 1.894e-05 2.5259e-05 1.4548e-05 -5.6787e-06 2.2725e-05 0.27615 6.8825e-05 0.00013558 8.3291e-06 3.3049e-06 -1.4461e-06 5.7738e-06 0.00016088 -1.6085e-05 0.00010602 -2.885e-05 0.00016136 1.8618e-05 0.22716 2.6732e-05 -9.0627e-06 1.9922e-05 -5.976e-06 0.00019448 9.2212e-06 -5.2703e-06 -0.00012812 -1.9548e-06 -1.0473e-05 -3.2141e-05 -0.00024714 7.8577e-06 0.0003002 5.4355e-05 1.48e-06 0.0015523 2.3013e-05 -5.4582e-05 0.00016019 1.6219e-05 -2.0482e-05 3.0829e-05 0.40858 7.4844e-05 -1.101e-05 0.00011539 4.2858e-05 0.00012614 0.018204 -3.197e-05 0.00050892 -2.8927e-05 0.00092879 0.00051682 1.4279e-05 -8.969e-05
-1.6589e-05 6.4447e-05 0.13063 0.00024719 -2.5011e-05 1.6665e-06 -1.1036e-05 0.49952 5.5786e-05 -3.5492e-05 2.6208e-05 3.488e-05 -6.2302e-05 -1.3854e-06 1.3767e-05 0.00047784 0.00011658 0.10616 2.6121e-05 -4.8233e-05 0.00033003 -1.8699e-05 0.0026052 -0.16303 -3.7411e-05 0.37385 0.0023131 0.00039116 -5.9195e-05 0.0017883 0.0012835 0.00046171 -4.1699e-05 0.4345 -0.00025431 0.38913 0.0013195 0.00042486 -0.00011146 0.0019858 5.208e-07 -0.00013835 0.0006286 4.2654e-06 0.00017156 0.001016 -0.00019998 -0.00060891 1.4821e-05 0.00020272 8.4456e-06 -4.622e-05 -0.00011752 -2.5558e-05 -0.0022985 -0.00042175 -1.7336e-05 -0.00012984 0.0036089 0.0001615
4.0325e-06 -1.0736e-05 0.00013763 3.6204e-06 1.5291e-05 1.4257e-05 -6.3149e-05 -1.9728e-05 0.18575 7.7356e-05 0.00033825 3.8406e-05 0.00025202 -5.1668e-07 -4.773e-06 4.7788e-05 0.00015925 1.9348e-06 1.1266e-05 -0.00062125 3.5221e-05 -5.9542e-06 2.1759e-05 1.0206e-05 -9.3323e-06 -1.9775e-05 2.9946e-05 0.00045478 -0.00015963 1.3999e-05 0.00021577 6.3898e-05 -2.7079e-05 4.4176e-05 7.0337e-06 -5.1287e-05 0.0010174 9.3116e-06 0.33999 0.0018922 3.6551e-06 -0.0001661 0.33145 2.2989e-06 0.00047726 6.2865e-05 0.41059 -2.4003e-05 -1.9211e-05 2.1208e-05 -9.7579e-07 -8.7664e-05 -0.00010237 2.8183e-06 -4.5499e-05 0.00014027 7.953e-06 0.33292 -0.00077558 -3.3547e-05
1.1466e-08 -3.6754e-06 1.8914e-05 2.8199e-05 2.8925e-05 2.1587e-07 4.3253e-06 0.49903 8.1579e-05 1.2393e-05 4.6117e-05 0.00022907 0.00018873 -1.478e-06 2.0791e-06 4.0747e-05 0.0001817 6.1463e-05 -8.1682e-06 -7.2652e-05 0.00094599 -1.041e-06 1.7186e-05 -4.5785e-05 -1.0651e-05 8.2311e-05 -1.2989e-05 0.00024166 -2.1338e-05 -3.5324e-05 0.00021708 0.00038563 -1.5578e-05 0.00055014 9.6387e-07 0.00019023 0.00082759 4.0308e-06 1.4182e-05 0.00034797 -1.2496e-05 -2.7819e-05 -0.00010178 6.2691e-06 0.00049572 0.49763 0.0020751 -1.997e-05 -7.5228e-06 -2.3628e-05 -1.036e-05 -5.4257e-05 -0.00026334 -0.0001079 0.00052932 1.9486e-05 1.7821e-06 0.00012835 -0.00037015 0.00011009
1.4907e-06 -2.8424e-08 0.12995 1.6111e-06 6.3655e-08 -1.0626e-08 -1.5575e-06 -1.7155e-07 1.2727e-06 2.2784e-06 3.3479e-05 7.822e-06 -3.2818e-07 1.1734e-09 4.8143e-07 7.44e-07 1.0659e-06 1.2069e-05 2.8722e-06 -2.3179e-05 6.8759e-06 1.1092e-07 1.6146e-06 -7.4373e-06 -1.2481e-07 -6.0782e-07 -8.0029e-07 1.3871e-07 3.5525e-06 1.769e-06 2.3939e-06 -1.2483e-05 1.1471e-05 1.4811e-07 -1.4372e-07 1.7608e-06 -3.602e-05 6.857e-07 3.3864e-08 4.2418e-06 -3.284e-07 2.1212e-06 5.6328e-07 -1.0582e-07 -5.402e-07 -2.7199e-06 -1.7597e-06 -2.3486e-06 2.503e-07 3.117e-06 1.5607e-06 -1.3852e-07 1.0982e-05 2.43e-06 2.3246e-06 -3.0993e-06 9.1143e-06 8.4261e-06 -1.2027e-06 -2.2843e-06
-2.0505e-05 6.3255e-05 -9.4434e-06 2.0089e-05 -1.6695e-06 1.2163e-07 0.19588 4.8178e-06 -1.6398e-05 -2.6582e-06 -0.00030794 0.18312 0.33263 5.4135e-07 0.57681 0.24978 3.1301e-05 0.00014477 -5.0188e-06 0.00058603 0.18242 2.3111e-05 0.22732 -0.00023004 1.8597e-05 0.37497 0.00012307 -1.7694e-05 -2.0619e-05 6.7961e-05 -0.00020984 -4.3779e-05 1.3862e-05 -0.00012385 8.5023e-06 0.00022101 0.17823 0.0004066 0.00010481 3.4642e-05 -1.7852e-05 9.2888e-06 6.6326e-05 -1.85e-05 -1.8807e-05 3.522e-06 -1.3687e-05 -6.7684e-06 9.2385e-06 0.00028701 -0.00021316 6.8647e-07 -0.0014688 0.00057348 0.00091023 -0.00029712 -0.00011706 0.00023112 0.0012981 -0.00019938
-1.6052e-05 -5.7098e-06 0.13019 6.2444e-06 6.3267e-05 2.1952e-06 -2.0004e-06 0.00053038 0.18569 7.2915e-05 9.2329e-05 5.7651e-05 2.8663e-06 3.4458e-06 -0.00025471 5.2928e-05 0.000538 -0.00012696 -1.3648e-05 -0.00010789 -5.8305e-05 -8.0471e-06 -5.4773e-05 9.5975e-05 -6.0321e-06 0.38425 6.9494e-06 0.00025749 -4.7215e-05 1.9764e-05 0.0016603 0.0018153 -0.00011687 -7.5045e-05 -2.6289e-05 -0.00025543 0.00026361 0.00018476 6.0484e-05 0.00034929 -1.3224e-05 -1.6586e-05 0.0035032 4.6055e-05 0.002491 5.7535e-05 0.002052 -8.5588e-05 1.9322e-05 0.00013543 -6.3811e-05 -1.6118e-05 -0.0001131 2.1534e-05 -0.00026344 2.4852e-06 5.7032e-08 0.00013556 -5.7113e-05 0.00026224
-5.1734e-06 -7.4435e-06 0.13003 -8.6137e-06 -4.4205e-07 -4.3674e-07 8.1151e-06 -3.0171e-06 -2.0865e-05 -5.1513e-06 3.1844e-05 0.00029768 2.566e-06 -1.4926e-07 -3.8402e-06 -4.2694e-05 1.501e-05 4.4054e-05 -4.1976e-06 -2.3232e-05 -6.283e-05 1.5465e-05 -3.323e-05 -7.1818e-05 -3.9582e-05 -0.00013162 -6.022e-05 0.00099596 5.2486e-06 -1.9114e-05 -2.259e-05 -2.2728e-05 -6.4858e-06 1.2782e-07 1.3778e-05 -1.3573e-05 0.0053796 1.3147e-05 -7.9377e-05 0.00067931 1.6645e-05 6.8631e-06 0.00016653 3.571e-07 -3.9642e-06 2.2179e-06 9.7149e-06 -0.0005435 6.7311e-06 2.048e-05 -9.4111e-06 -7.6189e-06 -8.7025e-06 -0.00027919 -0.00090203 2.1173e-05 0.00060716 1.2418e-06 -0.00026517 -1.7878e-05
0.17411 8.2605e-06 0.13007 3.3163e-05 4.706e-05 -4.1972e-05 3.4361e-05 8.9136e-05 -6.387e-06 -2.3558e-05 0.00028563 0.00025469 0.33411 4.1527e-06 -1.5014e-05 -9.3109e-05 0.30015 0.1569 -0.00014757 -0.00048241 0.00074746 -2.2562e-06 0.00062376 0.18844 -2.6082e-05 -7.8625e-05 -0.00016901 0.3116 7.5394e-07 1.7093e-05 -4.8928e-05 0.00034205 0.31716 0.00021537 3.1283e-07 0.024813 0.0054677 -0.00012108 -0.00012843 -0.00022764 5.2153e-05 -5.8083e-05 -6.1833e-05 -0.00011273 1.7177e-05 8.8679e-05 0.00030516 -0.00027289 0.0013948 -0.0053463 3.6517e-05 0.00080451 -0.00080879 -0.00026628 0.00025107 -8.0152e-06 -7.3643e-06 -0.00019231 -0.00014931 0.01501
1.7958e-05 -3.0443e-05 7.4629e-05 0.00026615 -2.4835e-05 3.1326e-06 0.00010045 8.6039e-05 0.00014482 0.00012135 5.523e-05 0.18538 -1.8672e-06 -4.4025e-06 9.6497e-09 0.00034811 3.8967e-05 0.00034494 3.3867e-06 -5.4087e-05 0.18988 -0.00011168 0.23032 -0.00061779 -0.00011335 -0.00023011 0.0022451 0.0019185 -9.528e-05 0.0027385 0.0011521 2.6817e-06 -1.0414e-05 0.00042741 1.0558e-05 0.00054718 0.20171 1.191e-05 -0.00022823 0.0019071 0.37851 -0.00014342 0.0010418 8.8362e-06 0.00015349 0.0010173 -0.00017468 -0.00032759 1.6317e-05 0.00010269 -0.00024699 -0.0001281 0.0079223 -0.0012618 -0.0022215 -0.00034176 -0.00017409 -0.00022118 0.0035182 -9.4319e-05
1.7413e-06 -2.2291e-05 0.00012692 3.6112e-06 0.35356 -3.2569e-07 -1.0537e-05 2.413e-05 2.4581e-05 -2.2131e-06 -3.1928e-05 0.00017224 -1.9774e-05 -6.2227e-08 -2.1873e-06 -7.68e-05 0.00024726 -8.7302e-05 -4.6429e-06 2.8067e-05 -1.0455e-05 -3.7757e-05 0.0034369 6.0269e-05 2.4837e-05 7.306e-06 0.00083242 0.0008152 -3.3409e-05 9.917e-05 0.359 -8.3831e-05 -0.00015369 -0.0002952 -4.7629e-06 -9.3666e-05 0.0021663 5.2293e-05 5.5223e-05 0.007144 -2.2101e-05 -0.00022843 -4.7346e-05 -1.4248e-05 0.44969 5.9879e-05 -5.0273e-05 -0.00026908 -1.9473e-07 4.4153e-05 0.50705 -6.1103e-05 -3.4447e-06 0.00011341 -0.0015873 -0.00014315 1.488e-05 3.7716e-05 -0.00025157 -0.00010181
-3.1152e-05 3.3538e-05 0.00014573 -2.2338e-05 2.5439e-07 8.6071e-07 0.19599 -3.9654e-05 -6.5341e-05 -6.2255e-05 -0.00014381 0.18226 0.33272 -1.6259e-07 0.57853 0.25058 3.6272e-05 4.6462e-05 -4.0306e-05 0.00035773 0.18246 1.9516e-05 0.22896 -0.00013817 -0.00015056 0.37856 -0.00029247 -0.00021843 -5.4218e-05 2.7117e-05 0.00035169 -4.8578e-05 -9.3398e-05 0.00048499 -1.1884e-05 4.8804e-05 0.17584 0.00033078 -1.9562e-05 -0.00017877 5.0751e-06 1.5846e-05 -0.00027015 -1.7611e-05 -2.767e-05 -8.9417e-06 -0.00011112 -7.4366e-05 2.6879e-05 0.00029833 -0.00021225 -9.8837e-06 -0.00064195 0.00064046 -0.0027513 -0.00035167 -0.00013008 -0.00013774 -0.00053099 -0.00017616
1.7119e-06 -9.0189e-06 2.4933e-06 1.0898e-06 7.8543e-06 -4.6113e-06 -6.124e-05 -7.5552e-08 6.1334e-06 1.6105e-07 0.00012211 1.4231e-06 3.3383e-06 3.6968e-07 2.5587e-06 6.7664e-06 1.895e-06 1.6784e-05 -1.172e-07 -0.00018144 -1.1897e-05 4.2736e-07 1.8595e-07 -1.0655e-05 -4.7334e-06 3.9655e-07 1.0412e-06 -1.5246e-07 -9.2425e-06 6.1273e-07 5.5047e-06 -1.1904e-07 1.3202e-05 3.5351e-06 2.5591e-05 -2.8795e-06 -3.8382e-05 -6.5748e-07 0.0066002 -1.0468e-05 -3.4267e-07 -5.364e-05 0.00010553 1.3922e-06 2.604e-07 3.5708e-07 0.00032281 3.4708e-06 1.205e-06 1.3688e-07 3.3615e-08 1.3143e-07 -4.0079e-06 7.0734e-06 -1.8885e-05 0.00012051 -6.158e-07 0.00013502 -0.0007579 -1.333e-06
0.17411 0.27723 0.12997 2.0231e-06 -2.5925e-06 -3.3281e-07 7.6839e-06 -9.6597e-07 2.9355e-06 1.0868e-05 -2.8439e-05 3.6206e-05 0.33285 5.6798e-06 -2.2947e-05 -4.7541e-07 3.1166e-06 2.8163e-05 5.5157e-07 7.0401e-05 0.00013992 2.0328e-06 1.3609e-05 -3.5319e-05 1.0807e-06 1.491e-05 4.9703e-06 1.1484e-05 1.345e-06 -2.8313e-06 1.0344e-05 -2.6421e-06 1.255e-05 -0.00010188 -3.5524e-05 6.0103e-08 -0.00011841 -2.9302e-05 -3.8394e-06 1.6206e-06 -1.709e-06 7.1044e-07 -1.6562e-05 1.4719e-06 -1.5062e-06 3.4287e-06 -1.3311e-05 4.8603e-05 -2.1672e-06 1.8051e-05 3.269e-07 -8.0895e-06 -6.6336e-05 -7.6528e-06 5.7062e-05 2.7617e-06 1.6615e-05 2.0068e-05 1.7809e-05 -7.1704e-05
-1.3129e-07 -2.054e-06 -4.1683e-07 -8.0951e-06 1.834e-07 1.8132e-07 7.8618e-07 -2.2799e-06 6.1257e-07 7.8594e-07 1.5671e-06 5.8187e-06 7.9476e-07 5.9376e-08 1.0699e-06 7.5238e-06 1.0854e-05 -2.064e-05 3.719e-08 -2.9153e-06 2.1965e-05 -2.2566e-06 -1.1154e-06 2.9731e-05 1.182e-06 -9.0572e-06 -4.445e-05 -7.1296e-06 6.8843e-07 0.44189 -1.1695e-05 -5.9015e-07 -5.6281e-07 -2.4485e-07 4.9476e-08 -1.7365e-05 1.5491e-05 2.8487e-07 7.2241e-06 -4.347e-06 -1.8795e-07 3.8374e-06 2.2637e-05 9.6642e-07 6.1907e-06 -5.1707e-05 2.5306e-06 1.9699e-06 1.0035e-06 -7.3883e-06 -0.0001361 -3.4264e-06 -2.4921e-06 2.9788e-06 1.3245e-05 1.5546e-05 8.1818e-07 -5.0213e-06 -2.3678e-05 2.5645e-05
1.1368e-06 0.27727 5.6206e-06 1.3627e-06 3.1867e-06 1.4646e-06 8.8075e-06 -3.553e-06 -7.872e-07 -2.6559e-05 -0.00013594 0.18144 -4.9753e-07 -2.0285e-08 7.8747e-06 0.00015311 3.1763e-05 0.16132 9.218e-06 0.0011574 0.18128 2.6959e-05 0.00013447 0.17694 0.44666 4.4445e-05 0.00014489 4.829e-05 1.0704e-05 9.6865e-06 -3.8476e-05 -1.9343e-05 9.4726e-05 -0.00010527 -3.924e-05 0.027141 0.17104 3.7876e-06 9.5243e-05 0.00066621 -5.0934e-06 0.40805 -3.7445e-05 4.8197e-06 -6.3245e-06 1.1426e-05 -2.6867e-05 0.4462 4.6554e-06 6.0235e-05 -0.0001217 -1.4809e-05 -0.0012104 0.00061056 0.00079134 0.44677 -0.0001049 0.00063445 -0.00079275 -0.00015597
2.5487e-06 -2.6151e-06 0.13007 -3.7268e-05 -5.0438e-06 8.8264e-07 7.9095e-06 5.1786e-06 -5.2697e-05 -3.951e-06 3.09e-05 0.00028728 1.2277e-06 -4.937e-07 -4.0801e-06 -0.00015167 7.3992e-06 7.705e-05 -2.3988e-05 -2.8973e-05 -0.00012366 1.2435e-05 -0.00013044 -0.00010917 0.00029781 -0.00012647 -0.00011646 0.00083175 5.7122e-05 -2.0341e-05 -0.00015348 -1.4844e-05 1.5048e-05 2.8466e-06 4.8059e-05 -9.4979e-06 0.0052758 1.2635e-05 -2.6645e-05 0.47494 1.5808e-05 0.40885 0.00011514 2.9433e-06 -2.3055e-05 2.3106e-06 -0.00019685 -0.00082647 1.1021e-05 3.8426e-05 -4.7828e-05 3.6459e-05 -7.9146e-06 -0.00020344 -0.00061887 0.0013997 0.70131 -4.9891e-06 -0.00058979 -0.00014539
-1.0818e-05 7.1591e-05 0.13068 0.31629 -1.389e-05 -2.7017e-06 -3.5591e-06 9.472e-05 5.7475e-05 -3.8148e-05 0.00011205 6.546e-06 -2.1673e-06 -1.8971e-07 -2.2975e-06 0.00051727 0.00013598 0.00015433 0.00017466 -0.00016079 0.00011976 2.526e-05 0.0027157 -0.00031298 -7.2965e-05 9.7216e-06 0.0023695 0.00042853 -0.00011908 0.0018167 0.001349 -2.5502e-05 -6.1952e-06 0.00056212 -1.776e-05 0.00046626 0.0045276 4.55e-05 -0.00025545 0.0019106 -1.1571e-05 -0.00013206 0.0006186 -1.9116e-05 0.0001696 0.00098726 -0.00027558 -0.00068374 3.1976e-06 2.7904e-05 -1.3604e-06 -5.7972e-05 -0.00014655 -2.3576e-05 -0.003048 -0.00048223 0.013671 -0.00030238 0.0042788 0.00012278
0.17399 7.2498e-07 -2.55e-06 7.6961e-07 1.7947e-06 3.4625e-06 0.19586 4.969e-06 -0.00067035 0.28218 -1.6752e-05 -2.4552e-05 -1.6583e-06 -6.7854e-07 2.8508e-06 1.4955e-05 3.5582e-06 0.16128 0.25121 6.4866e-06 -1.4236e-05 -8.0581e-07 2.0182e-05 0.17697 5.4005e-06 -1.7385e-05 5.0807e-05 3.8727e-05 6.9122e-06 2.5178e-06 -2.833e-05 1.5318e-05 4.0606e-05 -9.2266e-05 0.28832 0.027104 -0.0002596 -1.3068e-06 7.519e-06 3.0397e-05 -2.7703e-06 3.3217e-06 -6.6843e-05 -0.00032025 1.9593e-05 -6.7475e-06 6.8388e-05 0.00010289 -1.3827e-05 8.2505e-05 -1.1375e-05 -0.00023234 -0.00019861 3.1205e-05 0.00012266 2.4221e-06 -2.7848e-05 1.8975e-05 -0.0002023 -0.00018584
0.17404 4.1071e-05 2.5871e-05 4.0129e-05 4.444e-05 -2.8257e-05 0.19585 2.4604e-06 2.428e-05 -6.5069e-06 6.7678e-05 -1.2086e-05 -3.4847e-06 -2.7122e-07 6.3862e-06 6.4326e-06 3.6068e-06 0.16156 0.24961 -0.00013088 2.5496e-05 -1.4473e-06 1.8308e-05 0.17674 1.7639e-05 -4.7482e-05 3.0604e-05 6.328e-06 7.5352e-06 1.2081e-05 -1.8968e-05 1.7619e-05 1.1448e-05 -0.00011824 0.28828 0.027597 -0.0003215 -2.8365e-05 0.00030333 2.849e-05 3.1519e-06 8.6789e-06 0.0048948 9.8186e-06 5.8866e-06 -6.3769e-06 0.0011486 2.906e-05 -2.2712e-05 6.8022e-05 -9.6695e-06 -4.9132e-05 -8.8536e-05 -3.1156e-05 2.5854e-05 6.8156e-05 -2.7139e-05 4.5196e-05 -0.00039401 6.3713e-05
-6.4721e-06 -3.6936e-06 -4.3828e-06 3.5317e-05 8.7161e-05 2.5652e-06 8.9071e-06 -0.0001141 -9.8634e-06 3.9882e-05 -1.7911e-05 -3.3004e-05 2.3339e-05 -1.924e-08 -6.5728e-06 -0.00012942 6.797e-05 4.294e-05 -2.7794e-06 1.6088e-05 -0.00024423 -6.5723e-06 0.00072019 9.5446e-06 -1.2667e-05 0.00046842 -5.2105e-05 0.31099 -9.1495e-07 7.6774e-06 0.00030746 0.4077 2.4915e-05 0.0085934 3.0735e-06 8.7071e-05 0.001742 8.6823e-06 2.6286e-05 -0.00029456 -1.016e-05 2.0312e-05 -5.6754e-05 2.1732e-06 8.6611e-05 -0.00010193 -5.6052e-06 -3.4009e-06 -0.00012168 0.00034211 3.7448e-05 -0.00013074 -1.0938e-05 -1.4582e-05 -0.00068008 -3.9333e-05 -2.7158e-06 1.4677e-05 0.00030195 -0.000843
-2.1853e-07 3.3162e-05 0.00030018 -1.3466e-05 0.35388 -3.5013e-05 0.00062331 0.50248 5.0306e-05 -5.4165e-05 0.00015053 0.00015086 8.8449e-05 9.7157e-06 -1.5873e-05 -7.289e-05 0.30076 -6.689e-05 -4.9371e-05 -9.8605e-05 -7.3582e-05 1.306e-05 0.0070243 0.00014984 -3.5521e-05 0.00017505 -0.00033743 0.0026866 8.3727e-05 2.4824e-05 0.32788 0.40817 -8.5918e-05 0.00016768 -2.8133e-05 0.00016219 0.0019679 -0.00017004 2.0202e-05 -0.00025979 0.00047878 1.1112e-05 0.0043094 -2.0534e-05 0.44343 1.8407e-06 0.00010315 -3.8716e-05 0.0016685 -0.0066307 0.00014806 0.0011129 -9.9628e-05 -2.353e-05 -0.0053007 -1.3911e-05 6.2362e-05 2.531e-05 -1.6386e-05 0.017639
3.0553e-06 8.6595e-07 -6.0239e-06 0.00027547 -2.0285e-06 -3.9484e-07 4.21e-05 -3.1467e-08 1.2142e-06 5.014e-06 2.2368e-05 1.7556e-07 1.3446e-06 -2.1717e-07 -3.3311e-06 2.1451e-06 6.6013e-07 1.1082e-05 -9.1087e-07 -3.6068e-05 4.7754e-06 3.9905e-06 3.1617e-05 -7.0545e-06 8.6297e-06 1.6246e-05 -9.5303e-08 -7.3566e-07 -6.2392e-06 -1.588e-06 -6.1103e-08 9.1613e-07 5.1564e-06 3.7218e-06 -1.3467e-05 1.0777e-05 5.7828e-06 -3.64e-06 -8.0891e-06 1.029e-07 2.349e-06 -6.5382e-07 5.9739e-05 3.0985e-06 7.3579e-07 1.0258e-06 -1.3456e-05 -1.2294e-05 -7.8883e-07 -3.1779e-06 1.6126e-05 -7.6994e-06 6.81e-06 -2.4028e-06 1.6201e-06 -4.7713e-07 6.1727e-07 4.7004e-06 2.9859e-05 7.1455e-06
2.1082e-05 6.0985e-05 0.13003 1.5624e-05 -1.2884e-05 -8.1986e-07 0.00027386 -3.5253e-06 0.18566 4.4766e-05 0.00029747 0.18153 0.00012607 3.2011e-06 -3.5816e-05 6.4708e-05 8.7336e-05 0.16063 -8.3907e-06 -0.00033606 0.18065 2.3762e-05 0.00077302 0.17857 7.7422e-05 -4.8883e-05 1.7192e-06 0.30804 -3.9548e-05 2.769e-05 -0.00011438 -2.1705e-05 0.31583 -0.00012702 -4.418e-05 0.026727 0.1775 1.8582e-05 9.8207e-05 -0.0002415 -6.6222e-05 5.7752e-06 -9.3953e-05 -2.3848e-05 -3.6675e-06 -3.433e-05 -1.1708e-05 0.000403 -0.00010311 0.00039799 -8.4485e-05 -0.00014483 -0.0018187 0.00037999 0.00037963 -4.3279e-05 -0.00012057 0.00019515 9.3378e-05 -0.0010022
0.17399 0.27728 0.13001 -1.8336e-05 4.0133e-06 2.5787e-06 0.19583 -9.2803e-06 -2.5519e-05 -3.8527e-06 0.28237 0.1816 1.4594e-05 -6.4883e-07 2.25e-05 0.24962 4.5129e-05 0.16131 3.6408e-06 0.28558 0.18151 1.9216e-05 6.8814e-05 0.17701 0.44758 6.01e-05 0.35216 7.7524e-05 0.30055 -2.1914e-05 -2.3202e-05 -2.3566e-05 0.3157 -0.00011697 -5.4875e-05 0.027067 0.17164 -9.453e-07 0.33048 0.00062688 -9.5219e-06 0.40818 -0.00010239 1.8355e-06 -4.6348e-06 -8.5425e-06 -1.1428e-05 0.44788 5.2156e-06 1.8964e-05 -0.00013646 1.4595e-06 -0.00098742 0.49988 0.00092035 0.44751 -8.9559e-05 0.33169 0.37146 -7.2125e-05
4.1913e-05 4.2603e-05 0.13097 -2.1923e-05 1.2529e-05 6.3332e-06 0.19704 1.7862e-05 0.0011346 -5.4056e-05 9.9264e-05 0.18299 1.5026e-05 9.396e-06 -3.7712e-05 -0.00010203 2.2587e-05 -0.00020473 6.3924e-05 -3.0868e-05 0.17953 0.00014046 0.22898 5.025e-05 -5.5595e-05 -0.00019891 -0.00017427 0.0017986 6.7992e-05 0.0027667 -9.6606e-05 7.3111e-05 -0.00017798 -0.00010872 -0.00012698 -3.9521e-05 0.19378 6.868e-05 -5.9631e-05 0.00041828 0.00044595 -0.00013599 0.00064906 -1.463e-06 0.0010238 -1.1623e-05 0.00027374 -0.00065093 8.9127e-05 7.7582e-05 0.010078 -3.9791e-05 -0.0014496 -0.00030432 -0.0014189 5.5685e-05 0.0014759 -0.00012728 -0.00016932 -0.00017668
6.8515e-09 3.2176e-06 2.5813e-06 3.4129e-06 3.21e-06 9.9073e-07 -5.4768e-06 1.8564e-05 -9.4066e-06 1.3637e-06 1.1192e-05 -1.4423e-05 -3.8629e-06 1.3044e-06 -7.996e-05 1.4203e-05 4.1951e-06 0.16105 2.3509e-05 -7.9324e-06 6.1928e-05 -1.1727e-06 -2.0705e-06 0.17809 -1.115e-05 0.37663 1.1119e-05 1.2928e-05 8.4497e-06 -9.3093e-06 -3.2405e-05 1.8438e-06 1.2775e-05 1.3644e-06 -2.4918e-05 0.026966 -0.00018261 0.00030812 1.4436e-06 1.0542e-05 7.1e-06 -2.6041e-06 -3.4393e-06 -2.2536e-06 3.8035e-07 -8.835e-06 2.5544e-07 3.6355e-06 -9.025e-06 0.0002237 2.3743e-05 -6.021e-06 3.6394e-05 3.4195e-05 -7.2843e-06 7.0023e-06 3.8212e-07 7.331e-06 -0.00010549 -1.9678e-05
-5.1251e-09 -4.1136e-07 4.8958e-06 3.3545e-07 1.6992e-06 6.1626e-09 6.9171e-06 0.49895 -2.119e-06 -2.7949e-07 -5.3571e-06 -9.238e-07 1.3283e-07 -3.4887e-07 3.1346e-07 -1.1072e-05 -5.8937e-07 -1.3147e-06 7.4673e-07 7.6086e-06 -6.6717e-06 -6.1533e-07 -1.978e-05 -2.6006e-06 1.1898e-06 9.6044e-05 -9.6975e-06 7.9428e-06 6.5461e-07 -5.7096e-06 6.4864e-06 -9.9687e-06 1.9651e-06 0.0001907 -3.8209e-07 -3.7163e-07 -8.264e-06 1.5326e-06 -3.9485e-06 2.3097e-05 1.6782e-06 -2.3569e-06 -6.1782e-05 8.9991e-07 2.8782e-05 -4.9274e-05 9.9574e-07 1.0082e-06 2.7159e-06 -9.1757e-06 8.7595e-06 -6.9461e-06 2.4768e-06 2.049e-07 5.8405e-05 9.6169e-07 3.7793e-06 2.0987e-06 -1.9751e-06 3.3679e-05
0.17401 5.3543e-06 0.12997 3.1418e-06 1.3108e-06 0.28863 0.19584 3.3296e-06 0.18553 0.27617 0.00010694 -2.2036e-06 -8.1834e-06 0.5 2.8575e-06 2.1008e-05 1.6243e-06 0.16129 0.24964 -0.00015492 -4.9617e-05 -2.2047e-06 2.6871e-05 0.17695 7.3201e-06 1.2378e-05 4.0377e-05 -0.00011689 -7.2877e-06 5.4063e-06 -4.6347e-05 6.0088e-06 2.496e-05 -0.00011185 0.2881 0.027089 -0.00022396 0.35429 2.7864e-05 3.3664e-05 -5.577e-06 9.355e-06 2.0738e-05 6.3594e-05 -8.5066e-06 -7.9338e-06 -1.6117e-05 7.3008e-05 -7.6548e-05 0.30902 -8.2095e-05 0.44659 -3.2539e-05 2.6428e-05 6.8147e-05 -3.1123e-06 -2.1472e-05 3.1977e-05 -0.00025066 0.4403
-3.3607e-05 3.4382e-05 0.13043 1.3099e-05 1.949e-05 -3.4696e-06 -1.0302e-05 9.256e-05 2.705e-06 -3.5332e-05 8.2653e-05 0.18174 0.00022743 2.5525e-07 1.1371e-05 0.25 0.30057 0.26702 -3.2246e-05 -7.9423e-05 0.18178 0.57735 0.22881 0.014906 -2.6569e-05 6.892e-05 2.4136e-05 8.8307e-05 -3.4172e-05 2.0023e-05 -4.5988e-05 0.00028011 4.9577e-06 0.00039377 -7.8318e-06 0.41576 0.17544 4.5868e-05 -0.00013622 2.62e-05 9.189e-06 5.1103e-06 -0.0001424 -1.9886e-06 -5.0125e-05 0.00016628 4.7226e-05 -4.6178e-05 6.7079e-06 2.2219e-05 -0.00015021 -2.5271e-05 -0.0012757 0.00053076 0.57728 0.00018992 -4.5105e-05 0.00015977 -0.0004983 -1.2675e-05
0.17401 5.3768e-06 0.12997 2.8212e-06 2.0503e-06 0.28862 0.19584 1.8642e-06 0.18553 0.27611 0.00010643 -1.3562e-05 9.7728e-06 0.0003644 2.7099e-06 1.415e-05 3.1902e-06 0.1613 0.24963 -0.00015495 -3.0585e-05 -2.89e-06 2.3418e-05 0.17696 5.4075e-06 2.9352e-06 3.5074e-05 6.1707e-05 -8.9939e-06 2.5101e-06 -2.5809e-05 5.9452e-06 1.803e-05 -0.00011195 0.28809 0.027092 -0.00017293 0.354 2.6722e-05 3.9089e-05 -5.5544e-06 7.8805e-06 1.2188e-05 6.8418e-05 1.5679e-05 -9.5235e-06 4.5878e-05 6.687e-05 0.49965 0.44541 -7.6034e-05 0.0039868 -5.2348e-05 2.1009e-05 5.9633e-05 -5.6402e-06 -1.8328e-05 2.4144e-05 -0.00024183 0.0019797
-7.8041e-06 -4.3417e-06 0.13007 -1.9179e-06 -1.2239e-05 1.3413e-06 -4.7265e-06 6.4996e-05 3.3516e-06 -5.5466e-07 0.00013078 8.8976e-05 -6.2663e-05 1.354e-06 -2.6433e-06 0.24962 -2.5915e-05 2.3061e-05 1.2656e-05 -0.00014246 2.4609e-05 3.8254e-07 -3.1974e-05 -2.098e-05 2.5192e-05 2.05e-05 2.825e-06 -2.1845e-05 -5.2241e-05 1.1942e-05 -7.0789e-05 -4.4423e-05 2.5325e-05 0.43604 -0.00022969 -4.707e-05 -0.00014031 2.3015e-06 -0.00021676 -5.2466e-05 -5.3003e-06 5.5202e-06 3.2963e-05 5.6517e-07 2.1373e-06 -2.097e-05 -2.8307e-05 -3.4247e-05 -3.3095e-07 -8.4871e-06 6.0121e-06 1.9568e-05 7.5252e-05 4.0857e-05 0.00010448 4.6909e-06 7.7347e-06 0.00019222 -0.00034729 1.7733e-06
0.17402 9.1961e-06 0.12993 -2.2799e-05 1.7408e-06 -2.3619e-06 0.19588 -4.9855e-06 2.4286e-05 2.0101e-05 0.30039 -2.284e-05 1.3109e-05 -1.0075e-06 -1.6232e-05 0.24966 1.0929e-05 -8.8656e-05 -8.4706e-06 0.29558 7.8248e-05 -6.147e-06 -7.7012e-05 0.0001197 -0.00057427 2.0536e-05 0.35205 2.4735e-05 0.30106 -3.145e-05 8.6942e-06 1.4543e-05 0.31612 -3.3282e-05 -1.7935e-05 -9.3041e-05 7.4917e-05 -3.2794e-05 0.33039 -1.9826e-06 -4.6143e-06 8.8067e-05 -5.7254e-05 -1.2798e-06 -1.1644e-06 -1.9162e-06 5.5552e-05 -0.001037 3.2326e-06 -3.33e-05 -2.115e-05 1.8561e-05 0.00013596 6.3746e-05 0.00015162 -0.00023768 1.5318e-05 0.33278 0.37209 6.9504e-05
0.17407 -0.00014879 0.13014 3.8036e-05 -2.2339e-07 1.5963e-06 0.19595 9.3128e-07 0.18559 0.00027348 0.00017017 0.0031058 -2.1287e-05 -2.183e-06 -1.8005e-06 -0.00012617 -0.00010451 0.00024434 0.00014099 -0.00029586 0.0077083 -8.1386e-05 -0.00023494 -0.00020439 -1.3164e-05 -0.00027129 -7.0541e-05 -4.3448e-05 -9.3579e-06 4.1541e-06 1.9868e-05 1.6329e-05 -2.9184e-05 3.3898e-06 5.6019e-05 7.3774e-05 0.028141 -1.1661e-06 -0.00017241 4.2883e-05 2.2167e-05 -6.3312e-06 0.00016638 1.012e-06 -2.8525e-06 8.445e-06 8.1806e-06 -0.00025198 -3.0447e-06 1.4529e-06 -2.3203e-05 -0.00011532 0.0093498 -0.0017631 -0.00093177 -7.0792e-05 -2.5912e-05 -2.8511e-05 -0.00060629 1.692e-06
-3.7394e-05 -1.1932e-06 1.4493e-05 0.31655 -7.3764e-06 0.28885 -2.7448e-05 -3.8494e-06 0.1859 2.2533e-05 0.28216 1.9207e-05 5.7661e-06 1.7432e-05 1.5459e-05 0.24985 3.1164e-08 5.3232e-06 1.1837e-05 0.28551 0.00024254 -1.0197e-05 9.1368e-06 5.1456e-06 0.00061034 1.0351e-05 -9.1094e-05 5.5191e-05 0.30329 4.2865e-07 8.73e-06 -1.3162e-05 -0.00015436 6.9741e-05 3.7232e-05 -1.2277e-05 0.00026247 3.0033e-05 0.3352 -0.00023833 -6.5879e-06 -0.00012901 -0.00011191 -2.6616e-05 -5.1938e-05 3.8939e-06 0.40726 0.00086914 6.4949e-07 1.0897e-05 4.7451e-05 -0.00011372 0.00011331 0.50034 1.2828e-05 0.00056193 -5.6653e-05 0.3369 -0.00084498 0.00017309
2.1293e-06 1.22e-06 -6.0963e-05 0.31654 -6.4622e-06 0.28884 3.6429e-05 -3.1075e-06 0.18595 1.9927e-05 0.30004 -0.00016185 3.7836e-06 1.7053e-05 -1.5398e-05 0.25005 -2.4056e-06 -7.024e-05 8.944e-06 0.29667 9.2863e-05 -8.6009e-06 -2.2202e-06 5.9184e-05 -0.0008911 1.5232e-05 -6.2222e-05 5.0692e-05 0.30381 5.7883e-07 2.1507e-06 5.6039e-06 0.00036711 4.8158e-05 3.4932e-05 -3.0833e-05 -0.00026163 1.9721e-06 0.33521 -0.00020098 -6.7737e-06 -0.00016836 -0.00010421 -2.4911e-05 -5.4792e-05 2.1946e-05 0.4073 -0.0018477 3.3218e-06 1.8868e-05 4.1057e-05 -0.00011143 2.627e-05 0.0011283 3.5432e-05 -0.00041605 -5.6673e-05 0.33862 -0.00099897 0.00015875
0.17399 7.2498e-07 -2.55e-06 7.6961e-07 1.7947e-06 3.4625e-06 0.19586 4.969e-06 -0.00067035 0.28218 -1.6752e-05 -2.4552e-05 -1.6583e-06 -6.7854e-07 2.8508e-06 1.4955e-05 3.5582e-06 0.16128 0.25121 6.4866e-06 -1.4236e-05 -8.0581e-07 2.0182e-05 0.17697 5.4005e-06 -1.7385e-05 5.0807e-05 3.8727e-05 6.9122e-06 2.5178e-06 -2.833e-05 1.5318e-05 4.0606e-05 -9.2266e-05 0.28832 0.027104 -0.0002596 -1.3068e-06 7.519e-06 3.0397e-05 -2.7703e-06 3.3217e-06 -6.6843e-05 -0.00032025 1.9593e-05 -6.7475e-06 6.8388e-05 0.00010289 -1.3827e-05 8.2505e-05 -1.1375e-05 -0.00023234 -0.00019861 3.1205e-05 0.00012266 2.4221e-06 -2.7848e-05 1.8975e-05 -0.0002023 -0.00018584
0.17401 5.5597e-06 0.12998 1.5235e-06 2.0449e-06 0.28862 2.928e-06 -1.4586e-07 0.18553 0.27614 0.00012914 -1.5025e-05 1.209e-05 0.00036666 1.9438e-06 1.2566e-05 -1.9879e-07 0.1613 0.24964 -0.00016955 -3.6067e-05 -9.9238e-07 2.3453e-05 0.17697 6.5699e-06 -6.8965e-06 3.7246e-05 6.3269e-05 -1.1261e-05 2.6419e-06 -2.699e-05 1.5166e-06 1.7422e-05 -0.00011196 0.28806 0.02709 -0.00017282 0.35406 -2.2327e-06 3.9684e-05 6.9299e-07 4.1444e-06 1.705e-05 0.5 1.2529e-05 -9.7633e-06 4.7622e-05 6.8711e-05 0.49965 0.44564 -8.8607e-05 0.0041952 -4.7865e-05 1.9941e-05 5.8869e-05 -6.5624e-06 -2.0494e-05 5.7829e-06 -0.00024069 0.0014765
2.0734e-06 7.953e-08 0.12996 3.2013e-06 2.4267e-06 -5.8409e-07 0.19585 1.2001e-06 0.1855 8.4114e-05 9.2502e-05 -2.7847e-08 -5.9071e-06 -8.1944e-07 1.9905e-06 5.2662e-06 9.3562e-07 0.16124 3.6773e-05 -0.000119 3.5572e-07 -2.3139e-06 1.1208e-05 0.17712 4.0868e-06 -2.1534e-05 2.2858e-05 2.6213e-05 -2.6566e-06 5.4229e-06 -9.2542e-06 -5.3289e-06 1.6944e-05 2.4566e-07 1.3956e-05 0.027093 -1.7815e-05 -2.9038e-07 2.3927e-05 1.0301e-05 -4.4548e-06 7.0065e-06 -7.7765e-06 6.2816e-06 6.9738e-08 -8.1743e-06 -1.4459e-05 2.8082e-06 -3.9303e-06 3.3959e-05 -9.4393e-06 6.7534e-06 7.8726e-06 1.6842e-05 1.467e-05 -2.0919e-06 1.1166e-05 2.9446e-05 -4.9134e-05 -4.4042e-05
0.17452 2.4868e-05 0.13031 1.3219e-06 1.7673e-06 -1.1631e-05 2.242e-05 -9.9558e-06 -4.0309e-05 -5.3718e-05 0.00024355 0.18166 5.5763e-06 3.7012e-06 1.1247e-05 4.6048e-05 2.4397e-05 0.16125 0.25048 -0.00027025 0.18106 7.0203e-05 0.2276 0.17714 -2.7861e-05 -1.1238e-05 -4.9565e-06 -2.162e-05 6.0468e-05 -3.5661e-06 -0.00016941 -1.1821e-05 -1.2962e-05 -0.00010733 -5.9221e-05 0.027129 0.17667 3.1563e-05 0.00014178 -4.8982e-05 -1.8034e-05 -7.6729e-06 -0.00018158 -1.9252e-05 -1.3715e-05 6.5995e-06 -1.3997e-06 -3.4969e-05 -1.6508e-05 0.00011827 -0.00020077 -2.264e-05 -0.0015824 0.0003781 0.0012161 9.2106e-05 -0.00014278 0.00010708 -2.1988e-05 -0.00020321
0.00010808 3.7656e-05 -4.1268e-06 2.9203e-06 0.3533 -3.0172e-06 0.19587 1.4569e-06 -9.4927e-06 2.8873e-05 -2.797e-05 0.1815 4.6355e-06 -3.2649e-06 9.0285e-06 5.9972e-05 0.0001168 0.16146 -3.8077e-06 6.3087e-05 0.18179 2.9177e-05 0.00010418 0.17695 5.9364e-05 -1.8953e-05 -1.3076e-05 0.30866 8.7558e-06 1.6022e-05 -0.00014655 0.0004668 -2.1712e-05 -0.00013865 -1.2853e-06 0.027211 0.17276 -4.368e-05 9.5675e-05 -0.00019627 7.8074e-05 2.4431e-05 -9.9762e-05 1.6761e-05 2.4628e-05 -5.4726e-05 0.0009888 0.00039759 -0.00011336 -0.002435 4.0766e-06 -0.00061446 -0.0015722 0.00053616 0.00087215 0.00012463 -0.00011949 0.00012807 0.00019231 0.012108
4.6338e-05 0.27746 1.1521e-05 0.31601 0.35372 -2.0566e-05 8.2578e-06 -2.3904e-05 0.18569 4.4302e-05 0.00014239 0.00011854 1.2502e-05 5.314e-07 1.0504e-05 2.6544e-05 8.0025e-06 0.10931 3.7695e-05 -0.00019813 -2.3287e-05 1.681e-05 0.22756 -0.16735 6.3293e-05 -0.00014756 -0.00013949 -7.0154e-05 -3.8177e-05 5.3964e-05 -0.00015197 -1.0876e-05 -9.6776e-06 -4.6372e-05 0.00012706 0.39531 0.00022315 -2.8186e-07 0.00020071 -0.00010074 1.6389e-05 7.2673e-06 0.33661 -2.509e-06 -1.5204e-05 1.1999e-05 0.0010962 3.3704e-05 -1.542e-06 -3.1162e-06 -2.0114e-05 -4.4444e-05 -0.00011769 1.4963e-05 0.0003617 7.1308e-05 -2.521e-05 -6.1063e-05 -0.00022739 0.00010514
-2.9685e-05 8.0679e-05 0.13013 1.7261e-05 7.7791e-05 6.8311e-06 -5.1559e-05 -0.00017461 7.3472e-05 -3.1456e-05 5.0207e-05 0.00045544 -2.0647e-05 -9.4674e-06 -7.6343e-06 -0.0001188 -1.2672e-05 -0.00014295 0.00019447 -5.3767e-05 -0.00033363 -2.5933e-05 0.0018717 0.00030875 -6.2914e-05 0.38356 -0.00012817 0.0010666 -2.8769e-05 0.00062524 0.32109 0.0019236 -5.2954e-05 0.44709 0.0030126 -9.2335e-05 0.0036292 0.00011116 -0.00051121 0.00019084 -7.3262e-06 1.9051e-05 0.00097512 3.7933e-05 9.3338e-06 -3.3455e-05 -4.8452e-05 -0.00028765 -4.3295e-05 0.00031781 -2.9437e-06 -9.2811e-05 -0.00083178 1.1775e-05 -0.0025304 -0.00014 -2.1403e-05 -5.6512e-05 0.0062414 -4.5818e-05
3.2756e-06 -3.0156e-07 0.00016095 1.2948e-06 -4.5316e-06 2.315e-09 -1.0057e-07 -5.9944e-06 0.18555 7.715e-05 9.1089e-05 7.3067e-06 1.6988e-06 3.0191e-07 -5.7064e-07 -2.0736e-06 2.0619e-05 -3.0114e-06 2.488e-05 -0.00012512 -5.1912e-05 -4.0225e-07 -5.3579e-06 -1.3679e-05 3.5294e-06 -5.911e-06 -1.0538e-05 -6.8953e-05 -1.1668e-05 -1.1973e-05 7.2279e-05 8.1701e-06 2.1184e-05 1.0263e-05 -1.2199e-05 3.5103e-05 9.3193e-05 -7.1859e-07 1.0107e-05 -2.7298e-05 -1.4287e-05 -1.6086e-06 2.5225e-05 -9.1163e-06 -1.9424e-05 0.49946 2.205e-06 7.5805e-06 -7.051e-06 -1.4522e-06 0.00073701 1.1522e-05 3.9695e-06 -1.8757e-05 -6.0048e-06 1.6064e-05 7.5408e-07 1.6836e-05 -6.3986e-05 -4.0317e-06
0.17402 9.1961e-06 0.12993 -2.2799e-05 1.7408e-06 -2.3619e-06 0.19588 -4.9855e-06 2.4286e-05 2.0101e-05 0.30039 -2.284e-05 1.3109e-05 -1.0075e-06 -1.6232e-05 0.24966 1.0929e-05 -8.8656e-05 -8.4706e-06 0.29558 7.8248e-05 -6.147e-06 -7.7012e-05 0.0001197 -0.00057427 2.0536e-05 0.35205 2.4735e-05 0.30106 -3.145e-05 8.6942e-06 1.4543e-05 0.31612 -3.3282e-05 -1.7935e-05 -9.3041e-05 7.4917e-05 -3.2794e-05 0.33039 -1.9826e-06 -4.6143e-06 8.8067e-05 -5.7254e-05 -1.2798e-06 -1.1644e-06 -1.9162e-06 5.5552e-05 -0.001037 3.2326e-06 -3.33e-05 -2.115e-05 1.8561e-05 0.00013596 6.3746e-05 0.00015162 -0.00023768 1.5318e-05 0.33278 0.37209 6.9504e-05
-1.0818e-05 7.1591e-05 0.13068 0.31629 -1.389e-05 -2.7017e-06 -3.5591e-06 9.472e-05 5.7475e-05 -3.8148e-05 0.00011205 6.546e-06 -2.1673e-06 -1.8971e-07 -2.2975e-06 0.00051727 0.00013598 0.00015433 0.00017466 -0.00016079 0.00011976 2.526e-05 0.0027157 -0.00031298 -7.2965e-05 9.7216e-06 0.0023695 0.00042853 -0.00011908 0.0018167 0.001349 -2.5502e-05 -6.1952e-06 0.00056212 -1.776e-05 0.00046626 0.0045276 4.55e-05 -0.00025545 0.0019106 -1.1571e-05 -0.00013206 0.0006186 -1.9116e-05 0.0001696 0.00098726 -0.00027558 -0.00068374 3.1976e-06 2.7904e-05 -1.3604e-06 -5.7972e-05 -0.00014655 -2.3576e-05 -0.003048 -0.00048223 0.013671 -0.00030238 0.0042788 0.00012278
-6.303e-06 4.2194e-05 5.2716e-05 2.2144e-05 0.35355 7.4376e-06 -4.3449e-06 0.00026214 1.3775e-05 4.3181e-06 -6.1369e-05 -9.6776e-05 0.33451 -7.3494e-07 6.4466e-06 -0.0002119 0.30073 0.10629 -5.153e-06 3.2608e-05 -0.00019991 3.0478e-05 0.23529 -0.16312 -4.1584e-06 0.00052756 -0.00025258 0.00098125 -4.4886e-06 6.8786e-06 0.0028238 0.40958 -9.8214e-05 0.4735 -0.00025702 0.39066 0.00076606 -3.3255e-05 0.00015961 -0.00018105 2.7648e-05 7.7001e-06 2.3055e-05 -7.3402e-06 0.00011745 -1.3538e-05 -0.0001379 -1.4515e-05 -3.5265e-07 -1.3541e-05 -0.00010529 -4.2462e-05 0.00018542 5.2884e-05 -0.0051467 -8.4475e-06 6.6963e-05 1.3257e-05 -0.00034914 9.9059e-05
0.17441 1.5423e-05 0.13019 5.1785e-06 1.1129e-06 -6.6957e-07 1.0036e-06 1.6477e-07 -2.3975e-05 -1.3261e-05 0.28414 0.00017126 0.33289 4.4026e-06 -1.8989e-05 -9.2261e-05 2.0271e-06 7.1581e-05 0.00013042 0.28338 0.00010953 2.9657e-06 4.4853e-05 -7.3533e-05 0.00059422 1.925e-06 1.8428e-05 2.6304e-05 -0.0004707 2.0045e-06 7.6406e-06 -2.7237e-05 -0.00030559 -8.4255e-05 -2.5544e-05 1.3653e-05 -7.8525e-05 -1.5133e-05 1.0802e-05 1.2343e-06 -1.3714e-06 1.3365e-05 0.00010505 -9.122e-06 9.1369e-07 2.652e-06 0.00024482 0.00094239 -6.2383e-06 1.3001e-05 1.8697e-06 -3.555e-05 0.00017822 4.8927e-05 8.9935e-06 0.00033858 0.00091845 -0.00069593 -0.000553 -2.8668e-05
-2.4508e-07 1.5386e-06 1.3273e-05 -3.9624e-07 2.8024e-06 5.6098e-08 -2.2671e-06 9.8976e-07 7.586e-05 -3.848e-06 1.7839e-05 -7.4786e-06 -4.5543e-05 1.2004e-06 -3.6894e-07 4.6216e-05 0.0053176 1.2807e-05 -4.6821e-06 -1.7853e-05 -4.0302e-05 1.167e-05 -7.084e-06 -8.9757e-06 -1.2531e-06 8.9513e-07 7.6917e-06 0.00016091 -2.9524e-06 -5.4341e-08 0.00016128 9.4625e-06 -7.2108e-07 -4.9855e-05 9.0489e-06 2.1569e-05 -2.7934e-05 -7.8707e-08 -3.9977e-06 0.0032572 -1.2344e-05 -0.00015134 -2.1985e-05 8.2533e-06 5.5983e-07 7.7932e-05 -1.3897e-06 9.9874e-06 1.3936e-07 7.9724e-06 0.00025134 1.2326e-05 8.3375e-06 5.4953e-05 -2.6301e-05 -9.3584e-07 -7.9378e-05 1.2485e-05 -0.0002111 -5.3371e-05
0.17401 5.5372e-06 0.12998 1.8441e-06 1.3054e-06 0.28863 3.0042e-07 1.3196e-06 0.18553 0.27619 0.00012965 -3.6661e-06 -5.866e-06 0.5 2.0914e-06 1.9424e-05 -1.7647e-06 0.16129 0.24965 -0.00016952 -5.5099e-05 -3.0708e-07 2.6906e-05 0.17696 8.4826e-06 2.5465e-06 4.2549e-05 -0.00011533 -9.5547e-06 5.5382e-06 -4.7528e-05 1.5802e-06 2.4352e-05 -0.00011186 0.28807 0.027088 -0.00022384 0.35435 -1.0914e-06 3.4259e-05 6.7034e-07 5.6189e-06 2.56e-05 0.5 -1.1656e-05 -8.1736e-06 -1.4373e-05 7.4849e-05 -7.6443e-05 0.30925 -9.4668e-05 0.44679 -2.8056e-05 2.536e-05 6.7383e-05 -4.0345e-06 -2.3637e-05 1.3617e-05 -0.00024952 0.43979
3.0126e-06 1.2728e-06 1.6631e-05 -2.6654e-06 2.9933e-05 1.4689e-06 3.447e-06 2.2445e-06 7.6963e-05 0.00011273 1.7747e-05 -1.2834e-05 -4.3418e-05 3.541e-06 -3.3526e-06 2.8784e-05 0.0053345 1.1355e-05 -4.0694e-06 -2.1339e-05 8.037e-05 1.3676e-05 1.4458e-05 -1.7442e-06 1.6197e-06 2.4669e-05 5.5877e-06 9.2075e-05 -1.9536e-06 -5.0378e-05 0.0001341 8.6967e-06 -1.569e-07 -4.3879e-05 5.115e-06 3.8084e-05 -2.8096e-05 1.2906e-05 -6.6374e-05 0.0032649 -1.0327e-06 -0.00015086 -2.0825e-05 1.7154e-05 2.4279e-05 7.8461e-05 0.001019 5.232e-05 4.7945e-06 7.1323e-06 0.48268 2.4534e-05 3.0431e-05 7.1765e-05 3.4667e-05 -3.2709e-06 -8.3575e-05 2.0462e-05 -0.00028038 -4.8707e-05
-3.9535e-05 3.5302e-05 0.13016 -5.6222e-06 -4.0818e-06 1.6563e-06 3.9717e-06 -6.7391e-06 -1.8031e-05 -4.3261e-05 -3.6105e-05 0.18187 2.0974e-06 5.3654e-07 1.7395e-06 4.6909e-05 4.1621e-05 -3.0244e-05 -3.5103e-05 9.0792e-05 0.18094 2.3194e-05 0.2291 5.1023e-05 -5.282e-06 -2.4691e-05 -5.5676e-05 -0.00013302 -2.614e-05 4.9281e-06 -0.00018573 0.40817 -4.7166e-05 -0.00015699 -1.9494e-05 -2.8356e-05 0.17375 1.207e-05 0.00013428 -5.9546e-05 0.37769 6.0862e-06 -0.00017918 -1.7931e-06 2.5392e-05 6.418e-06 -1.9225e-05 0.00033874 2.7828e-05 4.8571e-05 -0.00019403 -5.664e-06 -0.0015041 0.00052947 -0.00061266 -1.2856e-05 -0.00013386 1.5759e-05 -7.883e-05 -0.00018542
0.17401 5.3543e-06 0.12997 3.1418e-06 1.3108e-06 0.28863 0.19584 3.3296e-06 0.18553 0.27617 0.00010694 -2.2036e-06 -8.1834e-06 0.5 2.8575e-06 2.1008e-05 1.6243e-06 0.16129 0.24964 -0.00015492 -4.9617e-05 -2.2047e-06 2.6871e-05 0.17695 7.3201e-06 1.2378e-05 4.0377e-05 -0.00011689 -7.2877e-06 5.4063e-06 -4.6347e-05 6.0088e-06 2.496e-05 -0.00011185 0.2881 0.027089 -0.00022396 0.35429 2.7864e-05 3.3664e-05 -5.577e-06 9.355e-06 2.0738e-05 6.3594e-05 -8.5066e-06 -7.9338e-06 -1.6117e-05 7.3008e-05 -7.6548e-05 0.30902 -8.2095e-05 0.44659 -3.2539e-05 2.6428e-05 6.8147e-05 -3.1123e-06 -2.1472e-05 3.1977e-05 -0.00025066 0.4403
0.17402 2.1974e-05 0.13 5.439e-06 -4.8099e-07 3.169e-06 0.19591 3.0292e-05 -9.4364e-06 0.27604 4.2125e-05 1.9552e-05 4.8572e-05 5.424e-06 4.9092e-05 1.5741e-05 1.5429e-06 8.8198e-05 -1.9063e-05 -6.969e-05 0.00032458 3.9501e-07 7.7389e-06 -0.0001538 3.2326e-06 0.37373 4.4428e-05 5.4531e-06 1.3413e-07 -7.2828e-06 -1.5859e-05 -2.5657e-06 2.4989e-05 4.0336e-06 3.0224e-05 0.00012236 -1.276e-05 0.34899 6.8643e-06 1.4017e-05 -3.8684e-06 8.3474e-06 5.743e-06 -0.00010396 1.32e-06 -8.1096e-06 3.2512e-05 2.0928e-05 7.0712e-06 0.0034349 -7.1562e-05 0.00047495 0.0013509 4.1625e-05 0.00013984 -1.8948e-06 5.5589e-06 2.6726e-05 -0.00017451 -0.0012537
8.5543e-06 1.6103e-06 0.13011 5.4957e-06 3.6308e-07 1.8031e-07 0.00057805 3.3523e-05 3.4663e-05 2.0145e-05 0.00012025 0.00015469 0.33307 1.2317e-06 -9.2411e-06 2.1298e-05 5.8741e-06 1.275e-05 -7.0448e-07 -7.5755e-05 1.6857e-05 -1.3906e-05 5.4643e-05 -6.8842e-05 -3.2043e-05 -2.8646e-05 1.3506e-05 5.0345e-05 9.8409e-05 3.6525e-06 5.298e-05 0.00025373 1.1955e-05 -0.00010815 -7.8657e-06 -3.4612e-05 0.0017231 1.1601e-05 3.6193e-06 -1.1946e-07 0.0004309 -1.9482e-05 0.00012032 2.3575e-06 4.282e-05 6.8768e-06 1.2746e-06 -2.349e-05 4.643e-05 2.3967e-05 0.00039438 -2.0659e-05 3.6635e-05 -3.5501e-06 3.2259e-05 -6.5083e-05 4.9654e-05 6.3772e-06 0.00027464 2.2604e-05
0.17425 -1.1524e-05 0.00016429 5.8088e-06 2.5668e-05 -4.5802e-05 0.19646 4.3183e-05 1.5893e-06 -0.00012337 0.00014471 0.00020077 5.6266e-05 0.0005832 -1.6845e-05 -4.364e-05 6.3016e-05 6.647e-05 -3.5303e-05 -0.00014508 0.00038373 -2.2256e-05 -1.2378e-05 0.00010677 -4.6172e-05 -5.1192e-05 -0.00010129 0.0029198 0.00010491 -1.4943e-05 5.5394e-05 0.00028981 -7.5556e-05 1.379e-06 -1.9479e-05 -4.8061e-05 0.0035217 5.7178e-05 1.7944e-05 4.3052e-05 0.37905 -1.6491e-05 8.9403e-05 -2.14e-05 4.7144e-05 -1.1946e-05 0.00020891 -0.0002359 0.0015153 -0.14818 0.0003814 0.44924 -0.00036338 -9.0396e-05 -0.00017257 -5.6989e-05 4.2845e-05 9.147e-06 0.00016969 0.47328
0.17399 0.27728 0.13001 -1.8336e-05 4.0133e-06 2.5787e-06 0.19583 -9.2803e-06 -2.5519e-05 -3.8527e-06 0.28237 0.1816 1.4594e-05 -6.4883e-07 2.25e-05 0.24962 4.5129e-05 0.16131 3.6408e-06 0.28558 0.18151 1.9216e-05 6.8814e-05 0.17701 0.44758 6.01e-05 0.35216 7.7524e-05 0.30055 -2.1914e-05 -2.3202e-05 -2.3566e-05 0.3157 -0.00011697 -5.4875e-05 0.027067 0.17164 -9.453e-07 0.33048 0.00062688 -9.5219e-06 0.40818 -0.00010239 1.8355e-06 -4.6348e-06 -8.5425e-06 -1.1428e-05 0.44788 5.2156e-06 1.8964e-05 -0.00013646 1.4595e-06 -0.00098742 0.49988 0.00092035 0.44751 -8.9559e-05 0.33169 0.37146 -7.2125e-05
8.034e-06 5.8794e-05 5.144e-05 3.3401e-06 -5.5943e-06 -3.0587e-06 2.5515e-05 -9.8689e-06 3.6888e-05 -6.1917e-05 -0.00010006 0.18136 0.33311 -7.193e-07 -7.9098e-06 2.8358e-05 -2.7819e-05 -9.4477e-05 -1.9739e-05 0.000117 0.18002 5.3369e-05 0.22785 0.00019955 0.00011493 7.6936e-06 -0.0001218 -3.3957e-05 -2.3645e-08 -3.143e-06 -0.00015484 -3.022e-05 0.00014088 -0.00022455 -2.1085e-05 -2.314e-05 0.18455 -7.9312e-06 0.0028002 -6.5644e-05 3.441e-06 -3.3601e-05 0.00084398 8.66e-06 -2.1477e-05 2.0272e-05 5.0971e-05 0.00012678 1.5048e-05 9.339e-05 0.00015108 -2.4087e-05 -0.0018508 0.00032402 0.00057576 3.2269e-05 -0.00011158 0.00025429 -0.0010375 -0.00023302
3.377e-05 0.00015678 0.13035 0.00022486 -3.6938e-07 -1.0167e-06 0.00034418 -4.0353e-06 -1.2541e-05 -1.1998e-05 0.00013828 0.00039645 3.3134e-06 1.8549e-06 -1.5135e-05 -6.0115e-05 2.4275e-05 -6.7173e-05 -2.4244e-05 -0.00017003 -0.00046544 7.0806e-05 0.00060824 -4.2317e-06 -5.7427e-05 -0.00015891 -6.7192e-05 0.00099439 -8.9054e-06 -1.0695e-05 -3.0234e-05 -5.5164e-05 -9.1883e-05 4.2799e-06 -0.00025595 1.5707e-06 0.0073247 1.8443e-05 -0.00026827 0.00068665 2.491e-05 -7.1251e-05 0.00025375 -1.3248e-06 -3.1728e-07 -8.2908e-06 0.00039345 -0.00059153 1.2626e-05 5.4987e-06 3.3926e-05 6.3443e-05 0.018501 -0.00047156 -0.001372 -1.989e-05 0.00061044 -0.00019165 -0.00031581 -3.0125e-05
-1.143e-05 1.9393e-06 3.5803e-05 -6.8577e-06 1.0556e-06 -2.8535e-06 1.795e-05 -5.029e-06 -3.9689e-05 -1.2165e-07 0.28227 0.00018425 3.6328e-05 3.1842e-07 0.57671 0.00019073 2.1499e-06 1.3352e-05 -4.9071e-06 0.28479 0.0012626 -4.2034e-06 5.9994e-05 -1.0134e-05 0.00067066 0.00029993 5.6586e-05 -9.6932e-06 0.30078 -4.7652e-06 4.5997e-05 -1.6355e-05 -0.000136 4.4602e-06 3.5069e-06 5.9211e-06 0.00066322 1.9071e-05 7.3514e-05 -1.5753e-05 -7.5297e-06 3.8197e-07 1.0869e-05 -1.2112e-05 -1.4701e-06 -5.3884e-06 6.2918e-06 0.0011171 -1.7185e-06 -5.0432e-06 -7.6449e-06 -1.7349e-05 -1.9695e-05 8.3536e-05 -0.0001548 2.4612e-05 7.1092e-06 -0.00019914 -0.00030265 2.6877e-05
-8.148e-06 0.27727 0.12995 -2.9443e-06 1.2405e-06 -6.3337e-08 1.6549e-06 -4.7305e-06 0.18549 5.6481e-05 4.7363e-05 0.18145 4.4895e-06 1.8348e-06 1.0258e-05 8.2963e-05 3.3087e-05 1.5102e-05 1.54e-05 6.1401e-06 0.18137 2.5261e-05 0.00012645 -4.4156e-06 8.4342e-05 6.1392e-05 4.963e-05 2.0593e-05 4.1567e-06 1.1948e-06 -4.4058e-05 -2.3486e-05 1.7602e-05 -9.8083e-05 -3.9804e-05 3.3623e-05 0.17062 -1.0194e-05 0.00015137 -2.0271e-05 -1.2045e-05 7.6915e-06 -5.2014e-05 5.926e-06 -2.4937e-05 1.031e-05 -2.7036e-05 0.0005764 1.3448e-05 4.8945e-05 -0.00013391 7.6328e-06 -0.0012868 0.00059673 0.0010035 9.966e-05 -9.5998e-05 0.00012776 -4.3304e-06 -0.00018713
-4.9789e-07 -8.3301e-10 3.4692e-05 -9.7237e-07 -3.6877e-06 3.2014e-07 -3.048e-07 -1.242e-06 1.1072e-06 -2.2135e-07 -2.1788e-06 -1.0424e-05 1.7984e-05 7.4233e-08 1.1886e-07 -1.6786e-05 -2.9985e-05 3.4929e-05 -1.0577e-06 1.5901e-06 2.2999e-05 3.2493e-07 1.0698e-06 -7.345e-05 1.8038e-05 1.0088e-06 -1.8278e-05 0.0024571 1.1134e-06 1.418e-05 4.7765e-06 -6.9167e-06 -8.2274e-05 2.3416e-06 5.514e-07 1.3439e-05 -0.00012679 1.5862e-05 1.1787e-05 -7.4251e-05 3.4572e-07 5.8515e-06 3.9838e-06 -2.8722e-06 1.3867e-05 -2.9236e-05 3.1863e-07 7.4675e-06 -1.8317e-06 6.0807e-05 0.00025754 -3.4053e-05 4.823e-06 -9.893e-07 8.4364e-06 6.4431e-06 4.5298e-07 2.659e-05 5.5469e-05 -8.249e-05
-3.3607e-05 3.4382e-05 0.13043 1.3099e-05 1.949e-05 -3.4696e-06 -1.0302e-05 9.256e-05 2.705e-06 -3.5332e-05 8.2653e-05 0.18174 0.00022743 2.5525e-07 1.1371e-05 0.25 0.30057 0.26702 -3.2246e-05 -7.9423e-05 0.18178 0.57735 0.22881 0.014906 -2.6569e-05 6.892e-05 2.4136e-05 8.8307e-05 -3.4172e-05 2.0023e-05 -4.5988e-05 0.00028011 4.9577e-06 0.00039377 -7.8318e-06 0.41576 0.17544 4.5868e-05 -0.00013622 2.62e-05 9.189e-06 5.1103e-06 -0.0001424 -1.9886e-06 -5.0125e-05 0.00016628 4.7226e-05 -4.6178e-05 6.7079e-06 2.2219e-05 -0.00015021 -2.5271e-05 -0.0012757 0.00053076 0.57728 0.00018992 -4.5105e-05 0.00015977 -0.0004983 -1.2675e-05
0.17411 8.2605e-06 0.13007 3.3163e-05 4.706e-05 -4.1972e-05 3.4361e-05 8.9136e-05 -6.387e-06 -2.3558e-05 0.00028563 0.00025469 0.33411 4.1527e-06 -1.5014e-05 -9.3109e-05 0.30015 0.1569 -0.00014757 -0.00048241 0.00074746 -2.2562e-06 0.00062376 0.18844 -2.6082e-05 -7.8625e-05 -0.00016901 0.3116 7.5394e-07 1.7093e-05 -4.8928e-05 0.00034205 0.31716 0.00021537 3.1283e-07 0.024813 0.0054677 -0.00012108 -0.00012843 -0.00022764 5.2153e-05 -5.8083e-05 -6.1833e-05 -0.00011273 1.7177e-05 8.8679e-05 0.00030516 -0.00027289 0.0013948 -0.0053463 3.6517e-05 0.00080451 -0.00080879 -0.00026628 0.00025107 -8.0152e-06 -7.3643e-06 -0.00019231 -0.00014931 0.01501
0.17401 5.5597e-06 0.12998 1.5235e-06 2.0449e-06 0.28862 2.928e-06 -1.4586e-07 0.18553 0.27614 0.00012914 -1.5025e-05 1.209e-05 0.00036666 1.9438e-06 1.2566e-05 -1.9879e-07 0.1613 0.24964 -0.00016955 -3.6067e-05 -9.9238e-07 2.3453e-05 0.17697 6.5699e-06 -6.8965e-06 3.7246e-05 6.3269e-05 -1.1261e-05 2.6419e-06 -2.699e-05 1.5166e-06 1.7422e-05 -0.00011196 0.28806 0.02709 -0.00017282 0.35406 -2.2327e-06 3.9684e-05 6.9299e-07 4.1444e-06 1.705e-05 0.5 1.2529e-05 -9.7633e-06 4.7622e-05 6.8711e-05 0.49965 0.44564 -8.8607e-05 0.0041952 -4.7865e-05 1.9941e-05 5.8869e-05 -6.5624e-06 -2.0494e-05 5.7829e-06 -0.00024069 0.0014765
-1.6629e-05 6.9379e-05 0.13056 0.00026342 -1.8478e-05 2.4451e-05 -4.2334e-06 0.00013311 0.18601 8.2527e-05 0.00033663 -8.5679e-05 -6.412e-05 6.0478e-07 -7.7072e-06 0.25099 0.30639 0.00025459 1.1378e-05 -0.00043602 0.00030775 -4.4501e-06 0.0024613 -0.00064983 -2.2472e-05 2.8693e-05 0.0031852 0.3366 -0.00021946 0.0018335 0.32443 5.6481e-06 7.0826e-05 0.00060866 3.0961e-05 0.0005562 0.0011413 0.00010634 0.00018822 0.50653 -4.1321e-05 -0.00074505 0.00063961 -2.3418e-05 0.44644 0.50077 0.003111 -0.00068319 -0.00012966 0.00055853 0.00036416 -0.00018327 -0.00013594 9.62e-05 -0.0028044 -0.00064163 -0.00028172 0.00039867 0.0024358 -0.0013358
-3.1895e-05 0.27755 9.6184e-05 0.00023368 -3.0792e-05 1.1363e-05 -5.4886e-05 -3.5381e-05 0.18581 -1.2328e-05 -0.00038338 0.18219 2.248e-05 -9.4666e-06 6.6108e-05 6.0136e-05 0.0001297 3.3557e-05 0.00024106 0.00082235 0.18051 -4.729e-05 0.23521 -0.00010325 -3.1187e-05 0.0040904 0.35748 0.00076955 6.3805e-05 0.0017428 0.001976 -5.1111e-05 0.00021215 0.0040609 0.0032773 0.00019114 0.18269 -0.00014835 -0.0013524 0.5107 -1.4462e-05 -0.0015062 0.00021199 3.2385e-05 0.00011231 0.0010313 -0.00050248 -0.00081976 -3.2606e-05 0.0001911 0.0048713 -3.7752e-05 -0.00217 -1.2627e-05 -0.0033421 -0.00067981 -0.00011329 0.00026183 0.39847 -0.0003487
1.9708e-05 -4.089e-05 0.00034151 0.00032821 1.4534e-05 1.1647e-05 0.00080095 0.00045307 0.00020324 0.00013777 0.00020184 0.18688 1.0644e-05 1.0829e-06 1.698e-05 0.0004274 0.00036671 0.00026847 -1.9101e-05 -0.00019211 0.18993 -0.0001411 0.0026332 -0.00060452 -0.00015982 0.0023665 0.0022432 0.00027225 -5.4604e-05 0.44997 0.0023189 0.0011906 -5.1258e-05 0.00070673 -4.4849e-05 0.00041734 0.20765 -5.1912e-05 -0.00048513 0.0019381 0.0014719 -0.0001732 0.3377 1.4914e-05 0.00021565 0.00098417 -0.0002042 -0.00059005 7.1803e-05 5.2687e-05 4.2485e-05 -0.00015379 0.007791 -0.0015284 -0.002802 -0.00043798 -0.00013512 -0.00024874 0.0036017 9.4655e-05
5.5069e-05 4.0943e-05 5.3117e-06 5.6913e-05 5.424e-05 -3.3041e-05 -5.1043e-05 -3.3636e-07 9.3888e-05 -3.353e-06 0.00020692 2.5349e-05 -1.008e-05 -2.7106e-06 7.708e-06 0.00014641 -8.1382e-07 0.00030629 -8.2965e-06 -0.00035918 6.9103e-05 -2.7752e-07 1.9403e-05 -0.00024884 0.00012657 -4.3423e-06 3.969e-05 0.00020623 -0.00010683 1.3782e-05 0.00022811 6.6813e-05 5.5211e-05 2.1562e-05 0.00023934 0.00049131 -0.00017618 -3.8382e-05 0.33706 0.00018528 2.7442e-06 -4.4605e-05 0.0050003 1.0128e-05 0.00047288 3.9987e-05 0.40886 3.6622e-06 -3.4352e-05 5.6757e-05 -1.0756e-05 -0.0001188 -7.1142e-05 -1.7405e-05 -5.2911e-05 0.00027611 -2.1982e-06 0.33085 0.0003078 -5.2794e-05
5.1784e-05 0.00018748 0.13046 9.475e-07 2.0938e-06 3.6132e-06 0.00067277 2.9939e-05 -5.7563e-05 -5.017e-05 0.00028293 0.18264 4.6744e-05 1.1268e-06 1.7455e-05 -4.2699e-05 6.8684e-05 9.3597e-05 0.00021617 -0.00020087 0.18109 8.7039e-05 -0.00011304 -0.00019815 -9.8454e-05 -0.00014289 6.0722e-05 0.0010084 9.4642e-05 -1.9953e-07 -2.9068e-06 0.00023554 4.7947e-05 -6.2534e-05 -0.00027054 4.241e-06 0.18713 9.3699e-05 -0.00012718 0.00066863 0.00041404 3.2482e-06 -4.3379e-05 -5.7033e-05 2.4503e-05 1.1778e-05 0.00038285 0.00024488 6.365e-05 5.4701e-05 0.00024524 2.3119e-05 0.51727 0.00015652 -0.00027365 6.1345e-05 0.00054571 0.0001389 -0.000166 -0.00010218
