1.1129e-05 1.0661e-05 2.6822e-06 -8.5013e-06 -2.2025e-06 2.687e-06 -4.3897e-06 -7.6444e-07 0.00052713 -5.3386e-06 -5.9965e-06 -3.3675e-05 -6.6713e-07 1.0297e-05 -1.2251e-05 6.2469e-07 6.8975e-06 6.9097e-05 4.6473e-07 3.8275e-07 -1.558e-05 -2.5342e-05 1.1858e-05 -1.0923e-05 -0.00016371 4.572e-07 -2.7919e-06 -1.6267e-05 -5.5846e-05 9.5972e-06 -1.0557e-06 -4.1238e-05 -5.1466e-07 3.2995e-07 -9.6144e-05 -3.4748e-06 3.5349e-06 8.2809e-07 -2.1577e-05 -3.716e-07 5.6411e-06 -2.1767e-05 2.0421e-06 -3.8213e-06 0.0027245 8.485e-06 5.495e-06 -0.00024986 -2.5454e-05 -0.00016775
-1.0534e-05 0.17666 0.13018 0.00031718 6.4529e-06 3.9055e-05 -3.3957e-06 -5.7481e-06 0.00047974 -1.8047e-06 4.6131e-05 -1.8578e-05 -2.3183e-05 1.6529e-05 -2.34e-05 1.4006e-06 4.3823e-06 0.24926 6.3934e-05 1.0843e-05 0.0064172 -0.0076163 8.7486e-06 -3.0132e-05 2.3701e-05 -2.6338e-05 -6.0115e-06 -0.00010065 -0.00010755 -0.00025254 -0.00020462 -0.00011693 1.6105e-05 1.2418e-05 -0.00021617 -2.3743e-05 7.8705e-06 8.3201e-06 0.0013016 -1.025e-05 -0.00012584 7.9605e-05 -1.2739e-07 -0.00018631 0.0025267 5.5965e-05 6.4231e-05 0.00020285 -4.8339e-05 -0.0001975
7.4128e-06 -2.8618e-05 0.0005201 0.00017612 -7.8244e-06 -0.00072055 0.00025176 -2.2386e-06 0.31716 0.00067734 0.00011512 0.00098114 0.00020498 9.7615e-06 0.00086682 -5.8381e-06 -6.8424e-06 -0.0002522 0.00024319 -8.5414e-05 0.00036665 0.00067447 1.9392e-05 0.0016949 0.00017393 -4.6478e-05 0.00013242 -0.00017486 6.4748e-05 -0.00032737 -0.0001495 0.000348 -0.00041341 -3.927e-06 0.0016791 2.8798e-05 -1.7711e-05 -4.8028e-05 0.00058055 -3.7771e-05 0.00024383 0.00010508 2.0246e-05 -0.00033816 0.26925 -3.1337e-05 0.00043261 0.0015772 3.1934e-05 0.05487
5.3137e-07 -1.0447e-05 0.00018039 0.0083033 9.2325e-05 -4.9171e-06 2.1795e-06 0.00032443 -0.00015568 -6.6968e-06 4.2639e-05 -1.9106e-05 2.5001e-06 -4.4294e-06 -1.4923e-06 -1.1267e-08 7.7882e-07 -2.0917e-05 3.8238e-05 -3.2353e-06 0.20474 -0.22733 -0.00016495 1.1685e-05 0.0068719 -1.1149e-05 -1.6819e-05 9.5064e-06 2.3231e-05 -0.00013147 4.9645e-05 -0.00023366 -9.3778e-06 3.5784e-06 5.3551e-05 -1.1778e-05 6.1622e-06 1.6803e-06 6.4758e-05 -9.5897e-06 -0.0028063 2.8489e-05 -9.9643e-07 -2.2393e-05 -0.00084452 9.829e-06 9.8131e-06 0.00058625 -3.2294e-05 -0.00016002
2.7761e-05 -2.4283e-05 0.0003277 1.9763e-05 1.7425e-06 -0.00030404 -4.1008e-07 2.9336e-05 0.00054947 0.0006873 -4.9476e-06 2.4137e-05 0.0001647 -1.261e-06 0.00049551 1.8245e-06 -9.9745e-06 2.4834e-05 -8.6331e-07 8.3296e-05 0.00058773 -0.00071566 -6.9661e-06 0.0009659 -0.00010471 -2.4899e-05 4.3728e-05 -5.2947e-05 0.0009492 -0.00025651 6.3561e-06 -0.0001511 -6.7071e-06 1.8417e-05 -0.00021698 7.5292e-05 1.1474e-06 1.2586e-06 -4.8833e-05 -6.9827e-06 -6.8133e-05 -0.00010114 4.6803e-05 8.3001e-06 0.0028622 2.4777e-06 0.00041251 -0.0017803 4.335e-05 -8.8098e-06
4.8953e-06 -2.9487e-05 0.00032221 5.182e-05 0.00012033 -0.00075947 0.00023315 4.1964e-05 0.00040513 0.00068176 3.8741e-05 0.00089898 0.0001412 1.7803e-06 0.00084313 -3.8257e-06 -1.3975e-05 -0.00014272 8.261e-05 -2.7032e-05 0.00019245 7.5062e-06 -1.3151e-05 0.0016768 9.1935e-05 -4.8003e-05 5.7395e-05 -2.6472e-05 5.8442e-05 -0.00034933 1.1769e-05 4.9882e-05 -5.7752e-05 -1.9144e-06 0.0017895 -2.425e-06 -1.0982e-05 -4.5843e-05 0.00067106 -5.0539e-05 4.3524e-05 -3.2756e-05 2.191e-05 -0.00017986 0.0043688 4.7591e-07 0.0003938 0.00015234 2.7476e-05 0.0078146
0.28879 -3.5299e-05 0.13028 0.0082122 7.9008e-06 -0.00029324 -7.2476e-06 4.987e-05 -0.00028032 0.00069245 3.8084e-06 3.7503e-05 0.00012432 3.9994e-06 0.00047953 1.6187e-06 -1.3303e-05 -0.00077352 -5.3004e-06 -3.2085e-05 0.20606 -0.23013 1.0492e-05 0.0010943 -0.00019613 -1.8715e-05 -0.00021317 -0.00036073 0.30184 -0.0002623 0.31527 0.35557 -7.1526e-05 2.0613e-05 -0.0004077 -0.00016419 7.0814e-07 5.5268e-06 -6.682e-05 -5.2634e-06 0.00027878 0.0010152 5.6205e-05 -0.000503 -0.00042044 0.00034257 0.00039778 -0.36817 6.4751e-05 2.4835e-05
0.28823 0.17662 0.13001 1.3137e-06 1.0404e-06 0.20437 1.6901e-06 1.0242e-05 -2.3137e-05 4.6133e-06 4.151e-06 7.7938e-06 -7.124e-07 8.1342e-06 -0.015462 1.2042e-06 8.6537e-07 -3.8817e-06 3.6652e-06 1.7749e-05 -3.4945e-06 -4.6195e-06 -3.3109e-06 0.033862 2.9545e-05 -6.0987e-06 1.3979e-05 6.4946e-06 0.0030042 1.7858e-05 3.3539e-06 1.2236e-05 -2.1726e-06 1.0228e-05 -1.543e-05 7.9024e-06 5.1839e-06 3.4156e-06 2.4521e-05 -5.0348e-06 -8.3912e-06 2.9668e-05 9.3473e-07 7.4102e-07 -4.4429e-06 -4.6511e-06 4.5003e-05 -4.1851e-05 -3.6305e-07 7.6031e-05
0.00048266 -2.6694e-05 3.1164e-06 5.3493e-06 -8.1909e-06 -0.00011493 -6.0641e-06 9.3583e-07 3.1429e-06 0.0001029 -1.0929e-05 6.8854e-06 5.2147e-07 -9.9497e-06 0.00022152 -4.0417e-06 -3.3306e-06 -6.8199e-05 2.6158e-05 -4.6649e-06 5.3468e-05 -3.8096e-05 -1.8846e-05 0.00024501 0.0006544 -9.913e-08 1.3623e-06 8.9754e-05 0.29714 -7.1897e-05 -7.4183e-05 0.00017732 -2.9107e-06 -2.7785e-06 1.2968e-05 9.9023e-06 0.00013914 1.3168e-07 -7.5984e-05 2.5275e-06 1.5557e-06 2.7128e-05 0.00044031 -6.3606e-05 3.8773e-05 2.1765e-05 -5.6603e-06 -0.00010226 -2.1779e-07 0.00020755
6.2724e-06 3.4228e-06 2.6495e-06 5.5579e-07 0.35342 2.8512e-05 -2.9249e-06 3.8689e-06 1.1513e-05 -3.8755e-06 5.084e-06 -6.3659e-07 2.2846e-06 -2.7335e-06 -5.4368e-05 2.5303e-07 4.0656e-06 4.0215e-06 2.0805e-06 -3.4861e-07 -6.6665e-06 -3.4356e-05 -1.9559e-06 -8.8251e-05 -3.0111e-06 -7.2265e-07 9.9019e-07 -1.9439e-05 -1.1607e-06 5.5627e-06 2.1771e-07 6.1905e-07 2.7471e-05 -3.5332e-07 0.0066017 -4.7312e-05 -2.1309e-07 -2.3476e-07 5.7014e-05 5.5556e-08 -1.8736e-06 4.1317e-05 3.4723e-07 6.859e-05 -3.4934e-05 2.2546e-06 -2.2628e-06 0.00044607 3.1266e-05 4.0723e-05
-1.771e-06 0.00025979 0.00028544 -3.6046e-05 -1.1621e-05 0.13564 -8.089e-06 -9.7531e-06 0.31611 0.18289 0.18576 4.0396e-05 0.18241 6.3351e-06 0.19129 5.5973e-06 -5.7307e-05 -0.00014372 -8.3792e-06 -4.2826e-05 -0.00034134 0.00020914 9.0305e-05 0.20537 0.22749 -6.5056e-05 -0.00010012 -0.00016235 4.6965e-05 -0.00036361 -5.4146e-05 -4.7954e-06 -8.0626e-05 -4.5612e-07 0.0001654 -7.2384e-05 -6.0626e-05 1.6328e-05 -0.00021342 -1.3312e-05 0.00063483 0.00010153 6.1319e-05 -5.426e-05 0.26251 8.0319e-05 0.0012251 0.0013733 0.0001469 0.38787
0.28866 0.17659 0.12997 0.2771 5.0584e-07 0.13636 1.0293e-06 -1.0579e-05 0.00073454 0.18178 2.8004e-05 3.6702e-05 0.18221 2.184e-06 0.19057 -2.3112e-06 5.655e-06 0.24932 6.7801e-06 -7.0886e-06 0.21388 0.19632 3.0351e-05 0.20323 -5.5547e-05 2.9591e-05 -0.00029959 0.45076 0.30057 -2.7568e-07 0.3166 0.35146 -5.8921e-06 6.7257e-06 0.33036 0.40508 8.282e-06 -1.3508e-05 -2.451e-05 -8.9193e-06 0.00015729 0.44872 3.9191e-06 0.44902 -0.0011273 0.49986 3.3733e-05 -0.37141 2.3346e-05 -0.00028194
7.5658e-07 -1.7096e-05 1.6346e-06 0.00010082 -5.6031e-06 2.4356e-07 1.0356e-06 2.061e-06 -0.00013989 0.0008327 2.4789e-05 -1.221e-05 2.1496e-06 1.0355e-05 -7.5331e-06 -2.2946e-07 -4.6663e-07 -6.368e-05 7.3595e-05 5.4997e-07 0.00077103 -0.0005664 -0.00016403 -5.6051e-06 0.004005 -3.0371e-05 0.30927 -1.8248e-05 -1.3279e-05 1.2413e-05 0.00011839 0.00022577 -4.6615e-06 1.8441e-05 -7.3779e-06 -7.2626e-05 -3.3405e-06 5.5685e-06 -0.00016719 -2.5163e-06 -0.00085408 -0.00016913 -9.2776e-05 -1.4183e-06 0.0012701 5.2097e-05 -1.3082e-05 -0.00081329 -1.506e-05 0.00069474
-5.8912e-06 -3.6466e-06 -1.7836e-06 0.27779 8.868e-05 -7.1253e-05 1.8671e-06 0.00032041 -0.00011736 -2.0196e-05 2.1019e-05 -7.9306e-06 0.00038001 1.4997e-05 2.4293e-05 -5.5793e-08 -1.9579e-06 3.1395e-07 3.743e-05 -1.2791e-05 0.21669 0.19496 -0.00016174 0.00017596 0.0072034 6.3154e-06 -7.1926e-05 -4.0548e-05 -2.6939e-05 -0.00013335 -0.0001459 -0.00019802 -4.4085e-05 -3.5147e-05 2.6826e-05 6.0457e-07 7.4888e-07 3.0112e-07 6.6153e-05 9.2292e-06 -0.0030139 -5.0541e-05 1.4216e-05 -7.1462e-05 -0.0006869 2.1287e-05 0.00064101 0.00043682 -9.2413e-07 -0.00025887
-2.391e-06 6.9071e-06 4.9791e-06 0.0085239 0.00030606 4.2385e-05 -2.3826e-06 7.6061e-06 -0.00015138 1.6498e-05 0.18554 6.5603e-05 -1.0494e-05 -7.3048e-06 -4.9306e-05 -8.047e-07 1.4759e-06 2.7826e-05 -9.6755e-06 3.5284e-05 0.20875 -0.23317 3.386e-05 5.9403e-05 0.00025767 1.3822e-05 0.00010325 6.6363e-05 -2.4031e-05 1.9259e-05 -3.1171e-05 -7.2515e-05 -1.0864e-05 -1.2782e-06 4.252e-05 3.8128e-06 9.5452e-06 1.3206e-06 0.00011412 6.5004e-06 -7.01e-05 2.5456e-05 -3.9657e-06 9.7077e-06 0.0020625 5.0579e-05 0.5729 0.00038932 -3.004e-05 -0.00013279
1.183e-05 -3.2336e-05 0.0002738 2.2942e-05 2.7319e-05 -0.069077 0.00019617 2.1063e-05 0.00062452 0.18487 3.9773e-05 0.27763 0.18261 4.7266e-05 0.20714 -3.0975e-06 -2.2496e-06 -6.2482e-05 3.8864e-05 -0.00010659 3.0327e-05 8.5012e-05 -2.7615e-05 0.17152 0.00017235 -6.1271e-05 0.0010194 -3.9043e-05 -7.1855e-06 -0.00029318 2.1117e-05 2.8642e-05 -3.5041e-05 3.1867e-05 0.0015592 1.3883e-05 -2.974e-05 -5.9166e-05 0.00067645 -6.167e-05 0.00015739 -9.0819e-06 3.2965e-05 -0.00010723 0.0065492 1.6101e-05 0.00027635 0.0001835 2.8415e-05 0.46619
6.385e-07 1.4052e-06 0.00016639 0.00018527 2.3861e-05 -0.00024944 -7.2883e-06 -2.8216e-06 0.00020442 0.00053095 0.0001453 0.00019127 0.00014317 2.4415e-06 0.00026268 2.5455e-06 -6.8233e-06 -9.8262e-05 -9.9031e-06 -4.063e-06 0.00054275 0.00050607 2.8372e-05 0.00085971 0.00023361 -1.1485e-05 1.5421e-05 1.2467e-05 -0.00011977 9.0909e-06 -1.3657e-05 -1.8516e-05 -0.00042067 -5.1221e-06 -0.00049866 -6.461e-05 -5.5685e-05 9.9834e-06 3.0867e-06 1.4095e-05 0.00026365 8.0142e-05 1.0465e-05 1.831e-05 0.0035624 -6.5249e-05 0.0007021 0.00018207 -2.407e-05 0.047571
4.85e-06 -1.7037e-05 0.13028 9.0417e-06 5.9325e-06 -0.00062666 -7.6096e-07 8.6045e-06 1.7242e-05 0.00064695 2.2092e-05 -1.2312e-05 0.0002881 7.1799e-05 0.00049516 2.9254e-06 7.5249e-05 3.2697e-05 0.00020362 -4.4567e-05 0.00040041 -0.00049112 -0.0001199 0.0011286 0.0013479 0.0003586 0.0011986 -1.1118e-05 -7.7068e-05 3.5401e-05 -0.0001305 0.00013845 -4.887e-05 6.5268e-05 -8.5218e-05 4.8494e-05 -1.8715e-05 7.0456e-06 7.6561e-05 -1.6344e-05 -0.00098452 2.6732e-06 -3.5298e-06 -4.692e-05 0.0010336 -0.00018285 6.9845e-05 -0.00027032 -1.2584e-05 -0.00018733
-1.036e-06 0.00027737 0.13005 1.0821e-05 -3.0531e-05 0.2042 0.00015077 1.1993e-05 -1.3295e-05 0.00031467 0.1856 0.00010721 0.00025852 0.00023246 -0.015204 9.6874e-07 -4.082e-05 2.6969e-05 -5.9406e-06 -2.4366e-06 0.00016302 -0.00019183 -2.4063e-06 0.034358 0.00023764 -7.1378e-06 0.00026927 1.8796e-05 -3.3998e-05 -4.6386e-05 -4.7443e-06 -8.0588e-05 -1.3593e-05 1.519e-05 0.00012028 -5.789e-06 -1.751e-05 1.5546e-05 -0.00012375 -2.5562e-05 -0.00010331 -5.0948e-05 -1.0436e-05 4.1601e-05 0.0027994 5.7101e-06 0.0012043 -0.00025522 0.00055712 6.0164e-05
1.0243e-05 -3.0662e-05 0.13056 1.6336e-05 7.9105e-05 -0.00041107 -3.2564e-06 4.092e-05 -3.2857e-05 0.00111 1.0727e-05 0.00025327 0.00015561 4.1366e-05 0.00053469 2.4654e-06 -6.5994e-06 -0.00010153 -5.8792e-05 -9.9609e-06 0.0008268 -0.00094458 -4.4306e-05 0.0012283 0.00017603 -3.7495e-05 0.31228 2.03e-05 8.7771e-05 -0.0002408 5.1658e-05 -0.00035746 -3.0129e-05 3.1618e-05 4.0624e-06 -8.1626e-05 -1.1699e-05 1.954e-06 -3.9637e-05 -9.9958e-06 9.1868e-05 -6.508e-06 -5.8652e-05 1.4869e-05 0.0021833 4.0406e-05 0.00035792 0.00055503 7.5311e-05 0.0002317
0.00011955 7.1804e-06 1.3683e-05 0.00036795 3.4043e-05 0.00034718 -6.026e-06 3.263e-06 0.0010419 -3.6107e-05 0.0002708 0.00017414 0.00036239 8.0924e-05 -0.00024196 -2.1892e-06 -8.5915e-06 0.00084214 4.0678e-05 -2.5479e-05 0.00072852 0.00057721 2.6177e-05 -0.00028379 9.5975e-05 7.9616e-06 0.0025855 -2.2617e-05 -3.729e-05 -0.00034736 -0.00011873 -8.2107e-05 -3.7054e-05 -9.5737e-05 2.5084e-05 0.00010518 -4.6506e-05 -0.00011168 2.3373e-05 6.3455e-06 -0.00043722 -7.7314e-05 0.0014061 -0.00010808 0.029984 4.4042e-05 0.00069284 0.00033857 -3.6874e-05 -0.0008796
-1.771e-06 0.00025979 0.00028544 -3.6046e-05 -1.1621e-05 0.13564 -8.089e-06 -9.7531e-06 0.31611 0.18289 0.18576 4.0396e-05 0.18241 6.3351e-06 0.19129 5.5973e-06 -5.7307e-05 -0.00014372 -8.3792e-06 -4.2826e-05 -0.00034134 0.00020914 9.0305e-05 0.20537 0.22749 -6.5056e-05 -0.00010012 -0.00016235 4.6965e-05 -0.00036361 -5.4146e-05 -4.7954e-06 -8.0626e-05 -4.5612e-07 0.0001654 -7.2384e-05 -6.0626e-05 1.6328e-05 -0.00021342 -1.3312e-05 0.00063483 0.00010153 6.1319e-05 -5.426e-05 0.26251 8.0319e-05 0.0012251 0.0013733 0.0001469 0.38787
-4.8588e-06 0.17658 0.12998 -2.0742e-06 1.5534e-06 0.20437 0.2886 1.7399e-06 -1.1428e-05 4.5058e-05 0.18544 0.27607 -6.2501e-06 5.6322e-06 -0.015453 0.5 9.7754e-07 -6.4661e-06 3.5352e-06 0.24965 -3.7594e-05 3.1567e-05 -4.0411e-06 0.033995 2.8348e-05 9.0521e-06 1.1009e-05 2.0905e-05 -1.4109e-06 1.9725e-05 1.7035e-05 3.3407e-06 0.28806 0.35357 -3.0442e-05 -9.8212e-06 0.44714 0.37796 9.6133e-06 0.5 1.0734e-05 9.1213e-06 6.3824e-05 1.7644e-05 -6.4647e-05 3.8518e-05 8.8085e-05 9.552e-05 -1.0043e-05 -6.0979e-05
2.9047e-05 -1.3149e-05 0.13025 -4.2658e-05 -4.9466e-06 -6.2303e-05 -1.8217e-06 7.7883e-06 -3.4011e-05 0.18379 7.6452e-05 2.2128e-05 0.18279 0.00037632 0.00012177 -1.0624e-06 -8.1522e-06 -7.3877e-05 9.1689e-05 7.2805e-05 -9.5039e-05 7.9756e-05 -3.4705e-05 0.00032022 0.0015857 -7.3426e-05 0.31209 -8.4957e-05 6.8862e-06 6.7194e-05 0.0001789 -0.0003617 5.3333e-06 2.4581e-05 6.0689e-05 -9.6904e-05 8.2259e-06 -9.1346e-07 -0.00011201 -8.7628e-06 -0.00053223 -0.00012522 -9.3967e-05 3.4872e-05 4.3656e-05 3.2886e-05 0.57651 0.00064999 0.00078425 -8.0754e-06
-9.6194e-06 -1.2347e-05 0.00019946 8.8922e-05 -2.1978e-05 -1.1509e-05 -1.9569e-05 0.00010582 0.0011432 6.2366e-05 6.1417e-05 -9.6496e-05 5.6007e-05 4.4796e-06 -8.1343e-06 1.8759e-06 1.187e-06 0.00040949 0.00010245 1.169e-05 0.0011347 -0.00089095 -0.00013041 0.00016002 0.0025194 6.6223e-06 0.00052458 -0.00012539 -0.0001151 -1.1734e-05 -2.7303e-05 0.00048503 -3.6968e-06 2.4139e-06 -0.00018182 -5.0103e-05 -6.7929e-06 1.0774e-05 0.00052637 -9.7202e-07 -0.0010231 -0.00055365 9.9374e-06 -7.4508e-05 0.013266 -7.3718e-05 -2.1118e-06 -0.0082374 -2.9627e-05 0.0062638
6.9221e-06 9.2733e-06 2.4818e-05 1.0441e-05 0.00010017 5.1009e-05 -3.5545e-06 1.7329e-05 -0.00024009 0.00022057 -2.1791e-05 4.6184e-05 0.0002982 2.7468e-05 1.5667e-05 -5.1777e-07 -7.4753e-06 -1.3892e-05 2.1209e-05 -3.1379e-06 0.00034147 -0.00041635 -6.0985e-05 -9.5448e-05 0.00076775 0.00045569 0.0012788 -2.0077e-05 -1.2427e-06 -0.40765 -3.0622e-05 6.3669e-07 1.2165e-05 -1.3542e-05 -1.6313e-05 6.7312e-06 -8.2803e-06 -4.7674e-06 0.00020961 -4.2354e-07 -0.00034309 -1.0355e-05 1.0852e-07 3.7297e-05 0.0034075 -5.6564e-06 -7.6611e-05 0.00010159 -1.8493e-05 -9.4379e-05
-1.6529e-05 0.17657 1.0443e-05 0.27698 1.6424e-06 3.7989e-05 -1.1561e-05 1.095e-06 -0.00020297 0.18154 -2.6793e-06 1.5585e-05 0.18216 1.3241e-05 -8.8173e-06 1.6798e-06 2.0066e-06 -4.8909e-05 4.4523e-06 3.4587e-06 0.21359 0.19594 1.5041e-05 9.0726e-05 2.4226e-05 6.8294e-06 -7.4448e-05 0.44156 6.7399e-05 7.0868e-06 -0.0001536 0.0003435 -1.5028e-05 2.2451e-06 3.9956e-05 0.40483 1.7833e-05 1.4139e-06 3.7137e-05 3.1031e-06 8.6867e-05 0.44491 6.1632e-06 0.44443 -0.00012002 0.00040214 1.1786e-05 0.0003285 1.7129e-05 -7.6827e-05
1.2755e-05 -5.0043e-05 0.13031 5.1964e-05 1.9269e-05 -0.06948 0.00022904 4.117e-05 0.00040943 0.18242 2.1542e-05 0.00088734 0.1824 -1.9992e-06 0.20733 -4.7247e-06 -1.8287e-05 -0.00016857 0.29998 -5.7635e-05 0.00014396 8.7287e-05 -3.2521e-05 0.17211 0.0011011 -4.9085e-05 0.0013317 -6.0754e-06 9.4158e-05 -0.00034006 -1.1981e-05 0.00014685 -1.6641e-05 5.3486e-06 0.0018025 -1.7396e-06 0.00013849 -4.1517e-05 0.00059792 -3.8204e-05 -0.00013039 -7.2212e-05 0.00047081 -0.00027583 0.0040651 1.6161e-05 0.00030458 2.7254e-05 5.7608e-05 0.0078985
1.632e-06 -4.313e-05 0.00018087 8.1132e-06 1.365e-05 0.13584 -1.6628e-05 4.1601e-05 1.589e-05 0.00077773 6.0942e-06 5.7276e-05 0.00012328 7.8973e-05 0.19112 3.9299e-06 -1.826e-05 -4.5434e-05 6.6345e-05 -1.554e-05 8.8408e-05 -7.3356e-05 -3.793e-05 0.2043 0.00069297 -1.3421e-05 0.0025886 -4.0536e-05 0.00013714 -0.00039094 -9.3449e-06 7.6062e-05 3.7299e-05 -5.0023e-05 6.2723e-05 -1.4997e-05 0.0002259 -8.3692e-05 -0.00011737 2.8554e-06 8.1604e-06 -2.5023e-06 0.5014 1.3164e-05 0.00032523 1.0589e-05 0.00048484 -0.00021144 6.5251e-05 0.00042772
-1.2378e-06 -2.4655e-05 0.00012213 0.0093626 0.35354 -1.6179e-05 2.1351e-06 0.00017672 -9.5821e-05 0.00062337 0.00020073 -2.7398e-05 9.9012e-05 -2.9334e-05 2.139e-06 1.1095e-06 1.5084e-06 -7.2241e-05 0.00044495 -2.3385e-05 0.2274 -0.25403 -0.0001312 4.6058e-05 0.0035484 1.1561e-05 0.0017902 3.0313e-05 -1.9834e-05 -6.1952e-05 -0.00011871 0.00066623 -1.8763e-05 1.6529e-05 -3.7295e-05 3.8693e-05 -1.2442e-05 3.0534e-06 -0.00010201 -1.3505e-05 -0.00069537 -0.00025108 -5.1605e-06 1.7699e-05 0.00069062 -0.0001471 0.0013911 -0.0020992 -4.5827e-05 -0.00010357
0.28878 -6.8367e-07 6.4081e-05 -5.273e-06 -5.9926e-07 0.13594 -4.2434e-06 5.1511e-06 -5.7988e-06 -2.284e-05 0.00011794 -1.1773e-05 2.702e-07 -1.8123e-06 0.19054 5.9496e-06 -4.4872e-06 0.0006686 5.2686e-07 -1.4601e-06 4.254e-05 -0.00011544 1.2575e-07 0.20493 3.9649e-06 -7.3136e-06 -3.8165e-05 -0.00027621 0.30197 -2.8455e-05 0.31522 0.00036174 5.2585e-05 -4.1047e-05 8.2813e-05 8.7176e-05 4.1331e-06 5.8125e-07 -1.1801e-06 5.3911e-07 -2.8058e-05 0.00014499 3.4866e-06 -0.0010713 -1.9993e-05 -2.3542e-05 -0.00022451 -0.00047403 -2.1864e-05 6.4078e-05
-3.0925e-06 0.17664 0.1303 -3.0604e-06 -2.9352e-06 0.20571 -1.5294e-05 -7.715e-07 -0.00015131 0.18202 -2.8714e-05 -1.5828e-05 0.18351 1.0869e-05 -0.015971 2.9809e-06 -3.5214e-06 -2.2108e-05 2.4023e-05 0.25047 -0.00011705 7.0442e-05 0.00013798 0.032605 0.22723 6.3816e-06 -4.5847e-05 -2.4863e-05 -1.6521e-05 2.8408e-05 -2.305e-05 -1.8216e-05 -4.5912e-05 4.3676e-05 -2.0544e-05 4.8282e-06 3.6939e-05 -1.1358e-05 4.8092e-05 -1.3116e-05 0.00022523 -4.7628e-05 -2.8992e-05 -2.2271e-05 0.0076711 3.4564e-05 0.0012663 3.5382e-05 1.9217e-05 0.00012922
2.8444e-05 5.1024e-07 0.13028 2.6175e-05 8.6188e-05 -0.00052309 -8.6038e-07 5.9369e-06 -0.0001965 0.18325 -1.5814e-05 6.7852e-05 0.18269 0.00010319 0.00041897 2.091e-06 6.8647e-05 0.00013225 1.896e-05 0.00010459 0.00066711 -0.00084431 -6.8575e-05 0.00078482 0.22936 0.000807 0.0010372 7.3608e-06 -0.00010145 -0.0019835 -0.00015077 -8.7704e-05 1.6078e-05 1.017e-05 -1.8737e-05 1.2122e-05 -3.9642e-06 -1.8173e-05 0.00030082 -6.2934e-06 -0.0011916 2.5072e-06 -7.5865e-06 -6.0495e-05 0.0030344 -1.3296e-05 -0.00026913 0.00026813 2.535e-05 -0.00023283
2.6182e-06 -5.3387e-06 0.13017 6.9195e-05 2.7475e-05 -0.00034849 0.289 1.2345e-05 0.00045085 1.064e-05 0.18543 0.00097128 1.6928e-05 2.7359e-07 0.00032183 -4.9461e-06 -5.0908e-07 -0.00010633 0.00023237 -4.4235e-06 0.0001309 9.7289e-05 4.3947e-06 0.0006401 6.1366e-05 -2.8411e-05 0.00017363 3.6687e-05 -3.2878e-05 2.2259e-05 -4.0068e-06 0.00021213 -6.1326e-05 1.2614e-05 0.0018761 1.823e-05 9.124e-06 -2.2213e-05 0.00069918 -4.4911e-05 5.7391e-05 9.129e-06 -1.8929e-05 -0.0001989 0.0047482 5.2125e-05 5.2999e-05 0.00012321 -4.8652e-05 0.0073463
2.0421e-05 0.17676 0.13007 0.2773 -2.2437e-06 4.9838e-05 3.1886e-06 -2.5372e-05 -5.8032e-05 4.6576e-05 0.1855 8.2461e-05 4.241e-05 2.872e-06 -4.4295e-05 -1.6938e-05 -1.4144e-05 -5.6885e-05 3.5362e-07 0.25012 0.21424 0.19641 4.8526e-06 -7.4891e-05 0.00016355 0.0029792 -9.0059e-06 7.3852e-05 7.7374e-06 1.3233e-05 -3.6081e-05 0.00022779 0.29129 -9.757e-05 -0.00053635 -1.6048e-05 2.6559e-05 1.7148e-05 -6.4754e-05 2.3804e-05 5.058e-05 -0.0001082 -3.9421e-05 -1.9177e-05 0.0001328 9.2809e-05 3.0891e-05 -0.003579 -7.4832e-07 0.004495
3.3493e-06 0.17663 0.13041 4.8156e-06 -1.8438e-05 -2.4784e-05 -1.8475e-06 -1.2712e-05 1.9195e-05 0.18182 1.0026e-05 -1.6628e-05 0.18233 5.6195e-06 1.617e-05 1.3324e-06 2.3876e-06 0.2493 0.30029 -2.7227e-05 -2.1546e-05 3.2388e-05 0.57735 2.4247e-06 0.22867 8.1519e-05 1.9519e-05 -7.3922e-05 4.545e-05 1.039e-05 -8.4709e-05 2.561e-05 5.0463e-06 3.8706e-05 -7.7059e-05 2.064e-06 2.3148e-05 5.6659e-06 0.40611 -2.1428e-06 0.57733 6.9702e-05 1.2973e-06 -0.00022768 -0.00031621 -2.5616e-05 -3.8664e-05 0.00022733 0.37751 -1.363e-05
1.2755e-05 -5.0043e-05 0.13031 5.1964e-05 1.9269e-05 -0.06948 0.00022904 4.117e-05 0.00040943 0.18242 2.1542e-05 0.00088734 0.1824 -1.9992e-06 0.20733 -4.7247e-06 -1.8287e-05 -0.00016857 0.29998 -5.7635e-05 0.00014396 8.7287e-05 -3.2521e-05 0.17211 0.0011011 -4.9085e-05 0.0013317 -6.0754e-06 9.4158e-05 -0.00034006 -1.1981e-05 0.00014685 -1.6641e-05 5.3486e-06 0.0018025 -1.7396e-06 0.00013849 -4.1517e-05 0.00059792 -3.8204e-05 -0.00013039 -7.2212e-05 0.00047081 -0.00027583 0.0040651 1.6161e-05 0.00030458 2.7254e-05 5.7608e-05 0.0078985
-8.3643e-07 -2.3334e-05 0.13032 7.9441e-05 4.0013e-06 -4.8953e-06 -1.0687e-05 -3.8434e-05 0.31611 0.18225 5.4371e-05 0.00013232 0.1832 9.0333e-05 1.7906e-05 2.8634e-07 -9.703e-06 -0.00027205 1.1371e-05 -9.5645e-05 0.00041989 -0.00044885 -0.00021906 0.00011535 0.23472 -2.0708e-05 0.0008947 -0.00021029 -1.5331e-05 3.6342e-05 6.3732e-05 0.00063337 -3.2471e-05 -3.0998e-06 -0.0002173 -4.8391e-06 3.7578e-06 8.1989e-06 -0.00024193 5.5059e-06 -0.001496 -5.7383e-05 7.0172e-06 -0.00013226 0.27856 -2.8489e-06 -7.1441e-05 2.2307e-05 0.00090729 -0.00075808
-1.6232e-05 -4.4457e-05 0.13104 0.0084295 -3.0982e-05 0.00011441 2.914e-06 0.00066127 0.0010348 3.2412e-05 0.18697 -3.1243e-05 5.3487e-05 -6.4014e-05 -0.00012341 -3.2513e-06 -9.5077e-06 0.25133 0.30704 -5.2577e-05 0.20735 -0.23066 -0.00011012 -0.00036883 0.0025259 2.8959e-05 0.34101 -0.00062523 -0.00041792 -4.134e-05 -0.00037871 0.36201 -5.1706e-05 7.8644e-05 -0.00026654 0.017093 -0.00027727 1.9121e-05 0.00059293 -6.6941e-05 -0.0022441 -0.00068353 -0.00015035 5.5963e-05 0.013416 -0.0033514 -0.00031131 -0.12732 0.00013076 0.0023147
6.5198e-06 3.8752e-06 0.12996 -1.7425e-07 5.1154e-08 1.0687e-05 1.2185e-07 8.1714e-06 -9.0081e-06 3.2893e-07 1.0608e-06 2.3864e-06 -4.1393e-06 -2.3115e-07 -3.6326e-06 -1.3838e-09 5.9505e-07 1.8132e-06 1.2214e-07 3.3693e-06 1.9126e-06 -2.153e-06 3.3522e-07 -1.5164e-05 1.3985e-06 -9.8669e-07 8.8335e-07 -4.5806e-07 5.1869e-06 1.4721e-05 3.8572e-06 3.7625e-06 -6.6959e-08 4.7188e-06 1.8113e-07 6.4852e-06 1.8438e-07 2.9411e-08 8.401e-07 -3.0359e-07 -9.0712e-07 2.0926e-06 -5.2871e-07 -3.2606e-06 -4.805e-06 -4.2394e-06 -1.4223e-05 -1.1546e-06 -2.1579e-06 -2.9169e-06
-5.0313e-06 0.17658 0.12998 6.1214e-07 1.8275e-06 0.20425 0.2886 9.6335e-06 -5.2456e-06 2.446e-06 0.18539 9.6464e-05 -6.0684e-06 3.0538e-06 -0.015415 1.3918e-06 7.9008e-07 -5.7178e-06 8.6473e-07 0.24964 -6.8234e-06 7.1149e-06 -3.0196e-06 0.03397 2.6962e-05 -4.6652e-06 7.6664e-06 2.0701e-05 -3.352e-07 2.0074e-05 1.6561e-05 2.6042e-05 -1.9651e-06 7.7706e-06 1.0991e-05 -1.656e-05 1.2218e-05 1.2896e-05 1.3076e-05 1.049e-05 1.8759e-05 1.2684e-05 1.7814e-05 2.28e-05 8.2838e-05 3.4686e-05 8.8885e-05 -7.2552e-06 -5.6962e-06 -4.7613e-05
-5.0313e-06 0.17658 0.12998 6.1214e-07 1.8275e-06 0.20425 0.2886 9.6335e-06 -5.2456e-06 2.446e-06 0.18539 9.6464e-05 -6.0684e-06 3.0538e-06 -0.015415 1.3918e-06 7.9008e-07 -5.7178e-06 8.6473e-07 0.24964 -6.8234e-06 7.1149e-06 -3.0196e-06 0.03397 2.6962e-05 -4.6652e-06 7.6664e-06 2.0701e-05 -3.352e-07 2.0074e-05 1.6561e-05 2.6042e-05 -1.9651e-06 7.7706e-06 1.0991e-05 -1.656e-05 1.2218e-05 1.2896e-05 1.3076e-05 1.049e-05 1.8759e-05 1.2684e-05 1.7814e-05 2.28e-05 8.2838e-05 3.4686e-05 8.8885e-05 -7.2552e-06 -5.6962e-06 -4.7613e-05
2.0421e-05 0.17676 0.13007 0.2773 -2.2437e-06 4.9838e-05 3.1886e-06 -2.5372e-05 -5.8032e-05 4.6576e-05 0.1855 8.2461e-05 4.241e-05 2.872e-06 -4.4295e-05 -1.6938e-05 -1.4144e-05 -5.6885e-05 3.5362e-07 0.25012 0.21424 0.19641 4.8526e-06 -7.4891e-05 0.00016355 0.0029792 -9.0059e-06 7.3852e-05 7.7374e-06 1.3233e-05 -3.6081e-05 0.00022779 0.29129 -9.757e-05 -0.00053635 -1.6048e-05 2.6559e-05 1.7148e-05 -6.4754e-05 2.3804e-05 5.058e-05 -0.0001082 -3.9421e-05 -1.9177e-05 0.0001328 9.2809e-05 3.0891e-05 -0.003579 -7.4832e-07 0.004495
-1.1546e-05 2.7415e-06 1.3631e-06 6.0745e-05 0.35347 6.9989e-05 1.1122e-06 0.002129 0.3152 0.00011011 8.2444e-05 0.27904 0.00023892 0.00038292 -2.3569e-05 -3.4323e-06 -4.5626e-06 0.00203 0.00022547 -0.00011519 0.0019782 -0.002406 -5.5101e-05 -0.00015392 0.00069714 0.00060596 0.0012281 -0.00018097 -5.961e-05 -0.40797 -5.3252e-05 0.00017224 0.0001007 -0.00012661 -0.00079903 3.0238e-05 -0.00010392 -4.1878e-05 0.0015145 -3.9947e-05 -0.00033147 8.4309e-05 1.105e-05 6.9462e-06 0.27573 9.3633e-05 -8.7033e-05 0.0025254 0.37948 0.00036165
0.00013394 3.9077e-06 0.00016288 0.27729 2.1201e-05 0.20489 2.8737e-05 -1.8323e-05 0.0011234 6.388e-06 0.00029871 0.27624 4.3239e-05 -2.7607e-06 -0.015754 -4.7286e-06 -2.5729e-06 0.00085274 0.00016739 9.6903e-05 0.21434 0.19691 0.00011082 0.033398 0.22697 1.92e-05 0.00010659 4.4374e-05 -9.0865e-06 4.2165e-05 -0.00010612 0.00014689 -0.00036759 2.4674e-05 -0.00025833 7.8207e-05 -1.244e-05 2.2945e-05 2.4682e-05 1.1802e-05 4.1883e-06 4.3262e-05 -1.864e-05 -2.2206e-06 0.029883 1.1004e-05 0.00010684 0.00012528 -4.0441e-05 9.8553e-05
-9.4991e-06 -6.6621e-07 0.13065 0.00015417 6.9411e-05 4.2566e-05 -2.6847e-05 0.501 0.0006807 6.525e-05 1.8765e-05 0.00022616 4.5145e-05 0.00038496 -6.3575e-05 1.715e-07 1.3785e-05 0.0024648 0.00030465 2.5604e-05 0.002885 -0.0028818 -0.00013063 -0.00013608 0.0025115 0.37395 0.00050239 -0.00011207 -0.00013056 -0.00054025 -1.7534e-05 0.00053625 6.5507e-05 4.9116e-05 -0.0012872 -4.4052e-05 -3.5514e-05 -2.0509e-05 0.40806 3.3264e-05 -0.0012186 -0.00055842 8.3913e-06 -7.8218e-06 0.018964 -5.4376e-07 -5.3288e-05 -0.0070786 0.0021796 0.0018581
0.00012995 1.3228e-06 0.00015197 0.00031729 3.897e-05 6.8032e-06 0.00026775 -6.267e-06 0.0024661 0.00018293 0.18596 0.0011359 5.8369e-05 0.00021201 0.00022863 -1.7306e-05 -5.4026e-06 0.0017051 0.00023375 -3.0393e-05 0.00080438 0.00066536 9.4841e-06 0.00013611 4.0438e-05 -9.8352e-07 0.00027216 0.0093991 0.00030695 -2.5856e-05 0.0028147 -0.00056342 -2.2943e-05 1.1327e-05 0.34122 8.7069e-06 -0.00010201 -7.9472e-05 0.00068918 -5.2421e-05 -0.00048425 0.0026079 -5.1264e-05 0.0050436 0.033016 -3.5656e-05 -5.1493e-06 -0.011091 0.00047374 0.0066012
4.2911e-06 -2.4779e-05 0.00029379 1.0554e-05 -4.0178e-06 -1.1508e-06 5.3695e-07 0.4987 -8.2623e-05 -3.1266e-05 9.2297e-05 -1.97e-05 -1.3188e-06 -2.3867e-05 4.4504e-06 -5.1075e-07 -4.6306e-06 2.4949e-05 0.00036454 -2.1365e-05 0.00017958 -0.00020302 5.4511e-06 -7.6734e-05 -4.1161e-05 0.00015763 0.00053655 2.7496e-06 -3.9718e-05 -3.1858e-05 -9.2145e-06 9.927e-05 -7.9011e-08 1.4327e-05 8.872e-05 2.4548e-05 -3.8463e-05 -7.4729e-07 0.00010548 1.2274e-05 4.8802e-06 -1.363e-05 -9.707e-06 5.7645e-06 0.00099251 -3.1837e-05 -9.7189e-05 -0.00031239 0.3771 -3.5335e-05
5.0956e-06 2.9461e-06 0.12994 2.0619e-07 5.0921e-08 1.0776e-05 -1.4738e-08 8.5561e-06 -8.5335e-06 3.1735e-07 2.6292e-06 2.6565e-06 -3.805e-06 -6.2826e-08 -3.5164e-06 1.9629e-10 5.2495e-07 1.9772e-06 1.859e-06 2.389e-06 2.9022e-06 -2.5122e-06 2.8836e-07 -1.3234e-05 1.0313e-06 -6.6832e-07 1.7896e-07 -5.5591e-07 6.2499e-06 1.4556e-05 1.1089e-05 9.2028e-07 -1.2242e-07 3.6449e-06 -3.2226e-07 7.4683e-06 5.0668e-08 6.1741e-08 -5.2323e-07 -7.1775e-08 7.3707e-07 1.9372e-06 2.7488e-08 3.4704e-07 -4.9947e-06 -1.2877e-06 -1.0758e-05 2.5433e-06 -5.1052e-07 -2.943e-06
-2.4325e-06 4.487e-06 -1.3824e-05 3.3787e-06 -7.8442e-06 -0.068154 -2.1823e-06 2.1362e-06 0.00011325 0.18477 -7.1971e-06 4.1095e-05 0.18258 0.33261 0.20591 5.2619e-06 0.57681 0.249 9.6978e-06 -5.9667e-06 -0.00013817 9.8098e-05 5.993e-05 0.1696 0.22717 0.37495 -7.9544e-05 -0.0002105 8.4407e-05 1.2998e-05 -5.8331e-05 -8.1277e-05 1.9666e-05 6.5336e-05 4.709e-05 -1.8849e-05 1.2429e-05 -1.8287e-05 0.00021379 -2.2271e-05 0.00020225 -0.00020857 -5.5948e-06 -0.00012048 -0.00071452 2.8914e-05 -8.187e-05 -0.00027665 -3.7947e-05 0.00038501
5.4453e-06 -2.4336e-05 0.13019 5.5927e-05 6.2876e-05 9.937e-05 -1.521e-07 0.00054987 -9.3406e-05 5.3881e-05 0.18558 9.2231e-05 -3.6902e-06 -9.5766e-07 -4.4738e-05 -1.5802e-08 -0.0002555 7.2595e-05 0.00055153 -1.1969e-05 0.0011193 -0.0012778 -3.9559e-06 -0.00021354 -4.1404e-05 0.38422 0.0002255 1.6275e-05 -4.9216e-05 -0.0018204 -0.00010837 6.9329e-05 -2.5205e-05 -0.00014818 0.0001331 1.3374e-05 -2.7622e-05 -2.1928e-05 -0.000173 4.0326e-05 -7.5183e-05 -5.0641e-06 8.9764e-06 4.9803e-05 0.0012686 1.526e-05 -4.6776e-05 -1.5796e-05 0.00062855 0.0004338
5.6178e-06 -1.2576e-06 0.13002 -1.7474e-06 -4.7992e-07 -2.1235e-06 1.8151e-07 6.0139e-06 -2.1897e-05 4.6044e-05 -3.2415e-06 9.6697e-08 4.1268e-05 -2.2607e-06 2.5459e-05 2.9782e-07 1.7898e-07 -3.134e-06 3.5515e-05 -3.3242e-06 -1.6036e-05 1.3908e-05 -1.1009e-05 -1.2639e-05 0.00037287 -1.5562e-05 0.0011969 -1.0369e-05 6.0039e-06 2.1402e-05 -8.9538e-06 -5.745e-06 3.8764e-06 3.0876e-06 1.3161e-05 7.9484e-06 -4.0592e-06 -1.2402e-06 -1.0341e-05 3.319e-07 -0.00018681 -2.6095e-05 3.5171e-08 3.0414e-06 -2.8689e-05 1.7601e-06 -3.967e-05 -2.5578e-05 5.1986e-06 0.00019584
-1.5747e-05 0.17904 0.13004 -2.3042e-05 1.6115e-05 0.20463 -1.6501e-05 3.2921e-06 -1.5127e-05 1.8273e-05 -8.4615e-06 9.0928e-06 9.4267e-05 0.3339 -0.015556 -2.7116e-06 -1.2519e-05 -0.00019709 0.29993 -0.000109 -2.8995e-05 -7.5015e-06 -1.9336e-05 0.033608 0.0008175 -2.0311e-05 0.31038 -0.00012623 2.0061e-05 -1.1211e-05 0.31564 -0.00032961 1.9727e-05 -3.4668e-05 2.5511e-05 -0.00010716 6.4146e-05 -7.3543e-05 -0.00068041 -7.7399e-05 9.3383e-05 0.00011181 0.0012686 -0.00052378 0.00020018 4.5886e-06 0.00016993 0.00092951 0.37831 -0.00014514
-7.1714e-06 -3.603e-05 8.99e-05 7.7505e-05 -3.9924e-05 -2.1741e-05 -4.2689e-05 9.5231e-05 0.0013199 0.18313 6.2995e-05 -0.00016089 0.18228 2.1669e-05 0.00013785 -2.8222e-06 -7.1779e-06 0.00038221 0.00012194 4.7614e-06 0.00099216 -0.0008046 -0.00013674 0.00015504 0.23074 -2.4642e-05 0.0020374 -0.00023137 -0.00012639 -7.3647e-05 -2.7287e-05 0.00050344 -2.9353e-06 -5.4739e-07 -0.00025808 -4.4454e-05 0.00013876 3.0244e-05 0.00042258 7.6978e-06 -0.0007339 -0.00052079 0.0004493 -3.7572e-05 0.013101 -4.7732e-05 3.4635e-05 -0.0083438 -2.5332e-05 0.39173
-1.2378e-06 -2.4655e-05 0.00012213 0.0093626 0.35354 -1.6179e-05 2.1351e-06 0.00017672 -9.5821e-05 0.00062337 0.00020073 -2.7398e-05 9.9012e-05 -2.9334e-05 2.139e-06 1.1095e-06 1.5084e-06 -7.2241e-05 0.00044495 -2.3385e-05 0.2274 -0.25403 -0.0001312 4.6058e-05 0.0035484 1.1561e-05 0.0017902 3.0313e-05 -1.9834e-05 -6.1952e-05 -0.00011871 0.00066623 -1.8763e-05 1.6529e-05 -3.7295e-05 3.8693e-05 -1.2442e-05 3.0534e-06 -0.00010201 -1.3505e-05 -0.00069537 -0.00025108 -5.1605e-06 1.7699e-05 0.00069062 -0.0001471 0.0013911 -0.0020992 -4.5827e-05 -0.00010357
-3.0527e-06 -2.4116e-06 0.00013905 -1.3621e-05 -7.0123e-06 -0.068667 -2.6273e-07 -4.3011e-05 -1.0036e-05 0.18299 -1.7143e-05 -1.4176e-05 0.18252 0.3327 0.20652 5.592e-06 0.57853 0.24983 9.5725e-06 -3.9132e-05 0.00020788 -0.00037068 -0.00010441 0.17033 0.22895 0.37854 -0.00016864 -0.00032095 2.6528e-05 1.4987e-05 -0.00020078 5.4391e-05 1.2933e-05 9.9729e-06 7.8815e-06 -1.3665e-05 -3.8698e-07 -1.0465e-05 5.9152e-05 -3.0296e-05 -0.0017734 -0.00024015 8.6951e-06 -0.00027227 -0.00086017 3.1652e-05 -5.9997e-05 0.0014635 -5.0995e-05 -0.00018821
6.5857e-06 1.6473e-06 2.5235e-06 -4.258e-06 7.8485e-06 2.8354e-05 -3.8486e-06 -1.1481e-07 -3.7779e-06 -4.3098e-06 4.7196e-06 -7.5667e-07 6.3906e-07 2.5581e-06 -5.6377e-05 2.5547e-07 2.0963e-06 6.7338e-06 2.4415e-06 -4.1298e-07 -1.7957e-05 -2.6242e-05 -1.2445e-07 -8.8338e-05 1.1835e-07 1.1107e-08 6.2081e-07 -2.0088e-05 -1.8924e-06 4.9178e-07 3.7448e-06 -2.2795e-06 2.7853e-05 -6.6714e-07 0.0065955 -4.7225e-05 -3.3074e-09 -2.3313e-07 -7.5447e-06 4.7546e-07 -7.7417e-06 4.1677e-05 6.3333e-07 6.8136e-05 -1.4707e-05 4.1612e-06 -3.4224e-06 0.00046353 8.9575e-06 3.4961e-05
2.8911e-05 3.0146e-06 0.12997 0.27702 -2.4074e-06 0.20451 1.1031e-07 1.7472e-06 -1.7546e-05 -5.861e-06 5.4092e-06 1.9472e-05 -1.1876e-05 0.33283 -0.015474 7.7055e-06 -1.972e-05 -1.9445e-05 5.0922e-06 9.7005e-07 0.21372 0.19612 4.0421e-06 0.033728 7.5499e-06 1.4391e-05 -2.3735e-05 4.1606e-05 -2.5723e-05 2.2328e-05 5.6749e-06 -1.3023e-05 -3.8915e-05 -2.7988e-05 1.447e-05 2.3608e-07 3.7337e-07 -1.5362e-06 -1.1608e-05 1.1723e-06 4.9142e-05 9.8401e-06 -3.8135e-06 6.1657e-05 -0.00022027 1.5467e-07 5.6762e-05 -8.335e-05 -0.0001036 -1.251e-05
6.4e-08 -4.8678e-06 3.4358e-05 -6.7456e-06 -5.6207e-07 -1.108e-05 1.7049e-07 -9.286e-07 6.8738e-06 0.00039062 2.1539e-07 1.0845e-05 3.0744e-05 8.5234e-06 5.2606e-06 2.5856e-07 2.8856e-06 -4.2785e-06 -1.6027e-05 -6.5995e-07 -7.3642e-06 6.3058e-06 -5.997e-06 2.5863e-05 1.131e-05 1.3098e-05 0.00074551 1.4383e-05 1.7893e-06 -1.6055e-06 1.0695e-05 -2.5683e-05 3.177e-07 1.6673e-05 -3.6708e-06 8.3463e-06 -5.5946e-06 5.9792e-06 1.3219e-05 1.7688e-06 4.2531e-06 2.4651e-05 -2.1324e-06 8.3306e-06 8.8945e-05 1.0623e-07 -1.3063e-05 -4.3406e-07 -2.8055e-06 1.7415e-05
-1.6529e-05 0.17657 1.0443e-05 0.27698 1.6424e-06 3.7989e-05 -1.1561e-05 1.095e-06 -0.00020297 0.18154 -2.6793e-06 1.5585e-05 0.18216 1.3241e-05 -8.8173e-06 1.6798e-06 2.0066e-06 -4.8909e-05 4.4523e-06 3.4587e-06 0.21359 0.19594 1.5041e-05 9.0726e-05 2.4226e-05 6.8294e-06 -7.4448e-05 0.44156 6.7399e-05 7.0868e-06 -0.0001536 0.0003435 -1.5028e-05 2.2451e-06 3.9956e-05 0.40483 1.7833e-05 1.4139e-06 3.7137e-05 3.1031e-06 8.6867e-05 0.44491 6.1632e-06 0.44443 -0.00012002 0.00040214 1.1786e-05 0.0003285 1.7129e-05 -7.6827e-05
9.1979e-06 1.412e-06 0.1302 0.00012529 -3.2062e-06 1.327e-05 -4.3029e-06 4.5769e-06 -3.8265e-05 9.7056e-05 0.00078193 -1.8216e-05 5.3404e-05 -2.7559e-06 8.1823e-06 -1.1393e-06 1.5512e-06 0.00083751 4.5936e-05 -4.6139e-05 0.00028115 -0.00017135 -2.5299e-05 -7.4734e-05 0.00054174 -1.5248e-05 0.0040483 -0.000292 -0.00010076 5.1659e-05 -0.00037171 -0.00040408 -8.6899e-06 2.667e-05 -0.00015792 0.4232 -0.00022814 -2.6783e-06 -2.2207e-05 -3.9811e-05 -0.0010945 -0.00012132 -2.1631e-05 0.0004415 -3.1568e-05 -0.0027037 -0.00019504 -0.0063763 -2.3185e-05 0.00027
-1.5006e-05 2.0887e-06 0.13064 -6.6626e-05 -4.9576e-06 3.9642e-05 -3.3435e-05 6.3636e-05 0.31356 0.00034589 -0.00038822 -0.00039988 0.0008331 -1.548e-06 -5.7572e-05 5.4464e-06 -6.8187e-08 0.00018428 0.00013515 0.0002015 0.000538 -0.00090954 -7.9866e-05 -8.2741e-05 0.0019466 1.4113e-05 0.00042048 -0.0003467 -0.00023415 0.00025209 -7.5556e-05 0.00057472 5.8991e-05 3.7371e-05 -0.0008625 -2.4348e-05 8.1318e-05 4.1771e-05 0.00039557 -1.8138e-05 -0.00032202 -0.00045744 9.4057e-06 -0.00015388 0.43452 -2.715e-05 6.1098e-05 -0.0072851 -6.5894e-05 0.00079639
-2.8607e-06 0.17658 -7.453e-06 -7.9815e-06 3.649e-07 0.13635 3.842e-06 -5.512e-06 -1.6111e-06 6.4647e-07 -0.00064659 0.28207 -1.2006e-05 2.5523e-06 0.19037 2.2817e-06 2.7272e-06 1.3516e-05 3.4391e-06 0.2512 -9.1174e-05 -1.7833e-05 4.7683e-07 0.20311 2.6183e-05 -5.7067e-06 1.0451e-05 -3.7723e-07 1.3404e-05 -3.4656e-05 4.0773e-05 1.3819e-05 0.28833 -2.1369e-05 -1.0832e-05 -1.1821e-06 -3.7412e-05 -0.00020585 1.2598e-05 -0.00031679 2.2274e-05 6.6521e-05 -4.5405e-06 7.1722e-05 -0.00038466 2.3261e-05 0.00010149 7.8065e-05 8.9189e-07 -0.00034864
-4.9546e-06 0.17658 1.9944e-05 3.2827e-05 3.8594e-05 0.13628 -1.7844e-05 2.1058e-06 0.00022623 -1.3662e-06 2.8538e-05 1.1136e-05 -1.5571e-06 2.2705e-08 0.19044 -2.1881e-06 4.5566e-06 7.0231e-06 9.6153e-07 0.24962 9.0307e-06 4.1315e-05 -3.0142e-06 0.20318 1.9757e-05 -4.8687e-05 4.8455e-06 -4.0322e-06 8.1735e-06 -3.8677e-05 3.7947e-06 2.54e-05 0.28828 -3.6924e-06 0.00026714 4.7781e-06 5.1643e-06 4.2233e-05 0.00047617 3.5425e-06 4.4744e-05 6.0765e-05 -6.2224e-06 3.8394e-05 0.0015612 -5.9929e-05 7.6062e-05 0.00015969 -5.7538e-06 -1.5412e-06
4.7158e-07 6.7349e-06 -5.7025e-06 -1.1355e-05 9.7984e-05 1.0738e-06 -2.5262e-06 1.9584e-05 -0.00026465 0.00022049 -2.6315e-05 5.352e-05 0.00029807 3.788e-05 3.795e-05 -1.5854e-07 -4.6448e-06 -2.9912e-05 7.0605e-05 -3.1447e-06 0.00028104 -0.00035504 -4.9604e-05 -4.1474e-05 0.00070761 0.00044002 0.30983 1.4109e-05 -9.3752e-07 -0.4077 0.00010652 -0.0003251 1.6716e-05 -1.048e-05 2.6499e-05 -6.6955e-05 -5.5139e-06 -3.6767e-06 0.00018147 4.1299e-06 -0.00030552 4.8039e-06 -0.00010401 3.8113e-05 0.0033358 4.0504e-05 -4.1619e-05 0.00084672 -2.3733e-05 -0.00012343
6.5473e-06 -3.7183e-05 0.00032044 0.0084882 0.35385 -0.00032259 -1.0125e-05 0.50196 -0.00014042 0.00072722 0.00021001 -3.4148e-05 0.00012779 6.1106e-05 0.00057002 3.1926e-06 -1.5206e-05 -0.0001168 0.30093 -5.7716e-05 0.20854 -0.23156 -0.00016446 0.00096419 0.0068628 0.00020056 0.002758 -2.8039e-05 0.00010741 -0.40824 -7.4847e-05 -0.000183 -2.5175e-05 -5.3299e-05 7.5634e-05 -2.1246e-05 3.1102e-06 -8.5223e-05 0.00024269 2.3697e-06 -0.0028414 -4.1394e-05 0.0014715 -1.9369e-05 -0.00079065 -7.3167e-07 0.00038193 1.5948e-05 -0.00011426 0.00053965
-1.3169e-06 3.6233e-06 -6.919e-06 5.2694e-07 -1.9202e-06 -2.6647e-05 -1.2728e-06 1.288e-07 0.00029858 2.8798e-07 1.2465e-06 6.8118e-06 -3.3921e-08 1.1503e-06 3.2882e-05 -3.4928e-07 -4.1998e-06 -3.763e-06 -1.6393e-07 -1.0534e-06 4.5635e-07 7.4532e-07 9.6434e-06 9.1578e-05 2.6145e-05 1.5424e-05 1.9478e-07 1.1381e-06 -1.0865e-05 -1.1746e-06 -9.0876e-06 1.0026e-05 -1.3934e-05 -3.6682e-06 -8.639e-06 -6.5455e-07 -3.4082e-06 -3.1591e-06 8.5941e-06 3.4622e-06 -6.1845e-06 4.8868e-06 -8.3083e-07 5.6157e-06 0.000111 -1.7592e-06 -2.6143e-06 -4.6138e-07 1.671e-05 0.00014288
-2.3249e-06 0.17686 0.13002 -2.7365e-05 -3.5251e-05 -2.6841e-05 -1.6422e-06 1.0125e-05 8.6903e-05 0.18183 0.18556 8.3112e-05 0.18237 0.00013833 0.00016935 -1.7019e-06 -3.6363e-05 -5.3354e-05 6.0589e-05 -3.8911e-06 -4.3737e-05 -1.0867e-05 -9.4287e-06 0.00033728 0.00095597 -5.8948e-05 0.30689 -8.9148e-05 4.2398e-05 2.0866e-05 0.31429 -0.00029538 -1.7098e-05 1.4943e-05 5.736e-07 -6.4975e-05 1.6914e-07 -5.2867e-06 -0.00018262 -2.2673e-05 -0.00010044 -2.3173e-05 -8.623e-05 -0.00023993 0.0015695 4.8348e-05 0.00012087 0.00061398 0.00083164 -0.00019019
0.28866 0.17659 0.12997 0.2771 5.0584e-07 0.13636 1.0293e-06 -1.0579e-05 0.00073454 0.18178 2.8004e-05 3.6702e-05 0.18221 2.184e-06 0.19057 -2.3112e-06 5.655e-06 0.24932 6.7801e-06 -7.0886e-06 0.21388 0.19632 3.0351e-05 0.20323 -5.5547e-05 2.9591e-05 -0.00029959 0.45076 0.30057 -2.7568e-07 0.3166 0.35146 -5.8921e-06 6.7257e-06 0.33036 0.40508 8.282e-06 -1.3508e-05 -2.451e-05 -8.9193e-06 0.00015729 0.44872 3.9191e-06 0.44902 -0.0011273 0.49986 3.3733e-05 -0.37141 2.3346e-05 -0.00028194
3.9604e-05 -5.3767e-05 0.13076 1.4847e-05 1.2492e-05 -0.070312 3.5945e-06 3.1706e-05 8.4135e-05 0.18388 0.00020948 3.1496e-05 0.18345 1.5378e-05 0.20763 1.4443e-05 -3.4024e-05 -0.00011522 4.5915e-05 6.6956e-05 -6.1371e-06 9.5799e-05 0.00010894 0.17511 0.2292 -8.6255e-05 0.0020136 -7.286e-05 1.4412e-05 -0.00020595 -0.00016049 -0.00016404 -0.00016511 -4.4746e-07 3.0669e-06 -0.00021519 -3.6525e-07 3.9892e-06 8.1214e-06 5.4714e-07 -0.00042377 -0.00013659 7.3527e-05 -8.6841e-05 2.7527e-05 -6.1858e-05 0.58258 -0.00033677 0.00010375 0.0017169
-2.3928e-06 0.1769 3.1162e-06 3.7548e-06 5.7915e-07 4.0005e-05 -1.1717e-07 3.6723e-05 -1.8528e-06 -8.5439e-06 -6.9978e-06 2.9504e-06 -1.5564e-07 1.4042e-06 -1.5098e-05 1.3053e-06 -8.1685e-05 8.1183e-06 -2.2247e-07 1.8131e-05 -1.2612e-05 1.45e-05 1.8488e-06 -6.9241e-05 -6.4015e-06 0.37661 6.0337e-06 2.5121e-06 6.6463e-06 1.0956e-06 9.983e-06 6.6505e-05 -1.8483e-05 -2.0784e-05 5.0494e-07 -5.6803e-06 -2.2289e-06 -2.4054e-05 9.5018e-06 -6.223e-06 1.0428e-05 -9.5409e-06 5.1036e-06 1.2579e-05 2.2497e-05 2.5047e-05 -4.6692e-06 0.0001573 7.587e-06 -7.6199e-05
2.0528e-06 5.2088e-07 2.1124e-05 1.8306e-06 3.3243e-06 -3.0931e-06 1.2501e-07 0.4983 3.1092e-06 -3.0433e-06 2.114e-06 -2.5291e-05 1.2454e-06 -1.498e-05 4.4981e-06 6.746e-09 -3.8631e-07 -5.6176e-05 -1.04e-07 2.9761e-07 8.7226e-06 -8.1425e-06 3.5344e-06 1.0928e-05 -2.8592e-05 0.00012035 1.094e-05 3.0851e-06 4.2424e-06 3.2661e-06 6.3324e-06 -4.6758e-06 4.9493e-08 2.7636e-07 -2.1937e-05 -7.745e-07 -3.0361e-07 1.9235e-06 -2.7993e-07 1.2878e-06 3.6337e-05 7.3711e-07 2.2147e-06 1.1381e-06 -0.00023855 -3.3153e-07 5.4508e-06 -1.0356e-05 -5.5373e-05 -2.0732e-05
-9.3198e-07 0.17658 0.12997 -2.6616e-06 1.1711e-06 0.13642 0.28859 3.421e-06 -2.3857e-07 4.7307e-05 0.18544 0.27606 -3.2887e-06 4.3206e-06 0.1903 0.5 2.8415e-06 2.3272e-05 5.0837e-06 0.24963 -3.9267e-05 3.2622e-05 -4.211e-06 0.20308 2.9396e-05 2.5486e-05 5.842e-06 1.6589e-05 1.7013e-05 -1.9923e-05 1.4717e-05 1.1749e-05 0.28809 0.35356 2.2061e-06 -4.4379e-06 0.44714 0.37796 9.135e-06 3.8681e-05 2.2019e-05 3.8561e-05 6.8934e-05 5.7093e-05 -0.00010447 3.8852e-05 0.00010646 7.1735e-05 -1.1665e-05 -4.0356e-05
3.3493e-06 0.17663 0.13041 4.8156e-06 -1.8438e-05 -2.4784e-05 -1.8475e-06 -1.2712e-05 1.9195e-05 0.18182 1.0026e-05 -1.6628e-05 0.18233 5.6195e-06 1.617e-05 1.3324e-06 2.3876e-06 0.2493 0.30029 -2.7227e-05 -2.1546e-05 3.2388e-05 0.57735 2.4247e-06 0.22867 8.1519e-05 1.9519e-05 -7.3922e-05 4.545e-05 1.039e-05 -8.4709e-05 2.561e-05 5.0463e-06 3.8706e-05 -7.7059e-05 2.064e-06 2.3148e-05 5.6659e-06 0.40611 -2.1428e-06 0.57733 6.9702e-05 1.2973e-06 -0.00022768 -0.00031621 -2.5616e-05 -3.8664e-05 0.00022733 0.37751 -1.363e-05
-5.7253e-07 0.17658 0.12997 -2.771e-06 1.1074e-06 0.13641 0.2886 3.7467e-06 1.3806e-06 6.8506e-06 0.18542 0.27605 -3.8423e-06 3.7592e-06 0.19032 -2.571e-05 2.8214e-06 1.7849e-05 5.0404e-06 0.24964 -4.0119e-05 3.2293e-05 -3.8988e-06 0.20309 2.1851e-05 2.0175e-05 -4.4807e-05 1.532e-05 2.0536e-05 -2.0238e-05 1.5396e-05 1.2596e-05 0.2881 0.35357 2.5727e-06 -8.7691e-06 7.4669e-05 0.37797 1.1617e-05 3.5238e-05 2.9539e-05 3.6171e-05 0.49953 5.7889e-05 -9.9992e-05 3.9875e-05 0.00010758 5.6521e-05 -1.2537e-05 -2.8467e-05
-9.9046e-06 6.3873e-06 0.13007 5.0614e-05 9.0967e-05 3.354e-05 -5.7665e-06 0.002148 -0.00041621 2.9446e-05 -1.5895e-05 0.00033422 9.4876e-06 0.00039369 -2.8549e-05 -4.5968e-07 -1.8253e-06 0.25093 0.00019759 1.2478e-05 0.0016951 -0.0019456 -4.6296e-06 -9.736e-05 4.0285e-05 0.00010386 -2.9606e-05 -8.2142e-05 4.0513e-05 -3.5629e-06 -4.039e-05 -7.2344e-05 0.0001106 8.1865e-06 -0.0013221 -3.4481e-05 -2.4696e-05 -1.8415e-05 0.0013751 2.8058e-05 -0.00017129 9.1179e-05 -8.2348e-07 -0.00010891 0.005509 7.4342e-05 -4.125e-05 0.0011078 0.0022152 -0.00023881
0.28878 1.1477e-05 0.13002 0.0001279 1.7486e-07 0.13597 8.0456e-06 -1.203e-05 0.00090827 0.00020154 0.00013573 -2.1522e-05 5.1556e-05 -1.11e-05 0.19079 -4.0181e-07 -2.1484e-06 0.25006 6.0316e-07 -1.0627e-05 0.00027929 0.00037438 2.0604e-05 0.205 -8.4492e-05 2.3845e-06 -0.00028333 0.0089108 0.30257 -4.7263e-07 0.31816 0.35136 1.2622e-05 -3.6445e-05 0.33039 -4.7175e-05 -3.4027e-06 -1.6832e-05 -5.9528e-05 -1.0156e-05 7.9305e-06 0.0037993 2.669e-06 0.0037079 -0.00097209 0.00018128 -0.00026691 -0.37168 -1.5515e-05 -0.00023061
3.7781e-06 2.4162e-05 0.13014 0.00012058 4.2532e-07 0.13635 -2.3351e-05 8.2341e-06 0.0001244 2.3595e-06 0.1854 1.1495e-06 -8.145e-06 4.6274e-07 0.19034 3.1105e-06 4.1015e-06 1.293e-05 -2.1614e-06 0.00014163 0.00021851 0.00022071 3.7211e-06 0.20318 1.0754e-05 -1.3793e-05 -4.9974e-06 -2.4644e-06 1.5288e-05 -2.3021e-05 -6.944e-05 -9.9695e-06 3.8579e-05 8.5311e-06 -2.6614e-05 -2.5493e-05 2.3347e-05 -1.08e-05 -1.1765e-05 3.83e-06 3.1498e-05 3.8979e-05 7.6855e-06 8.6487e-06 -0.0002384 4.296e-05 9.5872e-05 -4.9659e-05 -5.3563e-06 0.39377
0.28882 1.0481e-05 -1.9589e-05 0.00020333 2.0552e-06 0.00045994 0.28886 -5.6995e-05 0.31902 0.00016755 0.18616 0.00012901 8.9715e-06 -4.8644e-05 -6.9352e-05 5.3598e-06 8.5584e-06 0.25077 -4.6452e-06 -3.7083e-05 0.00024682 0.0009311 2.8522e-05 -0.00046591 -0.0001192 2.4731e-05 -0.00023345 0.0091637 0.30335 -3.5394e-05 0.0026928 -0.00063468 2.6364e-05 2.0391e-05 0.33482 0.00016809 -6.9241e-05 -1.6064e-05 -0.00012344 -2.8779e-05 -0.00027339 0.0028896 4.5442e-06 0.0046597 0.29853 0.50036 2.871e-05 -0.0089306 -3.6259e-05 -0.00086275
0.28893 7.3748e-06 4.9039e-05 0.00020611 3.3666e-06 0.0001045 0.28886 -5.7351e-05 0.31899 0.00013546 0.18626 8.6368e-05 8.1886e-06 -4.8687e-05 0.00014258 8.9489e-06 2.7616e-06 0.25147 -6.3699e-06 -3.7163e-05 0.00023066 0.00092773 3.3816e-05 0.0013871 -0.00012392 4.3537e-06 -0.00029165 0.0088814 0.30542 -2.8504e-05 0.0040924 -0.00039153 2.985e-05 -2.0535e-05 0.33489 -0.00011968 -6.3092e-05 -1.7974e-05 -0.00012132 -2.6913e-05 -0.00033588 0.0028746 9.4574e-06 0.0037789 0.29857 0.0010859 -0.00026014 -0.0088705 -5.7991e-05 -0.00088826
-2.8607e-06 0.17658 -7.453e-06 -7.9815e-06 3.649e-07 0.13635 3.842e-06 -5.512e-06 -1.6111e-06 6.4647e-07 -0.00064659 0.28207 -1.2006e-05 2.5523e-06 0.19037 2.2817e-06 2.7272e-06 1.3516e-05 3.4391e-06 0.2512 -9.1174e-05 -1.7833e-05 4.7683e-07 0.20311 2.6183e-05 -5.7067e-06 1.0451e-05 -3.7723e-07 1.3404e-05 -3.4656e-05 4.0773e-05 1.3819e-05 0.28833 -2.1369e-05 -1.0832e-05 -1.1821e-06 -3.7412e-05 -0.00020585 1.2598e-05 -0.00031679 2.2274e-05 6.6521e-05 -4.5405e-06 7.1722e-05 -0.00038466 2.3261e-05 0.00010149 7.8065e-05 8.9189e-07 -0.00034864
-4.4994e-06 0.17658 0.12998 -2.1835e-06 1.4897e-06 0.20436 0.2886 2.0655e-06 -9.8086e-06 4.6015e-06 0.18542 0.27606 -6.8037e-06 5.0709e-06 -0.015437 -2.7563e-05 9.5738e-07 -1.189e-05 3.4919e-06 0.24965 -3.8447e-05 3.1238e-05 -3.729e-06 0.03401 2.0803e-05 3.7415e-06 -3.964e-05 1.9635e-05 2.1121e-06 1.941e-05 1.7713e-05 4.1874e-06 0.28806 0.35358 -3.0076e-05 -1.4152e-05 7.5848e-05 0.37797 1.2096e-05 0.5 1.8254e-05 6.7315e-06 0.49953 1.844e-05 -6.0173e-05 3.9541e-05 8.9204e-05 8.0305e-05 -1.0915e-05 -4.909e-05
5.626e-06 0.17657 0.12996 5.121e-08 6.8423e-07 -0.067957 -2.6069e-06 1.1367e-05 9.5628e-06 5.4966e-06 0.18538 9.3118e-05 5.8786e-06 -8.6962e-08 0.20577 1.3955e-06 2.077e-06 2.9658e-05 3.0646e-06 3.1902e-05 -6.9616e-06 1.4498e-05 -4.7888e-07 0.16911 1.8147e-05 -3.8687e-06 -1.4176e-06 1.3578e-05 2.7307e-05 -2.5838e-05 1.2735e-05 1.99e-05 2.464e-05 3.8258e-06 2.3575e-05 -1.1248e-05 1.8196e-05 4.5319e-06 7.985e-06 5.0858e-06 2.6769e-05 2.8874e-05 6.9327e-06 4.6081e-05 1.9465e-05 2.1282e-05 5.7465e-05 -6.8941e-05 -8.4575e-06 -1.05e-06
-3.0925e-06 0.17664 0.1303 -3.0604e-06 -2.9352e-06 0.20571 -1.5294e-05 -7.715e-07 -0.00015131 0.18202 -2.8714e-05 -1.5828e-05 0.18351 1.0869e-05 -0.015971 2.9809e-06 -3.5214e-06 -2.2108e-05 2.4023e-05 0.25047 -0.00011705 7.0442e-05 0.00013798 0.032605 0.22723 6.3816e-06 -4.5847e-05 -2.4863e-05 -1.6521e-05 2.8408e-05 -2.305e-05 -1.8216e-05 -4.5912e-05 4.3676e-05 -2.0544e-05 4.8282e-06 3.6939e-05 -1.1358e-05 4.8092e-05 -1.3116e-05 0.00022523 -4.7628e-05 -2.8992e-05 -2.2271e-05 0.0076711 3.4564e-05 0.0012663 3.5382e-05 1.9217e-05 0.00012922
2.48e-06 0.17659 -9.1496e-06 4.5759e-05 0.35326 -0.068395 -3.8531e-07 8.1979e-06 -3.2321e-06 0.18165 -2.6028e-06 9.1869e-05 0.18219 1.8028e-05 0.20627 4.2526e-06 4.0089e-06 7.6863e-06 7.1798e-05 1.8573e-06 2.1273e-05 0.00014421 3.6125e-05 0.17011 3.3601e-05 -5.2354e-05 0.3075 5.2785e-05 1.3937e-05 -0.00051232 2.4079e-05 -0.00037471 -8.3378e-06 -1.1039e-05 1.681e-05 -6.3013e-05 7.2012e-05 2.8781e-05 5.1874e-05 1.208e-06 7.9032e-05 5.7629e-05 -8.7063e-05 -0.00011144 -0.00028704 5.9759e-05 -7.1018e-05 0.00064374 8.1734e-05 -3.1687e-05
-1.5373e-05 -9.7211e-06 -9.9483e-06 0.27764 0.35371 -0.0004486 0.00022242 -3.6658e-05 0.31635 0.00014514 0.18566 0.00088962 -6.1666e-06 6.7985e-06 0.00043682 -8.1461e-06 1.0024e-05 -0.00024908 7.3286e-05 -4.2754e-05 0.21444 0.19726 0.00011648 0.00079923 0.22754 -0.00016018 -0.00022301 -9.5128e-05 -2.686e-05 -4.6747e-05 -0.00010933 0.00017459 1.6592e-05 -3.5792e-07 0.0020476 2.9241e-06 -4.5142e-06 -8.1686e-06 0.41299 -4.6478e-05 0.00042437 0.00016761 -3.6449e-05 -0.00030187 0.27227 1.6187e-05 0.00012236 0.0022307 2.4135e-05 0.0094998
-2.1895e-06 1.2379e-05 0.13013 0.0082784 0.00018656 -0.00046406 -5.2732e-06 0.0021527 -0.00081801 0.00031051 6.6417e-05 0.00033427 0.0003283 0.00046423 0.00033908 -1.1928e-05 -8.7431e-06 0.0020722 0.00020375 0.00020528 0.20505 -0.22836 -0.0001735 0.0006681 0.0021125 0.38363 0.0011355 1.4834e-05 -5.6956e-05 -0.0020394 3.4603e-05 0.00019514 0.0033264 -0.00018025 -0.0015743 2.2953e-05 -4.8898e-05 -1.0359e-05 0.0015928 5.7014e-05 -0.001463 -0.00012929 -3.6392e-05 6.197e-05 0.0092052 0.00014795 -0.00022008 -0.0021852 0.0022366 0.0017899
-1.0968e-06 -2.6665e-05 0.00044251 4.302e-06 -9.9937e-06 3.2501e-06 1.5105e-06 0.00039218 8.512e-06 -5.2523e-06 0.18544 7.5227e-05 8.9296e-06 1.3043e-06 -1.6956e-06 -2.2811e-06 -4.4545e-06 2.903e-05 0.00035367 1.0557e-05 5.2316e-05 -5.6886e-05 2.627e-07 -8.2908e-05 -3.6544e-07 1.6936e-05 0.00030409 1.834e-05 -1.509e-05 1.9465e-05 2.3666e-05 0.00010475 -1.2039e-05 1.5988e-05 -4.8912e-06 -1.5485e-05 2.2301e-06 -2.4481e-06 6.1155e-05 -3.8458e-06 7.6365e-07 -1.2112e-05 -1.1256e-05 -1.0104e-05 3.3293e-05 5.0617e-06 -4.4999e-05 -0.00015008 0.00031651 -1.6376e-05
0.28878 1.1477e-05 0.13002 0.0001279 1.7486e-07 0.13597 8.0456e-06 -1.203e-05 0.00090827 0.00020154 0.00013573 -2.1522e-05 5.1556e-05 -1.11e-05 0.19079 -4.0181e-07 -2.1484e-06 0.25006 6.0316e-07 -1.0627e-05 0.00027929 0.00037438 2.0604e-05 0.205 -8.4492e-05 2.3845e-06 -0.00028333 0.0089108 0.30257 -4.7263e-07 0.31816 0.35136 1.2622e-05 -3.6445e-05 0.33039 -4.7175e-05 -3.4027e-06 -1.6832e-05 -5.9528e-05 -1.0156e-05 7.9305e-06 0.0037993 2.669e-06 0.0037079 -0.00097209 0.00018128 -0.00026691 -0.37168 -1.5515e-05 -0.00023061
-1.5006e-05 2.0887e-06 0.13064 -6.6626e-05 -4.9576e-06 3.9642e-05 -3.3435e-05 6.3636e-05 0.31356 0.00034589 -0.00038822 -0.00039988 0.0008331 -1.548e-06 -5.7572e-05 5.4464e-06 -6.8187e-08 0.00018428 0.00013515 0.0002015 0.000538 -0.00090954 -7.9866e-05 -8.2741e-05 0.0019466 1.4113e-05 0.00042048 -0.0003467 -0.00023415 0.00025209 -7.5556e-05 0.00057472 5.8991e-05 3.7371e-05 -0.0008625 -2.4348e-05 8.1318e-05 4.1771e-05 0.00039557 -1.8138e-05 -0.00032202 -0.00045744 9.4057e-06 -0.00015388 0.43452 -2.715e-05 6.1098e-05 -0.0072851 -6.5894e-05 0.00079639
-2.2762e-05 3.1381e-05 4.5657e-05 0.00027804 0.35363 6.6568e-06 -7.8688e-06 0.0026173 -0.00073112 0.00013865 -1.8275e-05 0.00038015 0.00026673 0.33506 -4.0481e-06 -4.4804e-08 9.2821e-06 0.0022255 0.30088 -5.6706e-06 0.0045389 -0.0041688 -0.00016463 -0.00010969 0.23504 0.00060072 0.00096092 3.0169e-06 -6.5131e-05 -0.40971 -0.00010395 -0.00010524 0.00010573 -6.631e-06 -0.0011079 1.5277e-05 -4.0854e-05 -2.1873e-05 0.41005 2.8653e-05 -0.0032872 1.0313e-05 -5.1752e-06 3.7239e-05 0.0086682 6.1816e-05 -8.7227e-05 0.0017374 0.0019918 -0.00049041
0.28831 7.72e-06 0.13017 3.9594e-05 -4.3186e-06 0.20546 1.2042e-06 3.1029e-06 -3.1427e-05 5.3959e-06 -4.2394e-07 -8.2971e-06 3.2921e-05 0.33287 -0.01585 5.6337e-06 -1.7684e-05 -7.0223e-06 2.845e-06 0.00012731 9.5919e-05 8.3857e-05 -1.3987e-06 0.032798 5.3365e-05 3.4562e-06 1.776e-05 1.6882e-05 0.0030321 3.5451e-05 -8.9983e-05 -1.6479e-05 -3.148e-05 -2.6767e-05 -2.4977e-05 -1.0824e-05 -5.9698e-06 -3.97e-06 -7.319e-06 -9.4317e-06 -2.8932e-05 1.007e-05 -1.0103e-05 -0.00012573 0.00016838 8.522e-06 0.00014963 -2.1307e-05 -0.00010237 8.0662e-05
-2.7488e-07 4.3348e-07 1.1489e-05 4.8382e-06 1.7291e-06 -2.6895e-06 -4.9697e-08 3.1915e-07 -1.1983e-06 -3.0057e-06 5.9786e-05 -2.6136e-06 -2.0524e-07 -4.4608e-05 -5.2741e-06 5.474e-07 4.2735e-07 5.447e-05 0.0053078 -2.4583e-06 0.00012169 -0.00014033 1.0424e-05 9.0467e-06 -4.0001e-06 1.6724e-06 0.0001214 -5.6456e-06 -5.7737e-06 -8.7733e-06 -6.9896e-06 -7.6866e-06 9.2838e-06 -2.3206e-06 -0.00011381 2.5981e-05 3.0152e-07 -1.6825e-06 1.8989e-05 5.4088e-06 -8.8714e-06 1.1827e-05 1.8521e-07 1.1472e-05 2.0632e-05 -3.2278e-05 -2.5868e-06 -0.00027704 -0.00013907 7.6406e-06
-4.8588e-06 0.17658 0.12998 -2.0742e-06 1.5534e-06 0.20437 0.2886 1.7399e-06 -1.1428e-05 4.5058e-05 0.18544 0.27607 -6.2501e-06 5.6322e-06 -0.015453 0.5 9.7754e-07 -6.4661e-06 3.5352e-06 0.24965 -3.7594e-05 3.1567e-05 -4.0411e-06 0.033995 2.8348e-05 9.0521e-06 1.1009e-05 2.0905e-05 -1.4109e-06 1.9725e-05 1.7035e-05 3.3407e-06 0.28806 0.35357 -3.0442e-05 -9.8212e-06 0.44714 0.37796 9.6133e-06 0.5 1.0734e-05 9.1213e-06 6.3824e-05 1.7644e-05 -6.4647e-05 3.8518e-05 8.8085e-05 9.552e-05 -1.0043e-05 -6.0979e-05
-5.2902e-07 2.5556e-06 1.7078e-05 7.4915e-05 4.1806e-05 -7.1025e-06 1.09e-06 8.0341e-07 -1.47e-05 2.7272e-06 5.617e-05 0.00011195 3.6835e-06 -3.951e-05 1.5406e-05 2.308e-06 -1.0809e-06 6.0281e-05 0.0053089 -1.9886e-06 0.00031418 -0.00016188 2.2462e-05 1.9345e-05 8.743e-05 1.5464e-05 0.00057726 -5.7308e-06 -5.6351e-06 -3.9344e-06 -2.0165e-06 1.423e-05 -2.3411e-05 -1.943e-05 -0.00016608 1.4383e-05 2.9555e-06 4.9301e-06 4.9443e-06 9.0127e-06 -1.4176e-05 1.466e-05 -3.1098e-07 3.3449e-05 4.2248e-05 -3.1689e-05 -8.1336e-06 -0.00020757 -0.00012041 0.00022313
3.2086e-06 -1.8859e-05 0.13016 -1.459e-05 -1.5499e-05 -0.00011252 1.2324e-07 8.7692e-06 7.2421e-05 0.1821 -9.3384e-07 3.8015e-06 0.18223 1.1175e-06 0.00024959 -3.7044e-06 -6.1285e-06 2.39e-07 3.606e-05 -3.8055e-05 -0.00011146 5.5585e-05 -4.0427e-05 0.00015365 0.22962 -2.6391e-05 -8.1912e-05 -2.4891e-05 -3.3815e-06 -0.40819 -7.0625e-05 8.3088e-05 -4.5957e-06 2.6013e-05 6.597e-06 1.6052e-05 0.00014899 -3.0902e-06 -0.0001132 -2.5152e-06 -0.00067628 -6.5304e-06 0.00043968 -3.716e-05 -0.0005088 4.9019e-06 -0.00013765 4.9426e-05 2.8968e-05 0.00019059
-9.3198e-07 0.17658 0.12997 -2.6616e-06 1.1711e-06 0.13642 0.28859 3.421e-06 -2.3857e-07 4.7307e-05 0.18544 0.27606 -3.2887e-06 4.3206e-06 0.1903 0.5 2.8415e-06 2.3272e-05 5.0837e-06 0.24963 -3.9267e-05 3.2622e-05 -4.211e-06 0.20308 2.9396e-05 2.5486e-05 5.842e-06 1.6589e-05 1.7013e-05 -1.9923e-05 1.4717e-05 1.1749e-05 0.28809 0.35356 2.2061e-06 -4.4379e-06 0.44714 0.37796 9.135e-06 3.8681e-05 2.2019e-05 3.8561e-05 6.8934e-05 5.7093e-05 -0.00010447 3.8852e-05 0.00010646 7.1735e-05 -1.1665e-05 -4.0356e-05
4.5609e-06 -2.2598e-06 0.12999 4.8324e-06 -3.8604e-07 0.13639 2.4954e-06 4.7985e-05 -1.9686e-06 7.367e-05 4.9772e-06 0.27594 5.5558e-06 4.8379e-05 0.19046 2.0626e-06 5.0729e-05 1.2727e-05 6.5798e-06 -1.8033e-05 2.6246e-06 9.212e-06 3.3616e-06 0.20308 1.5692e-05 0.37365 1.0401e-05 -1.281e-05 1.3495e-05 -1.4816e-05 1.6521e-05 3.2752e-05 3.9145e-05 0.35343 1.4796e-05 1.259e-05 3.38e-05 0.00022506 0.00014953 -1.1338e-05 3.1914e-05 5.0037e-05 1.8813e-05 5.7905e-05 -0.00016661 1.726e-05 6.9526e-05 5.8997e-05 7.4873e-06 4.9264e-05
-6.0613e-06 -2.2311e-05 0.13011 1.0533e-06 -9.7089e-07 -0.00029725 -1.1601e-08 3.5001e-05 8.937e-06 0.00066954 3.7347e-05 2.8654e-05 0.00011913 0.33305 0.00048646 2.4141e-06 -8.3351e-06 1.9413e-05 6.4083e-06 -7.2943e-07 2.8924e-05 -2.5014e-05 -1.6767e-05 0.00096155 8.0076e-05 -2.24e-05 6.2313e-05 -3.0388e-05 7.9076e-05 -0.00025277 1.8902e-05 -1.4949e-05 -1.0412e-05 1.0414e-05 6.6615e-06 -1.5238e-05 3.7166e-06 5.2498e-06 -3.5255e-05 2.1147e-06 -2.5605e-07 -4.3315e-05 4.3266e-05 1.5106e-05 0.00026668 -1.1636e-05 0.00037434 -0.00026135 -4.1584e-05 0.0001667
6.3308e-07 -3.3068e-05 0.00017163 6.8e-06 1.7274e-05 0.13541 -1.5597e-05 4.2199e-05 1.6614e-05 0.00082916 2.5548e-05 -5.913e-05 0.00015343 8.3074e-05 0.19175 -0.00031266 -2.2177e-05 -6.9207e-05 7.6055e-05 -7.7068e-06 7.7793e-05 -5.4284e-05 -4.607e-05 0.20561 0.00069564 -5.0193e-05 0.0032063 -1.3474e-05 0.00013097 -0.00038771 -0.00015298 -7.8497e-05 -1.3406e-05 -6.5703e-05 4.1784e-05 1.9742e-06 0.44749 -0.00014764 -0.00011052 -1.6759e-05 2.3107e-05 -4.5879e-05 0.0019455 -0.00031078 0.00028888 2.5249e-05 0.00033419 -0.00031628 9.2641e-05 0.00013117
0.28866 0.17659 0.12997 0.2771 5.0584e-07 0.13636 1.0293e-06 -1.0579e-05 0.00073454 0.18178 2.8004e-05 3.6702e-05 0.18221 2.184e-06 0.19057 -2.3112e-06 5.655e-06 0.24932 6.7801e-06 -7.0886e-06 0.21388 0.19632 3.0351e-05 0.20323 -5.5547e-05 2.9591e-05 -0.00029959 0.45076 0.30057 -2.7568e-07 0.3166 0.35146 -5.8921e-06 6.7257e-06 0.33036 0.40508 8.282e-06 -1.3508e-05 -2.451e-05 -8.9193e-06 0.00015729 0.44872 3.9191e-06 0.44902 -0.0011273 0.49986 3.3733e-05 -0.37141 2.3346e-05 -0.00028194
-7.72e-06 8.579e-06 4.7637e-05 1.6498e-05 -9.6178e-06 5.0251e-05 -3.0287e-06 -1.7233e-05 0.00012968 0.18175 6.1425e-05 -8.6308e-06 0.1828 0.33309 -1.2963e-05 -9.3656e-07 -5.5929e-06 -1.5169e-05 1.0002e-05 -1.4212e-05 -5.1492e-05 0.00011088 8.4848e-05 1.6089e-05 0.22799 -1.8858e-06 -1.0549e-05 6.5091e-05 -3.5846e-05 2.9606e-05 0.00015253 1.3989e-05 -1.4716e-05 -3.0341e-05 0.002574 -3.0811e-05 4.4941e-06 2.9013e-06 5.935e-07 7.3961e-06 8.7062e-05 -1.8208e-05 -4.2206e-06 -3.7268e-05 -7.8047e-05 -1.367e-05 0.0018458 0.00062029 0.00076847 -5.6612e-05
5.8206e-06 -1.6696e-05 0.13034 0.00012202 -1.1098e-06 -0.00096408 -1.5279e-06 5.2862e-06 0.00030452 0.00023844 -6.1115e-06 -9.04e-06 0.00014815 -4.2947e-06 0.00069138 3.1691e-06 -1.3885e-05 -4.837e-05 4.2098e-05 -2.1628e-05 0.0004351 0.00045533 5.3503e-05 0.0022799 0.0011064 -4.6025e-05 0.0011962 -1.1066e-05 -1.933e-05 5.6835e-05 -0.00013028 -2.0279e-05 -0.00037609 5.1651e-06 -0.00037608 -0.00012254 5.205e-05 -4.7845e-06 1.1724e-05 -6.1278e-06 -0.00045639 -4.8974e-05 1.2583e-05 -8.5192e-05 0.0020958 -8.1332e-05 0.0021729 2.9173e-05 5.1129e-06 0.00072957
0.2887 -1.6693e-06 -4.425e-06 -1.1638e-06 1.2385e-06 -4.2735e-06 -3.446e-06 -2.8724e-06 8.3158e-06 0.00093579 -1.2646e-05 1.5977e-06 0.00031111 3.5616e-05 8.7314e-06 -1.7947e-07 0.5767 0.00023472 1.3999e-06 -6.7051e-06 4.0141e-05 -4.477e-05 -2.6015e-05 6.8209e-05 5.7741e-05 0.00029827 -2.122e-05 -9.0749e-06 0.29994 2.9588e-06 -5.3768e-05 8.1723e-05 2.9992e-06 1.5422e-05 -1.0898e-05 1.0072e-05 -8.3415e-06 1.9335e-09 -5.1647e-07 -8.1598e-06 -7.4792e-05 -0.00026826 -2.6026e-06 -3.3559e-05 -5.6723e-05 1.4468e-05 1.1906e-05 -6.9298e-05 -4.7046e-07 2.8508e-06
5.121e-06 2.4574e-06 0.12995 0.27699 3.2636e-07 3.8379e-07 -1.0033e-06 8.9338e-06 1.273e-05 0.18153 0.18538 0.00010107 0.18212 1.68e-06 -4.6531e-06 -1.042e-06 2.2975e-06 5.3819e-06 4.8517e-06 1.6014e-05 0.21362 0.19603 2.4007e-05 1.1673e-05 -2.2811e-05 9.4786e-06 -3.2597e-05 8.2958e-05 2.9293e-06 2.9342e-05 6.2345e-06 -6.8937e-06 -1.8446e-05 4.2e-06 1.9218e-05 -1.3232e-05 1.7638e-05 -2.2184e-06 7.6787e-06 4.5607e-06 6.7065e-05 3.0358e-05 3.5686e-06 3.898e-05 -0.00029505 2.6433e-05 4.7284e-05 -0.00010047 9.922e-06 -0.00010821
7.4137e-08 -2.5655e-06 3.5052e-05 -1.2805e-07 -2.787e-06 -4.137e-07 1.3346e-07 -9.5962e-07 -1.6153e-06 -1.5347e-05 1.3948e-06 -2.7274e-07 -2.7027e-06 1.7077e-05 1.6388e-07 -4.1044e-08 -1.446e-08 -2.1341e-05 -3.1402e-05 -1.4224e-06 8.4119e-07 -1.0001e-06 -1.3487e-07 -1.1478e-06 5.2554e-07 -1.4794e-06 0.0024659 1.7277e-05 2.5394e-06 6.6802e-06 -8.5248e-05 -8.7514e-06 2.4318e-07 7.9727e-06 9.5446e-06 8.9883e-07 1.4529e-07 -4.7059e-06 2.5043e-06 -1.7739e-06 8.8113e-07 5.213e-06 -2.2648e-06 3.0061e-06 1.782e-06 -2.7499e-06 1.0505e-05 2.6274e-05 1.2388e-05 1.9443e-06
3.3493e-06 0.17663 0.13041 4.8156e-06 -1.8438e-05 -2.4784e-05 -1.8475e-06 -1.2712e-05 1.9195e-05 0.18182 1.0026e-05 -1.6628e-05 0.18233 5.6195e-06 1.617e-05 1.3324e-06 2.3876e-06 0.2493 0.30029 -2.7227e-05 -2.1546e-05 3.2388e-05 0.57735 2.4247e-06 0.22867 8.1519e-05 1.9519e-05 -7.3922e-05 4.545e-05 1.039e-05 -8.4709e-05 2.561e-05 5.0463e-06 3.8706e-05 -7.7059e-05 2.064e-06 2.3148e-05 5.6659e-06 0.40611 -2.1428e-06 0.57733 6.9702e-05 1.2973e-06 -0.00022768 -0.00031621 -2.5616e-05 -3.8664e-05 0.00022733 0.37751 -1.363e-05
-1.5747e-05 0.17904 0.13004 -2.3042e-05 1.6115e-05 0.20463 -1.6501e-05 3.2921e-06 -1.5127e-05 1.8273e-05 -8.4615e-06 9.0928e-06 9.4267e-05 0.3339 -0.015556 -2.7116e-06 -1.2519e-05 -0.00019709 0.29993 -0.000109 -2.8995e-05 -7.5015e-06 -1.9336e-05 0.033608 0.0008175 -2.0311e-05 0.31038 -0.00012623 2.0061e-05 -1.1211e-05 0.31564 -0.00032961 1.9727e-05 -3.4668e-05 2.5511e-05 -0.00010716 6.4146e-05 -7.3543e-05 -0.00068041 -7.7399e-05 9.3383e-05 0.00011181 0.0012686 -0.00052378 0.00020018 4.5886e-06 0.00016993 0.00092951 0.37831 -0.00014514
-4.4994e-06 0.17658 0.12998 -2.1835e-06 1.4897e-06 0.20436 0.2886 2.0655e-06 -9.8086e-06 4.6015e-06 0.18542 0.27606 -6.8037e-06 5.0709e-06 -0.015437 -2.7563e-05 9.5738e-07 -1.189e-05 3.4919e-06 0.24965 -3.8447e-05 3.1238e-05 -3.729e-06 0.03401 2.0803e-05 3.7415e-06 -3.964e-05 1.9635e-05 2.1121e-06 1.941e-05 1.7713e-05 4.1874e-06 0.28806 0.35358 -3.0076e-05 -1.4152e-05 7.5848e-05 0.37797 1.2096e-05 0.5 1.8254e-05 6.7315e-06 0.49953 1.844e-05 -6.0173e-05 3.9541e-05 8.9204e-05 8.0305e-05 -1.0915e-05 -4.909e-05
-1.3302e-05 -3.5204e-05 0.13086 0.0084182 -2.8438e-05 0.00011216 -1.3836e-06 0.00066311 0.00098693 1.9228e-05 0.18692 -1.7416e-05 5.5308e-05 -7.3238e-05 -0.00010964 -2.6389e-06 -9.3924e-06 0.25133 0.30687 -2.5478e-05 0.2064 -0.22956 -0.00011201 -0.00030326 0.00255 3.055e-05 0.34005 -0.00052621 -0.00033257 -0.000108 -0.00033569 0.00097058 -2.453e-05 5.8164e-05 -0.00022913 0.017113 -0.00030426 2.0774e-05 0.00061479 -6.6528e-05 -0.0022276 -0.00064588 -0.00015453 0.00012224 0.014693 -0.0034758 -0.00033698 -0.01655 0.0006932 0.0023169
-9.6977e-06 -4.0284e-05 0.00013737 0.27773 -3.4304e-05 -0.00015643 -2.0793e-05 5.4674e-05 0.00096636 0.18241 0.18658 -2.1255e-05 0.18267 5.6787e-05 5.0536e-05 -1.4604e-05 6.5397e-05 0.00085626 0.0001265 0.00025218 0.21665 0.19495 -0.00026383 0.00028107 0.23531 0.0041247 0.0040744 -0.00079518 -0.00011204 8.2267e-05 -0.00048306 0.35359 0.0031034 -0.00010023 -0.0016363 0.016706 -0.00025264 5.6409e-05 0.0003018 -3.2289e-05 -0.0026181 -0.00031691 -6.4684e-05 0.00010038 0.014007 -0.0038857 -0.00025429 -0.39614 2.7594e-05 0.0020239
-2.8378e-06 -6.1787e-05 0.00039036 0.00017024 2.9617e-05 -0.00079982 0.00019053 0.00047564 0.0018234 0.18552 0.00015518 0.00075349 0.18279 4.5897e-05 0.0008569 -3.9509e-07 1.4691e-05 0.00037355 0.00052256 -3.7808e-05 0.0018805 -0.0015273 -0.00021608 0.0019755 0.0028012 0.0026608 0.0012913 -0.00027101 -0.00017507 -0.0011925 -4.7927e-05 0.0004965 -0.0001045 -3.3914e-05 0.0014895 -5.3167e-05 -2.2206e-05 -2.6273e-06 0.0012373 -3.664e-05 -0.00092976 -0.00059046 4.467e-05 -0.00016969 0.017272 -6.7574e-05 0.00058465 -0.0083838 2.5666e-05 0.40549
0.00013069 1.34e-05 2.1529e-05 0.00029025 5.0144e-05 0.00042859 -3.4116e-06 -7.3451e-06 0.0022524 0.00016803 0.00038068 0.00016215 3.5643e-05 -5.429e-05 -1.1596e-05 -1.1605e-05 4.6348e-06 0.0018346 -3.201e-06 -2.4178e-05 0.00073574 0.0006216 1.0037e-05 -0.00044619 -3.7267e-05 -9.0971e-06 7.7153e-05 0.0093346 0.00037417 -3.6068e-05 0.0028136 -0.00081512 0.00024152 -6.1978e-06 0.33682 2.3604e-05 -9.611e-05 -2.5431e-06 0.0004481 -3.6874e-06 -0.00050679 0.0026035 -3.2355e-05 0.0051147 0.029912 -0.00012582 -4.4593e-05 -0.01152 0.00052383 -0.001133
1.1667e-05 -2.1284e-05 0.13046 0.00012182 -1.2689e-06 -0.00031963 -1.1186e-05 3.9127e-05 -6.6809e-05 0.18281 -3.514e-05 0.00011592 0.18332 4.5714e-05 0.00069333 6.3077e-07 1.8575e-05 -7.8336e-05 6.1609e-05 0.00021651 0.00044564 0.00040591 6.3945e-05 0.0010278 0.00032184 -4.5087e-05 0.0012491 -8.9782e-05 4.3275e-05 -0.00023486 2.8096e-05 1.9773e-06 -0.00034689 8.7826e-05 -0.00045013 -7.0678e-06 8.7618e-06 6.4373e-06 -3.4831e-05 -4.7241e-05 -0.00010143 -3.503e-05 4.8675e-05 4.1641e-05 0.011604 -3.0433e-05 0.00040413 -0.00012595 6.786e-05 0.055647
