8.8486e-06 -3.518e-06 1.1708e-06 9.6372e-06 2.6197e-06 0.00013371 1.1458e-06 -7.729e-07 6.6483e-08 1.9645e-07 7.8934e-07 1.3672e-06 -1.1079e-06 -8.5855e-09 0.00011001 -1.7966e-08 -2.8367e-06 -4.8678e-06 -2.0299e-05 -3.8674e-05
-8.5594e-06 -6.4828e-05 8.9596e-06 0.17635 0.12985 0.00012938 -2.0613e-05 1.6473e-06 9.3646e-06 -1.2884e-05 6.1245e-05 3.2003e-05 -9.2509e-06 3.8927e-06 0.24274 8.9454e-05 -1.6527e-05 0.00027511 1.5915e-05 -6.8578e-05
1.0917e-05 3.1537e-05 0.00027389 -2.7813e-05 0.00053863 0.31623 -1.642e-05 0.00026556 0.00059895 0.00066788 7.1103e-05 0.0011791 0.00021331 -1.2314e-05 1.3677e-05 0.00025526 -6.456e-05 0.00020902 -7.5558e-05 -4.5e-05
4.1319e-06 -1.5377e-05 5.87e-05 2.0491e-06 0.00020604 -1.6636e-05 0.00013776 6.3414e-07 -1.7146e-06 -8.1934e-06 8.5151e-05 4.0998e-05 -1.3847e-06 1.4495e-06 0.00037926 0.00022949 -5.2367e-06 0.0066592 0.0018732 0.00014891
2.3529e-05 2.5764e-06 8.1155e-06 -2.3729e-05 0.00032365 0.00013118 1.1372e-06 3.6376e-06 0.00058775 0.00064635 -1.7102e-06 5.366e-05 0.00019543 1.4787e-06 0.0001274 1.7246e-06 7.8657e-05 5.8972e-05 0.00013834 0.0010091
3.1539e-06 -1.7002e-05 7.7685e-05 -2.6132e-05 0.00031695 8.2544e-05 0.00011543 0.000247 0.00058772 0.00064846 5.741e-05 0.0010221 0.00016142 -7.1564e-06 -1.3303e-06 8.6127e-05 -3.7652e-05 0.00026734 3.9317e-05 6.8383e-05
0.28878 0.00079253 0.00040755 0.00011886 0.13142 -7.3272e-05 6.5752e-05 -3.543e-06 0.00059451 0.00062838 8.1962e-05 -1.5179e-05 0.00014182 4.785e-06 0.0040602 0.00019738 -2.6424e-05 0.0001232 0.34681 0.2962
0.2882 0.1735 1.4232e-05 0.1763 0.1297 4.6445e-07 -1.7427e-05 -3.132e-06 7.7183e-06 4.3433e-06 9.5182e-06 4.5336e-05 9.0661e-06 -1.2891e-05 -4.2083e-05 1.3749e-05 -5.7551e-06 8.5051e-05 1.5682e-05 -5.7683e-05
0.00013878 2.9041e-05 -2.5294e-05 -2.9134e-05 -4.2134e-05 -1.8038e-05 -7.0598e-06 -6.8364e-06 3.2394e-05 1.0642e-05 1.6267e-05 8.898e-06 -4.382e-05 -2.5062e-06 -2.4835e-05 1.9201e-05 2.9284e-06 0.00061212 0.00055148 0.29425
8.252e-07 1.3562e-07 6.6323e-07 -2.1882e-05 -4.5659e-07 9.5864e-06 0.35317 1.1927e-06 8.3345e-06 -3.7845e-07 5.5285e-06 -2.0616e-07 -2.1157e-06 9.4153e-08 -1.0634e-05 -2.0815e-06 3.1209e-06 -5.2752e-05 3.0935e-05 1.8214e-06
-5.6194e-06 0.17365 5.5666e-06 0.00025507 0.00029183 0.31586 -3.1568e-05 -1.6362e-05 0.19609 0.1823 0.18544 0.00036007 0.18191 -4.4533e-05 -8.8869e-05 5.8851e-06 4.3743e-06 0.22234 -0.00019483 -0.00015024
0.28886 0.17589 0.27817 0.17654 0.13145 0.0006558 -3.5089e-05 0.00018851 0.19607 0.18292 7.6018e-05 -0.00010942 0.18298 -4.9561e-07 0.25412 -5.2288e-05 -6.3795e-05 -0.00023862 0.36696 0.31177
-4.1098e-06 1.5306e-05 -1.3483e-06 1.2979e-07 2.5664e-05 -2.2961e-05 4.193e-05 -1.0737e-06 1.2598e-05 0.00066177 3.9459e-05 -1.5094e-05 0.00057264 5.4477e-07 0.00035879 0.0015789 4.6694e-07 0.0038141 0.0035188 3.4995e-05
5.0042e-06 4.448e-06 0.27692 -1.2357e-05 -1.5571e-07 -1.6149e-05 7.9223e-05 -2.3902e-05 1.6462e-05 0.00022753 1.3604e-06 1.3955e-06 0.00011199 6.1197e-07 3.1633e-05 3.091e-05 -5.9168e-06 0.0068421 -2.91e-05 -5.5443e-05
1.9853e-06 -5.2614e-05 6.3905e-05 2.8995e-05 0.00021174 5.1347e-06 0.00036492 3.8121e-07 1.0978e-05 6.9574e-05 0.18625 6.0145e-05 0.00025749 -3.7261e-05 0.00045061 0.00020439 3.0242e-05 0.00059292 0.0018695 0.00010413
3.9601e-07 5.6626e-05 9.1033e-05 -2.9108e-05 0.00029775 0.00017286 2.2202e-05 0.0002203 0.19607 0.18294 0.00014198 0.27706 0.18341 -9.2091e-05 9.6467e-05 9.6175e-05 -0.00013738 0.00050745 9.4588e-05 -9.3095e-05
8.9285e-07 0.00014281 0.00017691 2.5794e-08 0.00016427 4.9779e-05 2.4638e-05 -6.4485e-07 2.6585e-05 0.00042891 0.00015672 0.00023476 0.00020971 -1.2033e-06 -2.59e-05 1.1103e-06 -1.0126e-05 0.0002479 1.0479e-06 -0.00010359
6.4796e-06 -3.1393e-05 -4.7634e-06 6.4498e-07 0.12994 5.7772e-06 1.0376e-05 1.297e-06 0.00010812 0.00052959 2.6841e-05 1.0335e-05 0.00038963 1.2186e-06 5.2334e-05 0.00024395 -4.1799e-05 0.0013131 2.2861e-05 -8.8278e-05
8.9153e-07 0.17351 1.0587e-05 0.0002839 0.1297 1.6882e-05 -1.7582e-05 0.00013863 0.00028834 0.00054475 0.18526 0.00011974 2.7813e-05 -4.7409e-05 1.1808e-06 3.3084e-06 -8.6501e-07 0.00027561 -6.0306e-05 -4.746e-05
5.3463e-06 1.7286e-05 -4.7852e-06 4.459e-06 0.13024 -3.0867e-06 0.00012865 -2.2749e-06 0.00062908 0.0011777 2.7112e-05 0.00025026 0.00044225 2.0833e-06 0.00035386 0.0015996 -7.2846e-06 0.00014367 0.0025882 0.00010362
0.00012606 8.8115e-05 0.00019589 4.1528e-06 1.2681e-05 0.00018101 3.4192e-05 1.0691e-06 6.3544e-05 0.0002244 0.00039471 0.00025039 0.00010683 -7.0406e-06 0.0010006 7.0456e-05 -2.489e-05 0.00044744 -3.9646e-05 -1.0424e-06
-5.6194e-06 0.17365 5.5666e-06 0.00025507 0.00029183 0.31586 -3.1568e-05 -1.6362e-05 0.19609 0.1823 0.18544 0.00036007 0.18191 -4.4533e-05 -8.8869e-05 5.8851e-06 4.3743e-06 0.22234 -0.00019483 -0.00015024
-1.3925e-05 0.17393 0.00030599 0.17661 0.13001 8.692e-06 -1.8271e-05 0.28882 0.0021572 1.4e-05 0.18688 0.27753 -7.602e-05 0.5 -8.3455e-05 -2.6159e-05 0.25035 2.9892e-05 -4.0882e-06 -0.0003676
2.4191e-05 1.8636e-05 3.9589e-06 1.7748e-05 0.13012 1.3499e-06 4.2323e-05 -5.4744e-07 0.00010213 0.18348 0.0010603 -1.441e-05 0.18257 -1.4008e-06 0.00034243 0.0016395 8.6324e-05 0.0014559 0.0026094 -6.3588e-05
-7.8497e-06 3.6363e-05 8.3643e-05 -6.8376e-06 0.00019721 0.00025686 -1.1417e-05 -2.5896e-06 1.7478e-05 -3.9083e-06 0.00010877 -1.7442e-05 0.00014556 2.0591e-06 0.00052678 8.0193e-05 9.8374e-07 0.002898 0.0025591 -9.3135e-05
6.1595e-06 -5.5082e-05 -7.9455e-07 -1.6791e-05 0.00045526 4.1924e-05 0.00012459 -2.6697e-07 3.8703e-06 0.00058915 -1.7167e-05 6.2785e-05 4.3888e-05 -3.8827e-07 5.5976e-05 0.00051432 -2.214e-06 0.0010437 1.7187e-05 -1.4792e-05
0.00011341 0.00153 0.2771 0.17636 0.00025489 -9.7859e-05 -1.949e-05 -5.1486e-05 0.00031212 0.18277 -5.1205e-05 -4.3535e-05 0.18257 1.5174e-05 0.0032526 8.6855e-07 -6.6751e-05 -0.00035098 0.022835 0.014485
8.5768e-06 4.4916e-06 7.8382e-05 -2.8309e-05 0.12999 8.2698e-05 1.4338e-05 0.00024355 0.19576 0.1818 5.0143e-05 0.0010255 0.18179 -7.957e-07 -5.5009e-06 0.29872 -5.3347e-05 0.0010308 0.00013879 8.3061e-06
-8.321e-06 0.17353 2.0433e-06 5.9626e-05 0.0001716 -5.6184e-07 1.7443e-05 0.00042167 0.19577 0.00069778 0.00011999 9.4816e-05 0.00019535 -3.4068e-05 -5.6316e-05 9.9136e-05 4.0768e-06 0.00065103 1.7509e-05 0.00013934
2.5255e-06 -1.9811e-05 6.4561e-06 -3.1252e-05 0.00016296 9.2995e-08 0.35335 6.8293e-07 -1.4053e-06 0.00057333 0.00026142 3.945e-05 0.0001451 2.6341e-06 0.00037055 0.00068752 -2.9192e-05 0.0035299 0.0029283 0.00014064
0.28873 0.17451 0.00024098 3.5651e-05 0.0014778 -3.4149e-05 1.9834e-06 -1.8004e-05 0.19525 -4.8116e-05 0.00012862 -0.00011979 -8.3457e-05 -1.4435e-06 0.0025636 1.8777e-05 1.0389e-06 4.9428e-05 0.0040428 0.29826
1.2107e-06 0.174 1.4079e-05 0.17637 0.12995 1.4561e-05 -2.895e-05 -2.2999e-05 4.3454e-05 0.18238 -5.4446e-06 9.0897e-06 0.18196 5.5746e-06 -7.3344e-05 1.8311e-05 0.24998 0.22208 -8.4789e-06 -8.3918e-05
2.9333e-05 -3.8198e-05 4.6696e-06 2.4262e-05 0.12995 4.5091e-05 8.6591e-05 2.8832e-06 2.7168e-05 0.18171 -9.272e-06 9.568e-05 0.18333 -9.3845e-07 0.00017619 9.1228e-06 0.00011926 0.22413 -2.4168e-05 -0.00020376
5.2772e-06 -2.8672e-07 8.5064e-05 1.0531e-05 0.12983 8.7743e-05 2.2158e-05 0.28838 1.8743e-05 -1.7371e-06 0.18512 0.0010627 3.3507e-05 -0.00012148 3.3961e-05 0.00024469 -8.8679e-06 0.00022927 2.7987e-05 -0.00010497
2.2062e-05 0.00031593 0.27734 0.17647 0.12975 3.5579e-06 -2.1632e-05 0.00054955 0.0013133 4.3681e-05 0.18524 5.2902e-05 6.6187e-05 0.00036401 -5.5176e-05 -1.8624e-05 0.24992 0.00021423 5.6052e-05 -4.9731e-05
-1.1701e-05 -0.00015122 1.61e-05 0.17851 0.13012 0.00011977 0.00083152 -1.0901e-06 1.0392e-05 0.18413 3.9085e-05 3.3257e-06 0.18368 7.4839e-06 0.24889 0.30054 -7.3408e-05 0.24975 -0.0013768 -0.0011158
8.5768e-06 4.4916e-06 7.8382e-05 -2.8309e-05 0.12999 8.2698e-05 1.4338e-05 0.00024355 0.19576 0.1818 5.0143e-05 0.0010255 0.18179 -7.957e-07 -5.5009e-06 0.29872 -5.3347e-05 0.0010308 0.00013879 8.3061e-06
7.2274e-06 2.1084e-05 3.9421e-06 -3.9267e-06 0.13001 0.31592 -1.416e-05 -2.6513e-06 3.9122e-05 0.18232 4.3334e-05 0.00021768 0.18204 -3.1208e-06 -6.122e-05 -5.5935e-07 -4.754e-05 0.2291 0.00084303 -0.00016994
-3.9475e-05 -0.00017888 0.00017834 2.2726e-05 0.13081 0.00022396 0.00010298 2.6724e-05 4.1576e-05 0.00017612 0.18675 8.323e-05 0.00040929 -3.3832e-05 0.24561 0.30739 -5.164e-05 0.0031486 0.34437 -0.0019706
7.0562e-06 -7.3795e-06 5.5352e-07 1.8257e-05 0.12962 1.7402e-06 -2.7503e-07 9.3836e-08 4.0619e-06 -5.4803e-06 2.0985e-06 8.6839e-06 1.2221e-06 1.3298e-07 -7.3239e-06 2.2535e-06 8.5332e-06 4.6816e-06 2.4169e-05 -2.0831e-05
-2.3133e-06 0.17344 -1.0066e-05 0.1763 0.12964 1.9994e-06 -1.6235e-05 0.28796 1.0125e-05 -4.8553e-06 0.18505 8.2673e-05 4.69e-06 -0.00010753 -3.6776e-05 7.5973e-06 0.24911 7.8496e-05 1.6157e-05 -7.299e-05
-2.3133e-06 0.17344 -1.0066e-05 0.1763 0.12964 1.9994e-06 -1.6235e-05 0.28796 1.0125e-05 -4.8553e-06 0.18505 8.2673e-05 4.69e-06 -0.00010753 -3.6776e-05 7.5973e-06 0.24911 7.8496e-05 1.6157e-05 -7.299e-05
2.2062e-05 0.00031593 0.27734 0.17647 0.12975 3.5579e-06 -2.1632e-05 0.00054955 0.0013133 4.3681e-05 0.18524 5.2902e-05 6.6187e-05 0.00036401 -5.5176e-05 -1.8624e-05 0.24992 0.00021423 5.6052e-05 -4.9731e-05
-7.2638e-06 -0.00011543 1.642e-05 -4.7552e-05 0.0004629 0.31575 0.35325 -7.4981e-06 3.4996e-06 0.00053014 -1.5168e-05 0.27801 4.0604e-05 -8.7843e-05 0.0025394 0.00090359 -9.2832e-05 0.0010278 -0.00014276 -0.0001122
0.00014426 0.17366 0.27719 7.8034e-06 0.00016236 0.00018978 1.1342e-05 -7.4758e-06 1.2997e-05 0.00011469 0.00038362 0.27517 7.8252e-05 -0.00010162 0.00099368 0.00016168 8.0917e-05 0.22216 -6.9151e-05 -3.6906e-05
8.2227e-06 4.4074e-05 9.1267e-05 0.0020974 0.13131 0.00044502 0.00094925 -1.0588e-05 0.00015471 0.00024705 0.00016614 0.00034546 0.00022935 -1.2286e-06 0.0030902 0.00061064 -9.5599e-05 0.0051325 0.0023071 -0.00014295
0.00018339 0.0001904 0.00052698 -1.2018e-06 0.00019046 0.00097258 2.9729e-05 0.00033061 0.00055873 0.00013144 0.18579 0.0012687 0.0004075 -7.1197e-05 0.0063931 0.00017177 -4.2631e-05 0.00041344 0.0017381 0.0013164
1.104e-05 -2.5226e-05 9.0954e-07 -2.7408e-05 0.0012238 2.2417e-05 4.6487e-05 1.8713e-06 -2.8052e-05 2.161e-05 9.2886e-05 7.8178e-06 9.8078e-06 -5.1056e-07 0.00011428 0.00054417 -5.5253e-05 8.3505e-05 7.6426e-05 -5.6727e-05
5.9524e-06 -6.7461e-06 5.5023e-07 1.7355e-05 0.12961 1.9048e-06 -2.7205e-07 -7.0134e-08 4.4999e-06 -5.2921e-06 3.7648e-06 8.9091e-06 1.3315e-06 1.3389e-07 -6.6583e-06 3.9974e-06 7.5768e-06 4.3318e-06 2.0985e-05 -1.9759e-05
0.00051097 0.00015518 1.5866e-05 6.5069e-05 5.4037e-06 4.3403e-05 2.1502e-05 3.5372e-06 0.19701 0.18391 6.7386e-05 6.2428e-05 0.18342 -1.4024e-05 0.2533 0.00041219 2.5462e-06 0.22494 -0.00021793 0.0013449
1.2642e-05 7.784e-05 3.4068e-06 4.8808e-05 0.12989 4.4803e-06 6.0304e-05 -8.8443e-07 0.00017875 0.00025794 0.18533 8.5812e-05 3.3422e-05 -4.0782e-05 9.3968e-05 0.00054409 -7.7878e-06 0.00019169 9.8988e-05 -5.8688e-05
6.4026e-06 -1.1096e-05 1.0021e-06 1.3838e-05 0.12969 -5.7484e-08 -5.9859e-07 3.5035e-07 1.2192e-05 8.2008e-05 -1.5976e-06 7.5313e-06 1.7478e-06 5.5961e-07 -1.124e-05 5.3021e-05 1.8434e-06 0.00035498 2.6465e-05 -2.1255e-05
0.00076474 0.17447 0.00026278 0.17874 0.13119 2.0631e-05 0.00012049 -1.5717e-05 0.00036288 0.00065667 3.4037e-06 -9.1402e-05 0.00061186 -3.25e-05 0.012052 0.30077 -0.00014533 0.0035915 0.0058752 0.0018912
-8.8742e-06 0.00011195 9.1397e-05 -1.7143e-05 8.7351e-05 0.00029487 -3.7966e-05 -9.153e-06 0.00012695 0.1818 0.00023631 0.00023107 0.18269 -8.6724e-06 0.00051286 8.9098e-05 6.8492e-06 0.2261 0.0026187 -0.0001504
2.5255e-06 -1.9811e-05 6.4561e-06 -3.1252e-05 0.00016296 9.2995e-08 0.35335 6.8293e-07 -1.4053e-06 0.00057333 0.00026142 3.945e-05 0.0001451 2.6341e-06 0.00037055 0.00068752 -2.9192e-05 0.0035299 0.0029283 0.00014064
0.00050726 0.00013922 1.5696e-05 5.8184e-05 0.00015744 1.2006e-05 2.27e-05 4.0412e-06 0.19714 0.18308 4.3715e-05 3.3965e-05 0.18239 -1.4863e-05 0.25419 0.00041097 -3.0582e-05 0.22672 -0.00060415 0.0013153
1.6283e-07 -9.8602e-09 8.1342e-08 3.5285e-08 1.9755e-07 -6.4227e-08 8.3241e-06 6.8711e-08 3.9205e-06 1.819e-08 5.344e-06 -2.3329e-07 7.215e-08 9.7918e-08 8.6242e-09 -1.4919e-09 3.148e-07 -1.816e-07 3.3966e-08 -5.7962e-08
0.00045571 0.17368 0.27681 1.6845e-05 0.12964 1.3757e-05 5.0367e-05 -3.0851e-05 0.00027953 0.00031041 1.2364e-05 5.8646e-05 0.00041862 -2.3379e-05 0.0098378 0.00040998 -5.485e-06 0.002882 -0.00024103 -0.00014644
2.0633e-07 3.8416e-07 -3.4204e-06 -2.7579e-06 3.1843e-05 8.0461e-07 2.492e-08 4.2641e-07 6.0719e-07 0.0002821 -5.5998e-07 7.0227e-06 0.00011928 6.8179e-08 -7.5671e-06 5.6327e-07 -8.7908e-07 1.1806e-05 6.6617e-06 2.2913e-06
0.00011341 0.00153 0.2771 0.17636 0.00025489 -9.7859e-05 -1.949e-05 -5.1486e-05 0.00031212 0.18277 -5.1205e-05 -4.3535e-05 0.18257 1.5174e-05 0.0032526 8.6855e-07 -6.6751e-05 -0.00035098 0.022835 0.014485
2.947e-05 -6.4727e-06 0.00010521 5.4397e-05 0.1299 -3.165e-06 -2.5077e-06 -1.6586e-06 0.00026431 0.00025804 0.00080231 -1.7936e-06 7.686e-05 -2.1659e-06 0.0013752 7.3965e-05 -3.2862e-05 0.00053277 0.0024654 -7.0354e-05
-1.0549e-06 -2.6014e-05 8.8698e-05 3.3571e-06 0.13033 0.31606 -9.934e-06 -1.2269e-06 -3.7901e-06 0.001083 8.2152e-05 -1.2069e-05 0.00021886 -4.3332e-07 0.00061416 0.0001194 0.00018789 0.0028917 0.0024506 -0.00024051
-1.4093e-05 0.17378 0.00031072 0.17628 1.5893e-05 2.1707e-06 -1.718e-05 0.00055877 0.19644 -8.9938e-06 -0.00069858 0.2809 -1.1712e-06 0.00030802 -0.00011347 -6.475e-06 0.25091 7.2918e-05 2.3444e-05 1.9813e-05
-1.6887e-05 0.17381 0.00034247 0.17628 2.4809e-05 5.016e-05 2.6981e-05 0.00056008 0.19643 5.9039e-06 0.00012099 1.9849e-05 1.1052e-06 0.00039412 -0.00010761 -6.661e-06 0.24936 8.1854e-05 -9.4374e-06 9.4942e-06
-5.476e-06 -5.0577e-05 -1.5296e-06 -1.6192e-06 0.00045109 3.9471e-05 0.00016944 -5.034e-07 1.9229e-05 0.00080533 -1.0974e-05 5.917e-05 0.00017441 5.909e-07 0.00044616 0.0020962 -1.6686e-06 0.00098103 0.0025377 2.9752e-05
1.8745e-05 -8.935e-05 6.3186e-05 -7.9156e-05 0.0017356 -3.3423e-06 0.35367 2.3043e-06 0.00061693 0.00074474 0.00022335 5.5205e-05 0.00016065 3.9344e-06 0.00042351 0.30037 -9.6437e-05 0.0068982 0.0020703 0.00019113
-1.3725e-06 3.5669e-06 -1.7797e-07 3.6279e-06 -6.8889e-06 0.0002733 -1.96e-06 -1.547e-06 4.3272e-05 1.9777e-07 1.5087e-06 4.6271e-06 3.997e-07 -2.8368e-07 -3.8691e-06 -6.4538e-08 -7.9854e-07 1.8039e-05 1.5377e-06 -1.0215e-05
0.00035702 0.00081469 0.00025567 0.1766 0.13114 3.606e-06 3.4815e-06 -5.2916e-06 0.0003032 0.18158 0.18521 -8.1698e-05 0.18182 -3.7494e-05 0.0021598 0.0015889 -2.203e-05 0.00079295 0.006168 0.0018446
0.28886 0.17589 0.27817 0.17654 0.13145 0.0006558 -3.5089e-05 0.00018851 0.19607 0.18292 7.6018e-05 -0.00010942 0.18298 -4.9561e-07 0.25412 -5.2288e-05 -6.3795e-05 -0.00023862 0.36696 0.31177
3.4338e-05 7.7114e-05 3.5746e-05 -3.793e-05 0.13062 8.3366e-06 6.0948e-06 4.4889e-07 0.19632 0.18342 0.001202 2.6065e-06 0.18309 1.6218e-05 -7.9012e-05 5.7941e-05 8.229e-05 0.22395 3.8044e-05 -0.00013284
3.8204e-06 0.00010082 -2.2114e-06 0.17662 3.6509e-05 -8.4577e-07 -2.225e-05 -1.0627e-06 0.0001745 0.00020391 7.1213e-05 1.063e-05 2.6397e-06 -1.826e-06 6.1799e-05 -1.6904e-06 -3.061e-06 0.00020311 3.5402e-05 1.6359e-05
1.138e-05 -1.9336e-06 1.4338e-07 -6.1622e-06 0.00096057 5.9196e-07 1.6616e-05 7.0429e-07 -1.9102e-05 -6.4763e-06 -1.0025e-05 -6.07e-06 -2.2011e-05 1.4368e-07 8.0908e-06 1.6738e-05 -3.1166e-05 4.4227e-05 5.6045e-05 -1.6055e-05
-1.1965e-05 0.17393 0.00029863 0.17656 0.13 5.45e-06 -1.7913e-05 0.28882 0.19724 1.5925e-05 0.18639 0.27696 -8.0054e-05 0.5 -5.2221e-05 -1.1391e-05 0.24988 3.0387e-05 -1.1615e-05 -0.0003685
-1.1701e-05 -0.00015122 1.61e-05 0.17851 0.13012 0.00011977 0.00083152 -1.0901e-06 1.0392e-05 0.18413 3.9085e-05 3.3257e-06 0.18368 7.4839e-06 0.24889 0.30054 -7.3408e-05 0.24975 -0.0013768 -0.0011158
-1.2887e-05 0.17396 0.00029869 0.1765 0.13 3.3488e-06 -1.7436e-05 0.28928 0.19671 4.0858e-06 0.18523 0.27602 1.0722e-05 0.0011816 -8.4114e-05 -1.4964e-05 0.2498 1.2985e-05 -3.7196e-05 -8.9447e-05
-8.7322e-06 -0.0001001 1.2375e-05 2.4195e-05 0.12972 4.7289e-05 9.5978e-05 4.3949e-07 3.805e-06 -2.1595e-06 -4.2576e-06 0.00036075 4.7364e-05 1.5231e-06 0.24468 0.00023299 2.0595e-05 0.00010905 -3.0836e-05 3.6114e-05
0.28879 0.17464 0.00067276 0.00014636 0.1312 0.0006313 -5.5733e-07 4.803e-05 0.19581 0.00011163 0.00016294 -0.00010913 0.00035856 -1.085e-05 0.25168 -5.0293e-05 1.2878e-06 0.00010872 0.344 0.29811
-5.3225e-06 0.17357 3.9418e-06 3.1149e-05 0.1298 5.6081e-05 -4.9768e-07 -2.0438e-05 0.19521 -1.2917e-05 0.18519 0.0003341 1.9517e-05 -4.4162e-05 -4.7197e-05 2.5372e-05 0.00014681 0.00030599 -1.5343e-05 -1.89e-05
0.28855 0.00017023 0.0008054 2.9003e-05 9.7781e-05 0.31732 -2.9775e-05 0.28843 0.00062811 0.00010718 0.18601 0.00018015 0.0002759 -0.0001214 0.24894 -5.7159e-05 9.5084e-07 0.00016774 0.00199 0.29934
0.28859 0.0004525 0.00040893 -6.8488e-06 0.00010996 0.3172 -1.4733e-05 0.28824 0.00068058 6.5893e-05 0.18605 0.00013691 0.00022602 -0.00011658 0.24976 -5.4294e-05 -7.1698e-07 0.00016411 0.0018715 0.30016
-1.4093e-05 0.17378 0.00031072 0.17628 1.5893e-05 2.1707e-06 -1.718e-05 0.00055877 0.19644 -8.9938e-06 -0.00069858 0.2809 -1.1712e-06 0.00030802 -0.00011347 -6.475e-06 0.25091 7.2918e-05 2.3444e-05 1.9813e-05
-1.4848e-05 0.17396 0.00030605 0.17655 0.13001 6.5908e-06 -1.7794e-05 0.28928 0.0016221 2.1606e-06 0.18572 0.2766 1.4756e-05 0.0011746 -0.00011535 -2.9732e-05 0.25028 1.2491e-05 -2.9669e-05 -8.8545e-05
3.3596e-06 -4.5622e-06 -6.0757e-06 0.17625 0.12965 3.9186e-06 -1.7625e-05 -5.4016e-06 0.19512 5.565e-06 0.18504 5.4914e-05 -2.7384e-06 -3.0219e-05 1.0462e-05 1.6675e-05 1.1245e-05 5.0976e-05 5.6859e-05 6.0556e-06
1.2107e-06 0.174 1.4079e-05 0.17637 0.12995 1.4561e-05 -2.895e-05 -2.2999e-05 4.3454e-05 0.18238 -5.4446e-06 9.0897e-06 0.18196 5.5746e-06 -7.3344e-05 1.8311e-05 0.24998 0.22208 -8.4789e-06 -8.3918e-05
-4.5298e-06 0.00015406 -2.8726e-06 0.17625 4.434e-05 3.9203e-06 0.35304 -3.6692e-06 0.19516 0.1812 8.0514e-06 7.1862e-05 0.18178 9.7734e-06 0.00039529 0.0015925 -1.0687e-05 -0.00015116 0.0026007 -2.5104e-05
2.0058e-06 3.5953e-05 0.27714 0.002035 4.2739e-05 0.316 0.35429 0.00021591 5.0761e-06 0.0002776 0.1853 0.0010261 0.00018014 -4.7335e-05 0.00014469 0.0003528 -0.00010275 0.2244 -0.00037551 -0.00012773
8.186e-06 3.467e-05 0.00014374 0.00010226 0.12985 8.1477e-05 0.00025935 -2.5922e-06 0.00018533 0.00072747 0.00021324 0.0004558 0.00014312 1.2474e-06 0.0029277 0.00043986 0.00026355 0.0024931 0.00182 4.0329e-05
1.8572e-07 -2.2365e-05 3.4683e-07 -2.3149e-05 0.00042379 1.1407e-06 2.3177e-06 8.5374e-07 -6.495e-06 -4.5848e-06 0.18511 3.9412e-05 2.719e-05 -3.9817e-05 2.1878e-05 0.00034836 9.6506e-06 1.923e-05 1.512e-05 -9.4773e-06
0.28879 0.17464 0.00067276 0.00014636 0.1312 0.0006313 -5.5733e-07 4.803e-05 0.19581 0.00011163 0.00016294 -0.00010913 0.00035856 -1.085e-05 0.25168 -5.0293e-05 1.2878e-06 0.00010872 0.344 0.29811
-1.0549e-06 -2.6014e-05 8.8698e-05 3.3571e-06 0.13033 0.31606 -9.934e-06 -1.2269e-06 -3.7901e-06 0.001083 8.2152e-05 -1.2069e-05 0.00021886 -4.3332e-07 0.00061416 0.0001194 0.00018789 0.0028917 0.0024506 -0.00024051
0.00040886 5.0818e-07 5.9669e-05 0.0020211 0.00053467 0.00023594 0.3543 -7.0089e-06 0.00030465 0.00096369 6.0312e-06 0.00042152 0.00053097 -2.0571e-05 0.012733 0.30075 -0.00010144 0.23458 -0.00059101 -7.99e-05
0.28869 0.17401 2.6663e-05 1.7947e-05 0.12986 1.431e-05 5.3028e-05 -3.2464e-06 0.0002891 0.00031393 1.4374e-05 3.666e-05 0.00048312 -2.9522e-05 0.0098274 0.0004136 0.00011821 0.002914 -0.00024981 -0.00016338
-5.0162e-07 2.155e-06 1.7119e-08 3.8642e-07 1.2358e-05 -5.304e-07 7.9173e-07 -3.7532e-08 -2.6156e-06 -2.1266e-06 5.8385e-05 -3.1951e-06 -2.6622e-07 6.3176e-07 7.234e-05 0.0052284 -3.2561e-06 1.4712e-05 2.0701e-05 -6.7705e-06
-1.3925e-05 0.17393 0.00030599 0.17661 0.13001 8.692e-06 -1.8271e-05 0.28882 0.0021572 1.4e-05 0.18688 0.27753 -7.602e-05 0.5 -8.3455e-05 -2.6159e-05 0.25035 2.9892e-05 -4.0882e-06 -0.0003676
-4.7918e-07 4.4318e-06 3.2147e-07 3.0017e-06 1.8451e-05 -5.2135e-06 4.0672e-05 1.1287e-06 1.0763e-05 3.7088e-07 5.5035e-05 0.0001057 1.1065e-05 2.2261e-06 7.5979e-05 0.0052411 -2.0973e-06 8.5903e-05 2.0957e-05 -6.4637e-06
5.7667e-06 -4.9433e-05 4.5433e-06 -1.9402e-05 0.13025 6.7343e-06 -1.1274e-05 3.4445e-06 4.2876e-05 0.18145 9.4742e-07 1.1887e-05 0.18193 -3.2371e-06 -9.692e-06 0.00050539 -1.7774e-05 0.2245 9.0075e-05 -0.00010138
-1.1965e-05 0.17393 0.00029863 0.17656 0.13 5.45e-06 -1.7913e-05 0.28882 0.19724 1.5925e-05 0.18639 0.27696 -8.0054e-05 0.5 -5.2221e-05 -1.1391e-05 0.24988 3.0387e-05 -1.1615e-05 -0.0003685
1.9498e-06 0.17372 2.8669e-05 0.00015538 0.13002 1.0585e-05 -1.2053e-06 5.6811e-05 0.1955 0.00024103 4.5445e-05 0.27522 6.127e-05 -9.0323e-05 1.4638e-05 5.6533e-06 -2.1258e-05 0.00015966 -4.6329e-05 -4.9107e-05
0.00042267 9.8512e-05 -3.7448e-07 -6.1927e-06 0.1298 1.5782e-05 5.3011e-05 -9.0222e-07 0.00086259 0.00093904 4.0269e-05 3.5995e-05 0.00054968 -1.8031e-05 0.0098584 0.00040717 -6.4926e-06 0.0029032 -0.00018072 5.8581e-06
-7.0359e-06 0.17377 3.0631e-06 0.00012993 0.00016307 1.381e-06 2.059e-05 -7.8005e-07 0.19632 0.00071514 0.0013026 0.00096968 0.00013915 0.00090067 -3.5621e-05 0.00010259 7.6726e-05 0.00066429 3.5122e-06 -0.00014092
0.28886 0.17589 0.27817 0.17654 0.13145 0.0006558 -3.5089e-05 0.00018851 0.19607 0.18292 7.6018e-05 -0.00010942 0.18298 -4.9561e-07 0.25412 -5.2288e-05 -6.3795e-05 -0.00023862 0.36696 0.31177
0.00041603 0.00014934 3.8594e-05 1.701e-05 7.5171e-05 2.7111e-05 3.4952e-05 -2.0037e-06 0.0003138 0.18197 7.1482e-05 -2.9232e-06 0.18214 -2.3474e-05 0.0098757 0.00040089 -1.2811e-05 0.22549 -0.00022106 -0.00013487
8.7941e-06 3.5894e-05 0.00017765 -7.1653e-07 0.13001 0.0002406 -7.3679e-07 -1.328e-06 0.00034349 0.00029195 6.7106e-06 8.0427e-06 8.6616e-05 9.649e-07 -2.5142e-05 6.3341e-05 -1.7987e-05 0.0010075 3.3213e-05 -5.4858e-05
0.28841 -5.8895e-06 -1.4746e-05 -1.9656e-05 -4.2237e-05 9.4887e-06 -1.085e-05 2.7199e-06 0.0014427 0.0011631 -4.428e-07 1.1723e-05 2.5515e-05 -5.6296e-06 0.0013008 -2.4133e-06 -2.1612e-06 5.9198e-05 0.00042471 0.29536
1.3036e-05 3.0988e-06 0.2768 1.9157e-05 0.12961 5.343e-06 -2.3293e-06 -2.4093e-05 4.2422e-07 0.18089 0.18505 6.9298e-05 0.18158 -3.784e-05 9.7446e-06 2.717e-06 2.8538e-05 -0.00013626 4.8852e-05 -0.00014674
5.5771e-08 -4.6748e-07 7.576e-10 -1.4008e-06 3.2462e-05 -1.0098e-06 1.0488e-07 1.4824e-07 -2.1353e-07 -1.5171e-06 7.1342e-07 -3.2503e-07 3.3376e-06 -4.4942e-09 -1.2653e-06 4.5397e-06 -1.7591e-06 4.1728e-07 1.0937e-05 -5.6895e-06
-1.1701e-05 -0.00015122 1.61e-05 0.17851 0.13012 0.00011977 0.00083152 -1.0901e-06 1.0392e-05 0.18413 3.9085e-05 3.3257e-06 0.18368 7.4839e-06 0.24889 0.30054 -7.3408e-05 0.24975 -0.0013768 -0.0011158
0.00076474 0.17447 0.00026278 0.17874 0.13119 2.0631e-05 0.00012049 -1.5717e-05 0.00036288 0.00065667 3.4037e-06 -9.1402e-05 0.00061186 -3.25e-05 0.012052 0.30077 -0.00014533 0.0035915 0.0058752 0.0018912
-1.4848e-05 0.17396 0.00030605 0.17655 0.13001 6.5908e-06 -1.7794e-05 0.28928 0.0016221 2.1606e-06 0.18572 0.2766 1.4756e-05 0.0011746 -0.00011535 -2.9732e-05 0.25028 1.2491e-05 -2.9669e-05 -8.8545e-05
-1.3969e-05 -0.00013997 0.00015019 2.8722e-05 0.13056 0.00026636 9.8202e-05 2.1734e-05 3.4498e-05 0.00016538 0.18671 7.2861e-05 0.00039073 -3.653e-05 0.24593 0.30726 -4.108e-05 0.0031033 0.0088535 -0.00026315
1.0538e-05 2.9789e-05 0.2773 6.7292e-05 0.00020924 0.00022322 -3.0538e-05 -2.0459e-05 2.4001e-06 0.18174 0.18629 4.7361e-05 0.18242 -3.3388e-05 0.0035717 6.5199e-05 0.00030305 0.23032 0.34511 -0.001988
-6.4995e-06 4.8408e-05 0.00017473 -5.0942e-05 0.00039725 0.00044583 3.0162e-05 0.00023651 0.0008 0.18314 0.00033691 0.0012914 0.18415 -1.062e-05 0.00060722 0.00052113 -5.4563e-05 0.0035461 0.0026457 -0.00025977
0.00018296 0.00026599 0.00047764 5.7653e-06 5.7634e-05 0.00093185 5.2379e-05 5.8283e-05 0.00055636 0.00012375 0.00053318 0.00020971 0.00038133 -2.3573e-05 0.0063274 -7.6799e-05 -2.6281e-05 0.00018273 0.0016912 0.0013258
1.5443e-05 7.062e-05 0.00018482 -5.231e-06 0.13011 4.3528e-05 -5.9354e-07 -3.9884e-06 0.00068555 0.18285 7.6873e-08 0.00017763 0.18199 -2.2416e-06 -4.1499e-05 8.266e-05 0.00022965 0.0002653 8.8385e-05 -5.8318e-05
