-1.8716e-06 -2.405e-06 -1.157e-07 3.2322e-06 1.6939e-05 -1.6688e-06 0.00031293 -2.5695e-06 -5.0686e-05 -3.6399e-06 -2.3001e-05 -5.0493e-07 2.8539e-06 5.2766e-07 -5.1353e-06 -2.9617e-07 -2.9873e-06 -1.2141e-06 7.6032e-06 -4.5434e-06 6.5803e-05 -3.8584e-06 -1.6018e-05 3.7815e-06 -7.2216e-07 1.124e-05 3.96e-06 1.4802e-07 -4.0267e-06 -3.6015e-05 -4.3257e-06 3.884e-07 -8.9352e-06 1.0368e-06 0.00095574 1.0609e-05 -2.1207e-05 1.529e-06 -5.0212e-05 -1.0299e-06 0.00019726 3.1766e-06 -3.3663e-07 -2.4968e-05 -3.2583e-06 7.6373e-06 9.6391e-05 -4.8972e-05 -4.3361e-05 5.202e-06 -1.0422e-06 0.00014706 3.3886e-07 -0.00046663 -4.1878e-06 0.001196 -8.6753e-05 7.9792e-05 -1.7507e-05 0.0008628
5.3631e-06 -1.0353e-05 -1.5544e-07 -6.2758e-06 0.00040042 -9.0685e-06 0.00014252 0.00017789 2.6448e-06 -1.7732e-05 -0.00021423 -2.4959e-07 6.4428e-06 2.8868e-06 -3.4087e-06 3.5767e-06 1.0938e-05 2.4527e-06 3.3499e-06 -1.972e-05 1.3279e-05 1.0728e-05 -3.2074e-05 -1.1778e-05 4.5887e-06 -3.3495e-05 0.00014342 2.0865e-06 2.5582e-06 3.2427e-05 -1.3178e-05 3.3614e-06 -1.7009e-05 0.00049411 -0.00011093 1.3117e-05 -1.6744e-05 -2.359e-05 -7.2073e-05 -6.1027e-06 0.0052646 -1.6027e-05 -1.9308e-06 -9.0897e-05 5.408e-06 1.8486e-05 0.25691 -4.2299e-05 -0.00010178 -1.8004e-07 0.00012926 1.9431e-05 5.6784e-05 -0.0012167 4.2328e-07 0.00099246 -1.3789e-07 0.00031651 -1.4681e-05 0.00082489
0.00010649 0.00014099 -9.5139e-07 -7.1504e-06 6.2334e-06 3.2664e-05 0.16234 -5.4131e-06 -0.00047048 0.00012196 5.5695e-05 -3.037e-06 0.00062504 -2.2073e-05 -5.9405e-05 -5.2365e-05 -5.2697e-05 5.2672e-06 -0.00011088 0.00024757 0.00016983 4.895e-06 1.7971e-05 -6.0282e-05 0.00092392 1.1437e-06 -8.9726e-05 1.7048e-05 -8.3882e-05 -7.6964e-06 9.4465e-05 5.2596e-07 0.0018595 3.269e-05 0.26832 -5.8667e-05 -4.2889e-05 7.8971e-05 -9.9666e-05 -0.00010999 0.002361 0.0011117 -2.9866e-05 -9.0038e-05 -0.00045766 1.0134e-05 8.1674e-05 2.2148e-05 0.00011095 -2.5322e-06 4.55e-05 -0.0003012 0.0022592 -0.00021313 -1.5152e-05 0.0014479 -0.00020505 0.00015679 -4.1774e-05 0.00044377
9.0917e-07 -2.8324e-06 -2.9179e-08 2.3934e-06 2.0663e-05 3.6168e-05 0.00043774 6.5026e-05 -8.474e-06 7.6153e-07 -8.4161e-07 1.0574e-06 -2.7667e-06 6.5619e-07 5.6652e-05 -7.148e-06 2.6664e-06 -2.7378e-06 1.6999e-05 -4.8122e-07 4.1569e-06 4.015e-07 -2.2234e-05 3.4204e-05 1.422e-05 1.5685e-06 -8.3257e-06 0.00036529 -8.2806e-06 -2.6596e-06 -4.4842e-06 6.2557e-07 -0.00018023 0.00025329 0.00044698 1.1887e-06 -1.8777e-06 -9.2036e-06 -5.3601e-05 9.7847e-05 4.4679e-05 0.0011032 -1.1052e-05 3.1293e-06 0.0022137 -1.1958e-06 9.1833e-05 -1.3122e-05 -1.2108e-05 1.8218e-06 0.00028449 0.0001097 0.001895 -5.0879e-05 1.3585e-06 2.6997e-06 0.00051198 0.00018854 -6.6016e-05 4.0989e-05
1.6155e-05 -8.3595e-05 -9.0399e-08 5.2307e-06 1.5079e-05 1.6755e-05 0.21587 -6.8478e-07 -4.3472e-05 -2.6709e-06 -1.6392e-05 -3.1047e-06 0.00015137 -4.1411e-05 0.00053429 -2.6945e-06 -1.4216e-05 6.8597e-06 0.00011412 -0.00029451 0.00053917 -2.3088e-05 -7.3088e-05 -4.4241e-05 -2.3449e-05 2.8197e-06 7.7749e-06 -4.2076e-07 -6.0795e-05 3.1285e-05 0.0001453 -6.9736e-06 -2.6642e-05 -5.042e-05 -0.00011326 0.0009254 -0.00016192 0.00019062 -1.0552e-06 -7.0925e-05 0.00037455 0.00013517 -2.1473e-07 -2.0721e-05 4.4786e-05 0.00082054 0.0001659 -4.2414e-05 -4.047e-05 -5.2951e-06 -8.3386e-05 -5.5981e-05 7.2891e-06 -8.8711e-05 -0.00017543 0.0018554 -0.00022111 0.0077617 -4.9105e-05 0.00012775
3.2961e-06 -1.4786e-05 -4.1738e-07 -2.0341e-06 3.9862e-07 5.1114e-06 0.26714 4.4324e-05 -0.00034255 -1.0028e-05 9.7169e-07 -1.4469e-06 -0.00012519 7.2031e-06 -2.5617e-05 -5.0481e-06 8.1321e-06 1.7777e-05 -8.978e-05 -3.4352e-05 8.4925e-06 4.0732e-07 -8.2833e-05 -5.3108e-05 3.998e-05 -1.3747e-05 -4.8561e-05 1.4805e-05 0.00225 -0.00014493 -1.7634e-05 3.7123e-07 8.3347e-06 -9.0012e-06 0.21892 5.1315e-05 -6.9603e-05 -1.7044e-05 -9.8785e-06 -6.9465e-05 7.56e-05 -5.4294e-06 3.4213e-06 0.00010118 -0.00020275 3.4121e-05 8.5227e-06 -1.5843e-05 1.2491e-05 1.0446e-06 0.00025908 -0.00017018 -7.4063e-05 -2.2408e-05 -7.5967e-06 -0.00010733 0.00057691 -0.00012303 4.8758e-05 4.3873e-06
1.0554e-06 1.3312e-05 1.251e-07 0.18204 1.9983e-05 -2.871e-05 0.2659 8.0775e-05 -7.5163e-05 -8.0613e-09 -2.5352e-06 7.5708e-06 2.6752e-08 4.4626e-06 0.18683 -1.3824e-05 6.4268e-07 2.5564e-05 0.18476 2.9506e-05 0.35061 6.586e-07 -1.9022e-05 -5.8624e-05 -4.3105e-05 6.2308e-06 1.002e-05 0.00046944 -6.6797e-06 -3.0494e-05 5.3338e-06 2.1331e-06 -2.6049e-05 -2.8204e-06 -0.00028077 1.4297e-05 -0.00047371 -1.0304e-08 0.2283 -8.2531e-05 3.8956e-05 0.0012467 -1.8805e-05 9.1396e-06 -4.2994e-05 -1.3707e-05 0.00018058 7.8235e-06 -9.5315e-06 -2.303e-05 -9.3308e-05 -0.0001403 0.002433 2.689e-05 -8.1681e-07 -4.1545e-05 -0.00010243 0.00020462 -0.00033004 -6.9143e-05
-3.8017e-07 1.1492e-06 -3.3949e-05 -2.3875e-06 6.14e-08 -3.3515e-06 2.0345e-06 -1.4295e-05 -4.7171e-08 -2.6418e-06 -3.2546e-07 -4.9398e-06 -2.9225e-06 4.1268e-06 -0.0001307 3.5795e-06 -1.1991e-05 -7.1662e-06 1.4283e-05 9.3386e-06 0.33361 1.4332e-05 -4.5491e-05 -2.7841e-05 -1.8066e-05 -4.5975e-06 1.8691e-05 3.5729e-07 1.8166e-06 -5.1955e-05 1.2726e-05 -9.77e-07 -3.3189e-05 -7.045e-05 7.4007e-06 -1.1545e-05 -1.0447e-05 0.18033 9.4051e-07 -9.6859e-07 -3.255e-06 4.1213e-06 1.2557e-06 8.5269e-06 -3.6023e-06 -0.00016793 -1.0689e-05 -1.1938e-06 -8.7642e-06 0.7031 1.5809e-06 -7.438e-05 5.0536e-06 3.8495e-05 -7.7314e-05 -9.6071e-06 1.2742e-05 -0.00052807 -3.981e-05 -5.5699e-05
1.6259e-06 -2.2389e-06 1.7216e-07 0.47977 -2.5078e-06 -9.1248e-07 -8.3118e-05 1.3136e-05 0.56534 1.4526e-06 1.0696e-06 -1.806e-07 -3.1394e-08 8.0333e-07 -1.8748e-05 1.7016e-06 -3.0354e-06 4.3969e-06 -7.7976e-05 -2.2601e-06 1.223e-05 4.4168e-06 6.169e-06 -2.8335e-06 8.5541e-06 6.7905e-07 -0.00010584 -2.0242e-06 4.2678e-07 1.4885e-05 -8.8526e-06 -1.0014e-05 3.3122e-05 -2.8805e-05 -0.00037201 1.9683e-05 -8.0497e-05 -6.0857e-06 -1.0985e-06 1.2406e-05 -1.9085e-06 -0.00018391 -1.8094e-07 8.3348e-06 0.0001825 5.2888e-06 7.3648e-05 -5.0908e-06 4.1253e-05 -5.1759e-07 5.3336e-06 -5.1999e-05 2.2409e-05 -9.1389e-06 1.1702e-05 -1.1132e-06 -0.00012663 2.4134e-05 2.4055e-05 8.8055e-06
1.5898e-07 -5.0206e-07 -4.7151e-07 -1.3442e-07 -1.6775e-06 -6.3737e-06 1.5886e-07 0.47893 1.4812e-05 4.1854e-07 0.47365 -4.1195e-07 -3.6725e-06 2.5578e-07 -3.054e-07 4.8596e-06 4.6278e-06 -5.0221e-08 -2.2567e-06 -1.6174e-06 -1.4358e-06 -7.7805e-08 1.0036e-05 -7.8258e-05 3.2076e-05 3.3573e-07 -3.8642e-06 -2.9641e-08 3.6132e-06 -1.9202e-06 6.6432e-07 -7.8035e-07 4.264e-05 -3.1652e-05 -4.6613e-05 5.4571e-06 -1.7091e-06 -1.4799e-06 5.5279e-06 2.5276e-06 0.00010949 -9.734e-05 -0.0001006 -4.487e-06 9.7141e-06 5.8712e-06 5.5064e-06 -4.8773e-07 3.5451e-06 -2.2885e-05 -1.1791e-07 -5.5135e-05 1.7929e-05 9.5314e-06 -1.9466e-06 1.4877e-05 -0.00022663 -5.5466e-05 0.00010131 -6.8917e-06
0.13117 0.00016745 3.818e-06 3.0243e-07 9.5405e-06 6.9379e-05 0.18421 1.0854e-05 -4.8116e-06 -4.9876e-07 -3.1732e-06 -4.0064e-07 0.48138 1.729e-06 -1.7367e-05 -5.4266e-08 -0.0001251 1.9932e-05 1.8513e-05 0.00033979 0.00016597 2.6051e-05 0.15294 0.00071577 5.2339e-05 3.2183e-06 5.6092e-05 4.5726e-07 0.64379 0.1593 0.00019728 -1.0036e-05 0.00032719 6.6606e-05 9.738e-06 -0.00022784 -7.1799e-05 0.13145 7.5845e-05 -6.2855e-05 1.7368e-05 8.1882e-06 4.6975e-05 0.00039716 -7.0915e-05 0.00011656 0.001097 0.00094188 0.40696 -1.0635e-05 -6.2014e-05 -0.0012773 8.7945e-06 7.5628e-05 0.00010886 0.0012181 -0.00011242 0.000338 2.8822e-05 0.00010398
1.4574e-07 -8.5662e-05 9.4647e-07 0.19327 1.4117e-05 0.15915 2.2635e-05 9.767e-06 -5.5548e-05 -6.4212e-07 1.0812e-05 -1.2266e-06 2.0069e-05 7.6729e-07 0.39617 1.7487e-05 9.0091e-06 -1.0093e-05 0.39229 -0.00010507 0.1867 4.3362e-06 0.11698 -4.1407e-05 0.26204 -6.1865e-06 0.00013964 -1.5492e-06 0.00011256 0.12247 -0.00015392 1.2352e-05 -6.3945e-05 -1.7423e-05 -0.00012447 1.0553e-05 1.0495e-05 0.1013 0.2398 -5.654e-06 8.1067e-05 -2.9605e-05 -3.4151e-06 0.33001 8.1448e-05 2.0106e-05 0.20039 0.32969 5.1357e-05 -1.71e-05 4.5686e-05 -0.00023256 0.0001871 1.1711e-05 7.5546e-05 0.27555 0.00019719 0.0001846 -5.1504e-05 3.5037e-05
-4.3969e-07 -6.6868e-06 1.3925e-07 5.6001e-08 -1.7672e-07 1.8832e-05 4.3714e-06 0.0002594 -6.5887e-05 -1.3721e-06 -9.8034e-07 -1.8162e-06 7.4036e-08 1.8268e-06 1.5892e-05 4.1337e-06 1.6131e-05 1.5534e-06 7.1357e-06 -2.5014e-05 -8.7115e-06 -2.1186e-06 -3.7511e-05 -4.7988e-06 -1.3496e-06 5.7394e-06 -1.2741e-05 -7.8913e-06 -4.3772e-06 2.6449e-05 1.7384e-06 3.8136e-05 -1.2885e-05 -2.7554e-05 -0.00014628 1.2971e-05 -3.1423e-07 1.0643e-05 -3.8026e-06 -2.5133e-06 -2.8926e-05 0.42898 0.87114 -1.4241e-05 -3.0439e-06 3.1359e-06 4.1936e-06 -9.3416e-06 7.8694e-05 -4.3668e-06 -1.8728e-05 -2.5621e-05 -0.00066227 -3.3741e-06 -4.8939e-06 -2.8695e-05 0.00025178 -0.00027137 -1.2712e-05 -1.1333e-05
-1.0904e-05 -3.056e-05 -2.0481e-06 -4.9313e-08 9.0562e-06 0.26229 3.0867e-05 -1.8786e-05 2.1705e-05 -1.54e-05 2.7897e-05 -1.42e-06 6.0882e-05 1.5453e-06 -1.4164e-05 -6.0965e-06 -1.339e-05 0.00053702 2.3223e-06 -6.0765e-05 -1.5649e-05 1.2699e-06 -7.3517e-05 0.0001435 0.00022153 -2.0143e-05 7.1551e-07 1.9706e-06 1.1602e-05 -1.8882e-05 1.4306e-05 -4.8766e-05 0.00015598 0.0069509 -0.00045435 9.371e-05 3.6524e-05 4.962e-06 -5.2148e-05 -2.456e-06 9.1805e-06 -1.0244e-05 -4.4513e-06 9.643e-05 0.55508 -3.622e-06 5.8534e-05 -1.8774e-05 -9.3041e-06 -5.9322e-06 2.3364e-06 -0.00068675 1.4936e-05 -0.00047611 -1.6564e-05 -0.00011904 0.0019401 0.0019139 2.4986e-05 0.00031497
0.1267 -9.2588e-05 -1.7477e-07 3.7896e-06 -6.8673e-07 -2.0499e-05 0.00020048 0.00017503 -7.6261e-05 -2.927e-05 -5.5841e-06 7.6598e-07 0.00013364 -3.7857e-05 9.8384e-05 -2.0218e-05 -1.9232e-07 -7.2489e-08 3.6735e-05 -0.00014535 3.4324e-06 1.8815e-05 3.1539e-05 0.00075495 -1.1202e-05 -9.9671e-07 -9.9655e-06 0.00063317 -7.017e-08 1.6884e-05 4.7064e-05 -3.8917e-07 -1.8051e-05 -4.1294e-06 0.002555 -7.0343e-05 -4.8453e-05 -1.0553e-05 -3.3148e-05 3.2368e-07 -1.752e-05 0.0019256 -1.1174e-05 -3.882e-05 0.00094281 8.3204e-05 0.0022069 -5.4983e-06 4.5207e-06 -5.7012e-07 -5.3328e-06 -0.0010007 0.0032743 -1.5496e-05 6.3023e-06 0.00056371 -0.00028402 0.00016713 -1.2619e-06 3.8092e-05
4.3671e-06 2.662e-05 -5.9786e-06 1.1703e-06 4.1181e-05 1.0577e-05 0.28941 -3.9613e-06 -0.00037844 0.17141 3.8975e-05 -9.7574e-07 0.00039487 -0.00016142 -2.407e-05 -5.984e-06 -9.9617e-06 0.0029192 -9.3505e-05 7.4367e-05 2.5142e-05 -4.2761e-05 0.24076 -7.2123e-05 4.8125e-05 -2.7279e-06 -2.1938e-05 1.2674e-05 8.3035e-05 0.12891 3.2691e-05 1.3737e-05 -0.00014109 -9.4004e-05 0.23943 -0.00018403 -0.00032884 -0.0001923 -0.00020478 0.0084219 0.26655 1.5276e-05 2.3026e-06 -6.112e-05 -0.00027439 -0.00021299 0.00080632 0.00078353 0.31991 2.144e-06 -0.00013293 0.00010242 -0.00019891 -2.7087e-05 0.0002019 0.00020716 -0.00039753 0.0023654 -0.00018832 9.1136e-05
-9.0405e-06 1.6834e-05 0.00027041 -9.0872e-07 5.8806e-07 0.00018611 0.00039015 -2.0299e-06 -5.5914e-05 0.00015192 -5.2962e-05 -7.5085e-07 0.62512 -6.7613e-06 1.8128e-06 -2.7507e-05 9.1853e-07 2.6795e-06 -6.5075e-07 4.0101e-05 -1.0349e-05 3.2088e-06 0.00012608 7.6999e-05 -0.00010004 -5.9077e-07 1.081e-05 6.3549e-05 -0.0004654 -0.00066297 4.9728e-06 2.9544e-08 0.00093911 -1.7877e-05 0.0017643 -2.5252e-05 -1.7989e-05 -4.2082e-05 2.2072e-05 -3.2262e-06 0.0031448 0.00012224 1.851e-05 0.00017782 -0.00073863 4.2579e-05 6.6044e-05 8.7332e-05 -0.00034474 -8.885e-05 -1.8521e-06 9.0977e-05 -0.00010853 -1.3921e-05 1.4186e-05 0.00081206 -0.00012638 0.000177 -2.8868e-05 7.2845e-06
1.2814e-05 1.898e-07 -1.4935e-05 -1.5663e-06 -0.00016076 2.1581e-06 0.0003585 0.00032644 -6.6241e-05 -6.7348e-05 6.4107e-07 4.8615e-06 2.7446e-05 -3.3326e-06 1.5749e-05 4.841e-07 1.4598e-05 -2.8775e-05 3.3898e-05 3.8472e-05 -1.7761e-05 -0.00031501 0.00089781 7.095e-05 -1.5066e-05 -0.0003136 1.3285e-05 3.6455e-05 -7.9139e-06 -0.00012365 -7.3128e-05 4.8131e-06 -4.5821e-05 -0.0012789 0.001777 -0.00029239 -9.0406e-05 2.1704e-06 -0.00013132 0.010106 0.0029923 0.0020061 -1.8158e-05 0.00016527 5.2318e-05 -3.5729e-05 0.00011989 5.2795e-06 4.69e-05 -0.00028456 -4.952e-06 0.00036251 0.00023898 0.0068219 6.8532e-05 -1.956e-05 -0.00025351 0.38237 -0.00016406 -0.0058585
0.19089 5.3522e-05 1.6157e-06 1.0203e-06 -0.00010804 -5.4595e-06 -1.5821e-05 -2.435e-05 -9.239e-05 -1.0518e-05 6.3093e-05 6.1709e-07 1.5817e-05 1.7279e-06 -3.5772e-05 9.5526e-05 3.8581e-05 4.5117e-06 -0.00015594 0.00019172 1.9351e-06 3.4774e-06 -3.7076e-05 0.0046639 -0.00025016 -5.5563e-05 -0.00035909 -1.0708e-05 -1.3141e-06 0.0025964 -0.0005033 2.0378e-05 2.9331e-05 -2.1919e-05 0.0034553 0.00028292 -6.5669e-06 0.19252 2.6629e-05 2.9411e-06 -0.00011604 -0.00093031 -1.7168e-05 3.8135e-05 0.0009685 -0.00020731 -0.0001139 -7.3432e-06 -2.5287e-06 -3.8357e-05 -0.00010368 -0.061951 0.50901 -7.751e-05 -2.6447e-06 0.00030006 -0.00014439 -0.00020046 -0.00013786 0.0031617
-4.0794e-06 4.224e-05 -1.0754e-06 -9.3807e-08 -8.1872e-06 2.9925e-06 0.14863 0.00066023 -0.00011355 0.00012065 -3.4126e-06 1.4046e-06 -4.1087e-06 2.087e-06 1.6111e-06 5.8476e-06 -3.4328e-05 -5.3233e-05 -1.8754e-06 9.3096e-05 1.0606e-05 -2.4682e-05 0.00074464 -5.1995e-05 -1.1177e-05 1.8259e-05 -7.4738e-06 9.6098e-06 -2.0453e-05 -4.5853e-06 4.7539e-05 1.2398e-06 -4.5237e-05 -9.7957e-05 0.0019661 -0.00011823 -0.0001439 -3.8288e-07 -0.00017049 0.0090995 0.0029449 0.18121 -2.4381e-05 -2.5767e-05 -9.2816e-06 -6.1908e-05 -9.8135e-07 -6.5183e-06 2.6391e-05 -8.6412e-06 0.00012337 4.619e-05 -0.00038164 8.073e-07 4.5453e-05 -3.212e-05 -0.00027987 0.0040566 -0.00014725 2.6387e-05
-3.1846e-06 -0.00013986 -1.4772e-06 -3.9017e-06 -1.2554e-05 0.00012502 -5.9542e-05 3.4586e-05 5.9057e-06 0.00015197 -0.00013914 -1.9576e-05 3.5444e-05 -3.4253e-05 4.0475e-05 -0.00032713 4.0995e-05 5.256e-06 -6.0001e-06 -0.000297 -9.3309e-05 8.9878e-07 -4.8725e-05 -0.00028592 -0.00086057 3.671e-05 0.0042528 2.1752e-06 6.8784e-06 -5.7018e-05 -8.0281e-05 -1.4313e-06 0.44702 0.0018816 -0.00037876 0.00010673 -0.00016061 -2.3013e-05 0.0002769 1.0519e-05 -0.00014122 -6.5799e-05 4.8925e-07 0.0002129 0.50239 3.564e-05 4.1565e-05 9.3467e-06 5.1206e-06 1.4512e-05 2.2164e-05 -0.00048337 -0.0012664 -0.00028826 -2.3276e-06 -0.00011241 0.46558 -5.2302e-05 0.00018103 0.00031392
0.13117 0.00016745 3.818e-06 3.0243e-07 9.5405e-06 6.9379e-05 0.18421 1.0854e-05 -4.8116e-06 -4.9876e-07 -3.1732e-06 -4.0064e-07 0.48138 1.729e-06 -1.7367e-05 -5.4266e-08 -0.0001251 1.9932e-05 1.8513e-05 0.00033979 0.00016597 2.6051e-05 0.15294 0.00071577 5.2339e-05 3.2183e-06 5.6092e-05 4.5726e-07 0.64379 0.1593 0.00019728 -1.0036e-05 0.00032719 6.6606e-05 9.738e-06 -0.00022784 -7.1799e-05 0.13145 7.5845e-05 -6.2855e-05 1.7368e-05 8.1882e-06 4.6975e-05 0.00039716 -7.0915e-05 0.00011656 0.001097 0.00094188 0.40696 -1.0635e-05 -6.2014e-05 -0.0012773 8.7945e-06 7.5628e-05 0.00010886 0.0012181 -0.00011242 0.000338 2.8822e-05 0.00010398
0.15224 0.19198 4.8433e-07 -3.4755e-07 -8.9832e-07 2.2213e-09 3.0075e-05 1.797e-05 9.4027e-06 0.2535 -1.2563e-06 0.48893 -6.4717e-06 0.32351 -8.5239e-08 8.091e-06 0.20194 -2.463e-06 6.3916e-06 -0.11247 -4.6035e-06 0.36247 -0.00034625 0.00084818 -1.8766e-05 1.8001e-06 -6.4631e-06 8.4173e-08 6.3636e-07 -7.2196e-05 -0.16867 3.8152e-05 3.0295e-05 -1.5017e-05 -2.7862e-05 0.19385 0.0002591 0.15283 -4.1119e-05 9.3256e-06 5.5788e-06 2.2175e-05 -2.939e-06 -6.8397e-06 -1.1881e-05 0.2475 -3.7194e-07 7.202e-07 5.4999e-06 8.2828e-06 5.8922e-06 -0.0015271 -1.3747e-05 2.6456e-06 0.48406 1.7076e-05 6.8364e-05 0.0010677 0.44325 -3.3206e-06
4.0636e-05 -6.1837e-05 5.7596e-06 -1.8221e-07 -0.013329 1.1931e-06 0.00103 -1.9702e-05 0.0012476 -3.0707e-05 2.8387e-05 1.1851e-05 0.0011558 -1.8603e-05 0.0001416 3.7826e-06 -3.2119e-05 -4.8025e-05 0.00079589 -0.00018302 0.00015444 -3.9598e-06 0.0016557 0.00072025 -0.00012796 1.9488e-05 1.7693e-05 0.00029592 -0.00017028 0.098299 6.2393e-05 9.4337e-07 -0.0001449 -3.2459e-06 0.011619 0.00044857 -0.00011825 -0.00028716 -0.00040442 -6.1899e-06 -7.514e-05 0.13063 -3.6398e-06 -0.00064224 0.0060482 0.00044273 0.000481 0.00035627 6.9647e-05 1.3025e-06 -2.0066e-05 -0.024464 -0.00034274 0.26716 7.9472e-05 0.20817 -0.0014025 0.0031991 -9.219e-05 0.1223
1.2641e-05 0.00061389 -4.8905e-08 -3.7414e-07 6.1246e-07 1.908e-08 1.1158e-07 -4.2563e-07 0.00028173 2.8991e-07 -5.5362e-06 -1.0381e-05 1.1228e-07 6.2723e-06 0.00030593 4.6886e-06 -1.8538e-05 3.5471e-05 0.00041391 -0.000373 -3.8544e-05 -3.2041e-06 4.4363e-05 5.9545e-06 1.3633e-05 9.1151e-08 -1.5039e-06 1.2095e-05 -2.2579e-07 -2.1059e-05 0.0051393 0.75093 -2.9961e-06 0.00014581 1.2125e-05 0.00014944 -0.00011435 3.2985e-05 -1.5971e-05 8.324e-07 0.00013829 -4.781e-06 4.6847e-05 3.5064e-05 1.0616e-06 -1.863e-05 0.0002509 -2.6723e-06 0.0016467 1.6002e-06 -2.8885e-06 2.9082e-06 0.00024616 1.4359e-06 1.9472e-06 0.00040303 3.6353e-06 2.5404e-05 -0.00034257 -6.2548e-06
-3.7459e-07 6.5489e-05 0.62327 2.3079e-06 0.00025818 -2.1589e-06 -1.053e-05 6.203e-05 0.00011386 0.00087414 -4.458e-06 2.3104e-06 3.4995e-06 -0.00014336 2.2337e-06 -1.5701e-05 -3.067e-05 0.00084126 1.2783e-06 0.00015568 -1.9943e-05 -4.2669e-05 -9.0783e-05 5.5575e-06 -1.0562e-05 -0.00030377 0.00031376 -7.2855e-06 7.4638e-06 0.00011243 2.2487e-05 2.0452e-06 -0.00019079 0.023096 -5.7264e-05 -9.5936e-05 1.7889e-07 -9.2751e-05 2.2635e-05 -3.2952e-05 -4.7371e-05 0.00057296 1.5004e-05 -3.6383e-05 -1.5608e-05 -0.00023075 -6.6215e-05 1.5178e-05 -4.8345e-06 0.71109 -2.9357e-06 2.8187e-05 0.00091702 -0.015841 1.4796e-05 4.9442e-05 5.3063e-05 0.088951 6.7875e-05 0.023296
1.6313e-06 -0.00014929 1.6739e-06 4.1079e-05 -2.9893e-07 0.2803 2.2674e-05 1.2293e-05 1.9854e-05 -9.4384e-06 -7.6012e-06 -3.4876e-06 2.3272e-05 2.8408e-06 9.6766e-06 3.6909e-06 -2.7455e-05 -2.1458e-05 0.00024135 -0.00018573 0.00069198 6.3236e-07 0.00012301 -8.9619e-05 0.00045197 -8.1732e-06 -1.1581e-05 8.5906e-07 0.00018969 0.21549 -0.00028364 1.7709e-05 -3.9603e-05 -2.6015e-05 0.00010492 6.8567e-05 2.8284e-07 0.001256 0.0030575 9.3834e-07 0.0001463 8.1964e-06 -3.2876e-06 0.58009 -4.3646e-06 -4.435e-06 0.0024838 0.58046 0.00022655 -7.5936e-06 2.7871e-06 -0.00022307 -1.1667e-05 2.9136e-05 9.3013e-05 0.48448 -0.00018848 0.00041207 -4.5113e-05 0.00012904
4.4059e-07 -2.4816e-05 5.5046e-06 9.9917e-06 2.8504e-05 1.6504e-05 0.22793 5.6534e-05 0.36944 -6.357e-05 1.5046e-05 2.5162e-05 0.00058293 8.2943e-06 0.0002839 -2.1098e-05 -2.6652e-05 -9.5324e-05 0.0017522 -6.542e-05 -8.0353e-05 1.6183e-05 0.19126 7.3176e-05 -0.00025375 0.00013128 0.0010119 0.00067208 0.00015004 0.20549 5.1827e-05 -4.6408e-06 -0.00013732 0.00029442 0.41652 -6.2475e-05 -0.00039763 -0.00044085 0.00041596 -0.00017723 -0.00051615 0.0021254 -2.41e-05 -0.0020808 0.0051966 -8.2922e-05 0.0016341 0.0009725 0.00022598 2.9725e-06 -0.00010425 0.0016115 0.0002122 0.00033877 0.00036472 0.0033236 9.9344e-05 -0.00078371 -0.00023735 -8.9932e-05
4.6515e-06 0.0001342 3.1376e-07 3.7678e-06 1.2652e-05 2.6251e-05 0.4247 -4.1342e-05 0.34492 -1.6243e-05 6.0219e-06 -1.4156e-05 -5.071e-06 -2.2399e-05 -2.3041e-05 5.8406e-07 7.7996e-06 3.8879e-05 -6.0765e-05 0.00024161 -3.4241e-06 1.904e-05 0.17534 -6.9068e-05 8.9183e-05 -4.1591e-05 -0.00015431 -4.7883e-06 -5.2082e-05 -0.00014792 0.00026837 -1.3668e-05 -3.4505e-05 -6.1278e-05 -0.00233 -0.00010846 0.47325 0.15126 -0.00065365 -0.00013969 4.2211e-05 -0.00069435 1.4612e-05 0.00011599 -0.0013521 -0.00037934 2.6236e-05 3.9533e-05 -3.657e-05 -8.5433e-06 -8.2464e-05 -0.00027699 -3.3292e-05 2.0721e-05 1.0733e-05 -6.1843e-05 0.48987 0.00013195 0.00047296 -6.7813e-05
1.7447e-05 1.7094e-06 -5.806e-07 -1.7672e-06 -5.6058e-06 1.4098e-07 4.8849e-05 0.50802 1.6346e-05 1.8204e-06 -1.1368e-06 3.8189e-07 6.5847e-05 -4.8618e-07 6.8831e-05 -3.2642e-06 6.8943e-07 -7.189e-06 5.9344e-05 5.3302e-06 -1.713e-05 -5.0112e-07 3.0975e-05 1.3808e-05 -1.0367e-05 2.9606e-06 -2.309e-05 0.0002483 -2.7866e-05 9.7569e-06 1.196e-05 3.052e-08 -5.9118e-06 -7.1083e-05 7.7562e-06 -9.0338e-06 -7.5739e-06 -4.1336e-05 -1.3698e-06 9.8973e-06 3.427e-05 0.0035215 0.001602 -2.1535e-05 0.00031097 2.0332e-05 0.00029079 -2.9462e-06 -8.8504e-06 -3.3967e-05 4.1577e-07 4.9149e-05 0.0021054 6.7798e-05 6.4511e-08 1.5546e-05 -0.00045995 0.0023244 9.8449e-05 -9.03e-05
-3.0955e-06 8.1173e-05 -1.5704e-07 0.43627 3.3369e-05 -2.334e-05 1.7989e-05 4.3457e-06 -2.9766e-05 -7.8687e-06 -6.037e-07 -5.2174e-06 6.2843e-06 2.8429e-07 0.00011874 1.1866e-06 -3.841e-05 6.4987e-06 4.3022e-05 0.00016798 0.42028 2.4961e-05 0.26429 -2.0533e-05 0.00080736 7.3538e-06 1.3727e-05 1.9502e-06 -2.7208e-06 5.9996e-06 8.8211e-05 -8.4413e-07 8.7886e-06 1.1162e-05 -9.1556e-05 -0.00014539 1.6419e-05 0.22849 0.5361 -1.7387e-05 2.8747e-05 2.8647e-06 -9.8837e-08 8.8766e-05 -2.0377e-05 -2.0942e-05 0.00014667 7.3856e-05 -5.3336e-05 -4.4957e-05 7.5272e-05 -0.00011652 6.1954e-06 -5.72e-06 1.8477e-05 -5.9341e-05 0.00071381 0.00014996 -7.0069e-05 -4.9402e-05
1.8716e-05 -0.083354 2.4247e-05 1.0175e-05 9.3006e-06 1.7396e-06 1.7858e-05 1.5854e-05 2.6464e-05 -7.9649e-05 -2.0356e-05 3.2735e-05 0.0010044 4.4119e-05 -1.4664e-05 1.8348e-06 0.17542 -5.355e-06 -6.9375e-05 -0.18895 -4.2436e-05 -8.7258e-05 -0.0015689 -1.9668e-05 1.1947e-05 -5.2452e-06 8.6769e-06 2.2557e-06 0.0001303 0.17929 -0.1015 -4.3997e-05 -6.4822e-06 1.7209e-06 -1.1967e-05 0.16087 -0.00012817 0.13026 4.6636e-05 2.5747e-06 0.0010675 -4.7363e-05 -0.00012014 -0.0011414 -8.5595e-06 -8.0682e-05 -9.3055e-05 0.00088493 -0.00070096 -0.00010046 3.2427e-06 4.2921e-05 -1.2709e-05 -3.6149e-05 -0.0019136 0.00088073 3.4436e-05 -0.000694 -0.00011493 0.00023684
2.587e-05 -0.00012739 0.00011482 -2.2352e-06 7.5143e-05 3.9453e-05 -3.1292e-05 3.2863e-05 3.1643e-05 0.00027551 1.1526e-06 4.4353e-06 9.017e-05 -0.00011054 -6.0205e-05 -7.3626e-06 -4.5758e-05 0.00039716 3.1296e-05 -0.00029549 0.00040067 -0.00050561 -0.00024749 -2.5891e-05 2.1239e-05 -2.3261e-07 -0.00018112 -1.9691e-07 0.0002003 0.18311 -0.00010522 1.0684e-05 -6.9773e-05 0.033523 -4.4272e-05 0.00055902 -1.5035e-06 -2.6229e-05 7.8147e-05 -0.00021719 4.4896e-05 0.00017238 4.1515e-05 0.00045034 -4.3091e-05 0.00067872 0.0026126 0.001081 0.00021895 0.00065921 3.9933e-06 -7.8137e-05 0.000238 -0.00079992 -3.7277e-05 0.001179 1.2348e-05 0.68299 4.8904e-05 0.00091225
0.38534 0.36475 -1.3566e-06 -6.3493e-06 -1.304e-06 -3.3832e-05 -4.955e-05 -1.8498e-05 -0.00050982 2.5479e-05 0.00015916 -5.6617e-06 -1.7529e-05 -3.6162e-05 -7.3243e-05 -8.4825e-05 -0.0014041 -1.2306e-05 -0.00016517 0.13438 -5.9675e-05 -1.328e-05 -8.8401e-05 0.0020738 0.0014251 -1.6053e-05 -0.00034141 2.3162e-05 -7.5825e-06 -0.00023437 -0.064268 2.0979e-05 0.0018938 -2.3685e-05 0.44276 0.0043728 7.2729e-05 0.0011695 -6.5219e-05 -8.9607e-05 0.0026185 0.001513 -3.5254e-05 0.00012551 -0.00063164 -0.00026021 7.6192e-05 -4.0598e-05 4.305e-05 -2.5057e-05 -1.2822e-05 -0.0047627 0.016076 -6.0215e-05 -3.3563e-05 -0.0001658 0.00025711 -0.00023037 -0.00014166 9.6636e-06
0.15999 0.16037 -3.0698e-07 9.6657e-07 7.7087e-06 0.25582 2.0105e-05 -1.933e-05 6.5871e-06 0.00010826 1.1211e-06 -2.8665e-05 0.00015066 3.5997e-05 -1.4869e-07 -3.7389e-05 0.18082 3.282e-05 -1.055e-06 0.26388 0.00038341 -4.9801e-05 3.7557e-05 0.00092281 -1.0309e-05 -1.4797e-06 4.1255e-06 -3.3744e-07 -5.3886e-05 1.1666e-05 0.34672 -0.0012872 9.7041e-06 0.0014662 -3.7835e-05 0.27585 -0.00015935 0.00019254 -0.00018127 -5.0454e-06 0.00014011 0.00012343 -8.8712e-06 -0.00010779 3.1915e-05 0.26094 -7.8074e-06 -1.026e-05 3.524e-06 -8.5007e-06 -5.551e-06 -0.0015776 5.5074e-05 -0.00017854 -0.00014327 0.00085802 8.0468e-05 0.010976 -0.00069834 0.00028273
1.5714e-05 -1.3314e-05 1.7101e-06 -2.518e-05 9.412e-05 1.6734e-05 4.2062e-05 0.00011306 0.00047476 -1.0701e-05 -3.7186e-07 -3.8471e-07 -4.8901e-05 -3.396e-07 1.3318e-05 2.3587e-05 -4.3447e-05 8.9611e-06 4.4016e-05 -1.4964e-05 2.6666e-05 1.3806e-06 -0.00019718 -8.3516e-05 1.4416e-05 0.00011444 0.34003 8.8673e-06 0.00020616 0.16287 1.2665e-06 4.7433e-06 6.1063e-06 1.935e-05 0.0013303 -1.4567e-05 -2.1633e-05 -0.00016905 0.00057577 3.2844e-07 -4.1036e-05 0.0010155 1.5703e-05 0.0001012 -9.2994e-05 9.2643e-05 0.26389 0.00090518 9.3432e-05 1.0845e-05 2.9496e-06 -0.00011411 0.00044166 -0.00060269 7.6254e-05 0.0001596 0.0010137 -0.00047007 -1.4197e-05 0.00088823
4.4059e-07 -2.4816e-05 5.5046e-06 9.9917e-06 2.8504e-05 1.6504e-05 0.22793 5.6534e-05 0.36944 -6.357e-05 1.5046e-05 2.5162e-05 0.00058293 8.2943e-06 0.0002839 -2.1098e-05 -2.6652e-05 -9.5324e-05 0.0017522 -6.542e-05 -8.0353e-05 1.6183e-05 0.19126 7.3176e-05 -0.00025375 0.00013128 0.0010119 0.00067208 0.00015004 0.20549 5.1827e-05 -4.6408e-06 -0.00013732 0.00029442 0.41652 -6.2475e-05 -0.00039763 -0.00044085 0.00041596 -0.00017723 -0.00051615 0.0021254 -2.41e-05 -0.0020808 0.0051966 -8.2922e-05 0.0016341 0.0009725 0.00022598 2.9725e-06 -0.00010425 0.0016115 0.0002122 0.00033877 0.00036472 0.0033236 9.9344e-05 -0.00078371 -0.00023735 -8.9932e-05
4.9717e-05 9.9164e-05 1.0967e-06 8.7135e-06 -0.012271 4.4356e-05 0.0002583 0.00010226 0.0034858 4.7242e-05 -7.0405e-06 1.142e-06 -1.4365e-05 6.4376e-06 0.0004114 -2.0277e-06 -8.5529e-05 -4.3534e-05 0.0024167 0.00019051 -6.0772e-05 -5.5278e-06 0.00017756 -0.00056732 -4.2109e-05 -0.0004658 2.3091e-05 0.00082099 0.00011316 0.083529 7.2176e-05 3.3183e-06 7.3401e-05 -2.0576e-05 0.025154 -0.00011652 -3.4902e-05 -0.00015751 1.7452e-05 7.9276e-06 -3.2533e-06 0.0016694 0.00069294 -0.0001161 0.00019909 1.5785e-05 0.00049401 0.00046096 0.00010005 -3.1335e-05 -8.6694e-07 -0.00025998 -0.00011346 0.25195 6.3363e-05 0.00083029 -0.00051415 0.015477 -5.7901e-05 0.10272
0.080213 -1.8622e-05 -2.3573e-06 3.2436e-06 1.3654e-05 1.6702e-05 0.00013289 0.0002169 0.0017336 -6.004e-06 5.1435e-05 -2.6432e-07 1.069e-05 -5.2532e-05 0.0094999 -0.00012296 2.873e-05 -2.9758e-06 0.14683 -4.1516e-05 -0.00035018 9.1117e-06 6.1442e-05 0.00031093 0.00055701 0.00012051 0.00078264 0.23272 -2.458e-05 0.00028004 3.9123e-05 0.0003263 0.00060212 0.00013944 0.010491 -7.9332e-05 -2.2134e-05 -0.00020888 0.00027566 4.4636e-06 0.0010681 0.28746 -0.00014445 -9.0353e-05 -7.8091e-05 0.00015584 0.16008 4.1357e-06 0.00057659 -6.3795e-06 0.0011505 -0.00070784 0.01371 9.3228e-05 2.1093e-05 0.00014125 0.00046909 0.0024926 -1.2898e-05 -0.00010444
-1.328e-23 -2.6417e-23 3.2256e-23 2.2684e-22 -4.4396e-22 1.7289e-23 6.7494e-23 1.0122e-23 -1.2264e-22 -3.332e-23 -1.1883e-23 1.0769e-23 2.2793e-23 6.1541e-25 -3.9359e-23 6.6614e-22 -3.7642e-24 6.9754e-23 3.1374e-22 -1.1357e-23 -2.3821e-23 3.1857e-23 7.6036e-22 -5.9278e-22 1.1335e-21 -1.3466e-21 1.6827e-18 8.0048e-23 -1.5395e-23 -1.1151e-21 -1.7059e-23 -4.124e-24 3.8109e-22 -5.1944e-21 -4.3551e-22 9.1922e-23 1.8383e-22 1.3861e-21 -2.47e-21 -2.2095e-24 -8.9558e-24 -1.9863e-21 3.6079e-22 -7.4553e-23 6.6469e-23 -3.1286e-22 -1.809e-20 -4.1261e-23 -4.7099e-24 1.7006e-22 -1.785e-24 -6.9657e-22 1.3174e-20 3.6112e-20 1.6628e-22 8.4971e-22 -7.7303e-21 6.8182e-22 7.4717e-22 -6.8175e-20
0.28881 0.36388 9.5623e-09 -1.6159e-06 -9.7596e-07 -1.0369e-05 -1.7888e-06 6.3493e-06 1.3659e-06 5.5532e-06 -3.1702e-06 9.3581e-06 -2.1404e-05 -1.4578e-07 -4.1225e-06 1.4852e-07 0.38318 -1.0555e-05 1.4031e-05 -0.214 5.7063e-06 5.5809e-05 9.6718e-05 0.0016018 -2.7765e-05 -2.5432e-06 -9.7787e-06 3.1026e-07 3.4349e-06 -0.00026776 -0.32056 0.00011007 1.7961e-05 -5.0666e-05 -2.154e-05 0.36796 2.8126e-05 0.28962 1.3606e-05 9.1554e-06 -4.2687e-06 6.3697e-05 3.3475e-06 4.5015e-05 7.3631e-06 0.00042873 1.3642e-06 -8.5128e-06 2.3414e-05 -1.1636e-05 2.068e-06 -0.0027888 -4.4176e-05 1.3525e-05 0.0001495 3.8567e-05 1.4441e-05 2.1186e-05 -2.8187e-05 -4.682e-06
0.28881 0.36388 9.5623e-09 -1.6159e-06 -9.7596e-07 -1.0369e-05 -1.7888e-06 6.3493e-06 1.3659e-06 5.5532e-06 -3.1702e-06 9.3581e-06 -2.1404e-05 -1.4578e-07 -4.1225e-06 1.4852e-07 0.38318 -1.0555e-05 1.4031e-05 -0.214 5.7063e-06 5.5809e-05 9.6718e-05 0.0016018 -2.7765e-05 -2.5432e-06 -9.7787e-06 3.1026e-07 3.4349e-06 -0.00026776 -0.32056 0.00011007 1.7961e-05 -5.0666e-05 -2.154e-05 0.36796 2.8126e-05 0.28962 1.3606e-05 9.1554e-06 -4.2687e-06 6.3697e-05 3.3475e-06 4.5015e-05 7.3631e-06 0.00042873 1.3642e-06 -8.5128e-06 2.3414e-05 -1.1636e-05 2.068e-06 -0.0027888 -4.4176e-05 1.3525e-05 0.0001495 3.8567e-05 1.4441e-05 2.1186e-05 -2.8187e-05 -4.682e-06
0.15999 0.16037 -3.0698e-07 9.6657e-07 7.7087e-06 0.25582 2.0105e-05 -1.933e-05 6.5871e-06 0.00010826 1.1211e-06 -2.8665e-05 0.00015066 3.5997e-05 -1.4869e-07 -3.7389e-05 0.18082 3.282e-05 -1.055e-06 0.26388 0.00038341 -4.9801e-05 3.7557e-05 0.00092281 -1.0309e-05 -1.4797e-06 4.1255e-06 -3.3744e-07 -5.3886e-05 1.1666e-05 0.34672 -0.0012872 9.7041e-06 0.0014662 -3.7835e-05 0.27585 -0.00015935 0.00019254 -0.00018127 -5.0454e-06 0.00014011 0.00012343 -8.8712e-06 -0.00010779 3.1915e-05 0.26094 -7.8074e-06 -1.026e-05 3.524e-06 -8.5007e-06 -5.551e-06 -0.0015776 5.5074e-05 -0.00017854 -0.00014327 0.00085802 8.0468e-05 0.010976 -0.00069834 0.00028273
7.6341e-05 9.1679e-05 8.3348e-05 2.8914e-06 0.00011857 9.7766e-06 -5.7575e-07 0.23577 4.8745e-05 0.19523 -1.122e-05 1.6649e-06 2.5904e-05 -0.00029705 -1.5069e-05 4.7192e-06 -7.2213e-05 0.00047226 -1.1032e-05 0.00018115 0.00015658 -1.6867e-05 5.7437e-05 2.5753e-05 1.3065e-05 -0.00016912 0.25521 -4.6572e-06 4.6199e-05 0.00020216 -5.6127e-05 1.3919e-05 4.8026e-05 0.36494 -0.00018159 -0.00025044 2.1958e-05 -4.7532e-05 8.416e-06 -1.8758e-05 1.5432e-05 -0.00021078 -4.2437e-05 -0.00016837 0.0015518 -0.00026335 5.7498e-06 3.1065e-05 3.4155e-07 0.0010342 -6.5545e-05 0.00027464 0.30611 -0.010069 1.407e-05 0.00092833 0.00033696 0.051672 -1.2266e-06 0.014971
3.5382e-05 -0.00015861 0.00023614 -4.9827e-06 1.4742e-05 0.22938 0.00012891 -7.1322e-06 -4.7595e-05 0.24057 0.00025045 -6.8054e-07 0.00092792 -6.9751e-05 -3.7668e-05 0.00012313 3.1028e-05 -3.8359e-05 -6.8674e-06 -0.0004093 0.00028984 -2.4606e-05 8.4575e-05 -0.00013371 0.00069211 -1.5281e-07 -1.9967e-05 5.5155e-05 -0.0002225 8.3728e-06 -5.7426e-05 1.1659e-05 0.40189 -5.7334e-05 0.0019789 0.00088696 8.0582e-06 0.14526 -5.3824e-06 -0.00027983 0.35907 0.0016896 -1.4847e-05 0.00017051 -0.00087606 0.00086884 0.00010293 3.5312e-05 -1.5348e-05 -8.5149e-05 5.5605e-06 -0.00058861 0.0033528 -7.9232e-05 -0.00015891 0.0017543 -2.3336e-05 0.0067771 -1.6288e-05 0.00014226
1.1711e-06 -0.00013427 -3.5143e-05 1.5927e-06 4.4925e-05 -1.1314e-05 -3.8892e-05 0.00043741 0.00020614 -0.00025624 -7.1581e-06 3.319e-06 4.9442e-06 1.8696e-05 0.0002371 6.4223e-06 6.6216e-06 0.34357 0.00030974 -0.000233 -3.0347e-05 2.1054e-05 -3.8343e-05 2.0886e-05 -2.2236e-05 -1.5809e-05 0.00023162 1.0457e-05 -3.906e-06 5.4863e-05 -0.00029525 0.00057846 -5.3588e-05 0.4721 -4.9528e-05 -9.2084e-05 -1.2608e-05 -7.9735e-05 5.1669e-05 1.8071e-05 4.0066e-05 -0.00013147 2.336e-05 2.4737e-05 -0.00053026 8.1351e-05 0.00047361 -6.18e-07 0.001131 -0.00026496 1.4456e-05 3.6724e-05 0.0018563 -0.0010229 6.2552e-06 0.00027174 0.00096088 -0.018078 -2.0609e-05 0.0014049
0.20949 5.626e-05 -8.3568e-07 -8.8355e-07 -5.3889e-06 1.7265e-06 -3.2232e-05 7.5031e-06 -0.00022309 1.1981e-05 0.21103 -4.9416e-07 2.4785e-05 -1.6156e-05 1.1278e-05 0.00013457 -1.3395e-05 -5.2397e-06 -5.1191e-05 8.1574e-05 -1.2783e-05 -1.4203e-05 9.5864e-05 0.79257 0.27395 -5.9116e-05 -0.00014951 -1.7141e-06 -2.5711e-05 -0.00030456 9.3987e-05 2.9569e-06 0.29265 -1.1895e-05 0.23985 -3.1395e-05 3.1453e-05 2.1555e-05 0.00035422 -2.4344e-05 0.0014187 0.00053602 -1.0971e-05 0.00055024 -0.0016436 -1.0863e-05 0.00012688 -1.2415e-05 9.3604e-06 5.3559e-06 -4.2153e-05 -0.76732 0.27647 -0.00071403 -1.6362e-05 0.00032514 8.5984e-05 -2.469e-05 -2.3229e-06 0.00088902
3.2029e-05 -7.5883e-06 -3.2691e-07 -7.9085e-06 2.1992e-05 1.0957e-05 2.0505e-05 0.00035708 -4.9474e-05 -9.2132e-06 -4.3981e-05 3.1171e-06 1.0525e-05 4.3908e-06 -1.1933e-05 -4.8898e-05 -1.7877e-06 3.2343e-06 2.3156e-05 -7.6327e-06 2.0571e-05 2.7433e-07 -8.9634e-06 -7.9303e-05 -8.9051e-06 3.83e-05 0.67597 5.9522e-06 1.227e-06 -1.2077e-05 5.7127e-06 8.862e-06 -0.00020909 0.00081268 -0.00029432 1.0694e-05 -1.6644e-05 -0.00018154 -5.7388e-05 1.9099e-06 -3.5108e-05 0.0017114 -8.7723e-05 2.0023e-05 -0.00016082 0.00010341 0.0010953 -6.9439e-06 -1.6083e-06 1.248e-05 0.0019873 0.00013319 0.4236 -5.6325e-05 1.6488e-07 -3.5287e-05 0.00083173 -0.00035901 -9.9052e-06 0.00010693
0 0 0 0 0 0 0 0 0 0 0 0 0 0 0 0 0 0 0 -0 0 0 0 0 0 0 0 0 0 0 -0 0 0 0 0 0 0 0 0 0 0 0 0 0 0 0 0 0 0 0 0 0 0 0 0 0 0 0 0 0
1.8407e-05 -3.2746e-05 9.2168e-08 4.3413e-05 0.25073 4.5166e-05 0.00029247 1.2664e-05 -2.9284e-05 0.00010545 -1.4597e-05 3.4754e-06 -3.1907e-05 -4.2104e-05 0.0073126 -7.8868e-07 -8.2829e-06 0.36079 0.00087661 -5.4195e-05 0.00011562 7.3632e-06 0.17572 -0.00010448 -0.00010468 4.1834e-05 0.00024711 3.7018e-06 0.00023594 0.18407 -2.6674e-05 1.4849e-07 3.501e-05 -4.2897e-05 0.0010541 5.403e-06 -0.00013206 -0.00030448 -2.4077e-05 -1.1249e-05 0.0011733 -2.0793e-05 3.7828e-05 0.00037224 -3.5356e-05 6.4185e-05 0.29722 0.00096757 0.00016001 -7.1968e-06 -1.9113e-05 -0.00027091 -3.4271e-05 -0.107 0.00017709 0.00034999 -0.00014002 0.002276 -0.00015624 0.16355
0.10554 -7.3043e-05 5.4524e-08 9.5939e-07 1.9697e-06 -1.449e-05 4.5936e-05 0.00041135 -1.2302e-07 3.0586e-07 5.5059e-06 3.8988e-06 -1.8764e-06 -1.3741e-06 -4.7576e-06 -2.5668e-05 -5.7404e-07 0.25143 -5.8146e-07 -0.00011423 6.9046e-06 6.3476e-06 -7.0991e-05 0.00059744 -2.5927e-05 -8.7164e-06 -0.00010594 -2.8057e-06 -4.9871e-06 0.00081273 3.8635e-05 9.7171e-07 0.00016673 -5.1784e-05 -3.8471e-05 -8.1541e-07 -6.4066e-05 -5.1247e-05 -6.4619e-05 6.7251e-06 -7.9196e-05 -0.0005396 1.8396e-05 -0.00010394 -3.0856e-06 2.8822e-05 2.7378e-05 4.8936e-08 2.2887e-05 -6.4625e-06 -6.9753e-05 -0.00081056 0.28115 -0.00014517 9.0059e-06 -1.0198e-05 0.0020674 0.00022464 -0.00015724 0.00018411
-5.7185e-06 -4.8379e-06 3.1071e-06 -3.5785e-06 -1.5923e-05 -3.2041e-05 0.0007977 -6.4772e-06 -1.0893e-05 -2.7583e-05 1.3727e-06 1.9383e-05 0.00057952 6.0487e-06 1.2856e-05 -9.2311e-07 1.1215e-05 -7.524e-05 -2.4802e-06 -8.878e-06 1.7568e-05 4.349e-06 0.0031972 0.00012517 -0.00015382 1.2626e-06 -1.6159e-06 1.0617e-06 -5.6542e-05 0.0090851 2.042e-05 -4.9795e-07 -4.7172e-05 1.8159e-05 0.0049749 -3.8894e-05 -4.875e-05 -0.00036278 -0.00037984 -6.5337e-06 -0.00022363 -1.5145e-05 -3.5051e-05 -0.0025312 0.0038588 -0.00018655 -2.1336e-05 -0.00011936 2.151e-05 3.1223e-06 -6.0062e-06 0.00038159 1.5581e-06 0.00023999 0.00023471 0.0027257 -0.00029681 -0.00078743 -0.00010154 -0.00022918
-1.2085e-06 1.1946e-05 -6.6344e-07 -2.1408e-06 0.37368 -9.0206e-06 2.1482e-05 -4.4455e-05 0.00033261 7.3696e-07 -1.0561e-07 -1.5429e-05 9.3265e-06 1.5027e-06 -2.1782e-06 1.9443e-06 -3.9299e-06 6.539e-07 2.8367e-06 1.3503e-05 6.6477e-06 2.8948e-06 0.00010643 -0.00052223 0.00021509 0.70711 0.25597 -2.9869e-06 -7.6237e-06 -9.9709e-06 1.9604e-05 5.3654e-08 -1.5673e-06 0.00025751 0.00093199 -6.0166e-06 -0.0001987 0.11854 0.28023 4.9612e-06 -3.5353e-05 0.40253 2.7368e-05 -3.2e-05 0.00025313 -2.2909e-06 0.00033508 -1.4198e-05 -1.1904e-05 -9.1971e-06 -1.5172e-05 -0.0015281 -0.00027852 0.25803 1.5401e-05 -2.0898e-05 0.36921 -0.0004033 -6.9893e-07 0.44393
1.4839e-05 -4.9633e-05 3.561e-06 3.4195e-06 1.2892e-05 3.9729e-05 -1.8785e-05 -2.7073e-05 0.32374 -6.0495e-06 -2.4859e-06 1.921e-07 7.7178e-05 -4.7146e-07 0.00020762 -3.3349e-06 -2.5807e-05 3.4034e-05 0.00028815 -7.4828e-05 -2.8836e-05 3.3864e-06 -8.0619e-06 -5.4537e-05 1.6319e-05 1.5895e-06 5.7287e-06 7.7083e-06 0.00022645 0.17275 -4.7273e-05 0.00057564 9.9993e-06 7.233e-05 0.00025158 -8.1043e-06 -5.67e-05 -0.00020463 0.00010977 3.7444e-05 3.8358e-05 -0.00011564 0.49103 0.00057593 0.00010422 5.9736e-05 0.0012305 0.00096425 0.44454 1.4287e-06 9.9702e-06 -0.00010605 0.00018665 2.8943e-05 7.9506e-05 0.00065099 -8.9458e-05 0.00042246 -1.256e-05 0.00014287
1.7447e-05 1.7094e-06 -5.806e-07 -1.7672e-06 -5.6058e-06 1.4098e-07 4.8849e-05 0.50802 1.6346e-05 1.8204e-06 -1.1368e-06 3.8189e-07 6.5847e-05 -4.8618e-07 6.8831e-05 -3.2642e-06 6.8943e-07 -7.189e-06 5.9344e-05 5.3302e-06 -1.713e-05 -5.0112e-07 3.0975e-05 1.3808e-05 -1.0367e-05 2.9606e-06 -2.309e-05 0.0002483 -2.7866e-05 9.7569e-06 1.196e-05 3.052e-08 -5.9118e-06 -7.1083e-05 7.7562e-06 -9.0338e-06 -7.5739e-06 -4.1336e-05 -1.3698e-06 9.8973e-06 3.427e-05 0.0035215 0.001602 -2.1535e-05 0.00031097 2.0332e-05 0.00029079 -2.9462e-06 -8.8504e-06 -3.3967e-05 4.1577e-07 4.9149e-05 0.0021054 6.7798e-05 6.4511e-08 1.5546e-05 -0.00045995 0.0023244 9.8449e-05 -9.03e-05
4.7031e-06 -3.5215e-05 -1.4691e-05 2.0517e-05 0.16275 2.6191e-05 -8.6671e-05 -1.2676e-06 -1.1363e-05 0.0030649 1.192e-06 -1.4313e-05 -5.6745e-06 5.0955e-05 -4.0489e-05 -1.471e-05 -3.0168e-05 0.46662 1.8268e-05 -5.6966e-05 0.00038142 -0.0002728 0.22803 -2.2029e-05 4.693e-06 6.1489e-05 0.000158 2.8197e-06 0.00013755 0.11928 -7.7331e-05 -3.2739e-06 2.8185e-05 -0.0020554 -9.7342e-05 -0.00030332 2.8871e-06 0.0001348 -0.00023198 -0.00011866 -7.6768e-05 -0.00013886 2.1958e-05 0.00029042 -8.7911e-05 -0.00063943 0.19312 0.0007421 8.6813e-05 -0.00026159 -4.3324e-06 -0.00011631 -0.00011782 -0.072249 0.0001301 0.0001111 -0.00026342 0.33232 5.4816e-05 0.11111
-1.7107e-06 -2.1806e-05 -4.9382e-06 -2.7217e-07 2.4384e-06 1.7228e-06 4.6305e-06 1.6442e-06 -4.4298e-06 1.1892e-05 0.76796 6.2673e-08 -2.4369e-05 2.9331e-06 -3.0575e-06 7.1761e-06 1.1894e-05 -2.6258e-05 -9.2713e-07 -3.8409e-05 -3.2877e-06 4.273e-07 2.1174e-05 -0.00012809 3.1467e-05 -8.5576e-07 4.2406e-07 -3.2071e-06 3.1322e-06 -5.936e-05 -2.9996e-05 1.6114e-05 0.00018373 4.1493e-06 -0.00010565 2.2466e-05 -2.2983e-06 -2.2904e-06 1.854e-05 -0.0003551 0.46631 -3.399e-05 2.3803e-06 0.00025735 6.1661e-05 -1.0803e-05 1.3458e-05 1.0363e-05 1.6007e-06 3.01e-06 -9.302e-07 -5.7026e-05 -9.2665e-05 2.4708e-05 5.0852e-06 0.00026845 -7.4724e-06 -0.00012897 3.7473e-07 -2.5355e-05
-7.8201e-06 -0.00016346 -5.8389e-07 -4.0674e-07 0.41119 0.39007 2.4061e-05 -1.0634e-05 -3.4959e-06 3.5299e-06 -1.3793e-06 -2.7422e-06 -4.2411e-06 1.6884e-06 -4.3906e-06 1.3162e-06 -9.4694e-06 -1.4452e-05 2.1542e-06 -0.00021646 1.5927e-05 -9.2889e-06 3.4706e-05 -6.5339e-05 -3.727e-06 -6.2213e-06 -3.1845e-05 -7.5614e-07 -3.1264e-06 1.0647e-05 -0.00029977 8.3311e-06 7.5234e-06 -3.63e-05 -6.1884e-05 0.00011395 -1.6705e-06 0.247 1.4088e-05 -4.6757e-08 5.5781e-06 3.4474e-05 -5.4697e-06 -1.6078e-06 7.0569e-06 -8.6687e-05 -4.3871e-05 7.158e-07 -1.229e-05 -3.1634e-05 -3.2992e-05 -0.00035885 -1.4481e-05 -0.17507 2.7167e-05 3.2615e-05 9.0806e-05 -0.00013313 -2.9962e-05 0.26777
-3.7512e-06 6.504e-05 -2.3065e-06 2.5252e-06 -9.3123e-06 -1.0762e-06 0.00045135 -1.8286e-07 -0.00010035 3.6361e-05 6.8886e-06 2.8246e-07 -1.6455e-06 -9.3239e-06 3.9399e-08 4.1644e-06 -2.9003e-05 -0.00013441 -1.5744e-06 0.00014076 7.3491e-06 -3.105e-05 0.0014167 -4.769e-05 -6.5166e-06 1.6492e-06 6.857e-07 -6.2763e-07 -2.0116e-05 -1.7936e-05 8.2579e-05 -8.5738e-07 -3.0059e-05 -0.00010251 0.0026262 -0.0001874 -0.0001669 2.4791e-05 -0.00024423 0.99984 0.0050986 1.5077e-05 -3.6891e-06 -1.8846e-05 -2.8141e-06 -4.1022e-05 -1.4326e-05 -8.2739e-07 2.4773e-06 -5.1936e-06 -1.1813e-05 2.2025e-05 -1.5113e-05 -2.3015e-05 5.5034e-05 4.2241e-06 -0.00018421 0.0049675 -0.00024242 4.3839e-05
1.6313e-06 -0.00014929 1.6739e-06 4.1079e-05 -2.9893e-07 0.2803 2.2674e-05 1.2293e-05 1.9854e-05 -9.4384e-06 -7.6012e-06 -3.4876e-06 2.3272e-05 2.8408e-06 9.6766e-06 3.6909e-06 -2.7455e-05 -2.1458e-05 0.00024135 -0.00018573 0.00069198 6.3236e-07 0.00012301 -8.9619e-05 0.00045197 -8.1732e-06 -1.1581e-05 8.5906e-07 0.00018969 0.21549 -0.00028364 1.7709e-05 -3.9603e-05 -2.6015e-05 0.00010492 6.8567e-05 2.8284e-07 0.001256 0.0030575 9.3834e-07 0.0001463 8.1964e-06 -3.2876e-06 0.58009 -4.3646e-06 -4.435e-06 0.0024838 0.58046 0.00022655 -7.5936e-06 2.7871e-06 -0.00022307 -1.1667e-05 2.9136e-05 9.3013e-05 0.48448 -0.00018848 0.00041207 -4.5113e-05 0.00012904
3.379e-05 -1.4966e-05 1.7926e-06 -1.6014e-06 -1.0051e-05 -3.729e-06 0.00053101 -3.9045e-06 -7.7491e-06 -2.5903e-05 1.9566e-07 9.677e-06 0.00035258 6.4054e-06 0.0006228 -4.9071e-06 1.1104e-05 -4.5492e-05 0.00082457 -1.6159e-05 -0.00011896 -1.0506e-05 0.0019264 7.8442e-05 -0.00012003 -3.4931e-06 -2.3857e-05 1.953e-06 -4.0905e-05 0.005905 9.2945e-06 -3.9009e-07 -4.5971e-05 1.1374e-05 0.0030628 -2.3509e-05 -4.0558e-05 0.0006113 -0.00022106 -4.1015e-06 -0.00012894 -1.988e-05 -2.0866e-05 0.015683 0.0023531 -0.00018448 0.00060531 0.0044587 -1.5805e-05 -4.3638e-06 -3.4492e-06 0.00025176 0.00035663 0.00013666 0.00013332 0.004035 -0.00022588 -0.00044786 -0.00012075 -0.00013849
6.7732e-05 -0.00015619 -3.872e-06 9.3797e-07 -3.1016e-07 2.8381e-05 1.5433e-05 1.5391e-06 0.0001426 -6.9418e-05 -0.00014072 -4.2084e-06 -2.4317e-05 2.1355e-05 0.00013774 1.1613e-05 0.00034523 -8.0541e-06 0.00019513 -0.00035927 0.00011044 -4.1151e-06 -0.00011383 -3.9814e-05 6.1078e-05 -3.3851e-06 8.8032e-06 1.0458e-06 3.6142e-05 0.00060859 -0.00028701 0.00040879 -9.2641e-05 0.00010954 -0.00068191 0.00023145 -1.1757e-05 0.00048366 -0.00014452 -0.00039685 0.53965 -7.2722e-05 1.3052e-05 0.00076362 0.00011223 7.605e-05 0.00019535 -0.00010806 0.00070056 -1.3749e-06 1.1762e-06 -7.964e-06 2.2862e-05 5.5259e-07 -0.00010305 0.28224 3.801e-05 -7.6143e-05 -6.2217e-05 5.0042e-05
7.5062e-06 -0.13651 4.8178e-07 1.2269e-06 -8.231e-07 1.1698e-05 -7.0477e-06 6.6465e-06 -7.7433e-06 0.35949 9.9818e-07 8.7495e-06 -1.5118e-05 -1.307e-05 -9.0343e-07 2.2199e-05 0.28805 -1.3693e-05 1.1674e-05 -0.30999 2.4828e-06 5.72e-05 0.25192 2.1264e-05 1.5906e-05 -2.7257e-06 -3.8869e-06 1.3105e-06 1.3177e-05 -0.00015812 -0.16797 6.7438e-05 6.6269e-06 -3.2744e-05 -1.9685e-05 0.27033 5.8904e-05 0.21671 1.2495e-05 -2.1224e-05 5.6576e-05 7.9532e-08 3.4295e-06 7.1847e-05 -3.9914e-05 0.35097 2.7123e-05 7.3848e-05 1.8142e-05 1.5902e-06 2.0749e-06 -5.4074e-05 -3.6279e-05 -1.5181e-05 0.00015538 -3.4731e-05 -3.084e-05 -0.0003635 5.6777e-05 2.1557e-05
6.9338e-06 -0.1513 5.8682e-07 7.8605e-07 -2.5447e-07 1.3116e-05 -7.6745e-06 7.2752e-06 -5.9066e-06 0.00011416 2.2849e-07 8.2521e-06 -1.7943e-05 7.3042e-06 -1.6771e-06 0.75817 0.31922 -2.8783e-05 1.2419e-05 -0.3435 5.4724e-06 6.083e-05 0.2792 3.0183e-05 4.1848e-05 -2.6922e-06 -2.0515e-06 2.032e-06 1.3651e-05 -0.00014099 -0.18619 7.7563e-05 -1.9598e-05 -4.8778e-05 1.6722e-06 0.29969 4.5538e-05 0.24016 1.4634e-05 -1.7643e-05 -9.8388e-06 1.3692e-05 3.0812e-06 8.0278e-05 -6.3468e-05 0.38882 2.5024e-05 8.5607e-05 2.5918e-05 2.3809e-06 3.9709e-05 -7.0263e-05 -8.9184e-05 -9.5952e-06 0.00017307 -5.2536e-05 -4.3595e-05 7.7322e-05 3.4887e-05 1.0904e-05
-1.4679e-06 5.5538e-05 0.51847 1.8495e-06 0.00021447 -2.5795e-06 -5.7793e-06 3.294e-05 6.0327e-05 0.00072939 -3.2652e-06 9.8218e-08 4.9534e-06 -0.00011837 1.1642e-06 -9.4936e-06 -1.8691e-05 0.00070246 -8.6602e-08 0.00012778 2.0532e-06 -4.2687e-05 -0.00010504 2.6675e-06 -1.1218e-05 -0.00024609 0.00024082 -1.0052e-05 6.3053e-06 8.0066e-05 1.598e-05 1.4857e-06 -0.0001689 0.019258 -0.000141 -7.8727e-05 1.7765e-06 -6.091e-05 2.1852e-05 -2.9474e-05 -5.9379e-05 0.26035 2.5073e-05 -2.2693e-05 -1.4742e-05 -0.00019738 -5.6922e-05 7.2582e-06 -4.4277e-06 0.0016751 -1.8385e-05 2.8502e-06 0.00035402 -0.013315 7.3727e-06 2.3079e-05 0.00019699 0.076638 5.8429e-05 0.019543
5.26e-06 -4.1155e-06 6.8663e-08 -5.0018e-07 0.00014669 3.7984e-05 0.1019 0.14789 0.00026003 0.00010003 -8.7129e-06 -3.196e-06 -8.2772e-06 -1.8145e-05 3.9032e-05 -2.5463e-05 6.8532e-07 0.00014261 2.702e-05 -1.9929e-06 3.3468e-06 3.9635e-06 -6.1535e-05 7.8091e-06 -1.7845e-05 -4.4386e-05 0.00066896 0.00018825 1.3811e-06 0.00054392 -1.1195e-05 2.4209e-06 -0.00024124 0.0015047 0.00083056 -6.3142e-07 -0.00028252 -1.2449e-05 0.00021253 -3.305e-05 9.772e-06 0.0018817 -1.7554e-05 -9.318e-05 0.002146 1.6767e-05 0.00024611 -1.0429e-05 7.9748e-06 0.00023741 3.5562e-05 0.0001035 0.0046199 -0.006405 1.7511e-05 -1.198e-05 0.23192 0.0017365 -0.00012394 0.0094629
2.7541e-06 -6.6236e-06 -1.3324e-07 1.0919e-06 2.1556e-07 7.4636e-08 3.5829e-05 1.5329e-06 -5.5206e-06 1.9144e-07 -1.104e-06 -1.3049e-06 3.2098e-05 1.6826e-06 6.7111e-07 -3.4126e-07 1.1317e-05 3.465e-05 -1.6496e-06 -1.6098e-05 5.9943e-07 -3.9457e-07 -5.3907e-05 -3.5744e-05 -9.0147e-07 -5.3837e-08 -3.9637e-06 0.00013872 0.41359 1.6591e-05 -9.2763e-06 -6.0897e-07 -4.3031e-06 -3.9028e-06 0.00041162 2.6396e-05 1.498e-05 -5.5967e-05 1.3384e-05 -5.2528e-07 -1.5363e-06 4.7109e-06 -5.7962e-06 -1.4541e-05 2.3367e-05 1.0295e-05 2.1581e-06 -2.5772e-05 4.3096e-05 1.6357e-06 6.0105e-06 -9.2411e-06 3.1196e-07 4.0533e-06 -3.5131e-06 -3.7787e-05 5.4906e-05 -1.9971e-05 4.4603e-05 -1.4205e-05
0.16589 1.2825e-05 5.4412e-06 -1.7757e-06 -0.029482 -7.4798e-05 -7.2332e-06 -1.8004e-05 -1.7055e-05 -8.4899e-06 3.2719e-06 -2.359e-06 -1.8394e-05 -4.9865e-06 8.8529e-06 6.0221e-06 -9.169e-05 8.457e-06 4.2794e-05 -2.039e-05 -6.2942e-06 1.0683e-05 -3.1556e-05 -0.0003963 0.0002665 0.00018088 6.5684e-05 1.7591e-06 0.00023179 0.20167 0.00011626 1.2075e-06 2.7618e-05 4.5322e-05 -3.2902e-05 -2.0541e-05 4.6711e-05 -0.00020861 0.40493 4.7579e-06 -5.3055e-05 0.28226 2.1156e-05 0.00049174 9.6616e-05 7.3229e-05 0.0013172 0.0011144 0.0002599 1.0481e-06 2.8865e-05 -0.0045599 -0.00044553 0.59665 8.0698e-05 0.00047538 0.00035917 -0.0002876 5.5396e-05 0.26676
1.4574e-07 -8.5662e-05 9.4647e-07 0.19327 1.4117e-05 0.15915 2.2635e-05 9.767e-06 -5.5548e-05 -6.4212e-07 1.0812e-05 -1.2266e-06 2.0069e-05 7.6729e-07 0.39617 1.7487e-05 9.0091e-06 -1.0093e-05 0.39229 -0.00010507 0.1867 4.3362e-06 0.11698 -4.1407e-05 0.26204 -6.1865e-06 0.00013964 -1.5492e-06 0.00011256 0.12247 -0.00015392 1.2352e-05 -6.3945e-05 -1.7423e-05 -0.00012447 1.0553e-05 1.0495e-05 0.1013 0.2398 -5.654e-06 8.1067e-05 -2.9605e-05 -3.4151e-06 0.33001 8.1448e-05 2.0106e-05 0.20039 0.32969 5.1357e-05 -1.71e-05 4.5686e-05 -0.00023256 0.0001871 1.1711e-05 7.5546e-05 0.27555 0.00019719 0.0001846 -5.1504e-05 3.5037e-05
2.3406e-05 -0.0014458 1.2154e-05 -8.6071e-07 -2.4282e-05 -1.1022e-05 0.14201 0.00064994 -1.1236e-05 -5.8309e-05 2.3608e-05 2.4286e-05 0.3818 -1.5726e-05 -1.7399e-05 -8.8096e-06 0.0028745 -5.7911e-05 -4.8351e-05 -0.0032367 0.00025167 -3.8105e-05 0.11902 -9.9786e-05 3.9495e-05 -9.0656e-06 8.066e-06 1.3936e-06 -0.00076545 0.13836 -0.0011703 -3.9303e-05 -1.1069e-05 4.4975e-05 0.0038419 0.0018501 -0.00015757 0.0012037 -0.00034177 -6.1075e-05 -5.9455e-05 0.00071352 -5.2102e-05 -0.0021821 0.33565 0.00051867 0.00042159 0.00065749 -0.00020621 -3.6646e-05 -6.0346e-05 -0.00076451 1.2335e-05 -0.00015521 -0.00050326 0.0048404 -0.00025038 0.00795 -7.0535e-05 0.00097485
5.2963e-07 -1.5015e-05 -6.4433e-07 1.6679e-06 -4.0051e-06 -1.3392e-06 -5.47e-05 7.8847e-07 5.6266e-06 -1.5481e-05 1.0692e-07 -5.3194e-08 -3.4068e-05 -4.2672e-05 2.2975e-06 6.1947e-07 4.9152e-06 0.32867 7.7029e-07 -3.1054e-05 -3.1964e-06 -1.0684e-06 -0.00016511 -1.9332e-06 8.8039e-07 2.7252e-06 2.0318e-06 0.000115 0.00036104 -2.5366e-05 -1.8392e-05 -3.808e-06 3.0515e-06 -0.00016275 -1.3062e-05 4.5671e-05 4.7998e-06 -1.02e-05 2.9339e-05 4.7735e-06 -4.6988e-05 8.0326e-06 -8.2912e-08 1.4233e-05 -7.3731e-06 7.3295e-05 2.741e-05 6.3115e-06 2.2657e-05 -6.7165e-06 4.264e-06 -3.4857e-06 -7.8745e-05 2.8165e-05 -2.6934e-06 1.7218e-05 9.2752e-07 -0.0001397 4.2961e-06 -3.4312e-05
-8.2317e-07 -1.2991e-06 -3.9782e-07 -4.3738e-08 1.4943e-06 -7.8357e-08 3.5841e-05 0.00068901 7.9985e-07 -3.7987e-06 -7.8997e-06 4.6373e-06 2.5291e-07 1.1832e-06 1.0239e-06 -1.8681e-05 1.9587e-08 -1.3369e-08 2.7502e-07 -1.6209e-06 -2.0578e-07 4.1541e-06 -3.4752e-07 3.6385e-05 -3.4939e-05 -1.1204e-05 0.00058744 -2.2189e-06 -9.6237e-07 3.4056e-06 -4.7246e-06 2.9042e-06 -0.00012755 0.0012201 -1.3981e-05 1.3474e-06 -4.2631e-05 -6.4453e-05 -3.0969e-05 3.4743e-07 9.8744e-06 -0.00017658 4.9933e-06 1.1773e-05 -5.9905e-05 3.3614e-05 -3.7433e-05 -1.2432e-07 2.6358e-06 -1.8103e-05 9.8915e-06 0.00010718 0.0032316 1.2889e-05 1.1819e-06 6.0553e-07 0.0020014 -0.00061435 -9.1509e-05 -3.8594e-05
0.15905 0.20061 6.355e-07 6.6949e-07 -4.2639e-07 -8.4935e-07 3.0792e-05 2.1318e-05 2.7037e-06 0.26484 -1.4213e-06 0.51082 -9.4569e-06 0.33803 -7.4344e-08 8.6772e-06 0.21091 3.9304e-06 7.7371e-06 -0.11742 -5.044e-06 0.37853 0.18557 0.0008935 -1.7151e-07 1.4305e-06 -4.249e-06 6.111e-07 7.9231e-06 -0.0001421 -0.17621 3.6901e-05 3.2545e-05 -1.4138e-05 -3.7672e-05 0.20254 0.00027103 0.15962 -3.1534e-05 -6.9497e-06 1.8796e-05 2.9087e-06 -2.8599e-06 4.8591e-05 -3.2047e-05 0.2585 1.8672e-05 4.8744e-05 1.372e-05 7.859e-06 6.0379e-06 -0.0016043 -1.2092e-05 -2.4785e-05 3.5215e-05 -2.6457e-05 4.2438e-05 0.00098589 0.46313 2.3853e-05
1.5714e-05 -1.3314e-05 1.7101e-06 -2.518e-05 9.412e-05 1.6734e-05 4.2062e-05 0.00011306 0.00047476 -1.0701e-05 -3.7186e-07 -3.8471e-07 -4.8901e-05 -3.396e-07 1.3318e-05 2.3587e-05 -4.3447e-05 8.9611e-06 4.4016e-05 -1.4964e-05 2.6666e-05 1.3806e-06 -0.00019718 -8.3516e-05 1.4416e-05 0.00011444 0.34003 8.8673e-06 0.00020616 0.16287 1.2665e-06 4.7433e-06 6.1063e-06 1.935e-05 0.0013303 -1.4567e-05 -2.1633e-05 -0.00016905 0.00057577 3.2844e-07 -4.1036e-05 0.0010155 1.5703e-05 0.0001012 -9.2994e-05 9.2643e-05 0.26389 0.00090518 9.3432e-05 1.0845e-05 2.9496e-06 -0.00011411 0.00044166 -0.00060269 7.6254e-05 0.0001596 0.0010137 -0.00047007 -1.4197e-05 0.00088823
0.16418 0.20709 5.8871e-07 7.3856e-07 -7.7706e-07 -2.4677e-06 -4.9443e-06 5.898e-06 -2.558e-05 0.27338 -1.6304e-06 -2.791e-06 -9.6022e-06 0.34892 -2.201e-07 7.8556e-06 0.21773 -2.8985e-06 8.4453e-06 -0.12116 -5.2441e-06 0.39075 0.19154 0.00091949 3.4741e-07 -4.0951e-06 -5.3865e-06 -6.1141e-07 7.9404e-06 -0.00014906 -0.18186 4.9648e-05 3.3215e-05 -1.404e-05 2.0739e-06 0.209 0.51291 0.16476 3.1869e-05 -9.5744e-06 1.7966e-05 1.0218e-05 4.5625e-08 5.2282e-05 -1.042e-05 0.26684 2.0185e-05 5.0846e-05 2.2442e-05 6.8666e-06 7.3016e-05 -0.0016172 -1.3586e-05 -2.8509e-05 3.6848e-05 -2.6339e-05 -0.00036004 0.0010025 0.00033205 3.6455e-05
-5.8856e-07 -0.00016642 -4.6201e-05 -1.3779e-05 -7.7224e-05 -2.9689e-05 7.0939e-06 2.7272e-05 -1.5454e-05 -0.0001525 6.4336e-07 4.7287e-06 1.5946e-05 2.7622e-05 -3.8193e-05 2.0845e-06 -1.2353e-05 -0.00051267 1.6504e-06 -0.00028003 6.1422e-05 -2.6231e-05 4.3999e-05 1.9947e-07 2.7133e-05 4.3434e-06 -2.905e-05 5.2177e-06 -6.4189e-06 0.00015753 -0.00038682 2.1393e-05 5.6832e-05 0.62713 -6.1366e-05 -0.0001513 1.5275e-06 1.3221e-06 -0.00016163 -1.644e-05 -4.8354e-06 -8.0967e-05 -7.2612e-06 6.7476e-05 -0.00059611 1.7421e-07 0.40382 -1.803e-05 -0.00016101 -0.0003811 1.6819e-05 -2.4598e-05 -6.0941e-05 -0.00011837 2.9088e-05 -9.9334e-05 -0.00017334 0.085238 -1.1026e-05 0.00056359
-1.3881e-06 2.9842e-05 -8.2216e-08 0.23474 1.6173e-05 -9.3441e-06 1.2507e-05 3.1539e-06 -8.1589e-05 -3.0166e-06 1.916e-05 -3.3792e-06 9.2327e-06 4.6187e-07 0.4813 1.7633e-05 4.5861e-06 5.9853e-06 0.47619 6.8913e-05 0.22637 1.2294e-05 0.14225 1.4451e-05 0.31784 1.1515e-06 0.0001933 -2.8297e-06 3.8252e-07 0.00015337 3.4965e-05 3.7277e-06 -5.6765e-05 -2.551e-06 -0.00022142 -7.6569e-05 9.782e-06 0.12297 0.28888 -7.5578e-06 -2.3632e-06 -4.6647e-05 -3.8198e-06 0.00044193 0.0001006 -3.3531e-05 0.23985 4.6055e-05 -0.00012498 -2.3542e-05 5.3163e-05 -0.00012801 0.0002314 -2.958e-06 5.6387e-06 0.00053668 0.00037495 -5.131e-05 -4.4019e-05 -5.0475e-05
0.17182 0.26548 3.0777e-07 6.6365e-07 3.623e-06 -0.00023575 1.7935e-05 4.3718e-06 -1.1016e-06 2.8271e-05 -1.2639e-06 3.0906e-05 7.5119e-05 4.7537e-05 -1.1063e-06 1.4981e-05 -0.033602 -6.2371e-05 -4.4943e-06 0.50596 4.4881e-06 2.2301e-05 0.20051 0.00096814 2.8317e-05 -5.5434e-07 -4.6236e-06 8.1933e-07 7.5881e-06 9.2532e-06 0.46651 0.66037 2.9599e-05 -0.0004821 8.8743e-06 0.055805 -2.8657e-05 0.17251 2.7335e-05 -6.1077e-06 1.86e-06 -1.0339e-05 4.5538e-05 0.00010374 -2.6036e-05 -4.5891e-05 -1.2238e-07 4.7353e-05 0.53319 -5.0636e-06 6.145e-07 -0.0017252 4.3811e-05 -2.9708e-05 0.00014742 -0.00012491 -3.9449e-05 -0.00091243 -6.3183e-05 9.5064e-06
0.13213 0.25046 -1.1008e-06 0.25468 -4.9983e-06 2.6177e-05 1.9937e-05 5.0387e-06 8.2239e-06 -5.9536e-05 -0.00014917 1.5788e-06 3.5553e-05 8.1214e-06 -0.00024534 5.5258e-05 -0.0011967 4.3196e-06 0.00010982 0.09281 0.24589 1.3424e-05 4.1129e-05 0.00050538 0.37388 -1.87e-06 0.00019387 1.6066e-06 4.5491e-05 0.00019654 -0.043526 4.5676e-06 0.37781 6.9487e-05 -0.00024172 0.0026079 -2.0374e-05 9.715e-05 -0.0013327 8.6691e-06 -7.4143e-05 -3.1459e-05 -4.1252e-06 -0.00065071 -0.0020163 0.00010332 0.26263 9.7869e-05 -9.9357e-05 -4.7674e-05 2.0664e-05 -0.0009121 -0.00026722 0.00011247 5.0305e-05 0.001304 2.4459e-05 0.00013567 -8.3479e-05 -0.00010568
0.13213 0.25049 -1.1847e-06 0.25466 -6.2808e-06 1.8123e-05 2.0642e-05 4.7873e-06 7.7757e-06 -6.9024e-05 -0.00014832 -3.0799e-06 3.6534e-05 9.7368e-06 -0.00021589 5.4103e-05 -0.0012242 8.0569e-06 -0.00010907 0.092884 0.24593 2.1519e-05 0.00028367 0.00050856 0.37369 1.416e-06 0.00021089 1.2213e-06 3.9512e-05 0.00020893 -0.043497 5.5847e-06 0.3778 7.0214e-05 -0.00023938 0.0025622 -2.3381e-05 0.00093346 -0.0016877 8.6237e-06 -7.4067e-05 -3.6914e-05 -6.2283e-06 -0.0010082 -0.0020178 3.7131e-05 0.26059 5.8707e-06 -0.0001331 -5.6359e-05 2.0213e-05 -0.00091141 -0.00027148 0.00011563 2.6464e-05 0.0012815 3.0312e-05 0.00014508 -9.7113e-05 -0.00011006
7.5062e-06 -0.13651 4.8178e-07 1.2269e-06 -8.231e-07 1.1698e-05 -7.0477e-06 6.6465e-06 -7.7433e-06 0.35949 9.9818e-07 8.7495e-06 -1.5118e-05 -1.307e-05 -9.0343e-07 2.2199e-05 0.28805 -1.3693e-05 1.1674e-05 -0.30999 2.4828e-06 5.72e-05 0.25192 2.1264e-05 1.5906e-05 -2.7257e-06 -3.8869e-06 1.3105e-06 1.3177e-05 -0.00015812 -0.16797 6.7438e-05 6.6269e-06 -3.2744e-05 -1.9685e-05 0.27033 5.8904e-05 0.21671 1.2495e-05 -2.1224e-05 5.6576e-05 7.9532e-08 3.4295e-06 7.1847e-05 -3.9914e-05 0.35097 2.7123e-05 7.3848e-05 1.8142e-05 1.5902e-06 2.0749e-06 -5.4074e-05 -3.6279e-05 -1.5181e-05 0.00015538 -3.4731e-05 -3.084e-05 -0.0003635 5.6777e-05 2.1557e-05
0.1621 0.20444 4.4932e-07 -3.2317e-07 -1.2892e-06 -1.5685e-06 -4.2396e-06 3.231e-06 -1.8e-05 0.26994 -1.4989e-06 -2.4449e-06 -6.7338e-06 0.34448 -2.3231e-07 7.5282e-06 0.21505 -9.4903e-06 7.259e-06 -0.11971 -4.939e-06 0.38599 -0.00038277 0.00090038 -1.9464e-05 -3.5846e-06 -7.8699e-06 -1.1369e-06 4.4254e-07 -7.9233e-05 -0.17959 5.2037e-05 3.1885e-05 -1.5444e-05 1.0774e-05 0.20635 0.50643 0.16273 1.9821e-05 7.5596e-06 4.5232e-06 3.0737e-05 -1.6967e-07 -5.1851e-06 9.7234e-06 0.26355 5.0464e-07 1.2925e-06 1.4032e-05 7.5899e-06 7.2215e-05 -0.0015877 -1.5729e-05 -7.0798e-08 0.51544 1.914e-05 -0.00032595 0.0011219 0.00029593 8.148e-06
0.20892 0.00013781 3.5519e-07 -4.7274e-05 -4.1982e-06 1.3996e-06 -2.2702e-05 6.5414e-06 -3.136e-05 -1.4887e-05 7.5971e-08 2.3064e-06 -8.9221e-07 -1.7108e-08 1.6304e-06 2.826e-06 2.5275e-05 -3.8994e-05 9.425e-06 0.00028187 -1.6386e-06 2.2125e-05 0.24891 0.0011945 2.749e-05 1.1718e-06 1.0325e-05 3.5522e-07 -7.6111e-05 -0.00054032 0.00027217 2.8579e-06 1.3769e-05 1.9658e-05 -1.9197e-05 -0.00051013 1.5379e-06 -6.984e-05 -0.00014437 -2.1804e-05 2.7646e-05 -4.0491e-05 4.3469e-06 -2.4685e-05 -2.8257e-05 -7.6297e-05 -6.5507e-05 -0.00011099 -5.8335e-05 7.2118e-06 2.5026e-06 -0.0020385 2.3737e-05 -7.8475e-05 0.00024855 -0.00011617 -0.00014333 -0.0001692 -1.833e-05 0.00011239
1.8716e-05 -0.083354 2.4247e-05 1.0175e-05 9.3006e-06 1.7396e-06 1.7858e-05 1.5854e-05 2.6464e-05 -7.9649e-05 -2.0356e-05 3.2735e-05 0.0010044 4.4119e-05 -1.4664e-05 1.8348e-06 0.17542 -5.355e-06 -6.9375e-05 -0.18895 -4.2436e-05 -8.7258e-05 -0.0015689 -1.9668e-05 1.1947e-05 -5.2452e-06 8.6769e-06 2.2557e-06 0.0001303 0.17929 -0.1015 -4.3997e-05 -6.4822e-06 1.7209e-06 -1.1967e-05 0.16087 -0.00012817 0.13026 4.6636e-05 2.5747e-06 0.0010675 -4.7363e-05 -0.00012014 -0.0011414 -8.5595e-06 -8.0682e-05 -9.3055e-05 0.00088493 -0.00070096 -0.00010046 3.2427e-06 4.2921e-05 -1.2709e-05 -3.6149e-05 -0.0019136 0.00088073 3.4436e-05 -0.000694 -0.00011493 0.00023684
1.1845e-05 0.00010114 0.58543 -1.1945e-05 6.2777e-05 0.00024338 1.5498e-05 0.351 0.0016367 -5.5181e-05 -2.5534e-05 5.7246e-05 0.0005173 -2.8279e-06 1.5403e-06 -1.7372e-05 -0.00025091 -1.8291e-05 2.6391e-05 0.00022054 -3.1238e-06 -5.6725e-07 0.20385 -2.9909e-05 -2.4676e-05 -3.409e-05 -6.4338e-06 6.9888e-05 7.9382e-05 0.21056 9.2929e-05 -4.3878e-06 0.00053547 -8.9197e-05 -0.00050882 -0.00028044 6.5984e-05 0.00015614 -0.00012273 -2.2167e-05 0.0023022 0.3007 -0.00018805 0.00056932 -0.00043227 -0.00012713 0.001249 0.0012439 0.00015273 5.6777e-06 -1.4355e-05 -9.5758e-05 -0.0009851 -2.688e-05 0.00034024 0.00031995 0.0098617 -0.00054828 0.0022656 0.00018793
0.16826 -0.00053302 -5.7654e-07 -1.9761e-06 2.8234e-05 0.27029 -1.9178e-05 0.17117 -0.00022632 -2.4549e-05 -4.8505e-05 -1.0779e-08 5.8443e-06 -2.811e-05 -4.9976e-05 0.2711 0.00018361 -1.6918e-05 -8.3186e-05 -0.00069395 0.00011336 2.3824e-05 2.4263e-05 0.0011571 8.3517e-05 -1.3044e-05 7.5941e-05 1.206e-05 1.2251e-05 2.9131e-05 -0.0007487 1.1626e-05 -0.00052586 -7.1978e-06 0.19763 -0.00010128 2.0157e-05 1.974e-06 -0.00029677 -3.526e-05 2.472e-06 -0.00014463 -3.7168e-05 -8.3115e-05 -0.00010693 -8.4659e-05 0.00020128 -1.1947e-05 0.00022193 -1.171e-05 8.7432e-06 -0.00091001 -0.00052937 0.00039451 9.367e-06 0.00066085 4.6176e-05 6.9995e-05 -4.3446e-07 -0.00075311
5.8304e-06 0.0041268 7.9771e-05 6.4523e-06 6.9302e-05 0.0019678 -6.2512e-05 3.5039e-05 -1.141e-05 0.00031974 -1.8367e-06 -3.0248e-05 4.6225e-06 -2.9311e-05 8.9081e-05 -3.8434e-05 -0.0011746 0.33018 2.6015e-05 0.0059405 -1.7509e-05 -0.00036705 -0.00010473 0.0001621 7.2511e-07 -1.1663e-05 9.5696e-05 0.00034932 2.2039e-06 0.0001123 0.011806 -0.0011615 -7.6141e-05 0.43275 0.00035446 0.0086154 -7.5707e-06 -4.1717e-05 -6.4099e-05 -0.00016106 -0.00012082 0.00097026 -1.7627e-06 0.0001113 0.00013704 0.00012487 -2.2453e-05 -1.2246e-05 1.9209e-05 0.00048273 9.0377e-06 0.00038484 0.0020233 -0.00089419 -0.00013474 5.9937e-06 -0.00013956 0.50054 -0.00011558 0.001024
0.14205 -1.7585e-05 -2.5937e-07 -7.5105e-06 1.9268e-05 2.0014e-06 0.00057464 -3.3592e-05 -3.0978e-06 -2.7226e-06 1.9727e-06 -5.284e-07 -1.5812e-06 -5.2368e-06 -3.2387e-06 -2.3417e-05 -1.8408e-06 -4.3655e-06 1.538e-05 -5.758e-05 4.6834e-06 -9.586e-06 -2.2768e-05 0.00074513 -1.8831e-06 1.2634e-05 0.00030949 2.2689e-05 -1.2205e-05 -8.6126e-06 5.7213e-05 1.4231e-06 -0.00020672 2.2486e-06 0.0003971 7.5092e-06 -4.718e-05 -4.6926e-05 -8.5752e-05 9.6484e-05 3.808e-05 0.0024115 -6.6975e-05 9.0866e-06 1.9376e-05 1.377e-05 0.00096167 -4.7578e-06 -5.9786e-06 7.3719e-07 0.99621 -0.001282 0.010806 -0.00031615 7.4292e-07 -1.6817e-05 -0.0004202 4.6374e-06 -4.6381e-05 0.00072275
-1.3881e-06 2.9842e-05 -8.2216e-08 0.23474 1.6173e-05 -9.3441e-06 1.2507e-05 3.1539e-06 -8.1589e-05 -3.0166e-06 1.916e-05 -3.3792e-06 9.2327e-06 4.6187e-07 0.4813 1.7633e-05 4.5861e-06 5.9853e-06 0.47619 6.8913e-05 0.22637 1.2294e-05 0.14225 1.4451e-05 0.31784 1.1515e-06 0.0001933 -2.8297e-06 3.8252e-07 0.00015337 3.4965e-05 3.7277e-06 -5.6765e-05 -2.551e-06 -0.00022142 -7.6569e-05 9.782e-06 0.12297 0.28888 -7.5578e-06 -2.3632e-06 -4.6647e-05 -3.8198e-06 0.00044193 0.0001006 -3.3531e-05 0.23985 4.6055e-05 -0.00012498 -2.3542e-05 5.3163e-05 -0.00012801 0.0002314 -2.958e-06 5.6387e-06 0.00053668 0.00037495 -5.131e-05 -4.4019e-05 -5.0475e-05
6.7732e-05 -0.00015619 -3.872e-06 9.3797e-07 -3.1016e-07 2.8381e-05 1.5433e-05 1.5391e-06 0.0001426 -6.9418e-05 -0.00014072 -4.2084e-06 -2.4317e-05 2.1355e-05 0.00013774 1.1613e-05 0.00034523 -8.0541e-06 0.00019513 -0.00035927 0.00011044 -4.1151e-06 -0.00011383 -3.9814e-05 6.1078e-05 -3.3851e-06 8.8032e-06 1.0458e-06 3.6142e-05 0.00060859 -0.00028701 0.00040879 -9.2641e-05 0.00010954 -0.00068191 0.00023145 -1.1757e-05 0.00048366 -0.00014452 -0.00039685 0.53965 -7.2722e-05 1.3052e-05 0.00076362 0.00011223 7.605e-05 0.00019535 -0.00010806 0.00070056 -1.3749e-06 1.1762e-06 -7.964e-06 2.2862e-05 5.5259e-07 -0.00010305 0.28224 3.801e-05 -7.6143e-05 -6.2217e-05 5.0042e-05
5.007e-06 -2.6618e-05 5.3308e-05 8.1682e-07 0.38517 1.1975e-05 3.4407e-05 0.15652 0.00031563 0.00030948 -4.4123e-06 7.8075e-07 1.4545e-06 -4.9183e-05 7.0687e-07 4.2932e-06 -1.4219e-05 0.00041715 -3.8385e-06 -2.4837e-05 3.35e-06 -1.3815e-05 1.416e-05 -0.00010534 -1.1372e-05 -7.9523e-05 0.00066657 1.9932e-06 6.0424e-06 9.9053e-05 -0.00011209 7.0894e-06 -0.00019863 0.24753 0.00072826 -0.00010295 -1.1775e-05 8.233e-06 0.00034697 -9.6118e-06 8.4307e-06 0.00077631 -1.8235e-05 -5.0804e-05 0.00087309 -9.6741e-05 0.0004099 -4.9101e-06 -1.0232e-05 0.00067836 -3.4689e-05 -0.00028976 0.0006161 -0.17296 1.1634e-05 2.4735e-05 0.0021943 0.032913 9.1589e-05 0.2639
1.4672e-05 -6.3439e-05 -4.6539e-07 1.0235e-06 0.25329 8.7232e-06 8.4081e-05 -4.869e-06 -3.4707e-05 -7.1654e-06 2.2162e-06 -1.8065e-06 0.00014837 -3.5519e-05 -0.00019776 -2.6925e-06 -5.6776e-05 -1.9141e-07 3.9776e-06 -0.00026449 0.28306 -4.7988e-05 -5.0786e-05 -6.2764e-05 -3.249e-05 -3.4511e-07 1.5571e-05 -5.2778e-07 -5.3477e-05 1.4778e-05 0.00015501 -8.9032e-06 -2.7074e-05 -2.0094e-05 0.00076237 0.00093742 -1.3502e-05 0.15275 4.0047e-05 -1.7975e-06 0.00016592 0.00012692 2.8944e-06 -8.6895e-05 0.00010246 0.0006865 -0.00032297 -8.7282e-06 -0.00010552 -7.4631e-05 -2.1247e-05 -0.00022197 1.6419e-05 -0.1105 -0.00015274 0.00088102 4.8908e-05 0.0075008 -7.0528e-05 0.1701
1.7817e-06 1.418e-05 -1.955e-06 7.2184e-06 -3.7273e-06 6.5579e-06 0.0001944 -5.8193e-06 0.0026087 -8.7295e-06 -2.5868e-06 1.1231e-06 -5.4489e-06 2.2258e-06 0.00031792 -2.3591e-06 -1.1409e-05 -3.1259e-06 0.001805 2.3301e-05 -0.00010799 1.8401e-06 9.558e-05 -6.9945e-05 -3.9896e-05 -1.2938e-05 -3.9509e-06 0.87937 -1.7689e-05 0.00054311 9.6107e-06 1.306e-06 -5.5815e-05 1.4005e-06 0.018167 -2.2082e-05 -2.6476e-05 -6.5263e-05 2.6884e-06 -4.3373e-06 -0.00010426 0.0010494 -7.1799e-06 -0.00018139 9.4646e-05 5.7233e-06 -1.5612e-05 -1.355e-05 -1.1735e-05 3.6178e-06 9.3674e-06 0.0005237 -6.5738e-05 0.00014696 1.0745e-05 0.00011042 -0.00035198 0.00023499 -2.6849e-05 -0.00011029
0.15224 0.19198 4.8433e-07 -3.4755e-07 -8.9832e-07 2.2213e-09 3.0075e-05 1.797e-05 9.4027e-06 0.2535 -1.2563e-06 0.48893 -6.4717e-06 0.32351 -8.5239e-08 8.091e-06 0.20194 -2.463e-06 6.3916e-06 -0.11247 -4.6035e-06 0.36247 -0.00034625 0.00084818 -1.8766e-05 1.8001e-06 -6.4631e-06 8.4173e-08 6.3636e-07 -7.2196e-05 -0.16867 3.8152e-05 3.0295e-05 -1.5017e-05 -2.7862e-05 0.19385 0.0002591 0.15283 -4.1119e-05 9.3256e-06 5.5788e-06 2.2175e-05 -2.939e-06 -6.8397e-06 -1.1881e-05 0.2475 -3.7194e-07 7.202e-07 5.4999e-06 8.2828e-06 5.8922e-06 -0.0015271 -1.3747e-05 2.6456e-06 0.48406 1.7076e-05 6.8364e-05 0.0010677 0.44325 -3.3206e-06
1.8794e-07 3.8665e-06 0.00016883 5.8132e-06 -2.9862e-06 0.0001123 0.00013172 0.00062438 0.0017403 -4.4978e-06 -1.4784e-05 5.9693e-07 0.00041793 3.6126e-06 0.0002098 -1.7052e-05 7.5569e-06 1.9247e-05 0.0012167 3.9963e-06 -7.9006e-05 -2.6927e-07 0.00011443 -4.6677e-05 -5.4359e-05 -7.8961e-06 -4.4282e-06 0.30353 0.00018796 0.00037591 -5.3221e-06 -3.8414e-07 0.00029682 -5.1181e-06 0.012252 -2.7964e-06 -1.7672e-05 -4.676e-05 7.2202e-07 -1.9561e-06 0.0013274 0.00079539 -1.2409e-05 -0.00012523 3.5356e-06 -9.8798e-07 -1.1357e-05 -1.0023e-05 -6.7341e-06 -5.5827e-05 0.00010117 0.0003669 -9.0098e-05 0.00010109 4.9436e-06 9.3258e-05 -0.00024903 0.00020274 -9.5081e-06 -8.0223e-05
1.2187e-05 -4.3885e-06 3.8173e-06 2.0121e-06 5.1188e-05 3.2508e-05 -4.1628e-05 4.8758e-05 0.28132 0.00016823 4.1499e-07 -2.0908e-06 -3.2549e-05 -3.5738e-05 -6.1355e-06 -5.2838e-06 -5.0623e-05 -1.4712e-05 -8.9892e-06 5.323e-06 1.03e-05 2.2789e-06 -0.00017763 -3.3057e-05 1.0882e-05 -0.00019136 0.00018612 -3.2014e-07 0.00020058 0.15064 -6.8379e-06 -4.8573e-06 -1.0176e-05 0.00031369 -0.0001883 7.5954e-06 -4.8455e-05 -0.00023725 8.2575e-05 4.5813e-06 -2.0656e-05 5.3052e-05 3.0631e-05 0.00035771 8.5554e-05 4.8899e-05 0.00090653 0.00084546 0.00019021 0.00041396 1.0747e-06 -8.2535e-05 0.00029442 -0.010209 7.437e-05 0.00031637 -5.4943e-05 0.0031092 5.0162e-06 0.015572
0.15905 0.20061 6.355e-07 6.6949e-07 -4.2639e-07 -8.4935e-07 3.0792e-05 2.1318e-05 2.7037e-06 0.26484 -1.4213e-06 0.51082 -9.4569e-06 0.33803 -7.4344e-08 8.6772e-06 0.21091 3.9304e-06 7.7371e-06 -0.11742 -5.044e-06 0.37853 0.18557 0.0008935 -1.7151e-07 1.4305e-06 -4.249e-06 6.111e-07 7.9231e-06 -0.0001421 -0.17621 3.6901e-05 3.2545e-05 -1.4138e-05 -3.7672e-05 0.20254 0.00027103 0.15962 -3.1534e-05 -6.9497e-06 1.8796e-05 2.9087e-06 -2.8599e-06 4.8591e-05 -3.2047e-05 0.2585 1.8672e-05 4.8744e-05 1.372e-05 7.859e-06 6.0379e-06 -0.0016043 -1.2092e-05 -2.4785e-05 3.5215e-05 -2.6457e-05 4.2438e-05 0.00098589 0.46313 2.3853e-05
2.0337e-06 -0.00014244 -1.2853e-06 -2.2394e-06 4.7861e-06 -5.9799e-06 -8.4574e-05 2.2277e-06 -4.382e-06 0.3562 1.5013e-06 -1.8721e-05 -1.0887e-06 0.45064 -3.2581e-06 -1.4515e-05 6.1712e-05 0.50376 3.2647e-06 -0.00034454 2.6461e-06 4.168e-05 0.24744 -4.9059e-06 2.6018e-05 -8.7066e-06 -1.7012e-05 1.4279e-06 2.6603e-05 0.0010522 -0.00011985 -1.0973e-05 4.8385e-05 -6.2109e-05 -0.00013685 1.0266e-05 -4.9762e-06 0.21297 6.2031e-06 -2.9176e-05 -2.6839e-06 -1.444e-05 8.6215e-07 -0.00013522 -5.0847e-05 -0.00042572 0.00010766 8.5577e-05 3.3151e-05 -3.6688e-05 8.5436e-06 -7.6367e-05 -4.3122e-05 -4.9195e-05 1.791e-05 -9.5349e-05 -9.5408e-05 0.012185 9.8833e-05 5.0215e-05
1.6095e-05 8.2337e-07 -8.6999e-06 1.6687e-07 0.42611 1.1471e-05 0.089799 -2.1049e-06 -1.6433e-05 -2.5415e-06 7.3186e-07 -2.8812e-07 -6.5244e-06 -9.0481e-08 2.0798e-06 7.6605e-07 -6.6295e-06 1.7632e-05 1.1983e-05 -3.1748e-06 -2.7524e-06 8.127e-07 -0.00013078 -1.815e-05 1.0147e-05 0.00015277 -0.00010967 -1.1099e-06 -3.5763e-06 0.0019395 6.0002e-06 6.6159e-07 3.7263e-06 -2.419e-05 -5.3213e-05 -6.1192e-06 -9.9754e-05 -1.8946e-05 -0.00016385 -2.6584e-05 1.764e-05 6.6182e-06 1.7488e-06 -0.00023819 -2.0832e-05 1.9135e-05 -2.1682e-05 1.0052e-06 2.7499e-05 -9.1345e-06 0.086995 -9.7143e-05 -2.3598e-06 -0.18349 8.1468e-06 -3.1327e-05 -4.2308e-05 -0.00027246 -2.5383e-05 0.28195
4.1722e-06 0.00020047 5.3976e-07 -8.0986e-06 1.75e-05 3.524e-05 0.39637 0.00058003 0.32323 -5.8683e-05 4.7895e-06 0.0013434 -0.00018518 -2.1018e-05 -2.2913e-05 5.6573e-06 -0.00020676 3.1112e-05 -6.9586e-05 0.00037575 7.6206e-07 -3.9874e-05 0.16589 -5.4622e-05 6.4872e-05 -7.0489e-05 -0.00018772 4.0587e-06 -0.0001027 0.00095754 0.00030984 -1.4323e-05 -4.7103e-05 -5.9265e-05 -0.002659 -0.00027197 0.0033906 0.14141 -0.00088793 -0.00012757 3.4604e-05 0.0052825 -0.00010725 -2.4611e-05 -0.001492 -0.00056596 -5.9196e-05 5.6706e-05 -0.00013526 -7.8444e-06 -0.00013289 -0.00028761 -0.00042349 9.1295e-05 0.00019823 -0.00017841 0.46553 -4.1048e-05 0.422 -0.00032949
1.4574e-07 -8.5662e-05 9.4647e-07 0.19327 1.4117e-05 0.15915 2.2635e-05 9.767e-06 -5.5548e-05 -6.4212e-07 1.0812e-05 -1.2266e-06 2.0069e-05 7.6729e-07 0.39617 1.7487e-05 9.0091e-06 -1.0093e-05 0.39229 -0.00010507 0.1867 4.3362e-06 0.11698 -4.1407e-05 0.26204 -6.1865e-06 0.00013964 -1.5492e-06 0.00011256 0.12247 -0.00015392 1.2352e-05 -6.3945e-05 -1.7423e-05 -0.00012447 1.0553e-05 1.0495e-05 0.1013 0.2398 -5.654e-06 8.1067e-05 -2.9605e-05 -3.4151e-06 0.33001 8.1448e-05 2.0106e-05 0.20039 0.32969 5.1357e-05 -1.71e-05 4.5686e-05 -0.00023256 0.0001871 1.1711e-05 7.5546e-05 0.27555 0.00019719 0.0001846 -5.1504e-05 3.5037e-05
-3.414e-05 1.9065e-05 4.4464e-06 -7.3884e-07 0.25887 4.9361e-05 -3.4752e-06 6.519e-06 6.0639e-05 -1.2721e-05 1.0006e-05 1.5232e-06 6.2121e-05 -4.8409e-06 -1.8302e-05 5.7894e-06 -8.252e-05 4.482e-06 -8.5517e-05 4.013e-05 1.4047e-06 3.8538e-05 -3.6576e-05 0.60974 0.0001933 1.7574e-05 1.7417e-05 -4.0876e-06 0.00027713 0.21253 -4.0725e-05 3.1458e-06 9.0951e-05 0.00021609 -0.00095019 -3.1432e-06 2.5719e-05 -0.00013249 0.00016366 1.5765e-05 -3.4376e-06 5.43e-05 1.871e-05 0.00081351 0.57155 5.5434e-05 0.0012467 0.0011873 0.00024045 -4.6545e-06 -2.1386e-05 -0.6377 0.00011755 0.50216 9.8691e-05 0.00055518 0.0012568 -0.00025742 -1.0573e-05 0.46772
-9.0499e-06 -1.528e-05 2.4317e-06 -4.4513e-06 -1.2043e-05 -3.1587e-06 0.00070819 -3.4165e-06 -0.00012697 7.1387e-05 -2.4002e-05 1.3188e-05 0.00062071 4.2421e-06 1.2112e-05 -1.7183e-06 1.7471e-05 -5.5313e-05 -1.1053e-05 -2.8801e-05 1.1859e-05 7.9146e-07 0.0024961 5.149e-05 -0.0001321 2.1876e-06 -2.1456e-06 -6.7734e-07 -0.00014159 0.0070076 6.2235e-06 3.625e-06 0.00021648 -1.4307e-06 0.0076498 -1.4004e-05 -3.1037e-05 -0.0002846 -0.00038507 -7.3336e-06 0.00059451 -1.7502e-05 -2.4949e-05 0.00030118 0.0030698 -0.00013113 -0.00015196 -0.00018888 9.9797e-06 3.3951e-06 -3.8388e-06 0.0002969 -3.9833e-05 0.00014636 0.00018688 0.31624 -0.00029374 -0.00059211 -6.8487e-05 -0.00011411
-7.6045e-07 -7.8485e-06 1.7012e-07 0.44088 3.8231e-05 -5.281e-06 -4.4673e-06 -1.2672e-06 -1.6063e-05 -5.6353e-07 -1.9054e-06 7.8355e-07 -3.8087e-06 4.2449e-06 -0.00011879 7.4344e-07 9.4074e-06 0.00017494 -4.6447e-06 -8.009e-06 0.42545 -3.1256e-06 6.0434e-05 -9.8013e-06 -6.7506e-05 -8.8832e-06 7.0376e-06 1.3744e-06 1.3895e-06 4.8024e-05 -8.6547e-06 -3.3818e-07 -4.0539e-05 -3.4909e-05 3.7998e-06 9.4397e-06 1.3792e-07 -0.00012562 6.207e-06 -2.941e-08 2.4073e-06 8.1624e-06 -8.6844e-07 -1.0693e-05 -7.3452e-06 -1.0104e-05 0.00074833 3.1527e-05 -4.7878e-06 -3.2292e-05 1.0707e-06 -2.157e-05 4.0137e-05 -0.0010169 7.0275e-06 1.3491e-05 -9.372e-07 0.0035302 -3.3086e-06 0.0014417
0.32789 -0.00027993 6.8353e-06 -2.629e-06 3.7397e-05 0.52008 4.689e-05 1.2953e-05 4.6189e-05 -1.7491e-05 -8.3237e-07 -1.4621e-07 -4.5798e-05 -2.9397e-06 1.2378e-06 -2.019e-08 -8.185e-05 -5.106e-05 8.3929e-05 -0.00040232 -1.1278e-05 1.0365e-05 1.6306e-05 0.0017602 4.3003e-05 5.8874e-06 0.00010861 2.9304e-06 0.00047248 0.39792 -0.00028011 1.4575e-05 8.6929e-06 -3.0507e-05 0.0002343 9.4887e-05 -3.7947e-06 -0.00040023 0.00026422 3.689e-06 -6.9422e-05 5.8007e-05 1.1159e-05 0.0012971 -4.401e-05 0.00014189 0.0024856 0.0022221 0.00050866 5.4642e-06 6.8403e-06 -0.0033955 1.8804e-05 5.187e-05 0.0001841 0.00094717 -3.6154e-05 3.207e-05 1.3776e-05 0.00030135
-4.6007e-08 3.5411e-07 5.4473e-08 -1.6643e-07 -3.2405e-08 3.5642e-07 4.2644e-05 -1.5614e-06 -2.5286e-06 -6.3692e-09 -3.3277e-09 5.5065e-07 3.0693e-07 2.8162e-07 -1.7205e-07 3.0886e-07 -8.9095e-08 -2.8163e-08 2.2442e-08 4.4906e-07 7.8071e-07 1.2181e-07 -8.8912e-07 -2.7662e-08 4.7968e-07 1.5488e-06 -2.4357e-07 1.7285e-07 -3.1603e-06 -1.4856e-06 -4.0284e-07 1.6915e-07 6.6814e-07 -3.8816e-07 -6.8987e-06 3.6544e-07 -3.309e-06 -2.4849e-06 -6.2724e-06 3.5286e-05 3.3402e-06 0.00021008 -2.2582e-05 2.7543e-06 -4.0885e-07 1.3886e-06 8.4333e-08 -1.3465e-09 -1.93e-06 -9.8664e-08 -1.9397e-07 -2.8477e-07 -2.4709e-05 4.9793e-07 9.4342e-07 -5.6987e-07 -3.7004e-05 5.9331e-06 -2.0112e-07 7.0476e-08
1.5714e-05 -1.3314e-05 1.7101e-06 -2.518e-05 9.412e-05 1.6734e-05 4.2062e-05 0.00011306 0.00047476 -1.0701e-05 -3.7186e-07 -3.8471e-07 -4.8901e-05 -3.396e-07 1.3318e-05 2.3587e-05 -4.3447e-05 8.9611e-06 4.4016e-05 -1.4964e-05 2.6666e-05 1.3806e-06 -0.00019718 -8.3516e-05 1.4416e-05 0.00011444 0.34003 8.8673e-06 0.00020616 0.16287 1.2665e-06 4.7433e-06 6.1063e-06 1.935e-05 0.0013303 -1.4567e-05 -2.1633e-05 -0.00016905 0.00057577 3.2844e-07 -4.1036e-05 0.0010155 1.5703e-05 0.0001012 -9.2994e-05 9.2643e-05 0.26389 0.00090518 9.3432e-05 1.0845e-05 2.9496e-06 -0.00011411 0.00044166 -0.00060269 7.6254e-05 0.0001596 0.0010137 -0.00047007 -1.4197e-05 0.00088823
-1.2085e-06 1.1946e-05 -6.6344e-07 -2.1408e-06 0.37368 -9.0206e-06 2.1482e-05 -4.4455e-05 0.00033261 7.3696e-07 -1.0561e-07 -1.5429e-05 9.3265e-06 1.5027e-06 -2.1782e-06 1.9443e-06 -3.9299e-06 6.539e-07 2.8367e-06 1.3503e-05 6.6477e-06 2.8948e-06 0.00010643 -0.00052223 0.00021509 0.70711 0.25597 -2.9869e-06 -7.6237e-06 -9.9709e-06 1.9604e-05 5.3654e-08 -1.5673e-06 0.00025751 0.00093199 -6.0166e-06 -0.0001987 0.11854 0.28023 4.9612e-06 -3.5353e-05 0.40253 2.7368e-05 -3.2e-05 0.00025313 -2.2909e-06 0.00033508 -1.4198e-05 -1.1904e-05 -9.1971e-06 -1.5172e-05 -0.0015281 -0.00027852 0.25803 1.5401e-05 -2.0898e-05 0.36921 -0.0004033 -6.9893e-07 0.44393
0.1621 0.20444 4.4932e-07 -3.2317e-07 -1.2892e-06 -1.5685e-06 -4.2396e-06 3.231e-06 -1.8e-05 0.26994 -1.4989e-06 -2.4449e-06 -6.7338e-06 0.34448 -2.3231e-07 7.5282e-06 0.21505 -9.4903e-06 7.259e-06 -0.11971 -4.939e-06 0.38599 -0.00038277 0.00090038 -1.9464e-05 -3.5846e-06 -7.8699e-06 -1.1369e-06 4.4254e-07 -7.9233e-05 -0.17959 5.2037e-05 3.1885e-05 -1.5444e-05 1.0774e-05 0.20635 0.50643 0.16273 1.9821e-05 7.5596e-06 4.5232e-06 3.0737e-05 -1.6967e-07 -5.1851e-06 9.7234e-06 0.26355 5.0464e-07 1.2925e-06 1.4032e-05 7.5899e-06 7.2215e-05 -0.0015877 -1.5729e-05 -7.0798e-08 0.51544 1.914e-05 -0.00032595 0.0011219 0.00029593 8.148e-06
0.098426 -2.3837e-05 -1.5384e-06 -7.2361e-06 1.8091e-05 1.9162e-05 3.9515e-05 0.00027553 0.00046247 -1.3614e-06 6.5995e-05 -3.7327e-07 2.0287e-05 -4.4891e-05 0.00088296 -7.223e-05 3.4987e-05 4.7843e-06 0.0016898 -4.4858e-05 -0.00028078 1.1198e-05 1.845e-05 0.00041341 0.00074421 0.00013362 0.00087679 0.28359 -1.9006e-05 2.0154e-06 5.1596e-05 0.00039526 0.00097451 0.00016772 0.0011533 -8.1361e-05 -1.021e-05 -0.00016634 0.00035681 9.3459e-06 0.0013234 0.34844 -0.00013649 5.066e-07 -0.00015289 0.00012656 0.19565 5.8956e-06 0.00069901 -1.3898e-05 0.0012422 -0.0011788 0.27085 -3.2191e-06 1.5147e-05 9.3984e-05 0.00057728 0.002744 -1.846e-06 -2.0432e-05
0.085918 0.0024273 3.0069e-06 -3.1931e-06 4.2215e-05 0.13744 0.00012545 0.00012844 0.0015961 -1.4594e-05 -5.4511e-06 -2.395e-05 -3.2717e-05 5.6183e-06 0.17546 -2.3222e-05 -0.00076151 0.00013252 0.17059 0.0034933 -0.00067897 -1.4752e-05 3.5708e-05 0.00040752 6.2498e-06 -2.1051e-06 5.0413e-05 0.00035713 0.00024733 0.20904 0.0072725 -0.00036722 -1.1588e-05 0.0011814 0.0103 0.0055714 -3.8584e-05 -0.00029994 0.00011369 -4.9328e-06 -4.0992e-05 0.00080749 0.00090487 0.00040276 1.7979e-05 0.00029423 0.0015732 0.0011117 0.00093722 6.4383e-06 1.9849e-06 -0.00059676 0.00040606 -0.00054676 6.5311e-06 0.00071791 -0.00019236 0.0024215 -0.0001203 0.0010061
2.3176e-05 -3.4703e-05 -1.1062e-06 1.3734e-06 3.381e-05 0.00010583 0.2615 7.4945e-06 -2.8808e-05 6.5656e-05 -2.1834e-06 1.4007e-06 9.6409e-06 -2.7707e-05 8.9761e-05 0.00033306 -8.2864e-06 0.0026954 3.5955e-05 -4.4688e-05 -6.3438e-06 -7.3897e-06 0.0011045 1.6794e-06 0.00010848 -1.3891e-05 -7.0032e-05 2.9264e-05 0.00013565 0.11451 -3.9178e-05 0.00035643 -4.1219e-06 0.00012899 0.42601 -1.9433e-05 -0.00021291 -0.00018429 -0.0001572 0.0077932 0.003256 -0.00023784 0.00030721 0.000236 -0.00026728 2.2151e-05 0.00079323 0.0005892 0.29069 -8.878e-06 -0.00011491 -0.0001742 5.5168e-05 -3.4724e-05 0.00011094 0.0002031 -0.00016492 0.013987 -0.0001997 5.3893e-05
7.4216e-07 3.4357e-05 -6.3547e-07 1.0048e-05 3.6758e-07 1.1031e-05 -5.465e-07 -8.9053e-07 1.8323e-05 2.392e-05 0.37598 -2.8017e-07 2.0596e-06 2.5824e-06 9.3917e-05 0.59302 -2.3745e-05 2.4711e-06 1.4691e-05 0.0001067 9.7598e-06 2.2771e-07 7.4514e-05 -0.00010685 0.48732 -1.1485e-06 -0.0001321 -5.7771e-06 -1.1363e-05 7.8261e-05 3.6935e-05 8.6286e-06 0.51722 5.9413e-06 7.789e-05 -2.8378e-05 -4.4298e-06 -2.9754e-05 0.00069436 1.2936e-05 0.00013843 -0.00071876 -5.0871e-07 0.00064533 -0.00051282 -2.7014e-05 5.4908e-05 7.8754e-06 1.5862e-06 3.5009e-06 -5.51e-05 -2.9243e-05 0.48814 -2.9295e-05 -6.5418e-06 0.00085089 1.2721e-05 -9.4863e-05 -6.0106e-06 4.0009e-05
5.3148e-06 -0.00023157 6.0076e-06 -7.0431e-06 2.9054e-05 6.338e-05 0.25077 6.9715e-06 -6.8009e-05 0.0015453 -4.7171e-05 -3.9232e-06 0.00081535 4.0115e-05 1.7789e-05 -8.7861e-06 0.00027249 -2.1397e-05 3.6929e-05 -0.00049555 2.4279e-05 -3.0627e-05 0.0017267 4.4063e-06 -0.00013731 3.7448e-05 5.6337e-05 1.9548e-06 8.6431e-05 0.22578 -0.00025982 7.8427e-07 0.00042524 -3.0522e-05 0.004996 0.00022274 -0.00014228 3.3301e-05 -0.00010627 -8.8804e-05 0.0017569 -1.6894e-06 -2.6966e-05 -0.0013925 0.0021409 -0.00024382 0.0012747 0.0011939 0.00036658 -6.7731e-06 -9.4841e-05 0.00019334 -4.1101e-05 -5.5151e-05 0.00013544 0.0035754 -0.00050697 0.0044777 -1.6309e-05 0.00036568
