5.1505e-06 -2.627e-06 1.788e-06 9.9424e-06 2.5894e-06 0.00013371 1.5891e-06 -6.61e-07 -6.0984e-07 -9.6822e-08 1.0876e-06 7.1186e-07 -2.4367e-06 1.1447e-06 1.0251e-05 -6.6654e-08 7.4879e-06 9.8701e-05 3.7516e-07 -2.7977e-06 -4.1697e-06 -7.7447e-06 -1.0791e-05 -1.0699e-05 -2.1962e-06 -3.261e-05 1.5102e-05 -2.9013e-07 -1.4737e-05 -1.0083e-06 1.6781e-07 -2.8517e-06 3.26e-07 -2.6828e-05 -1.4744e-06 -1.3691e-07 5.271e-07 -2.8336e-07 -1.8603e-06 -4.5339e-05
2.032e-06 -1.118e-05 3.248e-06 0.17652 0.13017 0.00012897 -5.379e-06 4.09e-07 6.4473e-06 1.2433e-05 -2.5827e-05 5.253e-05 -3.2248e-06 1.67e-05 4.6691e-05 1.3091e-06 7.2185e-06 0.24828 5.5611e-05 9.4967e-06 2.8906e-05 0.00019814 -0.00015524 -6.9779e-05 4.1304e-05 -9.2638e-05 0.0106 0.00026649 -0.00034934 0.00031701 6.3703e-06 -2.8108e-06 7.8026e-06 -0.00043495 -6.6502e-05 1.7161e-05 1.6664e-06 3.9221e-06 1.5595e-06 -2.2906e-05
8.9248e-06 2.7061e-05 0.00026525 -2.903e-05 0.00054139 0.31625 -1.4651e-05 0.00025444 0.00061395 3.2213e-05 0.00055854 6.4448e-05 0.00035281 0.0011954 1.6754e-05 -9.7339e-06 -8.5255e-06 -6.7763e-05 0.00023892 -6.3259e-05 6.6284e-05 0.00026282 -0.00020111 4.1712e-06 0.00028329 3.3289e-05 4.5458e-05 0.00026898 -0.00016577 -1.7785e-05 -0.00027626 -6.1282e-05 -5.3597e-06 0.0019574 0.0018353 -5.9889e-05 -4.6442e-05 -3.3945e-05 0.00035933 -3.2196e-05
1.9357e-06 2.2177e-06 3.8308e-05 -1.2568e-05 0.00017908 -1.8615e-05 8.7358e-05 8.1352e-07 -1.6167e-06 0.00032045 -3.4446e-06 3.5274e-05 -1.0478e-06 -4.3989e-06 -9.0283e-07 -1.452e-07 -1.0772e-06 4.3289e-07 4.0535e-05 -8.6252e-07 -3.2251e-05 0.0063683 9.3313e-06 -0.00017236 2.6137e-05 4.3216e-05 0.32252 0.00012873 6.5648e-05 8.3787e-05 -6.7592e-06 6.7468e-06 1.2472e-06 3.8693e-05 -0.00014551 1.8252e-06 4.2781e-06 -8.8467e-06 -1.69e-05 0.0011386
1.7122e-05 6.6224e-06 7.4112e-06 -2.2738e-05 0.00033206 0.00013117 2.5154e-06 3.2102e-06 0.00059407 2.9535e-05 0.00052262 -2.2238e-05 0.00035966 5.7276e-05 -1.6261e-06 1.2808e-06 -9.7936e-06 0.00010084 -1.0434e-06 7.7032e-05 -1.4963e-05 4.7634e-05 -2.2859e-05 0.00011802 7.9738e-06 0.00094392 0.00098819 0.00026961 -9.7807e-06 -4.8483e-05 -1.4002e-06 0.00015575 1.453e-05 -4.0062e-05 0.00099042 -2.6009e-06 -1.4999e-06 -5.5669e-06 0.0004433 -3.269e-05
3.6477e-06 -1.8651e-05 7.0528e-05 -2.7845e-05 0.0003241 8.1104e-05 0.00011581 0.00024154 0.00059987 4.2619e-05 0.0005198 5.5208e-05 0.00033067 0.0010347 2.2819e-06 -6.1454e-06 -1.103e-05 -6.4132e-05 7.6299e-05 -3.6838e-05 1.068e-06 0.00029167 -1.404e-05 1.7423e-05 5.8377e-05 0.00010622 0.00013739 0.00035955 1.1446e-05 -7.8128e-06 -3.2813e-05 8.2618e-06 -3.3709e-06 0.0018558 1.6036e-05 -6.604e-05 -1.4876e-05 -5.1378e-05 0.00031143 3.1863e-05
0.28859 5.0649e-05 0.00010916 2.6962e-05 0.13026 -5.5296e-05 8.5593e-06 -3.5842e-06 0.00061479 4.1711e-05 0.00052044 -2.1423e-05 0.00034254 5.2386e-05 -3.5923e-05 2.4299e-06 -2.2271e-05 0.0013419 -2.5145e-06 -3.9217e-05 9.4448e-06 -7.4344e-05 -0.00017641 0.35116 -0.00013985 0.30059 0.32578 0.00026856 0.31394 -0.00027408 4.4965e-05 0.001401 1.1389e-05 0.0049871 0.00027118 -1.6178e-05 -3.8681e-06 -6.7628e-06 0.00031396 0.00025014
0.28894 0.17388 4.3553e-06 0.17649 0.12999 -1.4627e-06 -1.0136e-05 1.8123e-07 4.6283e-06 3.8492e-06 1.2411e-06 -7.1247e-06 4.0808e-06 1.6583e-05 6.2651e-06 2.8129e-06 -1.4252e-05 -4.4858e-06 6.0911e-06 2.1557e-05 2.9941e-07 -9.8874e-06 5.5296e-06 1.266e-05 1.3e-05 0.0029991 5.4253e-06 5.1106e-06 -3.7662e-05 7.025e-06 4.6197e-06 1.6753e-05 1.7168e-05 -9.0564e-06 1.0834e-05 7.0825e-06 5.5959e-06 -5.7703e-06 3.5464e-06 7.1858e-05
-0.00045152 3.1197e-05 -8.3476e-06 -3.04e-05 9.3734e-08 -1.6698e-05 -9.0865e-06 -7.0193e-06 3.4732e-05 3.7654e-08 3.1287e-05 -2.6528e-05 6.2285e-05 6.02e-06 -4.6923e-06 -3.8429e-06 -7.9213e-06 -6.6103e-05 2.3261e-05 -2.6679e-06 1.1073e-05 0.00067279 2.2236e-05 1.3845e-05 7.3803e-07 0.296 5.5987e-05 7.1827e-05 -0.00018282 2.3149e-06 1.5921e-06 -5.998e-05 -9.286e-07 0.00050203 1.2369e-05 7.9064e-07 0.00013432 7.6634e-06 3.0614e-05 0.00013222
6.3362e-06 1.4929e-06 -8.846e-06 -1.0884e-05 2.1958e-06 9.5188e-06 0.35328 -2.2812e-06 -6.0326e-05 2.141e-06 2.8797e-06 5.0259e-06 -8.5526e-06 -8.7774e-07 -1.5634e-06 2.9477e-07 4.336e-06 -8.5163e-06 -1.8369e-06 1.5409e-06 5.0396e-05 -0.00012046 -1.0754e-05 9.764e-06 -4.3176e-06 -5.0192e-06 1.8591e-05 -5.7405e-06 7.4297e-06 -2.511e-05 2.1576e-05 -5.8998e-05 7.1968e-07 0.0063851 2.9435e-05 -1.1531e-07 2.054e-08 -8.7946e-07 -8.9941e-07 -0.00059488
1.4575e-06 0.17392 3.153e-06 0.00022065 0.00013985 0.31587 -6.3343e-05 -1.2859e-05 0.19674 2.7983e-05 0.18237 0.18571 0.18223 0.00038432 3.1021e-05 9.6859e-07 -7.1195e-05 -1.1869e-05 1.6006e-06 -4.7569e-06 1.3104e-05 0.22436 -0.00019768 -9.0055e-05 1.881e-06 7.9825e-05 -8.657e-05 0.00027535 -7.4835e-05 -6.338e-05 2.2223e-06 -2.9208e-05 1.542e-06 5.5695e-05 0.00029653 -1.822e-05 -2.4339e-05 -2.3421e-05 0.50125 0.0036029
0.28867 0.17522 0.27772 0.1766 0.13018 0.00060575 -2.7436e-05 0.00017157 0.19608 5.6945e-06 0.18261 6.3496e-05 0.18221 -4.1539e-05 -6.853e-05 -3.591e-06 -2.6088e-05 0.25209 -6.6181e-06 -6.6968e-05 8.4796e-05 -0.00016336 0.45149 0.35798 -0.00049006 0.30308 -0.00022035 -7.3652e-06 0.31928 -6.0081e-05 2.8502e-05 0.41853 -5.5839e-05 0.33281 0.00064698 -2.3112e-05 7.8539e-06 2.1539e-05 9.015e-05 -0.00025472
-3.7822e-07 -4.4836e-06 -8.0991e-07 -2.5247e-05 2.3023e-06 -2.0287e-05 -5.9973e-06 -1.0138e-07 -1.4655e-06 3.5209e-06 0.00026282 2.9985e-05 0.00062454 -5.6159e-06 9.558e-06 -7.3974e-08 -3.7239e-06 6.4954e-06 3.4267e-05 2.9389e-07 1.6444e-05 0.0040421 -4.8428e-06 0.0010292 0.31012 -9.0855e-06 0.00092847 -1.0073e-05 0.00014605 -9.2637e-05 1.6441e-06 1.9826e-05 1.0543e-05 2.8905e-05 -0.00019469 -5.4391e-08 -7.2317e-06 -7.2435e-06 -4.5229e-06 -0.00077481
1.2236e-06 1.2651e-06 0.27717 -1.0506e-05 1.5186e-06 -1.8359e-05 8.2818e-05 -4.9604e-06 2.5324e-05 0.00031334 0.000302 1.0691e-05 3.7921e-05 -9.8842e-06 1.3715e-05 -4.3319e-07 -1.7018e-06 1.6463e-06 3.6302e-05 -4.3555e-06 -3.5612e-05 0.0067045 3.0968e-05 -0.00015137 -3.341e-05 -2.7268e-05 0.002763 0.00013176 -5.1857e-05 0.00017604 -3.5867e-05 2.7879e-05 -1.8862e-05 -5.1004e-05 -0.00010531 4.7606e-06 -1.4702e-06 3.1181e-06 0.00049402 0.00097167
1.8181e-07 -2.9028e-05 4.5826e-05 7.9076e-06 0.00017102 3.1368e-06 0.00031712 1.6369e-06 1.0952e-05 6.3846e-06 2.1436e-05 0.18662 0.00030901 4.7924e-05 -3.3542e-06 -3.0765e-07 -6.0374e-06 7.0732e-05 -8.4239e-06 3.3821e-05 -2.2259e-05 0.00047283 -1.9972e-05 -1.5148e-05 0.0002297 -3.39e-05 0.33015 -9.759e-05 -0.00014525 3.7874e-05 -3.3695e-05 2.2521e-05 2.1985e-05 4.3031e-05 0.00013279 4.3846e-06 -1.3417e-05 5.7301e-06 0.00032347 -0.00012749
-4.4649e-07 2.9126e-05 6.4466e-05 -3.459e-05 0.00028069 0.0001693 2.0825e-05 0.00022788 0.19674 3.281e-05 0.18307 0.00017641 0.18438 0.27817 4.9136e-05 -1.4133e-05 -4.285e-06 5.0977e-05 4.2546e-05 -0.00012452 1.785e-05 0.00070172 -2.1895e-05 2.8448e-05 0.0010278 5.2782e-05 2.5204e-05 0.00026708 1.2206e-05 -6.1108e-05 -1.1906e-05 1.7255e-05 2.7391e-07 0.0018895 6.0139e-06 -0.00011674 -9.2671e-05 -6.9243e-05 0.00048095 -0.00028586
-6.108e-07 4.9109e-05 0.00017499 6.0239e-06 1.4661e-05 3.4751e-05 2.3653e-05 -1.8825e-06 2.1667e-05 1.8836e-06 4.8996e-05 -7.9714e-06 2.8044e-05 0.00025147 7.5577e-06 -1.2334e-06 -1.5394e-06 4.0339e-06 9.6983e-07 -1.1909e-05 -2.0655e-06 9.7384e-05 4.5565e-06 1.4311e-05 -3.1412e-07 4.3632e-06 -3.2861e-06 -1.5635e-06 -2.3904e-05 -1.0475e-05 -0.0002495 1.1233e-05 -2.4985e-06 -6.3216e-05 3.5388e-05 3.6605e-06 -3.0976e-05 1.2138e-05 0.49663 4.823e-05
-4.847e-06 -2.2092e-05 -4.7894e-06 -1.6756e-05 0.13027 5.3197e-06 1.1561e-05 1.1208e-06 9.6588e-05 4.5621e-06 0.00045573 -1.7931e-06 0.00050145 -6.2044e-06 6.801e-05 1.5324e-06 5.6687e-05 3.6342e-05 0.00020309 -4.6488e-05 -1.1928e-05 0.0013075 -2.2117e-05 -1.5321e-05 0.001158 -6.6488e-05 0.00062283 -4.1591e-05 -0.00012262 0.00062965 -3.996e-05 -0.00026531 7.4581e-05 5.9765e-06 0.0074745 1.1772e-05 -2.0375e-05 -1.6842e-05 0.0011833 -0.0010011
2.7582e-06 0.17388 6.0188e-06 0.00027289 0.13003 1.5378e-05 -1.9647e-05 0.00015102 0.00027671 8.4242e-06 0.00050399 0.18567 7.2507e-05 0.00012226 0.00023692 2.8998e-06 -5.2484e-05 3.1182e-05 -3.0978e-06 -8.8374e-06 -5.6758e-06 0.00030914 1.2675e-05 -6.4904e-05 0.00025279 -4.1412e-05 0.00024961 7.7063e-05 -3.2095e-05 1.0731e-05 -1.3518e-05 -2.4366e-05 1.9252e-05 0.00011952 0.00068064 2.134e-05 -1.8931e-05 -2.5544e-05 0.00017047 2.0559e-05
-1.8422e-06 4.7704e-06 -5.2681e-06 -2.8975e-05 0.13054 1.4806e-07 8.1783e-05 -7.2901e-07 0.00061402 3.8346e-05 0.00072921 1.4656e-05 0.00058289 0.00025833 4.1004e-05 1.564e-06 -8.8989e-06 -1.0743e-05 -8.7656e-05 -1.394e-05 1.619e-06 0.00015133 -1.3577e-06 2.8131e-05 0.31316 0.0001005 0.0012983 0.00024496 7.0623e-05 -6.7923e-05 -2.4192e-05 2.8216e-06 1.4392e-05 7.1048e-05 -0.00032456 9.8724e-07 -1.5662e-05 -1.3483e-05 0.00025069 -3.5131e-05
0.00012503 9.5931e-05 0.00019909 1.4148e-06 1.6503e-05 0.00018011 3.1212e-05 1.9946e-06 6.1674e-05 1.0933e-05 0.0002937 0.00038047 3.4491e-05 0.00024062 8.0547e-05 -6.0503e-06 -1.1068e-05 0.00095402 3.9616e-05 -2.2262e-05 -6.9035e-05 0.00044774 -3.434e-06 -6.2228e-05 0.0026339 1.5416e-05 4.5168e-05 0.00037026 -9.359e-05 0.00085463 -9.1954e-06 0.00010479 -7.3686e-06 5.3075e-06 -7.751e-05 -2.8142e-05 -6.9321e-05 -4.8549e-08 0.00050875 -0.0004003
1.4575e-06 0.17392 3.153e-06 0.00022065 0.00013985 0.31587 -6.3343e-05 -1.2859e-05 0.19674 2.7983e-05 0.18237 0.18571 0.18223 0.00038432 3.1021e-05 9.6859e-07 -7.1195e-05 -1.1869e-05 1.6006e-06 -4.7569e-06 1.3104e-05 0.22436 -0.00019768 -9.0055e-05 1.881e-06 7.9825e-05 -8.657e-05 0.00027535 -7.4835e-05 -6.338e-05 2.2223e-06 -2.9208e-05 1.542e-06 5.5695e-05 0.00029653 -1.822e-05 -2.4339e-05 -2.3421e-05 0.50125 0.0036029
3.3716e-06 0.17384 -7.716e-06 0.17645 0.12996 3.4496e-06 -8.6751e-06 0.28848 -1.0898e-07 9.9277e-06 -5.0543e-06 0.18536 2.8999e-05 0.27606 6.9449e-06 0.5 -3.6666e-05 -1.2309e-05 6.6148e-06 0.24973 -7.2724e-06 -9.5936e-06 7.2182e-06 7.8395e-06 8.6611e-07 -7.3808e-06 -3.9065e-05 3.18e-06 -1.2483e-05 -0.00010362 0.28802 -2.1655e-05 0.35188 -3.9345e-06 0.00034951 0.37609 0.4471 0.50007 1.2177e-05 9.1167e-05
1.7709e-05 3.7318e-06 3.6277e-06 -2.3116e-05 0.13041 5.1869e-06 -5.3498e-06 -5.9293e-07 8.1757e-05 3.2588e-06 0.18349 0.0010481 0.18324 -1.0596e-05 0.000381 -1.5245e-06 -1.5397e-05 -3.6645e-05 5.5054e-05 7.5975e-05 -4.8146e-06 0.0017733 -7.6078e-05 7.7738e-06 0.31295 4.3661e-06 -0.00012004 -0.00015253 0.00012284 -5.2937e-05 -9.001e-06 1.7408e-05 4.1764e-05 8.6351e-05 0.00024528 -4.7245e-06 -2.0062e-05 -1.5355e-05 0.0014877 -0.00046539
-8.261e-06 3.879e-05 9.0559e-05 -1.0127e-05 0.00019435 0.00025735 -1.2213e-05 -9.0664e-07 1.5935e-05 9.9526e-05 7.8453e-06 8.9604e-05 0.00013152 -1.9935e-05 2.4906e-06 2.0417e-06 8.6986e-07 0.00048845 0.00010655 2.0512e-06 -8.2768e-06 0.0029981 -7.9692e-06 0.0025209 0.00042854 -8.7401e-05 0.0013725 1.3076e-06 -3.1485e-05 0.00056316 -9.9394e-07 -6.128e-05 -1.0467e-06 -5.6012e-05 0.0021804 -2.3384e-06 -1.3426e-05 2.6891e-06 1.947e-06 -0.00042073
8.4682e-06 1.7253e-05 -9.9341e-07 1.486e-05 2.8269e-05 3.3014e-05 9.0749e-05 -6.0636e-07 7.2027e-06 -0.00010196 0.00048651 -6.3913e-06 3.1922e-05 3.3856e-05 1.6145e-05 -3.9918e-07 -8.0223e-07 -0.00014068 1.5345e-05 -3.3858e-06 -3.4259e-07 0.00080565 -1.3231e-05 -1.8328e-05 0.001292 2.4975e-06 0.0004016 0.40762 -3.0525e-05 0.0086176 -3.9835e-06 5.8152e-06 -2.8284e-06 2.1144e-05 -4.9543e-05 -4.3677e-06 -7.5186e-06 -2.6824e-06 -2.2058e-06 0.00019536
8.9943e-05 0.0013026 0.27715 0.17649 0.00015974 -0.00014176 -9.1133e-06 -2.8403e-05 3.507e-05 -2.1238e-06 0.1826 -1.7903e-05 0.18189 -8.1511e-05 -5.2379e-05 -1.0132e-06 -7.2076e-06 0.0019756 7.9415e-07 -5.0936e-05 -2.6177e-05 -0.00021672 0.44034 0.0088643 -0.00030359 0.0026109 -0.00018888 -1.7403e-05 0.0035446 1.2704e-06 -3.6218e-05 0.40173 -4.4979e-05 0.0010505 0.0012605 2.4879e-05 2.7538e-05 3.2835e-06 7.1708e-05 -0.00029133
-7.4452e-07 7.4089e-06 7.6476e-05 -5.3741e-05 0.1303 7.7631e-05 1.107e-05 0.00024234 0.19639 3.5655e-05 0.18236 2.8996e-05 0.18227 0.0010319 1.3365e-06 -8.0342e-06 -3.2774e-05 -7.8336e-05 0.29974 -6.4381e-05 7.2516e-06 0.0013312 2.5341e-06 7.3431e-05 0.0012681 0.00012289 3.1564e-05 0.00030711 -5.1696e-06 -1.6472e-06 1.5106e-05 1.5498e-05 1.6256e-05 0.0018837 0.00075755 -6.0292e-05 0.00012809 -3.6224e-05 0.0004047 5.7801e-05
3.106e-06 0.17389 1.2213e-06 3.5335e-05 0.00018792 -3.029e-06 1.2732e-05 0.00034753 0.19643 3.858e-05 0.00053588 0.00010176 0.00039144 5.1189e-05 7.9231e-05 -8.1612e-05 -3.7483e-05 -4.1655e-05 6.1869e-05 -1.7254e-06 -3.0861e-06 0.00071757 -1.3435e-05 1.9048e-05 0.0026874 0.00012408 0.00012017 0.00038167 -2.6366e-05 1.5913e-06 0.00034168 -1.5535e-05 0.0047883 7.0006e-05 2.0676e-06 0.0052259 -3.3774e-05 -8.8819e-05 0.000313 0.00021231
-1.2283e-06 4.4354e-06 -1.6465e-05 -4.2589e-05 0.00012796 -2.3442e-06 0.3534 1.0219e-06 -3.0993e-06 0.00017299 0.00045016 0.00017493 0.00031282 -7.3549e-06 -2.4794e-05 9.2655e-07 -1.9585e-06 -2.7502e-05 0.00043983 -2.3461e-05 7.549e-05 0.0034532 3.5097e-05 0.00088787 0.0017843 -6.8759e-06 0.35934 7.2955e-05 -0.00012651 -0.00033128 -1.1618e-05 -0.00024565 1.1441e-05 6.1033e-05 0.0077832 2.4382e-06 -1.2223e-05 -9.5958e-06 7.6797e-05 -0.001346
0.28854 0.17408 -1.1578e-05 8.5386e-07 5.5744e-05 -3.2667e-05 -7.9331e-07 -6.0069e-06 0.19591 -8.0547e-07 -6.5348e-06 9.5464e-05 -3.0547e-05 1.0304e-06 4.89e-06 6.6553e-06 -1.9872e-05 0.00062562 1.5783e-06 -9.3354e-08 -3.2387e-05 1.3619e-05 -0.00025939 1.8497e-06 -4.6977e-05 0.30098 0.00010862 2.1905e-05 0.31394 -2.4008e-05 5.9077e-05 -5.7342e-06 -3.1493e-05 0.00057789 2.2443e-05 6.7482e-06 2.328e-06 -1.6794e-06 2.4145e-05 6.3415e-05
5.161e-06 0.17437 9.1218e-06 0.17648 0.13028 2.934e-06 -4.9844e-05 -1.3909e-05 2.5858e-05 -4.4315e-06 0.18317 -3.6645e-05 0.18209 -3.099e-06 2.8604e-05 4.1147e-06 -7.0686e-06 -2.1244e-05 2.2641e-05 0.25023 -4.1688e-05 0.22416 3.4424e-06 -2.0988e-05 -3.5529e-05 3.0373e-05 -0.00012208 -1.437e-05 -6.5568e-05 -5.3831e-05 0.00016866 -1.2775e-05 5.7867e-05 9.5479e-06 2.2425e-05 -1.985e-05 2.8151e-05 -2.1479e-05 0.0017913 0.0037907
1.6631e-05 -3.134e-05 1.9212e-06 -3.6331e-05 0.13026 2.8294e-05 4.1937e-05 1.6748e-06 1.487e-05 -0.00011601 0.18211 -8.5573e-06 0.18377 5.255e-05 0.00010158 2.4818e-07 5.6949e-05 3.0954e-06 5.19e-06 0.00011205 -8.0853e-05 0.22627 -1.2825e-05 -9.9261e-05 0.0010614 -8.2378e-05 0.00090634 0.0019217 -0.00014039 0.0095288 5.5636e-06 -2.1326e-05 2.8405e-05 2.7706e-05 -8.0879e-05 -1.092e-05 -6.8552e-06 -1.0511e-05 0.00020834 0.0026718
-4.6209e-07 1.5508e-05 8.7375e-05 -1.7823e-06 0.13015 8.5327e-05 2.2366e-05 0.28894 2.3753e-05 9.684e-06 5.8547e-06 0.18554 2.8956e-05 0.001103 3.8795e-07 -3.5965e-06 -3.1018e-06 -3.6478e-05 0.00022664 -1.2493e-05 -2.2033e-06 0.00024847 1.6379e-05 1.5941e-05 0.00022522 -2.0129e-05 1.3627e-05 -1.3644e-05 -8.3083e-06 -7.457e-06 -5.1921e-05 -7.6855e-05 1.6023e-05 0.0020258 0.0020703 5.0671e-05 5.0815e-06 -4.7156e-05 2.1739e-05 1.4057e-05
1.8599e-05 1.1064e-05 0.27728 0.17663 0.13006 9.9861e-07 -9.7715e-06 -4.2448e-06 -6.421e-05 -6.9121e-05 3.953e-05 0.18555 6.9024e-05 6.7959e-05 -5.7297e-06 -1.4e-05 -2.2475e-06 -1.1979e-05 -5.016e-06 0.25025 -1.7789e-05 0.00013194 2.309e-05 1.7439e-05 5.0925e-05 -2.9066e-05 7.2669e-05 -8.9056e-06 -3.9765e-05 0.0035537 0.29109 -7.4672e-06 -5.0029e-05 -6.0319e-05 0.00055075 -1.0177e-05 2.6379e-05 1.6587e-05 0.00015765 3.9616e-05
-1.0814e-07 -7.0196e-05 1.0443e-05 0.17763 0.13042 0.00010407 0.00057456 -3.8702e-06 5.7157e-06 8.0948e-05 0.18209 -3.8212e-06 0.18214 1.5768e-05 0.00040137 2.895e-06 -2.9058e-05 0.24978 0.30088 -0.00013954 0.57734 0.24034 -0.00018732 -0.00074095 0.00011367 -5.8323e-05 -0.00016549 0.00030754 -0.00018949 0.0014134 1.0271e-05 -2.1405e-05 -8.4329e-05 -0.00051098 -0.00027122 -4.6527e-05 5.3425e-05 1.768e-05 0.00010535 0.56801
-7.4452e-07 7.4089e-06 7.6476e-05 -5.3741e-05 0.1303 7.7631e-05 1.107e-05 0.00024234 0.19639 3.5655e-05 0.18236 2.8996e-05 0.18227 0.0010319 1.3365e-06 -8.0342e-06 -3.2774e-05 -7.8336e-05 0.29974 -6.4381e-05 7.2516e-06 0.0013312 2.5341e-06 7.3431e-05 0.0012681 0.00012289 3.1564e-05 0.00030711 -5.1696e-06 -1.6472e-06 1.5106e-05 1.5498e-05 1.6256e-05 0.0018837 0.00075755 -6.0292e-05 0.00012809 -3.6224e-05 0.0004047 5.7801e-05
-2.267e-06 1.782e-05 1.9576e-06 -7.4403e-05 0.13032 0.31593 -4.294e-05 -8.0159e-06 2.8432e-05 -4.3628e-06 0.18298 3.7968e-05 0.18227 0.00021148 0.00011528 -1.3838e-06 -1.7672e-05 -5.0928e-05 4.4611e-06 -5.7013e-05 8.5651e-05 0.2316 -0.00021079 0.00086113 0.00097727 -2.5299e-05 0.00088322 -7.6007e-05 3.4257e-05 -0.00014379 -1.5134e-05 -5.3453e-05 3.0859e-06 1.1049e-06 5.8664e-06 1.3492e-06 -1.8083e-05 -4.7292e-06 8.3519e-06 0.0015922
-1.6859e-05 -7.2969e-05 0.000118 -6.4842e-05 0.131 0.00024131 -2.0384e-05 3.1959e-05 5.6985e-06 0.00068015 -6.2243e-05 0.18605 0.00010318 7.1399e-05 -1.9007e-05 3.4301e-07 -1.0926e-05 0.24909 0.3067 -5.5557e-05 5.5626e-05 0.0027867 -4.7342e-05 0.34981 0.33779 -0.00032766 0.32611 7.0269e-05 -0.00012783 0.00055748 2.3508e-05 -0.001893 4.4672e-05 -0.00030433 0.50722 1.0767e-05 -1.777e-05 9.5294e-06 -3.0898e-05 -0.00039684
-2.0888e-06 1.1722e-07 7.4761e-08 4.4751e-06 0.12994 1.0104e-06 -7.9258e-08 1.4559e-07 -2.0149e-06 4.2375e-06 -5.8013e-06 -1.792e-06 2.766e-06 2.4187e-06 -2.2696e-07 1.7368e-08 -3.99e-07 1.5451e-06 1.02e-06 2.4107e-06 -5.8257e-07 3.3534e-06 1.6049e-08 3.2223e-06 1.3653e-06 7.6142e-07 1.6876e-06 -1.2504e-05 -2.9648e-06 2.2764e-07 4.8542e-07 -6.5744e-06 8.3524e-06 1.6815e-06 3.6283e-06 -2.1503e-09 1.3008e-07 -5.4634e-07 -6.1099e-06 2.9319e-06
3.8008e-06 0.17382 -3.6696e-06 0.17645 0.12995 1.1212e-06 -8.4261e-06 0.28853 5.098e-06 5.4588e-06 -1.8656e-06 0.18545 2.8836e-06 0.00010618 4.3861e-06 6.5481e-06 -8.8978e-06 -1.4163e-05 2.7681e-06 0.24936 -8.5547e-06 -4.2802e-06 3.8647e-06 4.343e-06 9.5815e-06 -8.4375e-06 -7.2929e-06 2.475e-06 -1.4746e-05 1.3963e-05 0.00017937 -2.8265e-05 8.2689e-06 1.7781e-05 0.00026126 0.00011053 1.0929e-05 1.0399e-05 1.3661e-05 0.00010128
3.8008e-06 0.17382 -3.6696e-06 0.17645 0.12995 1.1212e-06 -8.4261e-06 0.28853 5.098e-06 5.4588e-06 -1.8656e-06 0.18545 2.8836e-06 0.00010618 4.3861e-06 6.5481e-06 -8.8978e-06 -1.4163e-05 2.7681e-06 0.24936 -8.5547e-06 -4.2802e-06 3.8647e-06 4.343e-06 9.5815e-06 -8.4375e-06 -7.2929e-06 2.475e-06 -1.4746e-05 1.3963e-05 0.00017937 -2.8265e-05 8.2689e-06 1.7781e-05 0.00026126 0.00011053 1.0929e-05 1.0399e-05 1.3661e-05 0.00010128
1.8599e-05 1.1064e-05 0.27728 0.17663 0.13006 9.9861e-07 -9.7715e-06 -4.2448e-06 -6.421e-05 -6.9121e-05 3.953e-05 0.18555 6.9024e-05 6.7959e-05 -5.7297e-06 -1.4e-05 -2.2475e-06 -1.1979e-05 -5.016e-06 0.25025 -1.7789e-05 0.00013194 2.309e-05 1.7439e-05 5.0925e-05 -2.9066e-05 7.2669e-05 -8.9056e-06 -3.9765e-05 0.0035537 0.29109 -7.4672e-06 -5.0029e-05 -6.0319e-05 0.00055075 -1.0177e-05 2.6379e-05 1.6587e-05 0.00015765 3.9616e-05
-3.7938e-06 -3.7398e-05 -1.0444e-05 -6.0078e-06 2.2944e-05 0.31571 0.35322 -3.0049e-06 3.3007e-06 7.5115e-05 0.00043319 4.1971e-05 -9.8404e-07 0.2787 0.00012326 -4.5058e-07 1.6799e-06 -0.00012059 0.0001814 -7.9897e-05 0.00014169 0.00053833 -0.00020104 -8.2395e-05 0.0013363 -6.3339e-05 0.00057058 0.40815 -6.8473e-05 0.44311 -0.00021767 -9.1661e-06 -9.8667e-05 0.00011802 0.00039286 -5.445e-05 -6.8587e-05 -7.8932e-05 8.5018e-06 0.00071697
0.00015017 0.174 0.2774 -2.9488e-05 0.00016058 0.00017624 -1.8916e-05 2.2712e-05 2.1691e-05 -7.2165e-06 2.2154e-05 0.00039004 4.3569e-05 0.27626 1.1956e-05 -5.5678e-06 -9.0986e-06 0.0010097 0.00016005 9.8166e-05 -0.00014396 0.22412 2.2529e-05 1.2941e-05 0.00018775 4.1604e-06 -0.00015017 1.9681e-06 -0.00015719 -8.0549e-05 -0.00028218 5.1935e-05 -6.2705e-06 5.4091e-05 0.0016881 2.469e-05 -2.891e-05 1.093e-05 0.00028487 0.0035348
-9.9305e-07 8.2038e-05 9.3329e-05 0.0012855 0.13065 0.00034878 0.00071029 -2.859e-06 0.00012535 0.50004 0.00023893 0.00016475 0.00020197 -1.9814e-05 7.3695e-06 -4.0917e-06 0.0040442 0.00096212 0.00054793 -5.7264e-05 0.0037853 0.0093073 -4.5778e-05 0.0020865 0.0004031 -8.8896e-05 0.001558 0.00053544 -6.2306e-05 0.43511 -0.00024564 -7.4817e-05 0.0008033 -4.1074e-05 0.0021367 0.00044898 -1.3483e-05 -0.00017097 1.8128e-06 0.10041
0.00014566 9.6474e-05 0.00026923 1.6241e-06 0.00015948 0.00094723 3.3238e-05 0.00027625 0.00013755 2.9041e-06 3.7474e-06 0.18618 0.00027852 0.0013298 0.00021697 -2.0895e-05 -1.257e-05 0.0020252 0.00021516 -4.1466e-05 -3.1566e-05 0.00046015 0.01083 0.0005048 0.00028241 0.00035404 8.052e-05 6.798e-05 0.0032312 -1.9603e-05 -1.425e-05 -0.00012986 1.2642e-05 0.33865 0.0022999 -0.00011865 -0.00013253 -5.2374e-05 7.226e-06 -0.00046871
-4.0414e-06 -2.2559e-05 2.0123e-06 -2.4982e-05 0.00029272 2.2257e-05 2.4254e-05 1.6238e-06 -8.939e-06 0.49909 1.1677e-05 9.369e-05 1.2531e-05 1.1722e-05 0.00020102 -4.793e-07 7.1301e-05 0.0001156 0.00050224 -2.248e-05 2.4501e-06 -1.8822e-05 -1.2484e-07 -3.9188e-06 0.00055316 -4.1493e-05 0.00026285 0.0003718 -6.3563e-06 0.0005956 1.7358e-08 -3.2602e-05 2.1731e-05 7.0282e-05 0.00066428 -4.0239e-06 -3.4429e-05 1.7248e-05 6.913e-06 0.00085193
-3.2047e-06 6.9631e-07 6.1282e-08 3.5571e-06 0.12992 1.1761e-06 -7.7221e-08 1.3513e-08 -1.5893e-06 4.6329e-06 -5.5333e-06 -1.2299e-07 2.804e-06 2.6962e-06 -6.5046e-08 1.9002e-08 -4.4486e-07 1.8019e-06 2.7341e-06 1.517e-06 -5.1142e-08 2.8816e-06 8.4249e-09 -5.1439e-07 6.893e-07 1.1204e-06 2.6718e-06 -1.2346e-05 4.7092e-06 8.7299e-08 3.4663e-07 -5.5915e-06 7.1021e-06 1.1619e-06 3.4276e-06 -2.457e-09 8.7715e-09 -3.3801e-07 -7.9364e-06 2.9756e-06
4.9942e-05 8.6824e-05 1.2169e-05 1.0349e-05 1.527e-06 -6.5774e-06 -4.7627e-05 1.0281e-06 0.19589 0.00092802 0.18345 6.403e-05 0.184 3.4128e-05 0.33265 -4.9851e-06 0.57801 0.2481 2.138e-08 7.5374e-06 -8.018e-06 0.22425 -0.0001064 4.7612e-05 -5.446e-05 3.4536e-05 6.3123e-05 -3.8649e-05 -0.00016477 -9.2601e-05 2.1128e-05 -2.1372e-05 0.00081137 -0.00025234 7.6894e-05 0.00048366 1.3455e-05 -0.00020814 -4.228e-05 0.0036573
1.288e-05 8.6619e-05 5.0413e-06 3.2509e-05 0.13019 1.0563e-06 6.1945e-05 6.9096e-07 0.00013802 0.0014264 0.00022088 0.18575 4.5467e-05 0.00010186 4.709e-06 -7.7264e-06 0.0040253 0.00012358 0.00054365 -1.2038e-05 -3.218e-05 0.00018941 5.6058e-06 -2.0034e-05 0.00017531 -8.4805e-05 0.0019957 0.001832 -0.00014386 -2.0751e-05 -3.8421e-05 -2.8963e-05 0.00089662 0.00012665 0.00066252 0.00048248 -1.6401e-05 -0.00018133 2.6063e-06 -6.1966e-05
-2.8964e-06 -3.5791e-06 6.9301e-07 -9.3445e-07 0.13 -1.2204e-06 -7.5689e-07 3.8343e-07 6.9946e-06 2.0207e-06 7.4708e-05 -1.1077e-05 9.0758e-06 1.6529e-06 -2.2229e-06 3.5576e-07 -6.4761e-07 -8.4653e-06 3.425e-05 -4.1075e-06 -3.349e-07 0.00037174 -1.5838e-06 -1.3514e-05 0.0011297 1.8329e-06 -3.0055e-05 -1.9255e-05 -1.416e-05 -1.5597e-06 5.8005e-06 2.0129e-05 6.2227e-06 2.7136e-05 0.00072729 -1.9927e-06 -3.6384e-06 2.6431e-07 4.4732e-05 -0.00010772
3.3759e-05 0.17392 -9.3008e-06 0.1789 0.13003 1.6969e-05 2.7629e-05 -3.7473e-06 4.7025e-05 9.8821e-05 0.00012326 -8.3941e-06 2.9211e-05 2.8127e-05 0.33412 -1.8355e-06 -2.1384e-05 -0.00023118 0.29981 -0.00010845 8.2199e-05 0.0007055 -0.00012955 -0.00015391 0.31133 1.9631e-05 1.7563e-06 0.00033439 0.31447 0.00024214 4.3092e-05 -5.7238e-05 2.6819e-05 -4.3891e-05 -0.00023011 2.6016e-05 6.6575e-05 -8.5308e-05 -7.7283e-06 0.00070236
-1.0597e-05 0.00010784 9.6584e-05 -7.6827e-05 8.2923e-05 0.00028199 -7.3231e-05 -8.2696e-06 0.00012542 9.2092e-05 0.18211 0.00021043 0.18322 0.0002274 3.5784e-05 -8.7693e-06 -1.6177e-05 0.00049628 0.00012485 4.4558e-06 -1.3827e-05 0.22845 -0.00010231 0.0025297 0.0019643 -7.8223e-05 0.0012359 5.7747e-05 -2.9096e-05 0.00049022 7.9223e-06 -8.0868e-05 -6.5041e-06 -5.0618e-05 0.0021824 -2.2248e-05 0.0001177 1.0387e-05 0.00026015 0.0030861
-1.2283e-06 4.4354e-06 -1.6465e-05 -4.2589e-05 0.00012796 -2.3442e-06 0.3534 1.0219e-06 -3.0993e-06 0.00017299 0.00045016 0.00017493 0.00031282 -7.3549e-06 -2.4794e-05 9.2655e-07 -1.9585e-06 -2.7502e-05 0.00043983 -2.3461e-05 7.549e-05 0.0034532 3.5097e-05 0.00088787 0.0017843 -6.8759e-06 0.35934 7.2955e-05 -0.00012651 -0.00033128 -1.1618e-05 -0.00024565 1.1441e-05 6.1033e-05 0.0077832 2.4382e-06 -1.2223e-05 -9.5958e-06 7.6797e-05 -0.001346
4.7294e-05 7.4752e-05 1.3608e-05 1.4186e-06 0.00015534 -3.8846e-05 -4.5273e-05 1.7279e-06 0.19601 0.00093329 0.18294 4.249e-05 0.18257 -1.0036e-05 0.33273 -5.6948e-06 0.58 0.24894 -1.7642e-06 -2.437e-05 -6.1922e-05 0.22603 -0.00021297 -0.00028041 -0.000132 -2.1574e-06 0.00066819 -4.805e-05 -0.00030352 0.00049683 7.2837e-06 -3.9607e-06 0.00088432 -0.0002771 -0.00013687 0.00049799 5.3171e-06 -0.00024566 7.9022e-05 0.002161
6.6602e-06 1.5563e-06 -9.673e-06 7.6945e-07 2.4194e-06 3.8159e-07 8.1778e-06 -3.3949e-06 -6.1276e-05 -4.2328e-08 1.8116e-06 4.6057e-06 -7.0186e-06 -5.9373e-07 3.2833e-06 2.7466e-07 2.1009e-06 5.3497e-06 9.1896e-07 -2.6455e-07 1.8686e-06 4.8223e-07 -1.1455e-05 -1.1748e-06 1.7038e-07 -6.7572e-06 1.9922e-06 -1.1396e-08 1.0829e-05 3.3102e-06 2.1991e-05 -5.9788e-05 -7.5643e-07 0.0063774 -5.421e-06 -9.4985e-08 -4.7675e-08 1.2049e-07 -6.6847e-07 4.5148e-06
4.4036e-05 0.17394 0.27705 6.5809e-06 0.12994 3.0888e-06 -2.9443e-06 -5.8463e-06 1.1044e-05 4.293e-06 9.4023e-07 -4.6147e-06 5.4824e-06 1.4053e-05 0.33282 8.1843e-06 -2.8486e-05 -1.4591e-05 2.4912e-06 -9.0171e-07 8.8909e-07 -4.4522e-06 2.1363e-05 8.645e-06 1.4634e-05 -2.7795e-05 -9.8329e-06 2.0419e-06 -2.6504e-05 -0.0001073 -4.1829e-05 3.1094e-05 -2.7838e-05 -3.7789e-05 1.1308e-05 4.2328e-06 7.7753e-07 9.6394e-08 -1.573e-05 0.00019583
-3.3401e-07 2.9097e-07 -3.3699e-06 -4.8178e-06 3.429e-05 5.848e-07 -4.7289e-07 3.6852e-07 8.1162e-07 -8.1429e-07 0.00021005 -4.6403e-07 0.00022131 1.0667e-05 8.858e-06 3.0839e-07 2.7152e-06 -4.4755e-06 -1.5814e-05 -6.8385e-07 -5.6813e-06 1.4809e-05 2.9796e-06 -1.7572e-05 0.00075102 3.7224e-06 -8.4501e-06 1.4472e-06 1.1414e-05 -2.0539e-07 1.7316e-07 9.7501e-06 1.1982e-05 -3.0124e-06 -3.2275e-06 1.0336e-05 -5.4965e-06 6.3047e-07 -2.6301e-05 -4.8986e-07
8.9943e-05 0.0013026 0.27715 0.17649 0.00015974 -0.00014176 -9.1133e-06 -2.8403e-05 3.507e-05 -2.1238e-06 0.1826 -1.7903e-05 0.18189 -8.1511e-05 -5.2379e-05 -1.0132e-06 -7.2076e-06 0.0019756 7.9415e-07 -5.0936e-05 -2.6177e-05 -0.00021672 0.44034 0.0088643 -0.00030359 0.0026109 -0.00018888 -1.7403e-05 0.0035446 1.2704e-06 -3.6218e-05 0.40173 -4.4979e-05 0.0010505 0.0012605 2.4879e-05 2.7538e-05 3.2835e-06 7.1708e-05 -0.00029133
-2.056e-06 3.0495e-05 7.5099e-06 1.7307e-06 0.13015 -8.2347e-06 -5.2692e-06 -8.0309e-06 -1.3968e-05 2.101e-06 0.00010497 -0.00021697 2.5396e-05 2.5263e-05 -9.8975e-06 -2.0538e-06 -1.0524e-06 -2.8967e-05 1.9832e-05 -4.3437e-05 1.4101e-05 0.00029111 -6.2885e-05 0.00033894 0.00092011 5.2956e-05 -0.00017387 -2.3303e-05 0.00027739 -2.9776e-06 3.4059e-05 0.38919 2.4765e-05 6.9536e-05 0.47467 1.9755e-06 4.911e-06 2.6818e-06 8.6839e-06 2.0237e-05
-1.0157e-05 -1.5004e-05 9.6958e-05 -1.5276e-05 0.13065 0.31608 -9.1739e-06 -5.595e-06 -1.1551e-05 0.00010453 0.0012038 6.1722e-05 0.00013579 -2.0249e-05 1.3676e-06 -1.1797e-07 -2.8325e-06 0.00056627 0.00014257 0.00018582 7.6471e-05 0.0030342 -0.00024084 0.0024822 0.00044017 -0.00017402 0.0013897 -2.8971e-05 -9.606e-05 0.00058386 6.5238e-06 -6.9621e-05 4.5234e-05 -0.0001143 0.0021999 1.291e-05 -2.3884e-06 -1.9315e-05 -1.9871e-06 -0.00060671
6.3403e-06 0.17382 -8.4608e-06 0.17645 -2.4423e-06 -1.1368e-06 -9.8598e-06 1.812e-06 0.19577 2.3975e-06 -1.5688e-05 -0.00072872 2.0613e-06 0.28204 3.3933e-06 6.7761e-06 -1.0678e-05 -1.6282e-05 5.8964e-06 0.25125 -1.5066e-06 -1.2233e-05 -4.2921e-06 1.3307e-05 5.4548e-06 1.444e-05 -3.1573e-05 2.0496e-05 2.4688e-05 -8.4273e-05 0.28833 1.8767e-06 6.3726e-06 2.7219e-05 3.9873e-05 -0.00025301 -3.1706e-05 -0.00031592 1.1024e-05 0.00011313
5.8125e-06 0.17387 4.5263e-05 0.17645 2.4863e-05 4.6529e-05 3.4756e-05 -1.3464e-05 0.19576 -3.1311e-07 2.2086e-06 -9.2661e-06 2.42e-06 1.8238e-05 2.474e-06 2.254e-07 -8.5085e-06 -1.9988e-05 5.1681e-06 0.2497 5.2626e-07 -2.4933e-06 4.1964e-06 3.34e-06 4.9229e-06 1.2293e-05 -1.7412e-05 2.2422e-05 -1.7855e-05 -0.00010719 0.28821 -2.6722e-06 8.2383e-06 0.00035379 4.6751e-05 2.4756e-05 6.5143e-06 1.5952e-06 9.4709e-06 0.00013653
3.892e-07 3.4186e-07 -1.198e-06 1.4295e-05 -1.3503e-06 3.51e-05 8.9481e-05 2.0504e-07 8.5254e-06 -9.8713e-05 0.00049083 -8.3158e-06 3.2565e-05 3.9195e-05 2.5643e-05 -6.4277e-08 7.77e-07 -0.00010546 3.0355e-05 -3.2887e-06 6.0229e-07 0.00075415 -8.5119e-06 2.9361e-05 0.31072 6.0397e-07 0.00032687 0.40766 0.00013392 0.008587 -1.3547e-06 2.0306e-05 -6.7972e-06 5.0087e-05 -0.00029181 -9.8925e-06 -5.8856e-06 4.0972e-07 -8.8131e-06 0.00020294
2.1871e-06 7.3156e-06 4.1661e-05 -4.3983e-05 0.00031679 -1.2128e-05 0.3537 1.2338e-06 0.00062855 0.50226 0.00052774 0.00019129 0.00034133 1.0433e-05 8.2476e-05 1.9957e-06 6.0219e-05 -1.4761e-05 0.30067 -5.7189e-05 -3.0325e-05 0.0062585 -1.1573e-05 -0.00030687 0.0028807 0.00012058 0.32825 0.40825 -6.0806e-05 0.00019161 -6.4167e-06 -1.6552e-05 1.374e-05 4.688e-05 0.00013215 1.441e-05 -3.2732e-07 1.1819e-05 0.00029058 0.0011341
-2.0036e-06 4.2927e-06 2.2231e-07 3.8752e-06 -1.4382e-05 0.00027798 -1.9867e-06 -1.3908e-06 4.3765e-05 1.402e-07 1.2747e-06 2.3609e-06 2.0229e-06 6.4493e-06 7.517e-07 7.5188e-08 -3.3783e-06 -2.8563e-06 -6.7084e-08 -9.2668e-07 -1.9253e-06 1.5377e-05 -8.0206e-07 1.9973e-06 1.542e-07 -9.6748e-06 -1.6578e-07 8.7867e-07 -7.2327e-06 3.8591e-06 -1.5033e-05 -1.8078e-06 -4.9201e-06 -5.7624e-06 3.2165e-07 -2.5149e-06 -2.0402e-06 2.2753e-06 0.0056368 1.4685e-05
2.5827e-05 1.1234e-05 -5.7768e-06 0.17671 0.13 9.134e-06 -3.528e-05 1.1052e-07 0.00027589 7.1459e-06 0.18203 0.18564 0.18197 8.9044e-05 0.00014601 -1.1151e-06 -4.9012e-05 -9.3877e-05 2.8792e-05 4.7726e-07 -1.3316e-06 0.0010151 -0.00011612 -1.4666e-05 0.30773 6.0507e-06 -7.8956e-06 -2.4437e-05 0.31312 -4.3456e-05 -1.6189e-05 -1.1618e-05 -5.0822e-07 -6.1517e-06 6.372e-05 5.948e-07 -3.7756e-06 -2.3607e-05 0.00020043 3.9187e-05
0.28867 0.17522 0.27772 0.1766 0.13018 0.00060575 -2.7436e-05 0.00017157 0.19608 5.6945e-06 0.18261 6.3496e-05 0.18221 -4.1539e-05 -6.853e-05 -3.591e-06 -2.6088e-05 0.25209 -6.6181e-06 -6.6968e-05 8.4796e-05 -0.00016336 0.45149 0.35798 -0.00049006 0.30308 -0.00022035 -7.3652e-06 0.31928 -6.0081e-05 2.8502e-05 0.41853 -5.5839e-05 0.33281 0.00064698 -2.3112e-05 7.8539e-06 2.1539e-05 9.015e-05 -0.00025472
2.0961e-05 -5.1632e-06 3.9423e-05 -9.8386e-05 0.13079 -1.4488e-05 -2.5329e-05 2.2209e-06 0.19695 2.668e-05 0.18343 0.0010291 0.18349 1.0902e-05 3.3746e-05 9.1183e-06 -3.3617e-05 -1.6292e-05 4.4917e-05 7.0113e-05 -9.1606e-05 0.22604 -6.9867e-05 -1.4637e-05 0.002061 0.00010908 -8.4115e-05 9.1477e-05 -0.00021629 -7.1733e-05 -7.3655e-05 -0.00010246 5.4528e-05 9.452e-05 0.000629 4.5672e-06 2.3377e-05 -1.3342e-05 0.5008 0.0030658
1.6003e-05 9.7179e-05 -6.7619e-07 0.17682 2.3604e-05 -2.5076e-06 -1.2878e-05 -9.3448e-07 0.00014046 0.0008707 0.00018476 7.3003e-05 4.1299e-06 3.5694e-06 2.5525e-06 -7.0816e-06 0.0040138 6.7587e-05 -2.4836e-07 2.6952e-05 -1.6454e-05 0.00013677 1.0652e-06 -2.1868e-05 -2.5267e-05 -1.1445e-05 0.00020392 2.3908e-06 -1.607e-05 7.113e-05 -2.5101e-05 -1.2034e-05 0.00087094 1.8146e-06 4.8109e-06 0.00048231 9.2992e-06 -0.00019233 3.9794e-06 2.6554e-05
-9.1861e-07 -2.6068e-07 -6.2196e-07 9.1439e-08 1.3674e-05 3.5674e-07 1.6244e-06 6.1738e-08 -1.2156e-06 0.49859 -6.9105e-08 2.4269e-06 -4.5619e-06 -2.3145e-06 -5.7784e-07 8.3622e-08 7.2052e-05 1.1887e-05 4.5739e-07 3.8795e-07 -2.9709e-05 -2.112e-05 -6.3958e-08 -9.8714e-06 1.4433e-05 4.9078e-08 8.033e-06 -1.0851e-05 1.1639e-06 0.00021849 -5.4889e-07 -8.022e-07 1.1445e-05 4.5957e-07 2.3544e-06 -3.2287e-06 1.9189e-07 7.7062e-06 9.461e-06 0.00024899
3.6938e-06 0.17384 -6.5647e-06 0.17645 0.12995 1.642e-06 -8.7468e-06 0.28848 0.19574 7.7619e-06 -4.8922e-06 0.18536 3.2316e-05 0.27603 5.3372e-06 0.5 -3.6493e-05 -1.2785e-05 7.8733e-06 0.24971 -9.9778e-06 -9.1739e-06 1.3432e-06 7.7736e-06 -1.1224e-06 -7.7706e-06 -4.0224e-05 8.3343e-06 -1.0568e-05 -0.0001076 0.28806 -2.1676e-05 0.35227 4.5707e-05 0.0003534 0.37537 0.44708 0.00026176 1.2766e-05 8.8492e-05
-1.0814e-07 -7.0196e-05 1.0443e-05 0.17763 0.13042 0.00010407 0.00057456 -3.8702e-06 5.7157e-06 8.0948e-05 0.18209 -3.8212e-06 0.18214 1.5768e-05 0.00040137 2.895e-06 -2.9058e-05 0.24978 0.30088 -0.00013954 0.57734 0.24034 -0.00018732 -0.00074095 0.00011367 -5.8323e-05 -0.00016549 0.00030754 -0.00018949 0.0014134 1.0271e-05 -2.1405e-05 -8.4329e-05 -0.00051098 -0.00027122 -4.6527e-05 5.3425e-05 1.768e-05 0.00010535 0.56801
1.0285e-06 0.17387 -6.4854e-06 0.17653 0.12996 -4.4659e-07 -8.8616e-06 0.28882 0.19578 7.3637e-06 -1.1029e-05 0.18554 6.4919e-06 0.27602 4.6882e-06 -7.5583e-05 -3.5214e-05 -1.4644e-05 7.027e-06 0.24974 -1.4672e-05 -2.5692e-05 3.3972e-06 -2.3403e-06 9.5023e-06 -9.216e-06 -3.704e-05 8.8241e-06 -1.4452e-05 -0.00010617 0.28831 -2.1051e-05 0.35713 4.708e-05 0.00028293 0.38036 -9.2264e-05 0.00012947 2.3173e-05 0.00012716
5.644e-06 -1.9289e-05 -1.1241e-06 -3.9655e-06 0.13005 -8.1502e-06 -2.3853e-05 1.4547e-06 2.5688e-07 0.00010243 -1.5076e-05 3.5331e-06 4.8256e-05 1.5213e-06 -4.497e-05 2.6697e-06 1.4811e-06 0.24778 -7.0922e-06 1.0086e-05 4.7817e-05 -4.528e-05 -8.829e-05 -3.8264e-05 -2.0771e-06 4.1838e-05 -4.6568e-05 -4.6002e-05 -0.00017436 0.43559 -0.00022335 -1.0015e-05 -5.1472e-07 -0.00049251 -7.8499e-05 6.127e-06 3.4781e-06 1.0871e-05 -1.2798e-05 0.00064338
0.28858 0.17417 0.00014976 6.8091e-05 0.13001 0.00062491 -3.4176e-06 1.2276e-05 0.19612 7.8766e-06 3.0401e-06 0.00011656 0.00027459 3.644e-07 -1.8027e-05 1.5282e-06 -1.7096e-05 0.25086 -8.1093e-06 -1.686e-05 8.1589e-05 4.8108e-05 0.010498 0.34919 -0.00022909 0.30144 -3.1969e-05 1.0992e-05 0.31714 -0.00010187 0.00010907 0.0014278 -3.8501e-05 0.33183 0.00023351 -2.496e-05 -2.1402e-05 1.6161e-06 7.8005e-06 3.182e-05
-2.1957e-06 0.17395 3.6318e-06 2.3688e-05 0.13012 5.3031e-05 -1.3056e-06 -8.2145e-06 0.19585 4.6836e-06 -1.3998e-05 0.18561 2.038e-05 0.00033802 1.4027e-06 7.2765e-08 -1.2418e-05 -4.4115e-06 9.5493e-06 0.00013818 -1.5967e-06 0.00028699 -2.0695e-06 8.0297e-06 9.7419e-06 -9.3721e-06 5.4567e-06 8.6649e-06 -6.6911e-05 3.4535e-06 4.0116e-05 -9.7613e-06 1.8387e-05 7.5004e-05 0.00028986 -4.8646e-05 -8.7303e-07 -2.0271e-06 0.00027009 -0.00012438
0.28868 0.00013559 0.00060341 3.3449e-05 7.5797e-05 0.31732 -2.6108e-05 0.28895 0.00027019 8.304e-06 1.0542e-06 0.18639 0.00024081 0.00023892 -3.9801e-06 7.8455e-06 -7.7741e-06 0.25011 -1.6342e-05 -3.3015e-06 5.9651e-05 0.00019893 0.010965 6.1226e-05 -0.00011305 0.30353 -0.00016545 -3.9692e-06 0.0028969 -2.2378e-05 -2.7541e-05 0.015338 -7.2348e-06 0.33241 -0.00081333 3.8329e-05 -9.0009e-05 1.3494e-06 4.7106e-05 -0.00054946
0.28868 0.00039166 0.00018328 -6.9002e-06 6.5376e-05 0.31719 -1.1203e-05 0.28876 0.00034575 8.3623e-06 -7.9187e-06 0.18643 0.00019222 0.00019931 -5.8557e-06 1.1952e-05 -5.9903e-06 0.25086 -1.7039e-05 -4.1296e-06 3.0267e-05 0.00019367 0.010313 0.00013233 -0.00015567 0.3045 -0.00016595 -3.015e-06 0.0043007 -6.2896e-05 1.6812e-05 -3.518e-05 -3.4876e-05 0.33248 3.3675e-05 6.136e-05 -9.1727e-05 -1.529e-05 3.6464e-05 -0.00055425
6.3403e-06 0.17382 -8.4608e-06 0.17645 -2.4423e-06 -1.1368e-06 -9.8598e-06 1.812e-06 0.19577 2.3975e-06 -1.5688e-05 -0.00072872 2.0613e-06 0.28204 3.3933e-06 6.7761e-06 -1.0678e-05 -1.6282e-05 5.8964e-06 0.25125 -1.5066e-06 -1.2233e-05 -4.2921e-06 1.3307e-05 5.4548e-06 1.444e-05 -3.1573e-05 2.0496e-05 2.4688e-05 -8.4273e-05 0.28833 1.8767e-06 6.3726e-06 2.7219e-05 3.9873e-05 -0.00025301 -3.1706e-05 -0.00031592 1.1024e-05 0.00011313
7.0633e-07 0.17387 -7.6366e-06 0.17654 0.12996 1.361e-06 -8.7899e-06 0.28882 3.1245e-05 9.5295e-06 -1.1191e-05 0.18554 3.1757e-06 0.27604 6.2959e-06 -7.6679e-05 -3.5387e-05 -1.4168e-05 5.7685e-06 0.24975 -1.1967e-05 -2.6112e-05 9.2721e-06 -2.2744e-06 1.1491e-05 -8.8262e-06 -3.588e-05 3.6698e-06 -1.6367e-05 -0.00010219 0.28827 -2.103e-05 0.35674 -2.5617e-06 0.00027904 0.38109 -8.0177e-05 0.49993 2.2583e-05 0.00012983
-9.0487e-07 2.6825e-06 1.1514e-06 0.17644 0.12995 7.8854e-07 -9.807e-06 7.8176e-07 0.19576 5.482e-06 2.3703e-06 0.18546 4.6513e-06 8.0531e-05 -5.412e-09 1.3554e-06 -1.1559e-05 -1.6856e-06 4.61e-06 3.558e-05 -8.4178e-06 -2.8888e-05 -1.2533e-06 2.1282e-06 4.5143e-06 -4.3678e-06 -7.5241e-06 -7.1414e-06 6.9074e-06 4.7805e-06 2.1277e-05 -9.7154e-06 1.8485e-05 5.9998e-05 0.00023956 8.6435e-06 1.9182e-05 3.8939e-06 1.3594e-05 6.0718e-05
5.161e-06 0.17437 9.1218e-06 0.17648 0.13028 2.934e-06 -4.9844e-05 -1.3909e-05 2.5858e-05 -4.4315e-06 0.18317 -3.6645e-05 0.18209 -3.099e-06 2.8604e-05 4.1147e-06 -7.0686e-06 -2.1244e-05 2.2641e-05 0.25023 -4.1688e-05 0.22416 3.4424e-06 -2.0988e-05 -3.5529e-05 3.0373e-05 -0.00012208 -1.437e-05 -6.5568e-05 -5.3831e-05 0.00016866 -1.2775e-05 5.7867e-05 9.5479e-06 2.2425e-05 -1.985e-05 2.8151e-05 -2.1479e-05 0.0017913 0.0037907
1.7881e-06 0.00012879 5.1213e-06 0.17645 1.1032e-06 5.5591e-06 0.35311 1.4917e-06 0.19578 4.329e-06 0.18169 -1.9446e-06 0.18194 8.7329e-05 1.7615e-05 3.0951e-06 -3.1449e-06 2.7516e-05 3.6891e-05 1.3308e-05 4.6917e-05 -9.1978e-05 5.3275e-06 5.5137e-05 0.30837 1.9159e-05 -8.1147e-05 0.00046605 6.7931e-05 -7.3891e-05 2.3078e-05 6.5757e-06 -9.1401e-06 7.3619e-05 -0.00011709 2.5731e-05 6.911e-05 -7.2662e-07 0.00014408 -0.00053042
-1.4822e-06 2.2615e-05 0.27738 0.0012033 2.2649e-05 0.31597 0.35427 0.00021787 1.9281e-05 7.2258e-06 0.00015238 0.18572 0.0001458 0.00106 0.00010157 -9.5648e-06 -2.6665e-05 0.00037363 0.00047809 -8.23e-05 0.0038971 0.23063 -0.00021447 -0.00045845 -3.712e-05 -5.2687e-05 -0.00013758 4.8293e-05 -6.9036e-05 0.00076106 0.00010487 4.9142e-05 -9.2502e-05 0.0020466 0.0001803 -7.5795e-05 -1.9522e-05 -4.6233e-05 4.1625e-05 0.1033
1.1551e-05 7.6799e-05 0.00011087 6.9502e-05 0.13013 1.802e-05 7.4711e-05 3.6861e-06 7.4005e-05 0.00079586 0.00067207 0.00017457 0.00017129 -3.2207e-06 -2.1821e-05 -1.9101e-05 0.0040669 -5.8977e-05 7.7724e-06 0.00025701 -2.8276e-05 0.0021972 -1.2966e-05 -5.8291e-05 0.0011675 -4.0075e-05 0.32085 0.001935 -3.3712e-05 0.44671 0.0028871 -2.3505e-05 0.00084108 8.9681e-05 0.0001542 0.00048946 -5.3919e-06 -0.00017669 -1.096e-05 -0.00037818
4.2946e-07 -1.999e-05 6.8306e-08 -2.6744e-05 0.00043911 9.726e-07 -7.3119e-06 1.8449e-06 -6.546e-06 0.00039478 -7.1687e-06 0.18553 1.1322e-05 7.1367e-05 1.9751e-06 -1.3638e-06 -5.3471e-06 2.1138e-05 0.00033455 9.4861e-06 -1.0219e-05 -1.0781e-06 3.656e-06 7.037e-06 0.0002876 -2.7832e-05 9.0555e-05 -6.2212e-06 2.2711e-05 1.2677e-05 -1.3591e-05 -2.0301e-05 1.257e-05 2.4092e-05 0.00050358 6.7578e-07 4.3248e-06 -9.8193e-07 1.1853e-05 5.3821e-09
0.28858 0.17417 0.00014976 6.8091e-05 0.13001 0.00062491 -3.4176e-06 1.2276e-05 0.19612 7.8766e-06 3.0401e-06 0.00011656 0.00027459 3.644e-07 -1.8027e-05 1.5282e-06 -1.7096e-05 0.25086 -8.1093e-06 -1.686e-05 8.1589e-05 4.8108e-05 0.010498 0.34919 -0.00022909 0.30144 -3.1969e-05 1.0992e-05 0.31714 -0.00010187 0.00010907 0.0014278 -3.8501e-05 0.33183 0.00023351 -2.496e-05 -2.1402e-05 1.6161e-06 7.8005e-06 3.182e-05
-1.0157e-05 -1.5004e-05 9.6958e-05 -1.5276e-05 0.13065 0.31608 -9.1739e-06 -5.595e-06 -1.1551e-05 0.00010453 0.0012038 6.1722e-05 0.00013579 -2.0249e-05 1.3676e-06 -1.1797e-07 -2.8325e-06 0.00056627 0.00014257 0.00018582 7.6471e-05 0.0030342 -0.00024084 0.0024822 0.00044017 -0.00017402 0.0013897 -2.8971e-05 -9.606e-05 0.00058386 6.5238e-06 -6.9621e-05 4.5234e-05 -0.0001143 0.0021999 1.291e-05 -2.3884e-06 -1.9315e-05 -1.9871e-06 -0.00060671
2.5637e-06 4.2785e-06 5.4198e-05 0.0012264 6.659e-05 0.00011369 0.35405 5.3227e-07 1.775e-06 0.00030899 0.00047291 3.3312e-05 4.2424e-05 2.8279e-06 0.33456 3.507e-06 -9.5881e-06 9.3671e-05 0.30081 -7.4151e-05 0.0037848 0.23738 -3.0248e-05 -0.00057532 0.0010241 4.2241e-05 0.0028449 0.4096 -5.4828e-05 0.47408 -0.00025399 2.6903e-07 -9.0615e-05 0.0001385 -0.0002053 -2.7606e-05 -1.8133e-05 1.2329e-06 6.0157e-06 0.1058
0.28901 0.17429 1.6502e-05 8.5075e-06 0.13014 3.168e-06 -1.9608e-06 7.9597e-08 1.5083e-05 4.5803e-06 7.7348e-06 -8.727e-06 5.6539e-05 -1.5401e-06 0.33286 6.8413e-06 -3.6737e-05 -2.0025e-05 3.1991e-06 0.00012342 2.7736e-06 2.7805e-05 2.4222e-05 1.1334e-06 2.539e-05 0.0029546 1.1902e-05 -9.8937e-06 -0.00014912 -9.2007e-05 -2.0639e-05 2.2848e-05 -2.6941e-05 -3.4297e-06 1.5207e-05 1.0575e-06 -4.3288e-06 -8.2223e-06 0.0001289 0.0001768
-1.9367e-07 6.8046e-07 6.3179e-07 2.3767e-07 1.2349e-05 -5.3395e-07 2.9422e-06 -7.6887e-08 -2.1778e-06 2.0346e-07 -2.099e-06 8.216e-05 -4.4345e-07 -3.9986e-06 -4.4614e-05 7.621e-07 2.5334e-07 4.1389e-05 0.0052782 -3.2501e-06 1.0076e-05 -7.8015e-06 -2.5291e-07 6.2455e-06 0.00016307 -4.1013e-06 0.00015911 9.1296e-06 -1.5481e-06 -4.7534e-05 7.5458e-06 -0.00015029 -2.8471e-06 -4.183e-05 0.0031727 -8.3532e-07 6.9633e-07 7.521e-06 -4.9053e-06 -5.3338e-06
3.3716e-06 0.17384 -7.716e-06 0.17645 0.12996 3.4496e-06 -8.6751e-06 0.28848 -1.0898e-07 9.9277e-06 -5.0543e-06 0.18536 2.8999e-05 0.27606 6.9449e-06 0.5 -3.6666e-05 -1.2309e-05 6.6148e-06 0.24973 -7.2724e-06 -9.5936e-06 7.2182e-06 7.8395e-06 8.6611e-07 -7.3808e-06 -3.9065e-05 3.18e-06 -1.2483e-05 -0.00010362 0.28802 -2.1655e-05 0.35188 -3.9345e-06 0.00034951 0.37609 0.4471 0.50007 1.2177e-05 9.1167e-05
-1.747e-07 2.8788e-06 1.0302e-06 2.865e-06 1.7546e-05 -5.2746e-06 4.2093e-05 9.4783e-07 9.2863e-06 9.3739e-07 -2.5968e-06 7.8056e-05 8.8111e-06 0.00010819 -3.8941e-05 2.3698e-06 -5.6098e-07 4.7912e-05 0.0052805 -2.3239e-06 5.7543e-06 7.87e-05 7.2186e-07 5.3262e-06 0.00061676 -3.6416e-06 0.00028803 4.4425e-06 -8.3084e-08 -5.6625e-05 -5.478e-06 -0.00015143 -2.057e-05 -5.4883e-05 0.0031815 5.1027e-06 3.1044e-06 1.1321e-05 9.1448e-05 2.1871e-05
-2.6621e-06 2.2557e-05 2.3033e-06 -5.605e-05 0.13014 -1.1898e-05 -5.5144e-05 2.2104e-06 3.495e-05 -2.0843e-07 0.18188 -6.5654e-06 0.18227 -2.7821e-06 1.7451e-05 -4.069e-06 -1.8229e-05 2.0319e-05 2.5559e-05 -2.8542e-05 -5.027e-05 0.22654 -1.9777e-05 3.9907e-05 -8.717e-05 -5.8066e-06 -0.00012571 0.40819 -7.3234e-05 -0.00011406 2.9088e-06 -1.7982e-05 2.6175e-05 1.2469e-05 -9.1016e-06 3.4937e-06 0.00014374 3.3366e-06 5.1466e-05 0.0032319
3.6938e-06 0.17384 -6.5647e-06 0.17645 0.12995 1.642e-06 -8.7468e-06 0.28848 0.19574 7.7619e-06 -4.8922e-06 0.18536 3.2316e-05 0.27603 5.3372e-06 0.5 -3.6493e-05 -1.2785e-05 7.8733e-06 0.24971 -9.9778e-06 -9.1739e-06 1.3432e-06 7.7736e-06 -1.1224e-06 -7.7706e-06 -4.0224e-05 8.3343e-06 -1.0568e-05 -0.0001076 0.28806 -2.1676e-05 0.35227 4.5707e-05 0.0003534 0.37537 0.44708 0.00026176 1.2766e-05 8.8492e-05
1.5517e-05 0.17395 2.4612e-06 5.3134e-05 0.12999 -2.3045e-06 -4.2269e-07 -4.8141e-06 0.19596 0.00087774 0.00018775 5.4742e-05 8.3281e-05 0.27591 4.853e-05 -6.989e-06 0.0040001 6.55e-05 7.456e-06 -1.5897e-05 -2.43e-05 0.00020697 -1.0877e-05 4.3614e-06 -2.59e-05 -2.7437e-05 0.00020608 8.0434e-06 -2.6925e-05 6.9426e-05 1.0433e-05 -3.6746e-06 0.3494 2.5387e-05 1.622e-05 0.011992 4.4089e-05 -0.00045303 -1.0941e-05 6.0325e-05
7.1732e-07 9.7648e-06 -8.2347e-07 -2.2696e-05 0.13009 5.457e-06 -4.8542e-07 -5.4007e-08 0.00058657 3.9026e-05 0.00050548 3.0237e-05 0.00031665 2.313e-05 0.33304 2.1643e-06 -9.5432e-06 2.3875e-05 5.0217e-06 -3.3323e-06 8.6686e-09 5.4029e-05 -4.9372e-06 2.2704e-05 7.29e-05 0.00010615 4.7794e-05 0.00026076 1.8457e-05 -0.00011619 -6.8006e-06 -2.1049e-05 6.9541e-06 1.9754e-05 2.7865e-06 9.6686e-06 4.1198e-06 2.2711e-06 0.00029271 0.00019597
4.6727e-06 0.17412 3.9983e-06 -3.72e-05 0.0001758 -1.1151e-06 1.6197e-05 -1.3635e-06 0.19642 3.9209e-05 0.00055112 -7.5914e-05 0.00044709 -4.8357e-05 8.1907e-05 -0.00019387 -3.6679e-05 -4.9684e-05 7.2863e-05 -1.0758e-05 1.1061e-06 0.00073395 1.89e-06 -3.3285e-05 0.0032615 0.00012437 9.2683e-05 0.00037826 -0.00014369 1.5082e-06 3.6266e-05 -2.5388e-05 -8.8621e-05 6.0172e-05 0.00010806 -1.9951e-06 0.4477 2.1641e-05 0.00029924 0.00015057
0.28867 0.17522 0.27772 0.1766 0.13018 0.00060575 -2.7436e-05 0.00017157 0.19608 5.6945e-06 0.18261 6.3496e-05 0.18221 -4.1539e-05 -6.853e-05 -3.591e-06 -2.6088e-05 0.25209 -6.6181e-06 -6.6968e-05 8.4796e-05 -0.00016336 0.45149 0.35798 -0.00049006 0.30308 -0.00022035 -7.3652e-06 0.31928 -6.0081e-05 2.8502e-05 0.41853 -5.5839e-05 0.33281 0.00064698 -2.3112e-05 7.8539e-06 2.1539e-05 9.015e-05 -0.00025472
9.6599e-06 3.7344e-05 3.1012e-05 -3.0029e-05 4.7053e-05 3.9653e-06 -4.8249e-05 -2.2736e-06 2.4783e-05 -7.7715e-06 0.18235 6.0802e-05 0.18194 -1.0281e-05 0.3331 -1.5506e-06 -6.4612e-06 -1.8795e-05 3.6733e-06 -5.8558e-06 -3.095e-05 0.22487 3.3542e-05 -3.0635e-05 7.4345e-06 1.1766e-05 -0.00011668 -3.4489e-05 0.00015375 -0.00018583 -1.1051e-05 -4.6567e-05 -1.8642e-05 0.002639 8.3117e-06 9.7206e-06 1.0585e-06 4.1872e-06 0.00057196 0.0036582
-2.6132e-07 3.8823e-05 0.00017631 -1.7655e-05 0.13032 0.00023748 -9.7918e-07 -5.1898e-07 0.00034053 9.8314e-07 0.00025545 -2.3734e-06 0.00012249 2.5939e-06 -2.5618e-06 1.0052e-06 -1.0041e-05 -8.4934e-06 4.3182e-05 -2.4149e-05 -2.2091e-05 0.00108 -1.0155e-05 -5.5939e-06 0.0011369 -2.4191e-05 -4.0378e-05 -4.9225e-05 -0.00012447 -2.6891e-06 -0.0002691 -6.0261e-05 7.3938e-06 -4.1988e-05 0.00074231 -1.3406e-06 4.5162e-05 -1.9465e-06 0.00022697 -0.00023508
0.28848 1.5852e-06 -2.5793e-06 -3.4427e-06 -1.1647e-05 -1.3717e-05 1.0463e-06 -5.3308e-06 -3.3361e-06 5.6916e-05 0.00089501 -4.1003e-05 0.00032906 6.765e-07 3.9326e-05 -1.5784e-07 0.57395 0.00027049 9.8349e-07 -4.7899e-06 1.2446e-06 5.9055e-05 1.7935e-05 -7.2491e-06 -1.9745e-05 0.29873 4.9601e-05 -3.1378e-06 -0.00018453 4.1884e-06 5.997e-06 -3.0691e-05 -7.356e-05 0.00046255 -3.2922e-06 -7.957e-06 -9.4567e-06 -2.5838e-05 5.2666e-05 -9.5724e-05
-3.4039e-07 4.5975e-06 0.27704 2.9817e-06 0.12992 4.5174e-06 -5.4733e-07 -4.8756e-06 9.6996e-07 3.8337e-06 0.1816 0.18547 0.18186 8.2051e-05 2.058e-06 -6.3715e-07 -4.5956e-06 1.695e-05 2.6418e-06 1.8033e-05 -1.8839e-05 3.6665e-05 2.9952e-05 1.8607e-05 -1.0679e-06 -1.7996e-05 -1.3847e-05 -2.8183e-05 -1.1426e-05 -1.6545e-05 -3.0023e-05 1.629e-05 2.4833e-06 -3.6718e-05 0.000269 -1.4312e-06 1.2546e-05 6.0529e-06 5.578e-05 -1.2364e-05
1.9627e-07 -5.1583e-07 2.1835e-09 -2.6012e-06 3.4962e-05 -1.0111e-06 -2.7663e-06 1.1203e-07 -3.014e-07 -9.5879e-07 -1.2167e-05 8.9417e-07 -7.4067e-06 -3.9686e-07 1.743e-05 -2.9867e-08 -1.0709e-07 -1.6865e-05 -3.0197e-05 -1.5299e-06 1.3836e-07 1.1626e-06 9.6574e-06 -2.0641e-05 0.0024647 2.1289e-06 3.0687e-06 -6.6572e-06 -8.6214e-05 2.0116e-06 3.7442e-07 4.9137e-06 3.4301e-06 9.9132e-06 -7.8463e-05 4.8317e-07 -2.7471e-07 -1.784e-06 8.3491e-06 -1.813e-06
-1.0814e-07 -7.0196e-05 1.0443e-05 0.17763 0.13042 0.00010407 0.00057456 -3.8702e-06 5.7157e-06 8.0948e-05 0.18209 -3.8212e-06 0.18214 1.5768e-05 0.00040137 2.895e-06 -2.9058e-05 0.24978 0.30088 -0.00013954 0.57734 0.24034 -0.00018732 -0.00074095 0.00011367 -5.8323e-05 -0.00016549 0.00030754 -0.00018949 0.0014134 1.0271e-05 -2.1405e-05 -8.4329e-05 -0.00051098 -0.00027122 -4.6527e-05 5.3425e-05 1.768e-05 0.00010535 0.56801
3.3759e-05 0.17392 -9.3008e-06 0.1789 0.13003 1.6969e-05 2.7629e-05 -3.7473e-06 4.7025e-05 9.8821e-05 0.00012326 -8.3941e-06 2.9211e-05 2.8127e-05 0.33412 -1.8355e-06 -2.1384e-05 -0.00023118 0.29981 -0.00010845 8.2199e-05 0.0007055 -0.00012955 -0.00015391 0.31133 1.9631e-05 1.7563e-06 0.00033439 0.31447 0.00024214 4.3092e-05 -5.7238e-05 2.6819e-05 -4.3891e-05 -0.00023011 2.6016e-05 6.6575e-05 -8.5308e-05 -7.7283e-06 0.00070236
7.0633e-07 0.17387 -7.6366e-06 0.17654 0.12996 1.361e-06 -8.7899e-06 0.28882 3.1245e-05 9.5295e-06 -1.1191e-05 0.18554 3.1757e-06 0.27604 6.2959e-06 -7.6679e-05 -3.5387e-05 -1.4168e-05 5.7685e-06 0.24975 -1.1967e-05 -2.6112e-05 9.2721e-06 -2.2744e-06 1.1491e-05 -8.8262e-06 -3.588e-05 3.6698e-06 -1.6367e-05 -0.00010219 0.28827 -2.103e-05 0.35674 -2.5617e-06 0.00027904 0.38109 -8.0177e-05 0.49993 2.2583e-05 0.00012983
-8.1345e-06 -5.8338e-05 0.00010532 -4.0902e-05 0.13081 0.00026451 -1.9073e-05 2.4675e-05 -1.6442e-06 0.00068365 -6.0372e-05 0.18599 9.9324e-05 8.2878e-05 -3.5502e-05 4.5315e-07 -1.2718e-05 0.24939 0.30653 -3.3594e-05 4.0844e-05 0.002777 0.00011436 0.0034042 0.33683 -0.0001829 0.32465 0.0001444 -2.159e-05 0.0005824 2.3844e-05 -0.001783 2.4984e-05 -4.9969e-05 0.50704 8.7723e-06 -4.5739e-05 7.8423e-06 -4.202e-05 -0.000439
2.1054e-05 6.4967e-05 0.2775 -1.2867e-05 0.00010079 0.00022394 -6.6654e-05 3.6891e-06 -5.1508e-05 1.7043e-05 0.18227 0.18564 0.18264 3.8747e-05 9.8283e-06 -1.2458e-05 4.5856e-05 0.0019705 8.7574e-05 0.00029759 -4.869e-05 0.23251 0.00024037 0.35467 0.00085202 -7.9702e-05 0.002172 -6.1537e-05 1.1509e-05 0.0040778 0.0032551 -0.00061613 -6.371e-05 0.0043179 0.50997 7.6746e-06 -6.8639e-06 9.0274e-06 -1.8865e-06 0.0025646
-8.2686e-06 4.8141e-05 0.00017453 -6.0937e-05 0.00038965 0.00044399 3.293e-05 0.00023218 0.00080615 0.00049216 0.1832 0.00031497 0.18516 0.0013018 4.6285e-05 -8.6275e-06 -9.3212e-06 0.00053512 0.00052305 -5.5671e-05 8.7682e-06 0.00384 -0.00011825 0.00253 0.0012134 -8.4787e-05 0.0024169 0.0011865 -6.0845e-05 0.00077791 -6.3026e-05 -5.6746e-05 8.8659e-06 0.0017876 0.0022735 -7.5782e-05 -5.6969e-05 -3.6711e-05 0.0016322 -0.00073417
0.00014401 0.00017058 0.0002319 8.2912e-06 2.7977e-05 0.00090751 5.5833e-05 8.0012e-07 0.00014381 6.9359e-07 -9.9541e-06 0.00050542 0.00025747 0.00022836 -4.8691e-05 -1.447e-05 3.4485e-07 0.002084 -1.3703e-05 -2.6367e-05 -2.4549e-05 0.00020513 0.010792 0.0004559 3.7772e-05 0.00039622 6.9945e-05 7.0152e-05 0.0032196 -3.7745e-06 0.00023423 -3.3632e-05 -7.0532e-06 0.33407 0.00025164 -3.3172e-05 -0.00012389 -4.8124e-06 -4.8102e-06 -0.00043308
4.1667e-06 7.3049e-05 0.00018128 -2.627e-05 0.13044 4.2531e-05 -4.8146e-07 -2.998e-06 0.00068255 3.6284e-05 0.1835 -1.3421e-05 0.18242 0.00017431 4.9127e-05 -1.5436e-06 1.349e-05 -2.6311e-05 6.5272e-05 0.00022317 2.8509e-05 0.00047955 -5.1939e-05 3.9452e-05 0.0011824 8.763e-05 2.6703e-05 0.00024272 1.9918e-05 -1.453e-05 -0.00023704 2.0103e-05 8.1651e-05 -3.0172e-05 0.00078173 1.1095e-06 -3.2779e-05 -4.5859e-05 0.00042291 -6.0598e-05
