7.6251e-06 -1.8562e-06 -3.4867e-06 1.0228e-05 0.00012442 2.8757e-06 -7.8792e-07 5.6026e-07 -5.599e-06 1.811e-06 -4.9404e-07 1.8451e-06 -4.121e-07 1.0376e-05 -1.136e-07 6.799e-06 7.9111e-05 -1.6987e-06 -2.8188e-06 -3.597e-05 4.2504e-05 -0.00011175 -2.4785e-06 8.9528e-07 -0.00011322 -3.6053e-06 -2.1549e-05 -2.5497e-05 -6.8931e-05 -3.8584e-05 2.7284e-07 1.8286e-05 2.589e-06 -1.4689e-05 -1.102e-07 3.2624e-06 -3.1131e-07 3.0739e-06 8.906e-05 9.9518e-07 1.0391e-06 -2.7871e-05 -6.8896e-05 -3.6634e-07 -2.2472e-06 0.0032531 -1.7708e-06 -2.5827e-05 -1.5479e-05 5.5207e-05 -1.6148e-07 4.9496e-05 4.1523e-06 -3.4633e-05 -6.6733e-05 2.9825e-06 4.5211e-05 -0.00029909 -6.1212e-05 -3.263e-05
-2.2434e-05 -5.9978e-06 -2.372e-06 0.17681 0.0001244 8.4163e-06 1.4012e-06 -3.202e-07 -1.5052e-06 6.306e-06 5.2149e-05 1.5235e-05 -3.8458e-05 1.9997e-05 -4.49e-07 3.6897e-06 0.24992 5.6708e-05 6.6317e-07 0.10216 0.12809 7.0902e-05 9.9648e-07 -1.8631e-05 -9.9191e-05 2.3837e-05 -0.00019592 -2.0932e-05 -0.0024732 0.010614 0.00025969 0.00010001 -0.00014737 0.00034065 5.6667e-06 1.5399e-06 9.4331e-06 1.0575e-05 -5.6181e-05 -1.5092e-06 1.3141e-05 0.0012475 -0.00027064 -5.1398e-06 5.5149e-05 0.0030621 -6.9699e-06 -2.2999e-05 -7.2626e-05 9.4642e-05 3.9349e-07 -1.7771e-05 -8.6828e-06 -0.00031738 -8.7092e-05 -0.00031316 4.4706e-05 0.00049241 -3.6043e-05 4.3654e-05
8.0347e-06 -8.0341e-06 -9.5155e-06 -2.6011e-05 0.31649 -3.4996e-05 1.7611e-05 0.00060555 1.9007e-05 0.00074052 1.6977e-05 0.00012785 0.00012393 1.1416e-05 9.3993e-07 -8.6196e-06 -2.4584e-05 0.00017462 -2.4723e-05 0.0060687 -0.0049637 -3.4851e-06 -1.8774e-05 -2.368e-05 9.6106e-05 0.0002995 7.334e-05 1.4244e-05 0.0032739 1.7916e-05 0.00027023 -0.00014152 -5.6887e-05 2.7977e-05 -0.00047231 5.8599e-05 4.6736e-06 0.00041835 0.33104 -1.1221e-05 -5.2623e-06 -7.475e-05 -0.00013892 9.5848e-06 -9.209e-05 0.00031905 3.8841e-05 0.00090409 -4.3518e-05 -4.9931e-05 -8.2342e-05 0.44068 8.7915e-05 2.2038e-05 0.031219 -2.1265e-05 9.5488e-05 0.00017971 -0.00049074 -2.8158e-06
3.6298e-07 7.371e-08 4.5353e-05 -1.2924e-05 -1.2644e-05 9.5063e-05 4.7998e-07 -1.7841e-06 0.00030205 -6.0603e-06 3.0187e-05 -7.0418e-06 8.5867e-07 -3.9913e-07 -3.6551e-09 4.474e-07 2.7995e-06 3.9294e-05 -1.8204e-07 0.00011561 0.00020269 0.0069926 0.0001875 -1.2354e-05 -0.00012572 4.9131e-05 5.8471e-06 0.0017081 -9.9259e-05 0.32292 0.00012609 2.0201e-05 9.1304e-06 0.00011178 1.5288e-07 -1.2132e-05 3.2595e-06 -2.0639e-06 2.3622e-05 4.1123e-06 9.9927e-07 6.3569e-05 1.74e-07 -1.2972e-05 3.4658e-06 -0.0017047 -4.0685e-06 1.0936e-06 -1.2789e-05 3.9129e-05 6.228e-06 3.0457e-05 -1.9192e-06 -0.0042413 -7.6714e-05 0.012768 -0.00095673 -1.1098e-05 6.018e-06 -2.4319e-05
1.9625e-05 1.473e-05 -1.1505e-06 -1.9232e-05 0.00012185 2.6434e-06 2.8146e-06 0.00059538 2.5784e-05 0.00075531 -2.412e-05 6.2123e-05 7.6954e-05 -3.3287e-07 9.1512e-07 -8.3029e-06 3.2005e-05 5.4042e-06 9.7733e-05 0.0041833 -0.0035561 -5.7896e-05 -2.3186e-05 -2.5555e-05 6.2327e-05 1.8837e-05 0.0011168 -1.7357e-05 0.0020248 0.00092906 0.00026763 1.7593e-05 1.0063e-05 -6.1937e-05 -2.1387e-06 1.8967e-05 8.1432e-06 0.00044547 7.4323e-05 -8.3348e-07 6.1864e-07 -4.4297e-05 -0.00018983 -4.8331e-06 2.184e-05 0.0031611 4.9973e-05 -5.102e-05 0.00050229 -5.5576e-05 -4.4352e-05 0.00048891 8.282e-05 -0.00013585 0.00029743 4.454e-06 7.2195e-05 0.0015608 0.00054179 -1.3652e-05
3.4831e-06 1.2162e-05 -1.0386e-05 -2.5406e-05 8.0657e-06 9.445e-05 3.4653e-06 0.00058931 2.2426e-05 0.00075011 1.4989e-05 -2.2533e-05 2.0822e-05 -1.3896e-06 2.0592e-06 -1.2313e-05 -1.5117e-05 -7.6072e-07 -2.3342e-06 6.3824e-05 0.00052255 4.739e-05 -1.8971e-05 -1.8739e-05 1.0854e-05 5.7047e-05 0.00011808 3.1776e-05 -0.0001271 0.00013966 0.00035143 -4.8266e-05 9.0547e-06 3.5976e-05 -1.8234e-05 -3.8507e-06 9.4681e-06 0.00043541 0.3353 7.6109e-06 1.1986e-05 -0.00017059 -0.00013401 -2.3261e-06 2.3467e-05 -2.7182e-05 5.0191e-05 1.3382e-05 -5.5566e-05 -0.00010892 5.5694e-07 9.7771e-05 8.4973e-05 -4.6845e-05 -1.8917e-05 0.0069906 1.0742e-05 0.0003882 1.0132e-05 1.3557e-05
0.28858 2.6037e-05 -2.377e-05 -3.2061e-05 -4.4313e-06 6.0092e-06 -1.0733e-05 0.00059918 4.2668e-05 0.00075424 -8.6369e-06 3.2836e-05 -8.1192e-06 -2.5645e-06 2.106e-06 -1.3921e-05 -0.00035772 -4.7712e-06 -2.7465e-05 0.10269 0.12769 -8.5796e-05 -3.136e-05 -2.072e-06 0.35515 5.0368e-06 0.30213 8.2491e-06 -0.002141 0.32647 0.00025747 -0.00019882 0.31664 -0.00010643 2.317e-05 -3.3571e-05 2.7146e-05 0.0004264 0.00014447 -2.6545e-06 5.4325e-06 -1.0241e-05 -0.00029088 -7.3928e-06 -7.1388e-05 -0.00010767 5.7624e-05 0.00024198 -0.0002735 -0.00025309 -8.8242e-07 0.00057956 8.0326e-05 0.00019548 0.00038883 1.9685e-05 5.7338e-05 0.38056 0.00026239 -5.335e-05
0.28889 0.17401 2.7306e-06 0.17677 -1.8049e-06 7.8605e-07 1.4921e-06 2.6321e-06 -1.0279e-06 5.3024e-06 5.8641e-07 3.9974e-06 -1.166e-05 -2.4687e-06 2.8298e-07 3.6656e-07 2.2688e-06 2.035e-06 1.2535e-05 0.10246 0.12751 2.5361e-05 9.1656e-07 9.8963e-08 2.2238e-05 8.5455e-06 0.00071202 -1.659e-06 -0.0022031 -1.9938e-06 -9.5779e-06 -5.2621e-05 1.3959e-05 1.8599e-06 -1.2493e-06 3.3773e-05 6.0437e-06 6.8182e-06 -2.2776e-06 2.1121e-06 1.5123e-06 4.1209e-06 3.0409e-06 -5.8647e-06 1.8624e-05 2.0414e-05 -1.0701e-07 4.7556e-05 1.659e-07 1.2216e-05 -3.1421e-07 3.9041e-05 -8.7989e-06 7.1255e-07 1.728e-05 -2.7283e-06 9.4457e-07 0.0010321 -2.3151e-05 0.00017917
-0.00018298 -8.8793e-08 -3.7437e-06 -3.4869e-06 -3.2849e-06 5.9469e-07 -7.384e-06 2.2005e-06 4.4986e-07 -3.2052e-06 -3.315e-06 3.4351e-06 -8.0218e-06 -1.2304e-06 -1.9176e-06 2.9113e-06 -1.5899e-05 4.2943e-06 -2.5629e-07 6.7096e-05 -5.2087e-05 1.2607e-05 1.003e-08 -1.1673e-06 3.0823e-05 2.3647e-06 0.29973 7.7192e-08 3.1246e-05 2.6533e-05 -3.4256e-06 -0.00015134 -3.861e-05 -2.5004e-07 -1.2311e-06 8.8888e-05 -6.3454e-07 0.3769 1.5077e-05 -2.6781e-06 4.7515e-08 -7.3504e-07 1.4302e-05 6.8518e-07 -5.5028e-05 -7.5999e-07 4.8796e-06 -9.414e-05 -2.9962e-06 -8.0965e-05 1.5411e-08 -2.1148e-05 1.2731e-06 1.5874e-07 2.4012e-05 5.5522e-05 -8.1634e-07 0.00080387 -9.1901e-05 5.3512e-05
9.8075e-06 1.998e-06 -8.5124e-06 2.82e-06 1.1243e-05 0.35346 -4.4934e-06 -5.9415e-05 2.5283e-06 -1.3952e-06 4.9978e-06 -6.5054e-07 2.3861e-06 -8.3102e-07 4.2179e-07 3.6967e-06 7.8161e-06 -6.2736e-07 -3.5066e-07 2.4684e-05 -2.0497e-05 -4.6088e-06 -3.0145e-07 -2.2409e-06 3.7755e-06 -4.4178e-06 -9.2972e-06 -4.987e-07 1.4404e-05 2.5158e-05 -5.034e-06 -4.4562e-06 1.6282e-05 -1.3034e-05 2.1603e-05 -6.9621e-05 -1.9437e-07 4.5596e-06 0.00011835 -1.7756e-07 -1.4914e-07 7.1932e-05 0.0061952 3.5167e-08 0.00014466 1.6441e-05 7.8322e-07 0.0015923 1.348e-05 1.929e-05 3.6868e-07 0.00016315 1.5823e-05 -5.2915e-06 -1.3445e-05 1.7037e-05 -5.3013e-06 -0.00078359 -0.00030492 -1.0528e-05
6.6612e-06 0.17408 3.807e-06 0.00025773 0.31617 -1.8068e-05 6.8231e-07 0.19674 3.103e-05 0.18302 0.18577 -9.6031e-07 0.18233 1.1379e-05 4.7828e-06 -5.2711e-05 -4.5908e-05 -7.2612e-06 -2.8197e-05 -8.8815e-05 0.00073996 0.22777 1.2921e-05 -6.5067e-05 1.3853e-05 3.3718e-05 4.1075e-05 1.144e-06 -0.00018321 -4.2264e-05 0.00027002 -0.00013093 1.6251e-05 -1.3624e-05 -5.7308e-05 8.4513e-05 -3.1176e-06 0.00037963 -2.6141e-05 -7.6945e-05 3.6412e-06 -0.0001065 -1.1995e-05 -1.5398e-05 2.0712e-05 0.0002001 7.5994e-05 0.00012104 -4.6009e-06 -8.6798e-05 1.8462e-05 -0.0011412 0.00012133 0.00044683 0.39532 -0.00021258 0.00020917 0.00013532 2.235e-05 -0.0004351
0.2885 0.17403 0.27756 0.17678 9.8696e-05 -1.3975e-05 0.00016759 0.19592 5.038e-06 0.18161 9.0366e-05 1.5977e-05 0.18222 1.3571e-05 -1.5309e-08 -3.6927e-06 0.24964 1.0538e-05 -1.7406e-06 0.10226 0.12773 -1.0828e-05 2.6993e-06 7.5796e-06 0.35269 0.00010006 0.30097 6.6659e-06 -0.0025993 7.3101e-05 -1.9062e-05 0.4455 0.3156 8.697e-05 7.4713e-06 0.44261 -1.2636e-05 -8.2675e-06 3.1006e-05 1.3015e-05 -2.7854e-05 6.1575e-05 0.33037 2.1291e-05 0.44855 6.0119e-05 -4.1519e-06 0.32674 -2.4986e-05 0.44774 9.2017e-06 0.00064102 1.1605e-05 0.00026427 0.00040809 1.9484e-05 4.005e-05 0.38235 0.00093705 -5.2561e-05
-5.7447e-07 -3.6974e-06 1.4989e-07 -2.0572e-05 -3.2766e-05 -5.6828e-06 -1.1557e-07 -2.4885e-06 2.5849e-06 0.00078724 3.1674e-05 -7.9628e-06 2.921e-05 9.214e-06 -5.2981e-08 -1.8887e-06 -3.1344e-05 6.946e-05 5.4002e-07 -4.9986e-05 5.1687e-05 0.0040425 1.1075e-05 -2.8402e-05 0.00086946 0.31028 -5.0487e-06 1.9883e-06 -0.00019779 0.00086776 -8.6363e-06 4.5757e-05 4.4556e-05 -0.00012507 -6.3939e-06 -1.1571e-05 2.1197e-05 2.0341e-06 -4.3679e-05 -6.6427e-06 4.8782e-06 -0.0001495 -2.6597e-05 -7.3089e-06 4.3814e-06 0.0020491 -9.6294e-05 -4.3732e-05 -2.5214e-06 -0.00023644 2.9519e-06 1.1898e-05 -9.3747e-06 -0.0015027 0.00048716 -0.00039242 -0.00035915 0.00040667 1.1813e-05 2.9957e-05
-1.6531e-06 -7.3431e-07 0.27734 -1.0738e-05 -1.6289e-05 9.0003e-05 -4.6794e-06 2.2779e-05 0.00029526 3.7028e-05 1.3999e-05 -8.6582e-06 0.0003336 1.4338e-05 -1.441e-07 -1.3292e-06 -2.9535e-06 3.3224e-05 -2.4471e-06 -6.2385e-06 4.9301e-06 0.007305 0.00020226 -4.8819e-06 -0.00012173 -2.8658e-05 -2.3153e-05 1.8389e-05 -7.0346e-05 0.0024677 0.00012895 1.8404e-05 -3.3409e-05 0.00020476 -1.312e-06 1.1704e-05 -1.827e-05 2.8861e-06 -7.1618e-06 -1.4687e-06 -1.0465e-06 7.3833e-05 4.2378e-05 4.1584e-06 7.8154e-06 -0.0017914 7.9374e-06 4.4678e-05 0.00047275 1.9767e-05 1.0726e-05 0.00012174 -8.8111e-06 -0.0047779 1.6055e-05 0.012787 -0.00092088 -0.00020299 -3.4442e-05 6.2703e-06
-4.5714e-07 -3.7057e-05 5.7143e-05 2.4632e-06 6.6342e-06 0.00031531 -1.2918e-06 1.0938e-05 6.2525e-06 0.00023827 0.18664 -4.3433e-05 5.8013e-05 -2.9308e-06 2.9512e-06 -4.5524e-07 6.2072e-05 -1.0256e-05 1.9377e-05 -0.00037183 0.00070405 0.00051002 2.266e-05 1.8897e-05 5.615e-06 0.0002463 -4.588e-05 -7.5724e-07 -0.00026639 0.33096 -0.00010204 3.9708e-05 -0.00019873 5.8702e-05 -1.7482e-05 -3.5731e-06 2.7538e-05 -2.6625e-05 0.0011542 -1.6257e-05 -1.0789e-06 8.2649e-05 -2.2971e-06 2.1746e-07 -2.8791e-06 -1.365e-05 -4.4493e-07 -6.7232e-05 -3.5007e-05 3.601e-05 3.9563e-05 2.9173e-05 -6.9366e-06 -0.00034711 -2.8956e-05 -0.00042878 -6.5623e-05 -0.00019051 -8.8347e-06 2.0582e-06
2.6886e-06 -4.2369e-05 -4.6302e-05 -2.4365e-05 1.7548e-05 5.3817e-06 -6.1565e-06 0.1967 2.0822e-05 0.18438 1.306e-05 0.27789 0.18272 3.2255e-05 2.2537e-06 3.8699e-07 9.6326e-05 -1.6558e-05 -5.1524e-05 -0.00013585 0.00060708 0.00011044 -2.6183e-05 -5.1205e-05 5.0907e-05 0.00018032 7.3053e-05 0.44373 -0.00017887 1.5455e-05 0.00026714 -4.1221e-05 2.8205e-05 3.0532e-06 -3.4973e-05 -2.4466e-05 -1.3477e-05 0.00039271 0.33513 -5.1891e-05 -4.571e-05 -7.826e-05 -0.00022086 -2.9993e-05 7.7181e-05 -0.00056569 5.6171e-05 0.00018654 -0.00013931 -0.000187 -4.8923e-05 0.032663 6.8434e-05 4.4398e-05 0.45012 2.5153e-06 8.0889e-06 0.00040714 -7.8746e-05 2.4066e-05
-1.5198e-06 8.3618e-05 -1.2036e-05 4.1241e-07 2.7174e-05 2.1374e-05 -8.0864e-06 2.0487e-05 -1.017e-06 0.00055193 0.00015694 0.00020271 0.00011416 2.7187e-06 3.1854e-06 -3.9824e-06 -3.9223e-05 9.6369e-06 -4.6621e-06 -0.00019697 0.00049243 0.00022457 2.4682e-05 -1.3814e-06 1.8467e-05 3.0341e-05 -6.2925e-05 3.7099e-06 -0.00030862 -9.452e-06 5.4704e-06 -2.9106e-05 2.125e-05 1.2679e-05 -0.00050482 -5.7256e-06 -8.9721e-06 -3.3422e-05 0.0015985 -7.1965e-05 1.023e-05 -4.202e-06 -0.00059239 1.3132e-05 8.9089e-06 -0.00022873 8.8313e-06 0.0010996 7.1922e-06 0.00010345 -0.00013487 0.48011 1.5753e-06 0.0002272 0.032624 2.4682e-06 6.4626e-05 0.00012484 -0.00020138 1.8148e-05
-1.4356e-06 -2.1853e-05 -3.8341e-06 -9.6567e-06 4.8441e-06 9.5383e-06 2.6342e-06 0.00010183 1.2726e-06 0.00028373 8.3677e-06 -1.7158e-05 0.00026228 5.916e-05 1.8832e-06 7.0873e-05 3.8886e-05 0.00023329 -5.4978e-05 0.11128 0.11923 0.0013678 6.6178e-05 0.00032669 3.2063e-05 0.00032438 -6.6147e-05 0.45081 0.0066638 0.00061767 -4.7805e-05 -0.00010724 -0.00011008 0.00059172 -4.8543e-05 -0.00018454 4.1135e-05 3.7872e-06 0.00064867 -1.4344e-05 7.8262e-06 7.5804e-05 -6.4078e-06 -1.0297e-05 -6.5496e-05 0.00030624 1.0851e-06 -0.00018838 0.0010089 -3.2249e-05 2.3097e-05 0.00010733 -1.8111e-05 -0.0012546 -8.3184e-06 -6.8232e-05 -0.00059855 -0.00025105 2.7913e-05 -8.9768e-05
5.3643e-06 0.17401 4.4748e-06 0.00027806 1.6544e-05 -1.4785e-05 0.00015221 0.00027649 2.923e-06 0.00042524 0.1857 3.0039e-05 0.00014357 0.00023249 4.1797e-06 -3.8376e-05 2.494e-05 -9.0319e-06 -2.5198e-05 0.10267 0.12735 0.0002876 1.8438e-05 9.9671e-07 -4.5208e-05 0.00024384 -3.4669e-05 1.4043e-06 -0.0018506 0.00021983 5.8673e-05 -5.9378e-05 -1.9553e-05 4.1711e-06 -7.3876e-06 4.108e-06 1.0173e-05 -4.7866e-05 0.00047999 -2.0718e-05 2.0191e-05 -0.00011478 8.919e-06 -2.4232e-05 2.7377e-05 0.0012404 -8.6701e-06 0.00034642 7.8196e-06 -5.0112e-05 -3.6006e-06 5.3913e-05 0.00058617 -0.00021782 1.8482e-05 4.0266e-05 -6.3425e-06 -0.00014352 -5.9422e-05 -0.00049263
1.4788e-06 5.6886e-06 -3.8452e-06 -2.6485e-05 1.4141e-06 8.2019e-05 -4.974e-06 0.00061871 3.7199e-05 0.00081795 1.3951e-05 0.00024153 2.5886e-05 3.0774e-05 1.4817e-06 -9.099e-06 -4.49e-05 -4.6222e-05 -1.1639e-05 0.10218 0.12861 0.00017928 -1.3724e-05 -5.6949e-05 -1.718e-05 0.31253 0.00010034 0.45088 -0.0027771 0.0013137 0.00023734 -1.9328e-05 -3.7826e-05 -5.184e-05 -2.3271e-05 -8.2569e-06 2.2533e-05 0.0004315 0.0027959 -8.8645e-06 -7.8139e-06 -3.2608e-05 1.3167e-06 -1.6462e-05 1.6032e-05 -0.00037608 -5.4036e-05 -7.1928e-06 -0.00016041 -8.7275e-05 3.8535e-05 0.0009058 7.1541e-05 -1.0059e-05 0.00031853 -0.00023065 -2.3212e-05 0.00055447 -9.1897e-06 2.226e-05
0.00010481 8.2588e-05 0.00018267 -5.058e-06 9.2749e-05 3.3405e-05 -9.9599e-06 1.6377e-05 1.3274e-05 1.7645e-05 0.00035127 0.00024806 0.00032101 7.3286e-05 -4.7894e-06 -1.0534e-05 0.00071708 4.2542e-05 -1.7233e-05 -6.864e-05 9.4465e-05 0.00049701 4.0367e-05 8.7197e-06 -4.8913e-05 0.0026382 4.9462e-05 -3.756e-06 -5.0721e-05 2.4887e-05 0.00037183 -0.00032599 -0.00028686 0.00088178 -2.0662e-05 0.00012521 -9.4245e-05 5.6502e-05 8.2505e-05 -6.345e-05 -0.00010137 3.9056e-05 0.0019384 2.4707e-06 -0.00038268 -0.00041767 0.0014032 0.0097954 2.0527e-05 -0.00015243 4.8072e-05 0.0011157 3.3048e-06 -0.00092055 0.00014334 0.0075236 -0.00013039 -0.0019799 0.011179 0.0010237
6.6612e-06 0.17408 3.807e-06 0.00025773 0.31617 -1.8068e-05 6.8231e-07 0.19674 3.103e-05 0.18302 0.18577 -9.6031e-07 0.18233 1.1379e-05 4.7828e-06 -5.2711e-05 -4.5908e-05 -7.2612e-06 -2.8197e-05 -8.8815e-05 0.00073996 0.22777 1.2921e-05 -6.5067e-05 1.3853e-05 3.3718e-05 4.1075e-05 1.144e-06 -0.00018321 -4.2264e-05 0.00027002 -0.00013093 1.6251e-05 -1.3624e-05 -5.7308e-05 8.4513e-05 -3.1176e-06 0.00037963 -2.6141e-05 -7.6945e-05 3.6412e-06 -0.0001065 -1.1995e-05 -1.5398e-05 2.0712e-05 0.0002001 7.5994e-05 0.00012104 -4.6009e-06 -8.6798e-05 1.8462e-05 -0.0011412 0.00012133 0.00044683 0.39532 -0.00021258 0.00020917 0.00013532 2.235e-05 -0.0004351
3.4665e-06 0.17397 1.1763e-06 0.17672 -3.9078e-07 8.5281e-07 0.28864 4.2454e-08 3.9271e-07 2.7683e-05 0.1855 0.27704 -1.9407e-05 6.6482e-07 0.5 -3.081e-07 -6.2733e-06 -1.614e-06 0.24988 0.1026 0.12737 2.3159e-05 -7.5596e-07 3.825e-05 2.464e-05 4.3841e-06 -2.3774e-05 -1.0076e-06 -0.002096 -2.5146e-05 -1.0723e-05 -7.8702e-05 1.9654e-05 -1.4956e-05 0.28863 4.0049e-05 0.35492 3.9219e-06 -1.2142e-05 0.4472 0.37859 -6.0652e-06 -1.6565e-05 0.5 3.7727e-05 3.2503e-05 6.5133e-05 -2.45e-05 0.00017794 2.397e-05 6.4789e-05 0.00083292 -4.6168e-06 1.8708e-05 -5.0657e-05 2.3122e-05 -3.9958e-07 -3.9139e-05 -0.00014357 0.00012685
1.9213e-05 -2.2626e-06 3.3335e-06 -3.0282e-05 7.0129e-06 -4.7784e-06 4.6874e-07 8.1941e-05 -1.0907e-08 0.18425 0.0010553 -1.5726e-05 0.18264 0.00035148 -1.6506e-06 -1.0494e-05 -4.7615e-05 8.7571e-05 6.9583e-05 0.10199 0.12866 0.0018036 4.6874e-05 -5.9514e-05 -3.8964e-05 0.31312 3.886e-06 2.7541e-05 -0.0023239 -0.00011704 -0.00015296 -2.5693e-05 2.212e-05 -5.4669e-05 -8.7001e-06 -5.3976e-05 5.8726e-05 1.1859e-05 0.00026585 -2.8134e-05 2.1995e-06 -9.3678e-05 3.8487e-06 -1.7973e-05 4.1393e-05 -0.00020184 -9.1632e-05 -5.0481e-05 0.0004364 -0.00033014 -6.342e-07 0.00068858 0.00067793 -0.0013027 6.3083e-05 -0.00027032 -0.00011779 0.00023228 1.9415e-05 0.0032893
5.7302e-06 4.2467e-05 1.698e-06 3.1369e-07 -1.7572e-05 7.2098e-07 -1.9999e-06 1.6012e-05 1.0417e-05 7.1857e-06 1.4984e-05 -8.1702e-06 -1.2095e-05 4.1966e-07 1.7621e-06 1.1346e-06 -3.2034e-05 5.8731e-06 -4.6404e-06 -2.8423e-05 0.00023899 9.6546e-05 1.8044e-07 3.2804e-06 1.9539e-05 3.903e-05 1.9285e-05 2.2754e-05 -9.6196e-05 -3.2748e-06 -2.4988e-06 1.2504e-05 -1.088e-05 7.8563e-05 -2.7978e-06 1.0127e-05 5.0512e-06 1.3608e-06 -1.9922e-05 -3.4196e-06 -5.831e-06 -2.6918e-05 -1.1087e-06 -3.4399e-06 -3.5273e-06 0.32519 4.6822e-06 -1.0043e-05 1.4079e-05 4.5646e-05 4.1392e-06 -3.8168e-05 -6.4798e-06 3.0481e-05 0.0043012 -7.7867e-05 -6.9657e-06 0.00029898 1.0195e-05 1.1593e-05
7.6788e-06 1.2186e-05 -3.2662e-06 9.0668e-06 3.3822e-05 9.0294e-05 -9.493e-08 7.0405e-06 -0.00010679 0.0003249 -1.6974e-06 3.3108e-05 0.00020249 1.6137e-05 -5.8074e-07 -6.9349e-06 -0.00011177 1.1828e-05 -3.7321e-06 -1.6874e-05 8.7854e-05 0.00082577 -3.1389e-06 0.00044982 -1.087e-05 0.0012986 4.165e-07 9.4416e-07 -4.4726e-05 0.00039339 0.40769 -1.2267e-06 -3.1662e-05 0.0084851 -5.0463e-05 -3.1314e-06 -1.4463e-05 -8.5755e-06 -1.4853e-05 -8.0339e-06 -3.2677e-06 0.00012022 3.2588e-05 -6.7332e-07 1.1201e-05 -0.0001869 2.8867e-07 -1.0411e-05 0.0016191 -3.579e-05 -1.9442e-05 5.3597e-06 -8.3232e-07 -0.00074615 -1.5779e-05 -6.5245e-06 -6.6269e-05 -6.3657e-05 1.1641e-05 4.2911e-05
9.6322e-07 4.6823e-05 0.2772 0.17673 -1.0301e-05 9.0149e-07 -2.6313e-05 -1.3083e-05 -4.2379e-07 0.18157 3.1147e-06 4.9772e-06 0.18223 -4.8383e-06 -5.2871e-07 1.0544e-06 0.00021882 5.9513e-07 -3.2028e-06 0.00014035 -9.2809e-05 1.2912e-05 1.6112e-05 -7.0457e-06 0.00015866 -1.7745e-05 -0.00011739 1.006e-05 0.00012587 1.5912e-05 -9.3879e-06 0.43572 0.00017652 -7.9239e-06 2.1241e-05 0.43453 -3.3314e-07 -6.1712e-06 3.1549e-06 -6.6693e-06 1.1743e-06 -8.4414e-06 0.00063886 8.679e-07 0.44519 6.4562e-05 5.299e-06 0.00052023 -9.5854e-07 0.44642 3.0654e-07 0.00015651 2.0229e-05 -4.2759e-05 0.00010951 -4.7265e-05 1.6794e-06 -0.0028555 -0.00058725 5.7598e-05
-5.3256e-07 5.0933e-06 -6.4011e-06 -2.1477e-05 8.0424e-06 3.9379e-06 9.8989e-06 0.19642 1.6976e-05 0.18241 -1.0318e-05 -3.829e-05 0.18236 -3.0081e-06 -1.3131e-06 -8.2834e-06 -2.2951e-05 0.29994 -3.1059e-05 0.10261 0.12782 0.00041405 1.1933e-05 -3.2707e-05 1.9462e-05 0.0012455 0.0001138 1.4458e-05 -0.0016958 -1.1111e-05 0.00022914 -3.6144e-05 1.1598e-05 1.8804e-05 -1.9051e-07 -3.7531e-05 1.18e-05 0.37735 0.33237 -2.8846e-07 3.777e-06 -4.1049e-05 -8.3345e-06 4.5098e-06 3.4148e-05 -8.475e-05 6.0178e-05 0.00024651 -3.8197e-05 -0.00015125 3.9014e-06 0.00092837 0.00012307 -0.00043148 0.0002839 -1.4132e-05 6.2046e-06 0.00036595 7.2953e-06 4.4927e-05
5.6689e-06 0.17396 -2.2829e-06 -2.4374e-05 5.7231e-06 2.5166e-05 1.8618e-06 0.19645 4.4451e-05 0.0007411 2.2641e-06 3.6582e-05 2.852e-05 6.8021e-05 2.9318e-07 -1.1129e-05 -2.9757e-05 4.5644e-05 -1.254e-05 -1.0996e-05 0.00041217 5.7321e-05 -2.3224e-05 -1.9999e-05 -2.4647e-06 0.0026173 0.00011234 -1.0471e-05 -7.337e-05 5.1743e-05 0.00029259 -8.2058e-05 1.5995e-05 -1.0568e-07 1.0093e-05 1.2479e-05 -7.8597e-05 0.37894 0.00010623 8.5915e-05 -0.00020816 -2.6784e-05 3.2333e-05 1.9144e-07 6.3645e-05 -4.7156e-05 0.50106 0.00012173 -9.9024e-06 -8.1379e-05 -5.1271e-06 0.00055145 7.9493e-05 -2.2041e-05 0.00066183 0.0071713 9.6363e-06 0.000327 1.0786e-05 0.00097509
-2.8711e-06 4.5647e-06 -1.9777e-06 -2.18e-05 3.3322e-06 0.35358 -3.323e-07 1.1158e-06 0.00018556 0.0007015 0.00016939 -1.0684e-05 1.6538e-05 -2.3807e-05 9.5864e-07 6.3886e-07 -3.4136e-05 0.00046068 -2.1023e-05 0.010082 -0.0096444 0.0036398 2.4188e-06 7.5792e-06 0.00083301 0.0017871 -3.5949e-05 0.00035932 0.0096661 0.36019 7.7297e-05 -4.6513e-05 -0.00017719 -0.00032066 -1.0166e-05 -0.00020875 9.1767e-06 -2.797e-05 -2.181e-05 -1.2861e-05 -5.9032e-07 -0.00011568 6.3257e-05 -1.1061e-05 -2.1877e-06 0.0017652 -3.3279e-06 -2.5694e-05 -7.5753e-06 -0.00024303 1.1214e-05 6.2335e-05 -1.2501e-05 -0.001475 -2.8845e-05 0.001696 -0.00029792 -0.000306 -6.4366e-05 -8.397e-07
0.28875 0.17424 1.4003e-06 -7.5068e-06 -7.9387e-07 -3.6915e-07 -5.1465e-06 0.196 1.7101e-06 -3.1486e-05 0.00012063 -1.408e-05 -1.3066e-05 -5.4694e-06 2.7868e-06 -2.2863e-06 0.00066342 1.3716e-06 -5.8075e-07 5.4024e-06 0.00023131 -4.4029e-06 -4.5446e-06 -2.6284e-06 0.0001663 -6.1567e-05 0.30226 1.3894e-06 -2.544e-05 5.7747e-05 5.5611e-06 -0.00025057 0.31645 -2.3444e-05 2.5112e-05 0.00014005 -3.819e-05 -4.7359e-06 4.7039e-06 9.2928e-08 -1.1337e-05 1.9899e-06 0.001345 5.1561e-06 -0.0016831 9.7968e-06 -7.1021e-07 0.0024928 -1.8102e-06 -0.00029885 2.0608e-05 0.00013044 -2.155e-05 -0.00012592 5.1707e-05 3.0819e-05 2.938e-05 0.0023748 0.00020987 -1.7181e-05
6.0067e-06 0.1745 6.8991e-06 0.17678 1.1114e-05 -1.8231e-06 -1.0875e-05 2.2338e-05 -5.2603e-06 0.18226 -1.8044e-05 8.8022e-07 0.1834 1.279e-05 2.8132e-06 -9.7829e-08 -2.3686e-05 2.4114e-05 0.25067 0.1023 0.12831 0.22766 4.3599e-05 -1.332e-05 -1.2162e-05 -2.9e-05 1.2011e-05 1.9373e-05 -0.0024262 -9.9563e-05 -2.1945e-05 -7.2521e-05 -2.6006e-05 -2.725e-05 -7.2457e-05 -4.1934e-06 2.9598e-05 -1.7109e-05 1.2949e-05 1.908e-05 -7.6189e-06 3.0479e-05 -1.1453e-06 -2.7999e-05 -1.6977e-05 0.00010157 -1.6455e-05 8.3298e-05 -7.0952e-06 -0.00030688 -7.3973e-05 0.00055082 2.5814e-05 0.00016978 0.00011976 -0.00022267 0.00019531 0.00018571 -6.8025e-05 -0.00011376
1.9225e-05 -3.7571e-05 -6.5325e-06 -7.4122e-08 3.925e-05 7.9047e-05 1.8867e-06 1.4573e-05 -0.00012114 0.18297 6.7952e-06 5.4e-05 0.18311 8.9898e-05 1.2126e-06 6.695e-05 1.9833e-05 8.1406e-06 8.6812e-05 0.10221 0.12818 0.22982 6.6539e-05 0.00078617 -7.204e-05 0.001072 -9.1679e-05 3.5961e-05 -0.0024124 0.00090817 0.0019185 -3.8982e-05 -0.00012771 0.0094004 -4.5929e-05 -2.9564e-05 8.7981e-06 2.2348e-05 -8.598e-06 -1.406e-05 -1.0321e-05 0.00022596 -1.6055e-05 -4.8916e-06 -1.5418e-05 -0.00042903 8.5154e-06 6.2904e-06 0.0031963 4.8351e-06 -4.2141e-05 2.672e-05 4.4343e-05 -0.0019329 4.3445e-05 -0.00037993 -0.00041968 -8.0403e-05 -2.3391e-06 -0.00018819
-3.5496e-07 4.7425e-05 7.5552e-06 -4.345e-07 7.0643e-06 2.2682e-06 0.28872 8.627e-06 -9.7692e-06 1.6367e-06 0.18551 1.0988e-05 -1.7041e-06 -2.7821e-06 1.6578e-07 7.4935e-07 2.8263e-06 0.00014786 2.0774e-06 0.10838 0.12192 9.7849e-06 -4.5265e-06 -1.0542e-05 3.4306e-05 0.00022786 -6.861e-06 8.2807e-06 0.0012858 -1.7517e-05 -2.0531e-05 -0.00010796 -2.9252e-06 2.4758e-05 -1.151e-05 -2.8533e-05 9.704e-07 7.7949e-06 0.32949 1.9052e-05 3.4397e-05 -1.7507e-05 0.00048967 2.2221e-06 -0.00010081 0.00055544 2.3292e-06 0.00018962 -3.7948e-05 -4.1634e-06 -6.9091e-06 0.0035844 -4.5322e-07 -1.1061e-05 -0.00024153 -6.4016e-05 3.354e-05 -0.00030027 -7.9457e-05 -1.6313e-05
1.9097e-05 1.431e-05 0.2773 0.17687 -4.1232e-06 -3.8489e-07 6.2037e-07 4.4884e-06 1.3543e-06 -5.7874e-06 0.18551 2.0615e-05 3.5066e-05 1.67e-06 7.0622e-06 7.422e-06 -6.5288e-06 -3.1359e-06 0.25012 0.10247 0.12763 6.2964e-05 -2.101e-06 -0.00019836 8.9689e-06 -2.2843e-05 -5.6783e-06 -2.522e-05 -0.0022382 1.1638e-06 -3.579e-06 -6.8815e-07 -1.707e-05 9.0662e-05 0.28879 2.8602e-06 -3.5689e-06 6.6246e-06 -3.3075e-05 2.5971e-05 -1.9668e-05 -1.5798e-05 1.408e-05 -5.544e-06 -2.5602e-06 0.00015401 4.8083e-06 -5.3199e-06 0.49888 6.8236e-05 -1.9954e-05 0.00091784 -1.7803e-05 -3.7231e-05 0.004978 -5.1575e-05 6.8773e-06 -0.00035878 -0.00010018 -0.00012538
-8.9514e-06 -2.3544e-05 9.6121e-06 0.17676 -4.4781e-06 -1.1786e-05 -6.2535e-07 3.7902e-06 -3.0211e-06 0.18183 -1.7142e-06 -1.4884e-05 0.18226 4.2476e-05 -6.2766e-07 -3.751e-06 0.24967 0.30033 -3.96e-05 0.10223 0.12844 0.22863 0.57735 5.6678e-05 1.0317e-05 4.3783e-05 -4.9715e-05 6.8863e-06 -0.0025081 -1.8702e-05 -1.5027e-05 2.0172e-05 1.5063e-05 0.00010418 8.1063e-07 2.1178e-05 2.6434e-05 1.4122e-05 3.3737e-05 7.6554e-06 4.729e-06 0.40673 -5.9172e-05 1.7467e-06 3.3041e-05 -4.5399e-05 4.7017e-06 6.9662e-05 -8.9243e-06 -1.9026e-06 -4.4414e-06 6.0585e-05 0.37817 0.57731 9.8218e-05 3.06e-05 0.57735 0.00093888 -2.6184e-05 -0.00011876
-5.3256e-07 5.0933e-06 -6.4011e-06 -2.1477e-05 8.0424e-06 3.9379e-06 9.8989e-06 0.19642 1.6976e-05 0.18241 -1.0318e-05 -3.829e-05 0.18236 -3.0081e-06 -1.3131e-06 -8.2834e-06 -2.2951e-05 0.29994 -3.1059e-05 0.10261 0.12782 0.00041405 1.1933e-05 -3.2707e-05 1.9462e-05 0.0012455 0.0001138 1.4458e-05 -0.0016958 -1.1111e-05 0.00022914 -3.6144e-05 1.1598e-05 1.8804e-05 -1.9051e-07 -3.7531e-05 1.18e-05 0.37735 0.33237 -2.8846e-07 3.777e-06 -4.1049e-05 -8.3345e-06 4.5098e-06 3.4148e-05 -8.475e-05 6.0178e-05 0.00024651 -3.8197e-05 -0.00015125 3.9014e-06 0.00092837 0.00012307 -0.00043148 0.0002839 -1.4132e-05 6.2046e-06 0.00036595 7.2953e-06 4.4927e-05
-1.8522e-06 1.9984e-05 -3.2304e-06 -3.491e-05 0.31627 -2.6389e-06 -8.7803e-06 3.9745e-05 -6.4892e-06 0.18246 3.1541e-05 0.00020522 0.18315 7.3181e-05 -1.0893e-06 -1.213e-05 -4.9683e-05 -3.6301e-06 -6.4846e-05 0.10207 0.12842 0.23527 0.00010534 -3.5039e-05 0.00091071 0.00096489 -4.6459e-06 0.0011612 -0.002483 0.00088207 -6.9786e-05 -8.8305e-05 9.0313e-05 -0.00014493 -2.7783e-05 5.141e-05 -6.3105e-07 -5.022e-05 0.0026743 -2.4044e-05 -1.0779e-06 -0.00016552 -0.00015284 -3.9699e-06 -3.8854e-05 0.0011072 1.6997e-05 -0.00017403 9.5778e-05 -0.00030743 5.5816e-05 0.00030425 0.00076517 -0.0032888 -2.8017e-05 -0.00042991 -0.00067541 0.00041569 -0.00023231 0.0034334
-2.0239e-05 -5.7166e-05 1.4059e-05 -2.4391e-05 8.1951e-06 -1.6641e-05 3.2632e-05 6.6779e-06 0.00065358 -0.00011798 0.18612 1.3367e-05 -4.2445e-05 -5.9129e-05 2.7598e-06 -1.0558e-05 0.25033 0.30706 -3.3966e-05 0.36461 -0.13107 -0.00027458 5.2101e-05 1.1536e-05 0.35426 0.33759 -0.00013579 -2.4036e-05 0.51356 0.32526 9.3392e-05 -0.0036468 0.00013809 0.00010638 -1.1744e-06 -0.0044731 4.4224e-05 -7.043e-05 -7.8507e-05 -1.8946e-05 5.2572e-06 9.4981e-05 0.00043824 -1.6309e-05 -0.00036479 0.3346 -0.0001219 0.00014695 -3.5396e-05 -0.00038363 1.6352e-05 0.0046357 0.0002584 2.0604e-05 0.0001352 0.0033212 -0.00037369 -0.0049283 6.9546e-05 0.00017184
6.8761e-08 1.8355e-06 1.7258e-07 4.521e-06 -1.181e-07 8.7221e-09 2.9137e-07 -2.467e-06 -9.5176e-07 1.525e-06 -1.3927e-06 8.1527e-07 -9.6801e-06 -3.7133e-07 -1.1441e-08 5.4371e-07 2.429e-07 -1.3856e-06 2.5366e-06 0.10237 0.1274 4.6408e-06 3.506e-07 -6.9149e-07 4.8855e-06 1.3068e-06 1.1213e-06 -7.0494e-07 -0.002195 5.5562e-07 -1.6537e-05 -1.0683e-05 6.2896e-06 3.2522e-07 1.263e-06 -4.2074e-06 4.9774e-06 1.3143e-06 -3.2783e-07 1.0379e-06 4.8624e-07 2.3919e-06 8.0037e-07 -4.5318e-07 -4.461e-06 1.7365e-05 -2.4677e-07 2.8057e-06 3.234e-06 2.2564e-06 -3.6882e-07 -1.2171e-06 -3.1048e-06 2.6329e-06 -9.2923e-06 -2.8472e-05 2.6749e-07 4.3829e-06 -1.1451e-06 -4.8053e-06
4.417e-06 0.17396 -2.1226e-06 0.17672 -1.1392e-06 1.165e-06 0.28855 1.6374e-06 5.7279e-08 3.2953e-06 0.18549 3.1384e-05 -1.7184e-05 4.3974e-07 1.0152e-06 6.8037e-07 -9.7591e-07 -1.3327e-06 0.24982 0.10257 0.12742 2.117e-05 -6.4233e-07 -2.4208e-06 2.839e-05 6.9735e-06 -2.3176e-05 -6.6529e-07 -0.0021504 -1.0269e-05 -1.2352e-05 -7.8237e-05 1.9409e-05 7.6609e-07 4.9721e-06 3.2166e-05 -7.0198e-06 3.962e-06 1.526e-05 6.6156e-06 2.8831e-06 -3.561e-06 2.4736e-05 4.4525e-06 3.1365e-05 3.0462e-05 1.5412e-05 2.8438e-06 1.7999e-06 2.1272e-05 7.0475e-06 4.9185e-05 -5.1733e-06 2.1589e-05 2.7734e-05 4.7297e-06 3.7229e-06 -7.1668e-05 -5.0864e-05 0.00011916
4.417e-06 0.17396 -2.1226e-06 0.17672 -1.1392e-06 1.165e-06 0.28855 1.6374e-06 5.7279e-08 3.2953e-06 0.18549 3.1384e-05 -1.7184e-05 4.3974e-07 1.0152e-06 6.8037e-07 -9.7591e-07 -1.3327e-06 0.24982 0.10257 0.12742 2.117e-05 -6.4233e-07 -2.4208e-06 2.839e-05 6.9735e-06 -2.3176e-05 -6.6529e-07 -0.0021504 -1.0269e-05 -1.2352e-05 -7.8237e-05 1.9409e-05 7.6609e-07 4.9721e-06 3.2166e-05 -7.0198e-06 3.962e-06 1.526e-05 6.6156e-06 2.8831e-06 -3.561e-06 2.4736e-05 4.4525e-06 3.1365e-05 3.0462e-05 1.5412e-05 2.8438e-06 1.7999e-06 2.1272e-05 7.0475e-06 4.9185e-05 -5.1733e-06 2.1589e-05 2.7734e-05 4.7297e-06 3.7229e-06 -7.1668e-05 -5.0864e-05 0.00011916
1.9097e-05 1.431e-05 0.2773 0.17687 -4.1232e-06 -3.8489e-07 6.2037e-07 4.4884e-06 1.3543e-06 -5.7874e-06 0.18551 2.0615e-05 3.5066e-05 1.67e-06 7.0622e-06 7.422e-06 -6.5288e-06 -3.1359e-06 0.25012 0.10247 0.12763 6.2964e-05 -2.101e-06 -0.00019836 8.9689e-06 -2.2843e-05 -5.6783e-06 -2.522e-05 -0.0022382 1.1638e-06 -3.579e-06 -6.8815e-07 -1.707e-05 9.0662e-05 0.28879 2.8602e-06 -3.5689e-06 6.6246e-06 -3.3075e-05 2.5971e-05 -1.9668e-05 -1.5798e-05 1.408e-05 -5.544e-06 -2.5602e-06 0.00015401 4.8083e-06 -5.3199e-06 0.49888 6.8236e-05 -1.9954e-05 0.00091784 -1.7803e-05 -3.7231e-05 0.004978 -5.1575e-05 6.8773e-06 -0.00035878 -0.00010018 -0.00012538
2.0887e-06 -4.8186e-05 -1.0892e-05 -4.6109e-07 0.31602 0.35338 3.2237e-06 1.6525e-05 -4.5735e-05 0.00020011 3.6699e-05 0.27989 0.00020224 -6.8174e-05 1.8592e-06 -6.3186e-06 -4.0035e-05 8.117e-06 -5.2238e-05 0.0002993 -0.00023735 0.00074303 -1.934e-06 0.00050234 2.363e-06 0.0013013 -3.4278e-05 5.7995e-07 0.00035471 0.00059266 0.40789 -4.2213e-05 -3.6852e-05 0.44397 -4.4974e-05 9.7982e-05 -0.00019082 4.1925e-06 -9.0489e-05 -8.8225e-05 6.5933e-06 6.5144e-05 -3.4746e-05 -0.00010269 -2.5777e-05 0.0010983 3.9149e-06 0.00022126 0.001649 -2.1479e-05 -0.00056241 2.0665e-05 0.37825 -0.00074691 -0.0001497 0.00013492 2.8246e-05 -0.00033271 -1.8894e-06 4.7493e-05
0.00012604 0.17407 0.2774 2.1662e-06 8.6221e-05 1.5734e-05 2.9028e-05 -2.9738e-05 1.0793e-06 -1.3851e-05 0.00036978 0.27741 4.7242e-05 4.7744e-06 1.1165e-06 -5.9314e-06 0.00072534 0.00017385 0.000118 0.0060951 -0.0056172 0.22761 1.4165e-05 -6.7719e-06 4.4767e-06 0.00021724 4.424e-05 1.2476e-05 0.0033746 -6.2977e-05 4.3089e-07 -0.0004436 -0.00028556 -4.7103e-05 -0.0004614 9.3171e-05 -1.0245e-05 1.6135e-05 -0.0001374 -3.8474e-05 -6.7079e-06 2.3445e-05 0.0020034 -7.9342e-06 -0.00040955 0.00031047 -1.1866e-05 0.010884 0.00055095 9.8269e-06 -2.9162e-05 0.45079 1.894e-05 -8.1106e-05 -0.0016726 -0.00013897 6.062e-05 -0.0024206 0.010405 3.6193e-05
4.1271e-06 -1.3825e-05 -1.3705e-06 -8.6529e-06 -1.44e-05 -6.5396e-06 -2.1818e-06 -4.4781e-06 0.49935 3.0644e-06 -2.6512e-07 -2.1332e-06 -2.9472e-05 -6.3462e-05 -8.8435e-07 8.606e-06 2.4664e-05 2.6478e-06 -2.7541e-06 0.10247 0.12837 8.433e-06 6.1258e-07 0.37432 1.9439e-05 3.1209e-05 2.8974e-05 1.8099e-05 -0.0025925 -8.3625e-06 0.00046038 -7.3996e-06 -2.9765e-05 0.43495 4.1685e-06 3.4928e-05 0.00023509 -6.9484e-07 4.9507e-06 1.7558e-06 0.00076415 0.40689 -3.4307e-05 5.0627e-07 -1.4444e-05 0.32657 1.3932e-06 -1.1181e-06 -0.00021046 -1.4866e-06 1.2099e-05 -1.6356e-05 9.0551e-05 9.2134e-05 0.00013591 -7.5933e-05 1.0898e-05 0.00030613 1.2431e-05 2.2849e-05
0.00011414 8.1275e-05 0.00014294 -1.254e-06 6.8381e-05 1.5254e-05 2.6798e-05 -8.897e-05 -1.1644e-05 -4.1454e-05 0.18612 0.00022713 6.3304e-06 0.00024863 -6.2611e-07 -7.6191e-06 0.00071283 0.00016095 -1.6451e-05 0.0064539 -0.0060734 0.00023782 6.2715e-06 6.4402e-06 5.0925e-05 0.00046589 -4.3793e-05 1.5486e-05 0.0038983 0.00023455 6.3581e-05 -0.00030888 -0.0002991 1.3335e-05 -2.427e-05 1.2223e-05 8.5112e-06 1.1141e-05 0.33132 -7.1544e-05 -1.6764e-05 -4.6774e-05 0.34102 -7.849e-06 -1.8989e-05 0.0014874 -1.6748e-05 0.33934 4.335e-06 -3.748e-05 3.3334e-05 0.0052236 0.00059147 -0.00043819 -0.0005038 9.4373e-05 -0.00011642 -0.0028733 0.01037 -7.4953e-06
3.7671e-07 -1.3419e-05 -8.2365e-07 -1.6639e-05 8.8188e-06 -1.0049e-05 1.879e-07 2.5599e-06 0.49929 -6.6731e-05 8.6956e-05 9.8598e-06 1.1899e-05 1.0636e-05 -7.4399e-07 -3.0692e-06 6.6921e-05 0.00039431 -1.2335e-05 0.012881 -0.012143 -3.0629e-05 -1.1549e-05 0.00010488 4.2453e-05 0.00050675 -3.2131e-05 -2.0426e-05 0.0059074 0.00025137 3.3684e-05 -4.8328e-05 -3.2805e-05 0.00018705 1.6502e-06 -8.2553e-05 3.895e-06 -4.0126e-05 -3.9065e-05 -4.0312e-05 -9.1853e-06 9.4246e-05 3.0657e-05 8.7178e-06 -6.3138e-05 0.0028293 -8.2109e-06 0.00034149 6.1693e-06 3.2092e-05 -9.2511e-06 2.7775e-06 0.37816 -1.6553e-05 9.1211e-05 4.7697e-05 4.3992e-05 -0.00010404 1.3855e-05 0.00016078
-1.1528e-06 2.4299e-06 1.5866e-07 3.5419e-06 5.0877e-08 8.6893e-09 1.6906e-07 -2.0079e-06 -5.49e-07 1.5562e-06 2.3374e-07 1.1381e-06 -9.3867e-06 -2.0172e-07 -1.0398e-08 4.7737e-07 3.7669e-07 1.1426e-07 1.4848e-06 0.10238 0.12737 4.3105e-06 2.0465e-07 -3.35e-07 1.6396e-06 8.1299e-07 1.5741e-06 -7.763e-07 -0.0021894 1.3174e-06 -1.6368e-05 -1.068e-05 1.3699e-05 2.4099e-07 1.2412e-06 -2.2193e-06 3.9387e-06 1.0333e-06 2.6088e-07 9.1401e-07 4.6289e-07 1.0596e-06 7.55e-07 -2.0194e-07 -2.5176e-06 1.5341e-05 3.3618e-07 4.3822e-06 3.0466e-06 2.5554e-06 -8.3542e-07 -1.6299e-06 -1.4111e-06 5.9778e-06 -9.2224e-06 -2.8325e-05 3.316e-07 4.5834e-06 -1.6621e-06 -4.95e-06
-9.0725e-06 -8.2409e-06 1.1351e-06 3.1913e-06 1.9663e-05 -4.2736e-06 3.271e-07 0.19586 9.4087e-06 0.18479 -4.5753e-06 2.988e-05 0.18256 0.33294 -6.3414e-09 0.57681 0.24964 9.8764e-06 -1.5692e-05 0.00021417 -0.00019868 0.22754 -1.3797e-05 0.37549 0.00010053 -3.689e-05 -3.4975e-05 5.6252e-05 0.00017563 -0.00012147 -3.8202e-05 5.9789e-05 3.6714e-05 -9.2816e-05 5.8796e-06 -1.9189e-05 0.00023738 -1.6954e-05 0.00021041 -5.1279e-06 0.00077322 0.00016492 2.8057e-05 -1.2095e-05 0.00012783 3.9215e-05 1.6995e-06 0.00020757 -5.592e-05 -0.00071713 -3.5947e-06 5.0681e-05 3.9061e-05 -0.00014239 0.00032435 -0.00027732 0.00023993 0.0016666 -5.6416e-05 -3.5308e-05
1.1957e-06 -1.9394e-05 -4.4232e-06 -1.9694e-05 6.2605e-07 6.9959e-05 2.8979e-06 -1.2653e-06 0.00046393 5.7626e-05 0.18569 -1.0304e-05 -1.3814e-05 -2.7139e-06 3.2597e-06 -0.00026331 6.2288e-05 0.0005439 -3.5463e-05 0.1024 0.12783 -9.5227e-05 -1.1221e-06 0.38476 -1.8321e-05 0.00018144 -4.6739e-05 1.7616e-05 -0.0020705 0.0011823 0.0018003 -4.6893e-06 -0.000114 -7.191e-05 2.1707e-05 6.8161e-06 2.8836e-05 -6.6995e-06 0.0034729 -2.8149e-05 0.00077624 -0.00027068 -2.77e-06 4.9131e-05 -2.5491e-05 0.0019823 -5.6491e-06 0.00035853 -0.0011442 -8.5119e-06 1.2312e-05 -4.8021e-05 0.00063849 -5.5539e-05 7.2792e-05 0.068977 1.5662e-05 -9.4738e-05 -3.3167e-06 -1.5097e-05
-8.4858e-07 -2.1414e-06 2.6702e-07 -5.5846e-07 -3.4649e-06 -4.4472e-07 1.5178e-06 6.2434e-06 -3.1655e-06 6.4835e-05 -9.6109e-06 -3.1299e-06 1.1956e-05 -2.3442e-06 1.1901e-07 4.918e-07 -5.9395e-06 3.3592e-05 -4.5529e-06 0.10258 0.12732 0.00037289 8.1962e-06 -9.4444e-06 -4.356e-06 0.0011316 2.0132e-06 2.4892e-06 -0.0015671 -2.8395e-05 -2.3154e-05 -8.3099e-07 -5.2916e-06 -5.0671e-07 6.0066e-06 -5.4236e-06 4.0593e-06 1.8726e-05 0.00026623 -2.8313e-06 -2.7277e-07 -1.4459e-05 3.8117e-06 5.0325e-07 1.1609e-05 -8.0651e-05 1.7111e-06 3.6602e-06 1.9485e-05 -4.3451e-05 3.8728e-06 0.00059705 4.0786e-06 -0.00041497 3.4045e-05 -3.4209e-05 8.2513e-06 -4.2097e-06 9.6875e-07 4.8243e-06
3.035e-06 0.17407 2.7231e-06 0.17689 1.9525e-05 1.7857e-05 -1.1703e-05 3.569e-05 1.1047e-05 1.3559e-05 -5.0274e-06 -1.2455e-05 8.5955e-05 0.33304 -1.5086e-06 3.7176e-07 -2.8891e-05 0.29996 -7.4588e-06 0.10269 0.12739 0.00083544 -1.3476e-05 -2.6782e-05 -7.305e-05 0.31142 -4.6449e-05 7.1096e-06 -0.0023285 -7.8905e-05 3.8839e-06 1.2071e-06 0.31674 -8.0101e-05 7.9185e-06 2.6442e-06 -6.4272e-05 7.946e-05 6.7617e-06 7.9671e-07 -5.5265e-05 -2.627e-05 -1.349e-05 6.3109e-07 -0.00013118 -8.6129e-05 0.0012705 -8.8474e-05 -9.2988e-05 -8.0425e-05 2.9163e-06 0.00017545 0.37742 -0.00019223 0.00030133 0.0070164 2.9543e-05 0.00029384 6.6728e-06 0.70709
5.2778e-06 9.0885e-06 1.0244e-05 2.1616e-06 -2.8937e-05 -7.6191e-06 -3.0806e-06 -4.2729e-06 6.3371e-06 0.18286 2.5636e-05 -4.5817e-05 0.18238 2.2971e-05 -2.6505e-06 -1.4388e-06 -6.8765e-05 1.0498e-05 -8.8987e-06 0.00012087 -0.00010145 0.22808 -2.0154e-05 -3.3774e-05 -4.3702e-05 0.0015656 -4.555e-06 0.00095822 -5.5761e-06 -0.00012354 -1.1206e-05 -6.9468e-05 3.3929e-06 3.9495e-05 2.9624e-06 -3.8472e-05 1.1518e-06 0.37846 5.6171e-05 6.6079e-06 9.2059e-06 -3.7031e-05 1.907e-05 2.4341e-06 3.994e-05 0.32608 1.1811e-05 -7.4759e-05 2.4944e-05 1.075e-05 3.3636e-05 -0.0018312 -1.0148e-05 0.00040946 0.39719 -0.00026288 -1.1916e-06 0.00023865 -1.1083e-05 -3.113e-05
-2.8711e-06 4.5647e-06 -1.9777e-06 -2.18e-05 3.3322e-06 0.35358 -3.323e-07 1.1158e-06 0.00018556 0.0007015 0.00016939 -1.0684e-05 1.6538e-05 -2.3807e-05 9.5864e-07 6.3886e-07 -3.4136e-05 0.00046068 -2.1023e-05 0.010082 -0.0096444 0.0036398 2.4188e-06 7.5792e-06 0.00083301 0.0017871 -3.5949e-05 0.00035932 0.0096661 0.36019 7.7297e-05 -4.6513e-05 -0.00017719 -0.00032066 -1.0166e-05 -0.00020875 9.1767e-06 -2.797e-05 -2.181e-05 -1.2861e-05 -5.9032e-07 -0.00011568 6.3257e-05 -1.1061e-05 -2.1877e-06 0.0017652 -3.3279e-06 -2.5694e-05 -7.5753e-06 -0.00024303 1.1214e-05 6.2335e-05 -1.2501e-05 -0.001475 -2.8845e-05 0.001696 -0.00029792 -0.000306 -6.4366e-05 -8.397e-07
-8.3948e-06 -2.1091e-05 2.0482e-06 -4.3375e-06 -8.3684e-06 -2.0685e-06 1.1059e-06 0.19598 -3.4243e-05 0.18314 -9.3349e-06 -1.5905e-05 0.18241 0.33303 -5.7013e-07 0.57853 0.25047 8.3538e-06 -5.9374e-05 -0.00011564 0.00040831 0.22935 0.0001236 0.37908 -0.00010099 -0.00011292 -6.9504e-05 3.2361e-05 -0.00015335 0.00043214 -5.0532e-05 2.7014e-05 -9.3066e-05 0.00053094 6.5547e-06 -2.0177e-05 0.0001726 6.3887e-06 -3.5113e-05 -1.744e-05 0.00077869 2.5142e-05 -0.00020524 -1.4128e-05 2.8712e-05 -0.00051207 1.686e-05 -6.0601e-05 0.00033358 -0.00091357 1.6742e-05 9.1531e-05 1.8848e-05 -0.0021701 1.0587e-05 -0.00044939 -0.00098135 0.00047908 -0.00012269 -0.00018584
9.8632e-06 1.9228e-06 -8.3368e-06 1.7161e-06 7.9829e-07 7.847e-06 -4.7695e-06 -6.0522e-05 -5.1923e-08 -1.8378e-06 4.6177e-06 -5.1531e-07 1.1542e-06 2.8047e-06 4.0952e-07 2.1925e-06 7.6778e-06 -3.5766e-08 -4.0518e-07 1.5808e-05 -1.1894e-05 3.1102e-07 7.1943e-07 -9.2657e-07 7.6012e-07 1.362e-07 -9.5702e-06 1.7416e-07 -4.5024e-06 4.9322e-06 -2.0518e-07 -4.7854e-06 1.7818e-05 2.2533e-06 2.1844e-05 -6.9925e-05 -5.4327e-07 -3.3825e-07 0.0001033 1.2839e-08 -1.8312e-07 -4.7075e-06 0.0061917 4.0502e-07 0.00014435 6.4636e-06 1.0618e-06 0.0015921 1.0657e-05 1.8903e-05 2.9108e-07 0.00017562 9.4086e-06 -1.0895e-05 -1.4423e-05 -1.2279e-06 -3.2123e-06 -0.00078449 -0.0003034 -5.8043e-06
2.9297e-05 0.17408 0.27722 2.5542e-06 1.7714e-07 -2.7824e-06 -4.0165e-06 5.8889e-06 6.7509e-08 -4.1111e-06 5.3848e-06 2.5684e-06 -1.1053e-05 0.33315 6.5142e-06 -2.4214e-05 -2.431e-05 2.2334e-06 -3.0834e-06 0.10242 0.12743 3.1449e-05 -4.8584e-07 -2.5457e-06 1.1683e-06 1.8138e-05 -2.1351e-05 -6.7892e-07 -0.0021938 2.5994e-05 -1.3315e-05 -5.2905e-05 2.5894e-05 -8.5496e-05 -1.1002e-05 8.4414e-06 -2.7791e-05 -3.0155e-07 -1.0444e-05 6.5676e-07 -3.6044e-06 -3.5752e-06 1.9224e-05 -4.5051e-07 6.474e-05 7.2568e-05 -1.5646e-06 2.0956e-05 1.4109e-05 6.3786e-05 3.9285e-06 0.00019369 -2.2176e-05 2.8427e-05 8.4243e-05 -6.0731e-05 6.5654e-06 -0.00027971 -0.00014473 -0.00029216
3.3635e-07 -5.1074e-09 5.43e-09 2.7e-07 -3.9398e-07 -2.9461e-07 2.6494e-07 9.1966e-07 1.4704e-06 2.7811e-05 -4.5869e-07 1.2825e-06 2.9109e-07 1.0097e-07 -3.6547e-08 5.635e-07 -3.4036e-06 4.1885e-06 2.195e-07 2.7075e-05 -3.6983e-05 2.9076e-06 -8.8397e-07 -1.3336e-05 7.9665e-07 -4.9415e-06 -3.2323e-07 0.44218 1.0476e-05 -1.1442e-06 -3.9364e-07 -1.4229e-06 6.9246e-08 2.0499e-07 8.1816e-08 -8.5629e-07 5.5219e-07 -1.7272e-07 1.9541e-05 1.2475e-07 4.8655e-07 8.8339e-07 3.6194e-07 -7.3424e-09 8.9249e-07 -0.00012197 1.4372e-06 -9.9108e-07 -3.0905e-05 8.119e-07 2.1086e-07 3.8424e-05 -9.8444e-07 -2.0779e-06 3.6787e-06 6.0434e-05 -1.408e-06 -1.112e-06 -1.1857e-06 3.3671e-07
9.6322e-07 4.6823e-05 0.2772 0.17673 -1.0301e-05 9.0149e-07 -2.6313e-05 -1.3083e-05 -4.2379e-07 0.18157 3.1147e-06 4.9772e-06 0.18223 -4.8383e-06 -5.2871e-07 1.0544e-06 0.00021882 5.9513e-07 -3.2028e-06 0.00014035 -9.2809e-05 1.2912e-05 1.6112e-05 -7.0457e-06 0.00015866 -1.7745e-05 -0.00011739 1.006e-05 0.00012587 1.5912e-05 -9.3879e-06 0.43572 0.00017652 -7.9239e-06 2.1241e-05 0.43453 -3.3314e-07 -6.1712e-06 3.1549e-06 -6.6693e-06 1.1743e-06 -8.4414e-06 0.00063886 8.679e-07 0.44519 6.4562e-05 5.299e-06 0.00052023 -9.5854e-07 0.44642 3.0654e-07 0.00015651 2.0229e-05 -4.2759e-05 0.00010951 -4.7265e-05 1.6794e-06 -0.0028555 -0.00058725 5.7598e-05
-2.3799e-06 7.8962e-07 1.8488e-05 6.4007e-06 6.1043e-06 -8.8521e-06 1.9363e-06 -1.4007e-05 5.4418e-05 3.9136e-05 -7.1947e-05 4.0093e-06 1.796e-06 -5.0907e-06 -4.414e-07 1.0537e-06 -9.2211e-05 7.5533e-05 -9.1381e-06 0.31595 -0.084741 0.00033332 4.1876e-06 -1.1595e-05 0.00011396 0.00097043 -1.117e-05 9.7468e-06 0.47359 -0.00016893 -1.3173e-05 0.15737 6.5939e-05 1.4178e-06 1.9254e-05 0.18582 9.357e-06 2.2176e-05 0.00024195 4.8855e-06 3.1032e-06 -1.2409e-05 2.0758e-05 4.4834e-06 0.00066245 -0.00047153 5.7152e-06 -0.00050045 -1.9507e-05 0.00029013 -1.05e-07 0.00035982 -2.3519e-05 -0.00026446 6.174e-05 1.895e-05 2.3736e-05 -0.0023726 -0.00011637 -5.1997e-05
8.0533e-06 -6.98e-06 -2.8563e-05 3.8842e-06 0.31612 3.6914e-06 -2.8774e-06 2.7045e-07 -2.461e-05 0.00057534 -5.785e-05 1.0396e-05 0.00067055 -3.1801e-06 -4.9453e-07 -1.3004e-06 2.4946e-07 3.5351e-05 0.00015698 0.10197 0.12899 -0.00010914 1.9187e-05 5.9386e-06 -7.1812e-05 2.6792e-05 -1.01e-05 -0.00014388 -0.0028214 -0.00030738 -2.8142e-05 -3.5759e-05 1.4377e-05 -1.7921e-06 -7.198e-06 0.00014084 3.8449e-05 -1.6583e-05 -0.00016893 1.2871e-05 1.6822e-05 -5.3932e-05 -0.00017165 -2.9241e-05 -4.4721e-05 0.34852 -1.0032e-06 -7.5685e-06 -0.00025366 1.2847e-05 -6.3224e-05 0.00053235 1.9687e-05 -1.3855e-05 -0.00032882 -7.0916e-05 0.00015713 -0.00026393 -7.0517e-05 -7.5689e-05
4.4548e-06 0.17397 1.3022e-06 0.17672 2.7806e-06 7.1408e-07 1.7143e-05 0.19583 2.5111e-06 4.6172e-06 1.396e-06 0.27702 -6.8983e-06 -2.3556e-06 5.0432e-06 5.966e-07 -6.9146e-06 2.7065e-06 0.24987 0.00023854 -3.2601e-06 1.936e-05 -2.7449e-06 -5.9945e-07 1.5075e-05 3.8531e-06 9.9794e-07 -1.0355e-08 5.6194e-05 -1.4502e-05 1.2219e-05 -3.5771e-05 4.5779e-06 -1.5898e-05 0.28863 2.0702e-05 -1.5646e-05 -1.9048e-06 -3.008e-05 2.0986e-05 1.7366e-05 -6.0053e-06 -3.7416e-05 2.6303e-06 6.126e-05 1.9668e-06 -1.2006e-06 9.0034e-05 0.0001746 2.2297e-05 0.70711 0.00090079 -6.3774e-07 1.6587e-05 -1.1248e-05 2.6909e-05 -5.8045e-06 4.1372e-05 -8.6686e-05 0.00012311
4.2974e-06 0.174 4.648e-05 0.17672 4.3939e-05 4.257e-05 -1.6134e-05 0.19584 2.4742e-06 3.3312e-06 2.3153e-05 1.1152e-05 -2.9759e-06 -3.2226e-06 6.2326e-07 3.1967e-06 -1.0294e-05 2.5996e-06 0.24986 0.00022213 5.8995e-06 1.7045e-05 -2.9158e-06 -3.1134e-05 1.6976e-05 1.1226e-05 -1.0475e-06 1.0541e-05 5.0857e-05 -3.6176e-06 1.2346e-05 -3.7618e-05 4.9291e-06 -6.5229e-06 0.28883 1.0738e-06 -2.0349e-05 2.7106e-06 0.0048838 -3.0674e-07 4.18e-05 0.00042477 0.00037116 -1.1703e-07 0.00011387 -4.3136e-05 -1.4073e-05 9.8327e-05 0.0001279 1.1189e-05 4.4834e-06 0.00083648 -1.3233e-06 4.247e-05 -5.5963e-05 2.7193e-05 -1.4574e-05 -0.00021112 -9.6026e-05 9.1509e-05
-2.3447e-08 -5.7475e-06 -3.4889e-06 4.8221e-06 3.8464e-05 8.782e-05 7.5269e-07 8.9572e-06 -0.00010266 0.00031894 -2.5683e-06 3.7902e-05 0.00020336 2.5635e-05 -2.004e-07 -5.3489e-06 -0.00010791 6.0866e-05 -3.8855e-06 -4.5277e-05 5.9135e-05 0.00079369 -1.4847e-06 0.00043638 -2.876e-05 0.3109 -6.362e-08 1.3742e-05 -0.00022537 0.00032045 0.40774 2.0261e-05 2.664e-05 0.0084599 -4.453e-05 -5.0936e-06 -8.0541e-06 -1.0383e-05 -2.0941e-05 -6.483e-06 -1.8578e-06 0.00011732 4.7845e-05 1.0629e-06 2.2269e-05 -0.00023394 -0.0001091 -7.1348e-06 0.0015323 -2.5342e-05 -1.8292e-05 4.3103e-05 -1.9883e-06 -0.0007203 -1.6371e-05 -0.00022823 -5.1771e-05 6.3798e-05 4.5843e-07 5.2804e-05
1.8055e-06 -1.3978e-06 2.151e-05 -4.1762e-05 -1.0561e-05 0.35386 -1.1815e-05 0.00063485 0.50247 0.00080508 0.00017355 -3.6239e-05 2.9948e-05 5.2498e-05 3.0912e-06 -8.679e-06 -1.1663e-05 0.30098 -4.9277e-05 0.00055952 -3.3779e-05 0.0067532 0.00015671 7.7139e-05 -6.803e-05 0.0027512 9.9568e-05 6.9384e-05 9.6047e-05 0.32584 0.40834 -3.7954e-05 -6.5187e-05 0.00022388 -2.0033e-06 -2.5367e-05 -5.3514e-05 0.00053595 0.0042719 -1.0173e-06 -6.7845e-05 0.00024692 2.8901e-05 -2.5077e-06 -4.9782e-06 -0.00074509 0.0012297 -2.966e-05 -6.4851e-05 -5.8203e-05 2.4337e-05 0.00050927 1.5218e-05 -0.0040887 0.00073559 0.99719 -0.00079822 8.7626e-05 -2.6435e-05 0.00079896
-1.4211e-06 2.8166e-06 3.1841e-07 3.5392e-06 0.00027691 -2.0233e-06 -3.4463e-07 4.258e-05 5.7811e-08 3.1619e-07 1.0906e-06 6.3594e-06 6.2614e-08 1.0563e-06 -1.7465e-07 -3.7715e-06 6.3779e-07 6.4668e-07 -9.4835e-07 -7.8396e-06 -4.3325e-06 2.9879e-05 3.3685e-06 1.6057e-05 9.3203e-07 1.585e-07 -5.9303e-06 -1.524e-06 -1.8735e-07 -8.8885e-07 8.4354e-07 5.1594e-07 1.7354e-06 4.258e-06 -1.3117e-05 6.8745e-06 -3.0894e-06 2.0162e-06 4.5553e-05 -2.6942e-06 -4.1548e-06 9.9868e-06 -1.8182e-05 3.4097e-06 -1.3139e-06 4.0128e-05 -9.6945e-07 1.167e-05 3.2242e-06 2.1924e-06 -4.0455e-06 -9.8008e-06 1.8605e-05 -1.0842e-05 8.4271e-05 0.00017785 1.9049e-05 2.8938e-05 8.9337e-05 -4.2104e-06
3.1532e-06 3.6926e-05 7.264e-06 0.177 2.7664e-05 -1.8721e-05 6.5725e-07 0.00027157 2.7357e-06 0.18188 0.18566 3.9993e-06 0.18242 0.00011618 1.0261e-06 -3.6194e-05 -5.7761e-07 5.747e-05 -2.7424e-05 0.10251 0.12751 0.0010491 1.1859e-05 -4.8827e-05 9.9551e-06 0.30788 -3.5521e-05 2.6588e-05 -0.0023005 -4.4279e-05 -2.3126e-05 5.4218e-05 0.31558 -3.9487e-05 -1.2667e-05 -2.714e-05 1.757e-05 -7.042e-05 -3.2164e-06 -1.9071e-05 -7.5996e-06 -0.00015482 1.227e-05 -2.5696e-05 2.3854e-05 4.1791e-06 -8.9742e-05 0.00018289 -9.9679e-05 -0.00012534 7.2576e-06 2.4552e-05 0.00074824 -0.00038028 3.0086e-05 -0.00022762 1.3697e-05 0.00027771 -4.1292e-05 0.0031377
0.2885 0.17403 0.27756 0.17678 9.8696e-05 -1.3975e-05 0.00016759 0.19592 5.038e-06 0.18161 9.0366e-05 1.5977e-05 0.18222 1.3571e-05 -1.5309e-08 -3.6927e-06 0.24964 1.0538e-05 -1.7406e-06 0.10226 0.12773 -1.0828e-05 2.6993e-06 7.5796e-06 0.35269 0.00010006 0.30097 6.6659e-06 -0.0025993 7.3101e-05 -1.9062e-05 0.4455 0.3156 8.697e-05 7.4713e-06 0.44261 -1.2636e-05 -8.2675e-06 3.1006e-05 1.3015e-05 -2.7854e-05 6.1575e-05 0.33037 2.1291e-05 0.44855 6.0119e-05 -4.1519e-06 0.32674 -2.4986e-05 0.44774 9.2017e-06 0.00064102 1.1605e-05 0.00026427 0.00040809 1.9484e-05 4.005e-05 0.38235 0.00093705 -5.2561e-05
2.4154e-05 7.6813e-05 2.6593e-05 -6.4646e-05 4.6105e-06 1.2645e-05 6.0849e-06 0.19703 2.0804e-05 0.1843 0.0011989 -5.25e-07 0.18335 1.6026e-05 8.1888e-06 -2.4207e-05 -5.6626e-05 4.2311e-05 5.565e-05 0.10175 0.12988 0.22977 0.0001143 -5.6836e-05 -9.4517e-06 0.0020642 3.9141e-05 0.0028084 -0.002474 -3.1372e-05 8.4785e-05 -0.00013353 -0.00020352 -4.6202e-05 -0.00014575 -9.4372e-05 4.7271e-05 0.00043986 0.0010218 -4.8513e-05 -4.8888e-06 3.0433e-06 -1.4911e-05 -4.5061e-06 2.6291e-05 0.00066104 8.2965e-05 -1.0627e-05 0.00053543 -0.00028827 -3.6785e-06 0.0092161 9.3815e-05 -0.0014178 0.002468 -0.00025992 4.8827e-05 0.00023253 3.4077e-05 -8.4278e-05
1.5914e-06 -3.1886e-06 -2.1265e-06 0.17706 2.6736e-06 -6.2313e-08 -9.3563e-09 -3.4607e-06 9.4891e-06 -5.9407e-06 -1.9137e-06 7.6848e-07 -1.3723e-05 1.2072e-06 -6.1454e-07 -8.851e-05 1.1522e-05 2.092e-07 8.4571e-06 5.6031e-05 1.1247e-05 -1.7218e-05 4.7549e-07 0.37718 -8.0897e-06 -4.9084e-06 2.4061e-06 -1.6586e-05 2.5028e-06 -2.8087e-05 -1.6524e-06 1.7245e-06 7.6746e-06 -1.1823e-06 1.7115e-05 8.8418e-07 0.00016697 6.7527e-06 -1.3244e-05 -6.2855e-06 0.00077147 -7.431e-05 -7.6245e-07 -8.6001e-07 3.2598e-06 2.8434e-06 -1.1417e-06 4.3948e-06 -0.00029162 -2.587e-05 7.2042e-07 2.0787e-06 -4.5751e-06 1.6698e-05 -7.6977e-05 -2.2591e-05 5.9347e-06 7.2811e-05 1.5867e-06 -0.00031784
-8.8979e-07 -2.81e-08 -3.6208e-07 -1.4467e-08 -1.4348e-07 1.9817e-06 4.2344e-08 6.7765e-06 0.49888 -9.7606e-07 1.4101e-06 -3.4467e-07 2.6428e-06 2.6902e-06 4.3688e-08 4.828e-07 2.8779e-06 9.6028e-07 1.5837e-08 0.00050382 -0.00049473 -1.283e-05 -1.7847e-06 7.2785e-05 5.1589e-06 1.6081e-05 2.1525e-07 2.493e-06 0.00013803 3.4872e-06 -9.1531e-06 -8.4891e-07 -6.2124e-07 0.00015924 3.6531e-07 -1.2232e-06 1.0566e-06 1.4002e-06 -5.2529e-05 6.9319e-08 -7.4574e-06 -1.5261e-06 1.1373e-07 -1.4808e-07 -6.0293e-07 7.5562e-05 3.0483e-06 -2.5182e-07 -1.094e-06 -3.1558e-06 -8.5709e-08 2.3188e-06 3.2197e-05 1.1229e-05 9.085e-07 3.7544e-05 4.6502e-06 -1.7604e-06 -6.347e-07 -2.5633e-06
3.1524e-06 0.17397 -5.3355e-08 0.17672 2.1867e-06 9.1723e-07 0.28864 0.19582 2.71e-06 3.1385e-05 0.1855 0.27704 -1.8104e-05 -1.2806e-06 0.5 4.3899e-07 -4.5898e-06 6.3211e-07 0.24988 0.10262 0.12735 2.3263e-05 -2.7109e-06 4.0062e-05 2.4052e-05 4.3028e-06 -2.0805e-05 -6.013e-07 -0.002089 -2.3873e-05 -6.1976e-06 -7.4333e-05 1.9989e-05 -1.3576e-05 0.28864 4.16e-05 0.35496 -2.0856e-06 -1.6956e-05 0.4472 0.37723 -6.4269e-06 -1.1188e-05 0.00014203 4.0637e-05 2.9952e-05 6.4766e-05 9.7912e-05 0.00017922 2.5535e-05 6.6685e-05 0.00090846 -5.8445e-06 2.6867e-05 -3.9794e-05 1.5491e-05 -6.2921e-06 -2.5554e-05 -0.00013991 0.00012301
-8.9514e-06 -2.3544e-05 9.6121e-06 0.17676 -4.4781e-06 -1.1786e-05 -6.2535e-07 3.7902e-06 -3.0211e-06 0.18183 -1.7142e-06 -1.4884e-05 0.18226 4.2476e-05 -6.2766e-07 -3.751e-06 0.24967 0.30033 -3.96e-05 0.10223 0.12844 0.22863 0.57735 5.6678e-05 1.0317e-05 4.3783e-05 -4.9715e-05 6.8863e-06 -0.0025081 -1.8702e-05 -1.5027e-05 2.0172e-05 1.5063e-05 0.00010418 8.1063e-07 2.1178e-05 2.6434e-05 1.4122e-05 3.3737e-05 7.6554e-06 4.729e-06 0.40673 -5.9172e-05 1.7467e-06 3.3041e-05 -4.5399e-05 4.7017e-06 6.9662e-05 -8.9243e-06 -1.9026e-06 -4.4414e-06 6.0585e-05 0.37817 0.57731 9.8218e-05 3.06e-05 0.57735 0.00093888 -2.6184e-05 -0.00011876
3.2379e-06 0.17397 -4.9372e-08 0.17672 2.5736e-06 8.4734e-07 0.28866 0.19583 3.1738e-06 1.192e-05 0.18549 0.27704 -1.6888e-05 -1.234e-06 4.8759e-05 4.3579e-07 -6.2231e-06 9.2291e-07 0.24988 0.1026 0.12736 2.1944e-05 -2.7877e-06 3.6623e-05 2.5935e-05 -4.8498e-05 -1.7216e-05 5.3933e-07 -0.0021098 -2.303e-05 -5.9665e-06 -6.9863e-05 2.0506e-05 -1.42e-05 0.28864 4.323e-05 0.35495 -3.3046e-06 -2.123e-05 5.1941e-05 0.3771 -5.8815e-06 -1.4575e-05 0.00013841 4.1552e-05 3.3123e-05 0.49964 8.5527e-05 0.0001814 2.2762e-05 6.742e-05 0.00090452 -6.2047e-06 2.6775e-05 -3.3776e-05 -0.00014176 -7.1321e-06 -1.7354e-05 -0.00015333 0.00010087
-1.9013e-05 -1.5887e-05 -2.5785e-07 1.9722e-06 -4.3172e-06 -1.2761e-05 3.7952e-07 -5.8265e-06 6.5014e-05 2.3136e-05 -6.2914e-07 -2.6075e-07 1.1092e-05 -6.5501e-05 2.4138e-08 -2.5426e-06 0.24952 -2.8113e-05 6.5564e-06 0.10223 0.12775 -3.5476e-05 -4.1006e-07 1.5878e-05 3.2493e-05 -1.2413e-05 -8.4842e-05 -3.1091e-06 -0.0023365 -3.0503e-05 -5.2826e-05 4.6027e-05 8.771e-06 0.43698 2.2835e-05 -1.0619e-05 6.1644e-06 -3.7208e-06 3.739e-05 5.416e-06 8.6506e-06 -6.0964e-05 -0.00031688 -1.478e-06 0.00012081 8.2364e-05 7.8432e-09 0.0001516 -0.00022129 2.0984e-05 -2.3253e-06 -2.2008e-05 6.5016e-05 6.107e-05 2.9736e-05 -5.0282e-05 3.5711e-05 0.00095173 -4.6718e-07 1.4206e-05
0.28855 0.17424 -1.3114e-05 5.0739e-06 -1.1377e-05 3.2211e-07 -1.4006e-06 0.19602 5.624e-06 -1.5582e-05 0.00012624 -2.622e-05 -2.4893e-05 1.1151e-05 4.4469e-06 -1.3508e-06 0.25004 9.838e-06 1.8756e-06 0.10251 0.12744 -3.2734e-05 -1.1611e-05 1.3274e-05 0.35263 5.7936e-05 0.30214 -2.5124e-06 -0.0020593 5.2707e-05 -1.1266e-05 -2.5048e-06 0.31667 3.797e-05 2.4744e-05 0.00013366 -3.2816e-05 -3.6792e-06 2.8654e-05 1.9979e-05 -4.2712e-06 1.2759e-05 0.33107 -6.6743e-07 -0.0010165 1.4424e-05 5.4507e-06 0.32855 -7.5261e-05 -4.9858e-05 2.0955e-05 0.00054763 -3.2789e-05 4.2138e-05 7.9556e-05 6.6158e-05 6.9304e-05 0.3683 0.0001774 -3.3321e-05
3.1198e-06 0.17402 7.0011e-06 2.1164e-05 -6.0521e-06 4.6354e-07 -2.1593e-10 0.19584 1.5279e-06 1.1675e-05 0.18551 -5.3573e-05 -2.8408e-05 -2.0336e-06 3.0434e-06 2.8476e-06 -7.2044e-06 -1.4848e-06 0.00012608 0.10233 0.12785 8.7815e-06 -4.7968e-06 -1.9353e-05 -1.1833e-05 -1.7815e-05 4.6672e-06 2.043e-06 -0.0023065 -2.1004e-05 -3.7902e-06 -3.8645e-05 -2.9954e-05 1.2986e-05 2.1482e-05 -1.2232e-05 6.1982e-07 2.7351e-06 -0.00017277 1.788e-05 -2.2455e-05 -2.0303e-05 3.8848e-05 3.7765e-06 4.1724e-05 0.0015125 1.2327e-06 9.8403e-05 6.7385e-05 5.1463e-05 3.9309e-05 -0.0016587 -2.3958e-05 4.8084e-05 0.40193 -3.3851e-05 1.3756e-05 -8.239e-05 -4.1142e-05 -0.00011605
0.28879 0.00010435 0.00049761 3.8969e-05 0.31646 -1.1064e-05 0.28897 6.459e-05 2.6328e-06 -1.5395e-05 0.18611 0.00015464 -4.4065e-05 6.2622e-07 1.1614e-05 -1.343e-05 0.25053 1.9448e-06 -3.301e-06 -0.0007192 0.00080594 0.00020927 1.1664e-05 -2.8137e-06 0.00013606 7.8428e-05 0.30196 -4.5262e-06 -0.00087192 3.4966e-05 -5.5359e-06 0.0093408 -0.00037742 4.3034e-05 -2.2538e-05 0.008165 -2.9968e-06 2.9124e-06 5.3929e-05 -4.6334e-05 -4.0125e-05 7.8045e-05 0.33344 9.7894e-06 0.0023024 -0.00019353 4.6104e-05 0.34117 5.0807e-05 0.0010543 8.8752e-05 0.0011688 -2.2796e-06 -0.00040568 5.7364e-05 6.0209e-05 -9.3134e-05 0.018393 0.70762 1.1394e-05
0.28884 0.00036324 0.00012811 -9.9338e-06 0.31634 4.134e-06 0.28877 0.00014973 2.7951e-06 -6.6046e-05 0.18615 0.00011742 -5.7152e-05 -6.6321e-06 1.5548e-05 -1.0033e-05 0.25114 1.84e-06 -2.8876e-06 -0.00033168 0.00042178 0.00020028 1.3467e-05 -4.1652e-06 0.00023013 1.8558e-05 0.30302 -3.6445e-06 -0.00020607 3.0484e-05 -7.1279e-06 -0.00044607 0.00086687 -1.389e-05 1.5976e-05 0.0002238 -2.351e-05 1.3297e-06 5.4732e-05 -4.6039e-05 -1.5368e-05 2.0788e-05 0.33478 -1.1301e-05 -0.0020677 -0.00017466 6.1006e-05 0.3435 -4.2737e-07 -0.00032122 0.00010081 0.0012319 -2.6445e-05 -0.00067057 -0.00016166 5.9618e-05 -6.22e-05 0.0014935 0.70627 8.8233e-05
4.4548e-06 0.17397 1.3022e-06 0.17672 2.7806e-06 7.1408e-07 1.7143e-05 0.19583 2.5111e-06 4.6172e-06 1.396e-06 0.27702 -6.8983e-06 -2.3556e-06 5.0432e-06 5.966e-07 -6.9146e-06 2.7065e-06 0.24987 0.00023854 -3.2601e-06 1.936e-05 -2.7449e-06 -5.9945e-07 1.5075e-05 3.8531e-06 9.9794e-07 -1.0355e-08 5.6194e-05 -1.4502e-05 1.2219e-05 -3.5771e-05 4.5779e-06 -1.5898e-05 0.28863 2.0702e-05 -1.5646e-05 -1.9048e-06 -3.008e-05 2.0986e-05 1.7366e-05 -6.0053e-06 -3.7416e-05 2.6303e-06 6.126e-05 1.9668e-06 -1.2006e-06 9.0034e-05 0.0001746 2.2297e-05 0.70711 0.00090079 -6.3774e-07 1.6587e-05 -1.1248e-05 2.6909e-05 -5.8045e-06 4.1372e-05 -8.6686e-05 0.00012311
3.552e-06 0.17397 1.1803e-06 0.17672 -3.8764e-09 7.8292e-07 0.28866 3.3128e-06 8.5652e-07 8.2173e-06 0.18549 0.27704 -1.8192e-05 7.115e-07 5.0088e-05 -3.113e-07 -7.9066e-06 -1.3232e-06 0.24988 0.10259 0.12738 2.1839e-05 -8.3275e-07 3.481e-05 2.6523e-05 -4.8417e-05 -2.0185e-05 1.3307e-07 -0.0021168 -2.4304e-05 -1.0492e-05 -7.4231e-05 2.017e-05 -1.5579e-05 0.28863 4.1679e-05 0.35492 2.7029e-06 -1.6415e-05 5.4068e-05 0.37846 -5.5198e-06 -1.9952e-05 0.5 3.8642e-05 3.5673e-05 0.49964 -3.6885e-05 0.00018012 2.1196e-05 6.5524e-05 0.00082898 -4.977e-06 1.8616e-05 -4.4639e-05 -0.00013413 -1.2396e-06 -3.0939e-05 -0.00015699 0.00010471
6.2015e-07 2.6936e-06 -5.4362e-07 0.17673 2.9731e-06 8.8445e-07 8.4541e-07 0.19584 2.2209e-06 9.7553e-06 0.18549 2.4858e-06 -1.4413e-05 -8.1195e-07 9.3962e-07 7.8195e-07 9.3081e-07 2.557e-07 8.878e-06 0.10243 0.12742 1.6032e-05 -1.9071e-06 -6.2764e-06 3.8535e-06 4.37e-06 6.8941e-09 -6.0941e-07 -0.0021836 -1.0092e-05 -1.1613e-05 2.841e-06 1.5394e-05 9.5431e-07 9.0875e-06 2.2183e-06 -2.2669e-06 -3.2351e-06 -5.9869e-06 1.0266e-05 1.7252e-07 -1.1834e-05 1.4532e-05 4.3616e-06 4.2002e-06 2.9513e-05 -1.7595e-06 0.00010068 4.8261e-07 4.0503e-07 4.9089e-06 7.0394e-05 -4.5445e-06 2.2271e-05 6.4416e-06 -3.3855e-05 -6.1484e-06 5.2065e-05 -1.8266e-05 0.00010723
6.0067e-06 0.1745 6.8991e-06 0.17678 1.1114e-05 -1.8231e-06 -1.0875e-05 2.2338e-05 -5.2603e-06 0.18226 -1.8044e-05 8.8022e-07 0.1834 1.279e-05 2.8132e-06 -9.7829e-08 -2.3686e-05 2.4114e-05 0.25067 0.1023 0.12831 0.22766 4.3599e-05 -1.332e-05 -1.2162e-05 -2.9e-05 1.2011e-05 1.9373e-05 -0.0024262 -9.9563e-05 -2.1945e-05 -7.2521e-05 -2.6006e-05 -2.725e-05 -7.2457e-05 -4.1934e-06 2.9598e-05 -1.7109e-05 1.2949e-05 1.908e-05 -7.6189e-06 3.0479e-05 -1.1453e-06 -2.7999e-05 -1.6977e-05 0.00010157 -1.6455e-05 8.3298e-05 -7.0952e-06 -0.00030688 -7.3973e-05 0.00055082 2.5814e-05 0.00016978 0.00011976 -0.00022267 0.00019531 0.00018571 -6.8025e-05 -0.00011376
-3.1804e-07 0.00013049 5.1256e-06 0.17674 9.6898e-06 0.3533 2.9843e-07 0.19586 9.2629e-06 0.18163 -1.285e-06 9.1213e-05 0.18231 1.4713e-05 6.0489e-08 5.8402e-06 1.1446e-05 7.4404e-05 -1.8583e-06 9.8614e-05 -3.4799e-05 4.4348e-05 1.4707e-05 -2.4827e-05 -2.6712e-05 0.30855 4.8308e-06 3.1845e-05 -7.3968e-05 -8.1899e-05 0.0004713 2.2776e-05 -3.2366e-05 -5.2081e-05 -6.2257e-06 -1.8897e-05 -1.4752e-05 7.786e-05 -7.9565e-05 5.3225e-05 2.2708e-05 6.3567e-05 -1.0856e-06 2.181e-06 -4.1423e-05 1.0675e-05 -9.5515e-05 0.00031826 -8.6868e-05 3.7136e-05 -6.5307e-05 0.045437 6.7279e-05 6.3401e-05 -7.5568e-05 -5.3153e-05 4.0263e-05 0.00017125 -1.327e-05 0.00011262
-9.3499e-07 4.5469e-05 0.27745 -2.4468e-05 0.31612 0.35372 -2.2278e-05 1.3763e-05 -1.7862e-05 0.00013643 0.18568 -5.9113e-05 -1.2482e-05 1.328e-05 5.2343e-08 8.7109e-06 2.283e-05 -1.0126e-05 2.3369e-06 -2.7958e-05 3.444e-05 0.22782 2.527e-05 -0.00018659 -6.6713e-06 -2.5389e-05 -1.3449e-05 8.2763e-05 -3.2303e-06 -7.3246e-05 -1.587e-05 -3.2833e-05 4.5488e-06 -3.6968e-05 0.00015649 0.00010966 8.2127e-06 1.1624e-05 0.33632 1.1011e-05 3.271e-05 0.41321 0.00026157 -5.1485e-06 6.4117e-05 0.0002952 -1.1116e-05 -0.00014506 -1.1307e-06 8.9295e-05 5.7369e-06 -0.0003561 3.1124e-05 0.00014207 0.0013092 -0.00024568 2.2587e-05 -0.00049987 -0.0004428 -0.00010963
5.7831e-07 -1.6031e-05 -3.4063e-05 -1.4024e-05 1.5692e-05 7.8623e-05 3.0092e-06 1.319e-05 -5.7137e-05 0.00033088 5.4519e-06 2.9747e-06 0.00025081 -8.6799e-06 -1.0685e-06 1.1207e-05 -2.0223e-06 -7.7309e-06 -3.7813e-05 0.10221 0.12787 0.0020278 3.8403e-05 0.38055 1.1774e-05 0.0011099 -3.6705e-05 0.00059972 -0.0023142 0.3212 0.001929 -6.7241e-06 -5.7593e-05 0.4443 5.0953e-05 -1.8201e-05 0.00012233 3.1796e-06 0.0010499 -9.2132e-06 0.00076626 7.1229e-05 -3.5048e-05 3.817e-06 -2.464e-06 -7.5672e-05 2.8332e-05 2.1148e-05 0.50253 -2.7561e-05 -1.7812e-06 5.1862e-05 0.00014429 -0.0018116 0.0017588 -0.00027166 -0.0005915 -0.00069329 2.0823e-06 -4.7453e-05
7.0119e-07 -1.0863e-05 6.0401e-07 -1.7755e-05 9.7348e-07 -1.3532e-05 1.0803e-06 -3.8418e-06 0.00039241 -3.8481e-05 0.18555 -4.3329e-06 7.5299e-06 1.888e-06 1.7547e-06 -4.1502e-06 1.7038e-05 0.00038056 1.8352e-06 0.012572 -0.011546 -5.9098e-06 -5.1569e-06 1.81e-05 5.1174e-05 0.00030059 -8.5044e-06 -1.0737e-05 0.0055612 8.4333e-05 -7.7692e-06 -3.3801e-05 2.4668e-05 8.7966e-06 -6.6798e-06 -8.9399e-05 2.9841e-06 -4.2504e-05 2.7602e-05 -1.5115e-06 -2.2958e-06 6.7498e-05 2.4012e-05 -6.5861e-06 -3.4055e-05 0.0015832 -8.7385e-06 -1.2183e-05 2.235e-06 3.1022e-05 8.2052e-06 -2.9469e-06 0.00036041 8.3077e-06 4.6104e-05 -2.0911e-05 1.513e-05 4.7973e-05 -4.1042e-05 0.00016586
0.28855 0.17424 -1.3114e-05 5.0739e-06 -1.1377e-05 3.2211e-07 -1.4006e-06 0.19602 5.624e-06 -1.5582e-05 0.00012624 -2.622e-05 -2.4893e-05 1.1151e-05 4.4469e-06 -1.3508e-06 0.25004 9.838e-06 1.8756e-06 0.10251 0.12744 -3.2734e-05 -1.1611e-05 1.3274e-05 0.35263 5.7936e-05 0.30214 -2.5124e-06 -0.0020593 5.2707e-05 -1.1266e-05 -2.5048e-06 0.31667 3.797e-05 2.4744e-05 0.00013366 -3.2816e-05 -3.6792e-06 2.8654e-05 1.9979e-05 -4.2712e-06 1.2759e-05 0.33107 -6.6743e-07 -0.0010165 1.4424e-05 5.4507e-06 0.32855 -7.5261e-05 -4.9858e-05 2.0955e-05 0.00054763 -3.2789e-05 4.2138e-05 7.9556e-05 6.6158e-05 6.9304e-05 0.3683 0.0001774 -3.3321e-05
8.0533e-06 -6.98e-06 -2.8563e-05 3.8842e-06 0.31612 3.6914e-06 -2.8774e-06 2.7045e-07 -2.461e-05 0.00057534 -5.785e-05 1.0396e-05 0.00067055 -3.1801e-06 -4.9453e-07 -1.3004e-06 2.4946e-07 3.5351e-05 0.00015698 0.10197 0.12899 -0.00010914 1.9187e-05 5.9386e-06 -7.1812e-05 2.6792e-05 -1.01e-05 -0.00014388 -0.0028214 -0.00030738 -2.8142e-05 -3.5759e-05 1.4377e-05 -1.7921e-06 -7.198e-06 0.00014084 3.8449e-05 -1.6583e-05 -0.00016893 1.2871e-05 1.6822e-05 -5.3932e-05 -0.00017165 -2.9241e-05 -4.4721e-05 0.34852 -1.0032e-06 -7.5685e-06 -0.00025366 1.2847e-05 -6.3224e-05 0.00053235 1.9687e-05 -1.3855e-05 -0.00032882 -7.0916e-05 0.00015713 -0.00026393 -7.0517e-05 -7.5689e-05
-1.1827e-05 -1.0488e-05 4.7423e-05 8.123e-06 2.0398e-05 0.35355 8.1114e-07 1.0019e-06 0.00025229 0.00022568 1.3625e-05 6.2305e-06 0.00015614 0.33482 -6.1684e-07 7.0311e-06 -0.0002132 0.30068 -1.1905e-05 0.00012326 -4.498e-05 0.23548 0.00016249 0.0004608 -0.00013288 0.0010193 5.2439e-06 1.2165e-05 -6.0605e-05 0.0025906 0.40961 -1.7636e-06 -8.6186e-05 0.47446 1.2647e-05 6.6198e-06 -1.4249e-05 3.0393e-05 6.5131e-05 -4.4814e-06 6.9244e-07 0.40916 0.00010522 -8.2685e-06 -1.8801e-05 -0.0019991 -1.3849e-08 -4.1031e-05 0.00062796 1.6481e-06 -1.7704e-05 3.0018e-05 -0.00051678 -0.0048548 -4.3769e-07 0.013079 -0.00071804 -5.3912e-05 -3.6782e-05 -0.0014323
0.28895 0.17443 1.5845e-05 4.2562e-06 1.8296e-06 6.9093e-07 7.7711e-07 1.3643e-05 8.54e-07 2.039e-06 6.6064e-08 -1.6822e-05 4.1485e-05 0.33319 4.9272e-06 -2.457e-05 -2.368e-05 4.8147e-07 0.0001169 0.10227 0.12793 6.4786e-05 7.1396e-07 -6.212e-06 9.9434e-06 2.606e-05 0.00066219 -7.9542e-07 -0.0023337 4.2657e-06 -2.6353e-05 -5.673e-05 -9.3177e-05 -9.4156e-05 -2.4057e-05 -2.4666e-05 -2.6129e-05 5.861e-07 0.000118 -3.9245e-06 -7.899e-06 -1.4706e-06 -4.2612e-05 -9.2987e-06 -9.5214e-05 2.3634e-05 -6.7637e-06 0.00010574 0.00053187 -2.8246e-05 -3.256e-05 0.00012861 -2.2447e-05 -4.9488e-05 8.7734e-06 -2.7126e-05 8.5322e-06 0.00092702 1.8456e-05 -0.0003136
5.2029e-07 4.8208e-07 3.5155e-07 3.2098e-07 -1.9711e-06 2.0262e-06 -2.8154e-08 -2.1864e-06 1.779e-06 -2.2485e-06 8.2254e-05 -4.2176e-06 2.0627e-07 -4.5836e-05 1.0112e-06 -1.4895e-07 3.7659e-05 0.0053494 -8.6485e-07 0.0023399 -0.002251 -4.3403e-05 4.5073e-05 1.7177e-06 5.4487e-06 0.00017053 -1.1756e-06 4.4611e-07 0.0033157 0.00014309 9.2307e-06 -6.5076e-05 3.2022e-06 -5.9272e-05 8.4528e-06 -4.7055e-05 1.8797e-07 -1.2702e-05 -4.4458e-05 5.1849e-07 -3.5152e-06 1.7166e-05 -8.8509e-06 8.0893e-06 9.2094e-06 0.00067488 2.6487e-07 1.9882e-05 7.9962e-06 4.8927e-07 2.5191e-06 0.00089008 -0.00013039 6.0477e-05 -2.1644e-05 3.4203e-06 -0.00031222 -0.00031139 3.0435e-05 6.3444e-05
3.4665e-06 0.17397 1.1763e-06 0.17672 -3.9078e-07 8.5281e-07 0.28864 4.2454e-08 3.9271e-07 2.7683e-05 0.1855 0.27704 -1.9407e-05 6.6482e-07 0.5 -3.081e-07 -6.2733e-06 -1.614e-06 0.24988 0.1026 0.12737 2.3159e-05 -7.5596e-07 3.825e-05 2.464e-05 4.3841e-06 -2.3774e-05 -1.0076e-06 -0.002096 -2.5146e-05 -1.0723e-05 -7.8702e-05 1.9654e-05 -1.4956e-05 0.28863 4.0049e-05 0.35492 3.9219e-06 -1.2142e-05 0.4472 0.37859 -6.0652e-06 -1.6565e-05 0.5 3.7727e-05 3.2503e-05 6.5133e-05 -2.45e-05 0.00017794 2.397e-05 6.4789e-05 0.00083292 -4.6168e-06 1.8708e-05 -5.0657e-05 2.3122e-05 -3.9958e-07 -3.9139e-05 -0.00014357 0.00012685
3.2396e-07 6.9272e-06 4.6506e-06 2.995e-06 -9.5831e-06 4.0779e-05 1.3333e-06 1.1071e-05 2.7834e-06 2.4051e-06 7.8455e-05 0.00011217 6.9338e-06 -4.0351e-05 2.9635e-06 -1.6306e-06 4.2201e-05 0.0053541 -6.6484e-08 0.0024441 -0.002349 4.3536e-05 4.8762e-05 1.6189e-05 5.4904e-06 0.00062036 -4.9817e-07 0.00018762 0.0033483 0.0002674 5.1718e-06 -6.5691e-05 4.8822e-06 -6.5931e-05 -1.3671e-05 -4.7483e-05 -1.9453e-05 -1.2052e-05 -0.00012863 3.057e-06 3.4092e-06 3.9312e-06 -2.2298e-05 1.1011e-05 5.1755e-06 0.00065595 1.4301e-07 0.00014382 1.926e-07 -8.6565e-06 -6.777e-05 0.047933 -0.00011254 3.7363e-05 -0.00017901 -4.6777e-06 -0.00028636 -0.00031429 1.1929e-05 8.1545e-05
-2.5036e-06 -1.9303e-05 -4.5349e-07 5.7275e-06 5.2996e-07 -5.9608e-06 9.551e-07 1.9973e-06 -1.6499e-07 0.18198 -3.4907e-06 -4.5758e-06 0.18235 7.465e-06 -2.1776e-06 -1.2053e-06 1.4327e-05 6.9824e-06 -3.8456e-05 0.1023 0.12788 0.22938 6.6973e-05 -3.1858e-05 -4.0841e-06 -8.2863e-05 -4.069e-05 1.4549e-05 -0.0023002 -0.00010363 0.4082 -3.6165e-05 -5.5437e-05 -7.607e-05 2.9644e-06 -3.4666e-05 2.4875e-05 0.3777 7.2611e-06 -8.8996e-06 -1.2427e-06 -2.4889e-05 -1.8335e-05 -5.2589e-06 -1.6792e-05 -0.00012961 2.5885e-05 1.6319e-05 1.1317e-05 -6.8383e-05 9.697e-06 -1.7033e-05 1.4216e-05 -0.0009394 6.9319e-05 -0.00020843 -0.00037098 4.966e-05 -2.1765e-05 -4.7804e-05
3.1524e-06 0.17397 -5.3355e-08 0.17672 2.1867e-06 9.1723e-07 0.28864 0.19582 2.71e-06 3.1385e-05 0.1855 0.27704 -1.8104e-05 -1.2806e-06 0.5 4.3899e-07 -4.5898e-06 6.3211e-07 0.24988 0.10262 0.12735 2.3263e-05 -2.7109e-06 4.0062e-05 2.4052e-05 4.3028e-06 -2.0805e-05 -6.013e-07 -0.002089 -2.3873e-05 -6.1976e-06 -7.4333e-05 1.9989e-05 -1.3576e-05 0.28864 4.16e-05 0.35496 -2.0856e-06 -1.6956e-05 0.4472 0.37723 -6.4269e-06 -1.1188e-05 0.00014203 4.0637e-05 2.9952e-05 6.4766e-05 9.7912e-05 0.00017922 2.5535e-05 6.6685e-05 0.00090846 -5.8445e-06 2.6867e-05 -3.9794e-05 1.5491e-05 -6.2921e-06 -2.5554e-05 -0.00013991 0.00012301
3.1959e-06 0.17398 -2.2266e-08 -2.77e-06 4.3992e-06 -4.9458e-07 1.8207e-05 0.1959 2.1231e-05 6.7966e-05 -5.2314e-06 0.27703 6.4258e-06 4.435e-05 2.4213e-06 4.3447e-05 2.5983e-06 4.0596e-06 1.0952e-06 0.10242 0.12747 1.0258e-05 -2.2834e-06 0.37425 2.065e-05 -1.8843e-06 2.903e-06 -1.5447e-05 -0.0021869 -1.4889e-05 -1.2656e-05 -5.0246e-05 3.0409e-05 -1.2263e-05 1.1363e-05 8.3003e-06 0.34373 -1.6528e-06 -4.5989e-05 1.6331e-05 0.0079913 9.3356e-05 -1.4331e-05 -0.0010244 6.0071e-05 1.281e-05 -2.6427e-05 9.703e-05 -0.00025842 1.3232e-05 5.2877e-05 0.00019552 -1.1936e-06 4.554e-05 -9.0834e-05 -2.6559e-05 1.7401e-05 2.811e-05 -0.0001281 -1.4241e-05
-1.2429e-05 9.51e-06 -1.0704e-06 -2.1698e-05 3.295e-06 1.7012e-07 2.592e-07 0.00058705 3.4669e-05 0.00074246 3.2507e-05 2.1182e-05 1.0924e-06 0.33338 1.9229e-06 -9.0262e-06 1.868e-05 4.0474e-06 -6.0329e-06 0.10232 0.12775 9.3612e-05 -2.2462e-05 -1.7353e-05 1.8092e-05 7.7693e-05 0.00010859 4.2443e-07 -0.0022918 4.6829e-05 0.00025264 -5.6575e-05 2.1129e-05 -0.00010386 -7.3486e-06 -3.0403e-06 1.4598e-05 0.0004343 0.00010811 3.6719e-06 2.2525e-06 -2.2824e-05 -1.0877e-05 1.7329e-06 7.076e-07 3.4825e-05 4.8515e-05 9.1396e-06 5.724e-06 -0.00010043 -6.6617e-06 0.00045153 5.3186e-05 -4.1846e-05 0.00032595 -4.9639e-05 1.8474e-05 0.00024346 -1.8516e-06 -0.00012951
4.7876e-06 0.17423 1.4488e-07 -1.184e-05 5.4627e-06 2.8581e-05 -1.2926e-05 0.19646 4.4065e-05 0.00076946 6.0798e-06 -5.9671e-05 5.662e-05 6.9426e-05 0.00076657 -8.9718e-06 -3.7007e-05 5.6468e-05 -1.7725e-06 1.1524e-05 0.00037392 5.6475e-05 -2.6246e-05 -1.949e-05 -6.4883e-05 0.0032561 0.00010797 -1.472e-05 -1.2522e-05 2.2075e-05 0.00028869 -8.124e-05 -9.3506e-05 2.1424e-06 -2.2185e-05 5.1864e-05 -7.609e-05 0.37905 0.00011123 0.44728 -0.00010069 -2.0183e-05 5.7575e-06 -1.5193e-05 -6.5493e-05 -5.7495e-05 0.0014981 0.00011459 -8.1854e-06 -0.00013773 1.7899e-06 0.00072557 9.9101e-05 -1.5273e-05 0.00065757 0.0075656 5.1618e-06 0.00035506 4.0119e-05 0.0010044
0.2885 0.17403 0.27756 0.17678 9.8696e-05 -1.3975e-05 0.00016759 0.19592 5.038e-06 0.18161 9.0366e-05 1.5977e-05 0.18222 1.3571e-05 -1.5309e-08 -3.6927e-06 0.24964 1.0538e-05 -1.7406e-06 0.10226 0.12773 -1.0828e-05 2.6993e-06 7.5796e-06 0.35269 0.00010006 0.30097 6.6659e-06 -0.0025993 7.3101e-05 -1.9062e-05 0.4455 0.3156 8.697e-05 7.4713e-06 0.44261 -1.2636e-05 -8.2675e-06 3.1006e-05 1.3015e-05 -2.7854e-05 6.1575e-05 0.33037 2.1291e-05 0.44855 6.0119e-05 -4.1519e-06 0.32674 -2.4986e-05 0.44774 9.2017e-06 0.00064102 1.1605e-05 0.00026427 0.00040809 1.9484e-05 4.005e-05 0.38235 0.00093705 -5.2561e-05
-7.0353e-06 3.4725e-05 2.8414e-05 4.1246e-07 1.8312e-05 -7.8199e-06 -5.64e-06 2.6613e-05 -3.4977e-06 0.18187 6.3291e-05 -1.8514e-05 0.18276 0.33341 -1.1839e-06 -6.7817e-06 -3.8272e-05 7.0033e-06 -1.6637e-05 2.2931e-05 8.5353e-05 0.22842 2.2783e-05 -7.7344e-06 -2.4209e-05 2.1314e-05 -1.8621e-06 1.7773e-05 2.2965e-05 -7.6419e-05 -2.5796e-05 -1.3859e-05 0.0001283 -0.00013681 -1.1555e-05 -5.5004e-05 -1.5635e-05 5.748e-07 0.0010442 -7.9106e-06 1.7895e-06 1.3383e-05 0.0030467 5.6283e-06 -1.9712e-05 -0.00010266 1.0102e-05 0.00020685 3.4988e-05 4.8023e-06 1.4369e-05 2.6742e-06 0.0007554 -0.00016661 -9.6956e-06 -0.00023152 0.00017284 -0.0010959 -6.9598e-05 0.0031201
-5.1316e-07 -1.0005e-05 1.039e-05 -1.5534e-05 0.00022747 -3.0067e-06 6.3529e-07 0.00033625 -3.8125e-06 0.00028687 -3.6957e-06 -3.3322e-06 8.5672e-05 -3.0902e-06 2.9468e-06 -7.5637e-06 -9.1769e-06 5.6504e-05 -2.541e-05 0.10244 0.12803 0.0011046 7.0219e-05 -2.1906e-05 4.959e-06 0.0011427 -2.0356e-05 1.8548e-05 -0.0018687 -4.7222e-05 -4.9657e-05 -6.6912e-05 -8.0676e-05 5.0189e-06 -0.00046791 -3.9339e-05 7.3819e-06 1.3905e-05 5.0032e-05 4.5365e-05 -4.0572e-06 5.4381e-06 -0.00049935 -2.0646e-06 -4.8134e-06 -0.00016565 4.064e-06 0.00079952 2.6682e-05 -6.5692e-05 1.4732e-06 0.41046 1.916e-05 -0.00078612 -0.0014433 -4.3437e-05 4.9786e-06 0.00012223 -0.00031419 -2.3803e-06
0.28869 4.9014e-06 2.6262e-07 -4.8513e-06 -2.7725e-06 1.1248e-06 -6.8243e-06 3.3503e-05 -6.3275e-06 0.0010931 -9.3029e-06 2.1575e-06 0.00010117 2.9384e-05 1.5838e-07 0.57671 0.00024955 1.4286e-06 -6.5052e-06 6.3617e-06 -1.6598e-05 5.5151e-05 -2.5782e-06 0.00030657 4.7951e-05 -1.6015e-05 0.30031 -5.1857e-06 3.2787e-06 3.8462e-05 -2.7886e-06 -0.00015124 -3.0504e-05 3.3564e-06 -1.8259e-06 0.00010319 9.6765e-06 -6.3373e-06 7.4349e-06 -1.1238e-05 -4.4379e-06 1.6248e-06 3.6826e-06 -8.0711e-06 -5.2406e-05 -9.3406e-06 -2.4207e-06 -2.8189e-05 3.9052e-06 -0.00072181 -2.9214e-08 -1.6083e-05 -6.942e-06 -0.00015545 9.8926e-06 -7.1528e-07 -3.9331e-05 0.0017015 -8.5778e-05 4.7495e-06
-7.0743e-07 2.4629e-06 0.27721 3.256e-06 1.2327e-06 -3.4922e-07 -4.3783e-06 -3.6066e-06 -1.4244e-07 0.18151 0.18549 4.3098e-06 0.18227 -9.7019e-10 2.6571e-06 1.7291e-06 7.6438e-07 4.7851e-07 -2.5184e-06 0.10241 0.12737 -1.6972e-06 1.308e-05 -2.5954e-07 -5.7612e-06 -8.8359e-06 -4.514e-07 8.8118e-06 -0.0021419 1.8931e-05 -2.9808e-05 4.4317e-06 2.1351e-05 -6.2041e-06 1.1249e-05 -1.8415e-05 1.9773e-06 -9.7567e-06 -5.2374e-06 2.6259e-06 6.379e-07 6.3553e-06 4.9534e-05 2.8175e-06 4.6709e-06 8.5004e-05 1.0285e-05 9.2426e-05 1.227e-05 0.00011812 4.769e-06 0.00013647 1.2715e-05 6.6757e-05 0.00011537 -6.7398e-05 1.561e-05 -0.00020186 -0.00013233 -3.0791e-05
8.1486e-08 -5.4851e-07 -5.403e-09 -2.7511e-06 -8.4451e-07 -2.7327e-06 1.0638e-07 -2.9414e-07 -8.8296e-07 -1.9796e-05 1.0203e-06 -6.7469e-07 -1.2076e-07 1.704e-05 -2.9942e-08 -5.1597e-08 -1.7996e-05 -3.1527e-05 -1.5249e-06 -6.8057e-05 0.00013079 1.0159e-06 3.0675e-07 -1.4679e-06 -2.0155e-05 0.002468 4.7808e-07 1.3269e-05 -8.1127e-05 3.5628e-06 -6.6506e-06 9.805e-06 -8.4104e-05 2.3462e-06 2.8529e-07 -1.1891e-06 9.1861e-06 2.9374e-07 3.0848e-06 -2.3737e-07 -6.5802e-06 3.0719e-06 1.8632e-05 -2.0443e-06 4.7221e-06 -7.9406e-06 -2.4123e-06 7.4878e-06 -9.0937e-07 1.9849e-05 -8.4306e-07 4.7155e-07 1.1187e-05 -2.4422e-06 6.76e-06 -3.3145e-06 -9.2636e-07 8.5643e-05 1.1977e-06 2.1596e-05
-8.9514e-06 -2.3544e-05 9.6121e-06 0.17676 -4.4781e-06 -1.1786e-05 -6.2535e-07 3.7902e-06 -3.0211e-06 0.18183 -1.7142e-06 -1.4884e-05 0.18226 4.2476e-05 -6.2766e-07 -3.751e-06 0.24967 0.30033 -3.96e-05 0.10223 0.12844 0.22863 0.57735 5.6678e-05 1.0317e-05 4.3783e-05 -4.9715e-05 6.8863e-06 -0.0025081 -1.8702e-05 -1.5027e-05 2.0172e-05 1.5063e-05 0.00010418 8.1063e-07 2.1178e-05 2.6434e-05 1.4122e-05 3.3737e-05 7.6554e-06 4.729e-06 0.40673 -5.9172e-05 1.7467e-06 3.3041e-05 -4.5399e-05 4.7017e-06 6.9662e-05 -8.9243e-06 -1.9026e-06 -4.4414e-06 6.0585e-05 0.37817 0.57731 9.8218e-05 3.06e-05 0.57735 0.00093888 -2.6184e-05 -0.00011876
3.035e-06 0.17407 2.7231e-06 0.17689 1.9525e-05 1.7857e-05 -1.1703e-05 3.569e-05 1.1047e-05 1.3559e-05 -5.0274e-06 -1.2455e-05 8.5955e-05 0.33304 -1.5086e-06 3.7176e-07 -2.8891e-05 0.29996 -7.4588e-06 0.10269 0.12739 0.00083544 -1.3476e-05 -2.6782e-05 -7.305e-05 0.31142 -4.6449e-05 7.1096e-06 -0.0023285 -7.8905e-05 3.8839e-06 1.2071e-06 0.31674 -8.0101e-05 7.9185e-06 2.6442e-06 -6.4272e-05 7.946e-05 6.7617e-06 7.9671e-07 -5.5265e-05 -2.627e-05 -1.349e-05 6.3109e-07 -0.00013118 -8.6129e-05 0.0012705 -8.8474e-05 -9.2988e-05 -8.0425e-05 2.9163e-06 0.00017545 0.37742 -0.00019223 0.00030133 0.0070164 2.9543e-05 0.00029384 6.6728e-06 0.70709
3.552e-06 0.17397 1.1803e-06 0.17672 -3.8764e-09 7.8292e-07 0.28866 3.3128e-06 8.5652e-07 8.2173e-06 0.18549 0.27704 -1.8192e-05 7.115e-07 5.0088e-05 -3.113e-07 -7.9066e-06 -1.3232e-06 0.24988 0.10259 0.12738 2.1839e-05 -8.3275e-07 3.481e-05 2.6523e-05 -4.8417e-05 -2.0185e-05 1.3307e-07 -0.0021168 -2.4304e-05 -1.0492e-05 -7.4231e-05 2.017e-05 -1.5579e-05 0.28863 4.1679e-05 0.35492 2.7029e-06 -1.6415e-05 5.4068e-05 0.37846 -5.5198e-06 -1.9952e-05 0.5 3.8642e-05 3.5673e-05 0.49964 -3.6885e-05 0.00018012 2.1196e-05 6.5524e-05 0.00082898 -4.977e-06 1.8616e-05 -4.4639e-05 -0.00013413 -1.2396e-06 -3.0939e-05 -0.00015699 0.00010471
-1.991e-05 -3.7026e-05 9.9236e-06 -1.7564e-05 1.479e-05 -1.1946e-05 2.4351e-05 4.7281e-07 0.00065225 -0.0001324 0.18607 2.4954e-05 -3.6921e-05 -7.0351e-05 3.0332e-06 -1.0954e-05 0.25044 0.30689 -2.8329e-05 0.35776 -0.12448 -0.00016603 5.319e-05 2.9336e-05 0.00098019 0.33667 -0.00011881 7.6631e-06 0.51013 0.32383 0.00016151 -0.0035979 0.00013197 0.00013855 8.6745e-07 -0.0043657 3.8707e-05 -6.4582e-05 -3.2104e-05 -4.6309e-05 5.8873e-06 8.1306e-05 0.00055395 -1.7761e-05 -0.00032254 0.33385 -0.00012858 0.00049684 -3.2458e-05 6.598e-05 4.092e-06 0.0045882 0.00083186 -1.7306e-06 0.00022141 0.0033723 -0.00040767 -0.0013028 -9.682e-05 0.00015261
-0.00018965 9.8635e-06 0.27726 -4.9222e-05 -5.8448e-06 -2.1337e-05 -1.8293e-06 3.0063e-05 7.1041e-05 0.18228 0.18564 8.0634e-06 0.18265 4.7494e-05 4.4625e-06 8.5764e-05 -0.00025479 5.2087e-05 1.3208e-05 0.21993 -0.21886 0.23292 -1.2375e-05 0.00068526 0.35565 0.00060971 5.7469e-05 -7.7137e-06 0.50109 0.0006486 -3.7446e-05 -0.0039537 0.00014806 -0.00030374 -0.00047904 -0.0044653 4.169e-06 -1.759e-05 -3.1845e-05 -3.5504e-06 -6.0022e-07 -9.2653e-05 -0.00016098 -1.8719e-05 -0.00022777 0.32729 2.6564e-05 6.725e-05 0.49967 -0.00066928 7.7354e-06 -0.00013586 3.2338e-05 -0.0015418 0.00019105 -0.00034191 -0.00019742 0.38061 -8.4289e-05 -2.0309e-05
8.8397e-06 1.6116e-05 5.7804e-06 -3.5785e-05 4.8307e-05 3.1202e-05 1.0904e-05 0.00070909 0.00035827 0.18489 8.7208e-05 -3.6715e-05 0.18293 2.861e-05 3.057e-06 1.4505e-05 4.7257e-05 0.00038635 -2.8336e-05 1.7472e-05 0.00048937 0.00031862 -5.0081e-05 0.0025131 2.4337e-05 -2.661e-05 4.1504e-05 0.44839 -0.00012663 0.00086603 0.0011755 -0.00010239 -3.1751e-05 0.00034316 -4.9446e-05 -3.6916e-05 -3.5538e-05 0.0014289 0.33642 1.9738e-06 1.8456e-05 -0.00016771 -0.00010168 6.794e-06 4.0312e-05 0.32822 6.7469e-05 -0.00015057 0.0022615 -0.00016495 3.4175e-05 -0.0016182 0.00010436 6.4996e-05 0.40251 0.004281 -7.8225e-05 0.00045025 2.9791e-05 2.362e-05
0.00011376 0.00013036 0.00018755 6.8091e-06 0.00012056 5.3758e-05 -2.1303e-05 -7.7201e-05 2.895e-07 -4.4058e-05 0.00046509 0.00023006 6.9872e-06 -1.8054e-05 -4.8058e-06 2.0163e-06 0.00079317 7.5537e-06 -1.804e-05 0.00019314 -0.00018363 0.00022013 1.5802e-05 -9.7307e-06 1.9377e-05 0.00022364 2.6764e-07 1.3932e-05 0.00025438 0.00024375 6.8238e-05 -0.00018828 -0.00019736 -7.5109e-06 0.00019681 9.25e-05 -5.2812e-06 1.0917e-05 0.0050987 -7.6435e-05 1.0612e-05 0.0004304 0.3372 -5.757e-06 0.00035111 0.00092575 -2.1959e-05 0.33772 -3.3532e-05 -3.001e-05 2.4873e-05 0.0015871 0.0005861 -0.00040833 -0.00027671 0.00013928 -0.00016786 -0.0017068 0.010439 4.5838e-05
5.0239e-06 1.9122e-06 -2.2568e-05 -2.247e-05 2.1132e-05 -2.0611e-06 -9.9165e-06 0.00067943 3.2662e-05 0.1831 -1.4123e-05 0.00011979 0.18316 4.6461e-05 1.348e-06 1.855e-05 -3.7732e-05 7.6007e-05 0.00020623 0.10221 0.1285 0.0003775 5.0598e-05 -2.6055e-05 4.4218e-05 0.0011827 9.1167e-05 2.8624e-05 -0.0019941 6.5153e-07 0.00024575 -7.0109e-05 7.3746e-05 1.1887e-06 -0.00046943 -3.4502e-05 8.4033e-05 0.0004018 0.0019576 -1.7169e-05 1.2723e-05 -4.4456e-05 -0.000565 -5.1872e-05 4.8024e-05 -0.00025972 5.4232e-05 0.0010791 6.598e-06 -0.00015873 -0.0001451 0.44495 0.00011398 -0.00049486 0.037128 -3.1693e-05 0.00013125 0.00044936 -0.00015762 -3.5525e-05
