Evidence ID,Value,Algorithm,Site,Medication Details,Confirm Disease Was Checked,Rule of N,Use Distinct Dates,Level of Evidence,Credentials of the Actor,Where Did It Happen?,Check For Negation
,,,,Medication Details,Confirm Variable Was Checked,Rule of N,Use Distinct Time Intervals,Qualifiers for Evidence,Credentials of the Actor,Medical Setting of Action,Establish Assertion Status
1,"Three subtypes include predominantly inattentive, predominantly hyperactive-impulsive, and combined hyperactive-inattentive",ADHD,CHOP,,,,,,,,
2,"ICD-9 and ICD-10, ADHD is listed with hyperkinetic disorder/hyperkinetic syndrome (HKD)",ADHD,CHOP,,,,,,,,
3,Cases must be 4 years of age or older,ADHD,CHOP,,,,,,,,
4,diagnostic history of ADHD/HKD as determined by ICD9 codes and/or a history of ADHD medications,ADHD,CHOP,,,,,,,,
5,Individual is 1460 days-old or older ,ADHD,CHOP,,,,,,,,
6,medical record includes a relevant ICD9 code ,ADHD,CHOP,,,,,,,,
7,"one or more in-person visits, on separate calendar days",ADHD,CHOP,,,,1,,,,
8,one or more prescriptions of ADHD-related medications ,ADHD,CHOP,,,,,,,,
9,Individual is 1460 days-old or older ,ADHD,CHOP,,,,,,,,
10,medical record includes a relevant ICD9 code ,ADHD,CHOP,,,,,,,,
11,"two or more in-person visits, on separate calendar days.",ADHD,CHOP,,,1,1,,,,
12,includes one or more of the ICD9 codes,ADHD,CHOP,,,,,,,,
13,"Controls must be 4 years of age, or older",ADHD,CHOP,,,,,,,,
14,"Exclusionary criteria for controls include psychiatric, neurological and related disorders as defined by ICD9 codes or patient chart",ADHD,CHOP,,,,,,,,
15,"medication used to treat psychiatric, neurological and related disorders",ADHD,CHOP,,,,,,,,
16,Individual is 1460 days-old or older,ADHD,CHOP,,,,,,,,
17,must have two or more visits in the last five years (of last day in record),ADHD,CHOP,,,1,,,,,
18,"one or more prescriptions for a medication addressing psychiatric, neurological or related disorders ",ADHD,CHOP,,,,,,,,
19,"one or more ICD9 codes addressing psychiatric, neurological or related disorders",ADHD,CHOP,,,,,,,,
20,one or mentions of an ADHD or hyperkinesias ,ADHD,CHOP,,,,,,,,
21,Diagnostic codes? Yes (Absence of codes),Afib,Vanderbilt,,,,,,,,
22,Text Keywords?  Disease Only,Afib,Vanderbilt,,,,,,,,
23,Narrative Notes to search? ECG Impression,Afib,Vanderbilt,,,,,,,,
24,"Narrative Notes to search? H&P, Discharge summary, all notes",Afib,Vanderbilt,,,,,,,,
25,ECG Impression = Atrial Fibrillation keywords ,Afib,Vanderbilt,,,,,,,,
26,CPT/ICD 9 codes = heart transplant,Afib,Vanderbilt,,,,,,,,
27,ECG Impression = Atrial Fibrillation keywords ,Afib,Vanderbilt,,,,,,,,
28,(ECG Impression = Myocardial infarction keywords within 14 days (pre or post),Afib,Vanderbilt,,,,,,,,
29,CPT/ICD 9 codes = cardiac surgery),Afib,Vanderbilt,,,,,,,,
30,ECG Impression = Atrial Fibrillation keywords ,Afib,Vanderbilt,,,,,,,,
31,(ECG Impression = Myocardial infarction keywords within 14 days (pre or post),Afib,Vanderbilt,,,,,,,,
32,CPT/ICD 9 codes = cardiac surgery),Afib,Vanderbilt,,,,,,,,
33,Text of notes = Atrial Fibrillation or atrial flutter ,Afib,Vanderbilt,,,,,,,,
34,ICD 9 codes = Atrial Fibrillation or atrial flutter,Afib,Vanderbilt,,,,,,,,
35,Record contains none of the above ,Afib,Vanderbilt,,,,,,,,
36,ICD-9 codes = Atrial flutter / atrial fibrillation,Afib,Vanderbilt,,,,,,,,
37,"Keywords = Atrial flutter, Atrial tachycardia",Afib,Vanderbilt,,,,,,,,
38,Note:  Record must contain at least one ECG (without AF keywords),Afib,Vanderbilt,,1,,,,,,
39,"This should match:
Afib
A* fib*
AF
Aflutter
A* flutter
",Afib,Vanderbilt,,,,,,,,
40,Case Possible Keywords (any of the below):,Afib,Vanderbilt,,,,,,,,
41,Control Keywords (any of the below):,Afib,Vanderbilt,,,,,,,,
42,"ICD-9 Diagnosis, Acute kidney injury",AKI,Mount Sinai,,,,,,,,
43,"ICD-9 Diagnosis, Renal dialysis procedure",AKI,Mount Sinai,,,,,,,,
44,"ICD-9 Diagnosis, Other types of kidney disease",AKI,Mount Sinai,,,,,,,,
45,"ICD-9 Diagnosis, Exclusion criteria",AKI,Mount Sinai,,,,,,,,
46,"ICD-9 and CPT Procedures Contrast from angiography or angioplasty within 7 days preceding AKI
event",AKI,Mount Sinai,,,,,,,,
47,"Acute kidney injury mentioned in clinical notes, i.e. AKI text search",AKI,Mount Sinai,,,,,,,,
48,"The code will pick up all patients with any of the above-mentioned terms in a progress
note, as long as they are not preceded or followed by ※negative/no/not/absence§ (within
3 words).",AKI,Mount Sinai,,,,,,,,1
49,Fulfilled lab results requirement for AKI criteria,AKI,Mount Sinai,,1,,,,,,
50,"Only patients who have ever had at least 2 Serum Creatinine (SCr) values within 7 days
of one another",AKI,Mount Sinai,,1,1,1,,,,
51,"at least one recorded urine volume production during a 12-hour shift
will proceed to boxes",AKI,Mount Sinai,,1,,,,,,
52,"SCr from which the increase was calculated to
satisfy the AKI criteria.",AKI,Mount Sinai,,,,,,,,
53,"any SCr measured either within 48 hours after the
baseline SCr [to satisfy AKI Criterion 1] or within 7 days after baseline creatinine [to
satisfy AKI Criterion 2].",AKI,Mount Sinai,,,,,,,,
54,"Urine output is any output charted on patient flowsheet and falls below the designated
cutoff.",AKI,Mount Sinai,,,,,,,,
55,"Increase in Serum Creatinine (SCr) by >0.3 mg/dl (>26.5lmol/l) within 48 hours of
the baseline creatinine;",AKI,Mount Sinai,,,,,,,,
56,"Increase in Serum Creatinine (SCr) to >1.5 times baseline, which is known or
presumed to have occurred within the prior 7 days;",AKI,Mount Sinai,,,,,,,,
57,Urine volume <0.5 ml/kg/h for 6 hours.,AKI,Mount Sinai,,,,1,,,,
58,"SCr values will be compared in a recursive manner to assess whether SCr
increased by >0.3 mg/dl (>26.5lmol/l) within 48 hours of any previous SCr lab test or
whether SCr increased by >50% within 7 days of any previous SCr lab test",AKI,Mount Sinai,,,,,,,,
59,"the
date of the baseline SCr or the date on which urine volume production dropped below
the threshold will be considered the index AKI event date to account for the possibility
that patients may experience multiple, chronologically unrelated AKI events during their
lifetimes.",AKI,Mount Sinai,,,,,,,,
60,"Select all subjects from the PMRP cohort who have: 
? Consented 
? Did not withdraw from the study
? Include subjects with contact_for_research = ＆N＊
? Include subjects where questionnaires have been scanned.
",AMD,Marshfield,,,,,,,,
61,Use diagnoses from 1979 to present.,AMD,Marshfield,,,,,,,,
62,Diagnoses of any AMD ,AMD,Marshfield,,,,,,,,
63,ICD 9' - BETWEEN '362.50' AND '362.52',AMD,Marshfield,,,,,,,,
64,Select from subjects having AMD ICD9 codes given by ophthalmologist/optometrist within ophthalmology/optometry department(s). ,AMD,Marshfield,,,,,,1,,
65,Select subjects having two or more AMD diagnoses (see 2a above); within ophthalmology/optometry (see 3a above).,AMD,Marshfield,,,1,,,1,,
66,Select subjects having two or more AMD diagnoses ,AMD,Marshfield,,,1,,,,,
67,where the earliest and most recent diagnosis are at least fourteen days apart,AMD,Marshfield,,,,1,,,,
68,Diagnoses of any Drusen ,AMD,Marshfield,,,,,,,,
69,ICD 9' - BETWEEN '362.57' AND '362.57',AMD,Marshfield,,,,,,,,
70,Select from subjects having Drusen ICD9 codes given by ophthalmologist/optometrist within ophthalmology/optometry department(s).,AMD,Marshfield,,,,,,1,,
71,Select subjects having two or more Drusen diagnoses (see 6a above); within ophthalmology/optometry (see 7a above).,AMD,Marshfield,,,1,,,,,
72,"Select subjects having two or more Drusen diagnoses (see 6a above) within ophthalmology/optometry (see 7a above), where the earliest and most recent diagnosis are at least fourteen days apart.",AMD,Marshfield,,,1,1,,1,,
73,Select from subjects (see step 1a above) having no AMD diagnoses (see step 2a above) and having no Drusen diagnoses (see step 6a above).,AMD,Marshfield,,,,,,,,
74,Diagnoses of any Retinopathy/Diabetic Retinopathy ,AMD,Marshfield,,,,,,,,
75,having at least one eye exam within the last two years if living or the last two years prior to date of death if deceased,AMD,Marshfield,,1,,,,,,
76,Select from subjects age 50 years or older at most recent eye exam (within last two years).,AMD,Marshfield,,,,,,,,
77,Select from subjects having one or more comprehensive type eye exams (ever) ,AMD,Marshfield,,1,,,,,,
78,where provider specialty is Ophthalmology or Optometry,AMD,Marshfield,,,,,,1,,
79,pathology report positive for appendicitis,Appendicitis,CCHMC,,,,,,,,
80,"no pathology report, treatment is either interventional radiology or systemic antibiotics",Appendicitis,CCHMC,,,,,,,,
81,"Reported history of appendicitis/appendectomy, without history of incidental appendectomy",Appendicitis,CCHMC,,,,,,,,
82,Diagnoses of appendicitis (ICD-9=540.XX),Appendicitis,CCHMC,,,,,,,,
83,Presence of a Pathology Report,Appendicitis,CCHMC,,,,,,,,
84,Presence of a Comorbidity in same encounter (see Table 1),Appendicitis,CCHMC,,,,,,,,
85,"Positive result of post-surgical biopsy report (SNOMED-CT CUI rules,",Appendicitis,CCHMC,,,,,,,,
86,"Systemic antibiotics (>2days treatment, starting on encounter of diagnosis",Appendicitis,CCHMC,,,,,,,,
87,"Interventional Radiology1 (CPT code,",Appendicitis,CCHMC,,,,,,,,
88,Reported History of Appendicitis,Appendicitis,CCHMC,,,,,,,,1
89,Incidental Appendectomy,Appendicitis,CCHMC,,,,,,,,
90,"For a positive pathology report, note must have 1 CUI from inflammation group (Group 1), AND 1 or more from any of the other groups",Appendicitis,CCHMC,,,,,,,,
91,diagnostic history of one or more relevant asthma medications ,Asthma,CHOP,,,,,,,,
92,history of asthma as determined by ICD9 codes or chart review,Asthma,CHOP,,,,,,,,
93,four years of age or older,Asthma,CHOP,,,,,,,,
94,"affirmative asthma ICD9 codes, (493.x)",Asthma,CHOP,,,,,,,,
95,been prescribed relevant medications,Asthma,CHOP,,,,,,,,
96,"Two or more relevant ICD9 codes in two or more in-person visits, on separate calendar days",Asthma,CHOP,,,1,1,,,,
97,"Smoking history〞as defined by packs/day x years use〞should, be captured ",Asthma,CHOP,,1,,,,,,
98,Individuals 60 days old or older,Atopic Dermatitis,CHOP,,,,,,,,
99,"relevant ICD9 code for Atopic Dermatitis (691.8) in two or more in person visits, on separate calendar days.",Atopic Dermatitis,CHOP,,,1,1,,,,
100,Individual＊s medical record includes two or more prescriptions Atopic Dermatitis-related medications,Atopic Dermatitis,CHOP,,,1,,,,,
101,"relevant ICD9 code for Atopic Dermatitis (691.8) in three or more in person visits, on separate calendar days",Atopic Dermatitis,CHOP,,,1,1,,,,
102, Individuals 60 days old or older,Atopic Dermatitis,CHOP,,,,,,,,
103,Must have two or more in person visits in the last 5 years,Atopic Dermatitis,CHOP,,,1,,,,,
104,No diagnosis code for atopic dermatitis (691.8),Atopic Dermatitis,CHOP,,,,,,,,
105,No history of relevant medications ,Atopic Dermatitis,CHOP,,,,,,,,
106,No exclusionary ICD 9 codes ,Atopic Dermatitis,CHOP,,,,,,,,
107,"Inclusion ICD9 codes for Autism, Asperger＊s and PDD-NOS (299.0, 299.80,299.9)",Autism,CCHMC,,,,,,,,
108,"Excludsion ICD-9 codes : 299.1,295*,330.8,759.5,759.83",Autism,CCHMC,,,,,,,,
109,DSM-IV Symptom criteria,Autism,CCHMC,,,,,,,,
110,DSM-V Symptom Criteria,Autism,CCHMC,,,,,,,,
111,"Patients without any history of ASD ICD-9 codes (299.0,299.80,299.9)",Autism,CCHMC,,,,,,,,
112,"Patients without any history of any Psychiatry ICD-9 codes (290-319),",Autism,CCHMC,,,,,,,,
113,"not seen in any Neurology, Developmental Psychology or Psychology departments",Autism,CCHMC,,,,,,1,,
114,Diagnosis of MRSA was made in the outpatient setting,caMRSA,Northwestern,,,,,,,1,
115,culture positive for MRSA within 72 hours after admission to the hospital.,caMRSA,Northwestern,,,,,,,1,
116,No medical history of MRSA infection or colonization,caMRSA,Northwestern,,,,,,,,
117,"No medical history in the past year of: 
? Hospitalization
? Admission to a nursing home, skilled nursing facility, or hospice
? Dialysis
? Surgery",caMRSA,Northwestern,,,,,,,1,
118,No permanent indwelling catheters or medical devices that pass through the skin into the body.,caMRSA,Northwestern,,,,,,,,
119,"All patients, aged 0 to 89.",caMRSA,Northwestern,,,,,,,,
120,Bacteria culture-confirmed MRSA,caMRSA,Northwestern,,,,,,,,
121,Culture drawn in the outpatient (including emergency department) setting,caMRSA,Northwestern,,,,,,,1,
122,within 72 hours of admission as an inpatient,caMRSA,Northwestern,,,,,,,1,
123,With site of infection classified as a SSTI (skin and soft tissue infection).,caMRSA,Northwestern,,,,,,,,
124,Diagnosis of MRSA (see ICD-9 codes below),caMRSA,Northwestern,,,,,,,,
125,SSTI diagnosis within +/- 7 days of that diagnosis,caMRSA,Northwestern,,,,,,,,
126,No antecedent inpatient hospitalization in the prior 1 year before MRSA infection,caMRSA,Northwestern,,,,,,,1,
127,who receive routine primary care within your study site defined as >= 2 visits with a primary care provider over a minimum of a 3 year continuous period of enrollment,caMRSA,Northwestern,,,1,,,,,
128,"period of enrollment in a Group Health-administered insurance or integrated health care plan for at least 5 years, allowing interruptions or gaps in coverage of up to three months",caMRSA,Northwestern,,,,,,,,
129,Find the following or similar keywords in the text results of a bacterial culture lab test (methicillin OR oxacillin are the only 2 antibiotics for which to search),caMRSA,Northwestern,,,,,,,,
130,"※present§ or ※positive§ or other affirmative mention (unqualified by negation, uncertainty, or historical reference) for cases",caMRSA,Northwestern,,,,,,,,1
131,※absent§ or ※negative§ or other negative mention for controls,caMRSA,Northwestern,,1,,,,,,1
132,"Must have the following or similar keywords in the text results of a bacterial culture lab test, such as skin, wound, boil, abscess, but also recognizing that anatomic sites (e.g. foot/hand/leg/buttock, etc.) are also typically classified as an SSTI.",caMRSA,Northwestern,,,,,,,,
133,"History of MRSA infection:   use ICD-9 codes 041.12, 482.42, 482.41, 038.12, V02.54, V12.04, V09.0.  ",caMRSA,Northwestern,,,,,,,,
134,"Exclude:
Current vital status = deceased (recorded DOD)",CHD,Vanderbilt,,,,,,,,
135,Discharge disposition = X (XFER HOSPICE MEDICAL FACI) ,CHD,Vanderbilt,,,,,,,,
136,Discharge disposition = 9 (HOSPICE HOME CARE),CHD,Vanderbilt,,,,,,,,
137,2 or more ICD9 codes on separate days,CHD,Vanderbilt,,,1,1,,,,
138,on same date as at least one outpatient CPT below,CHD,Vanderbilt,,,,,,,1,
139,Qualification for case definition is from 1/1/2009 - present,CHD,Vanderbilt,,,,,,,,
140,Age at qualifying for case definition is ≡30 years,CHD,Vanderbilt,,,,,,,,
141,1 or more ICD9 procedure codes for revascularization/cardiothoracic surgery:,CHD,Vanderbilt,,,,,,,,
142,1 or more CPT codes for revascularization/cardiothoracic surgery: ,CHD,Vanderbilt,,,,,,,,
143,Qualification for case definition is from 1/1/2009 - present,CHD,Vanderbilt,,,,,,,,
144,Age at qualifying for case definition is ≡30 years,CHD,Vanderbilt,,,,,,,,
145,An H&P including a problem list,Clopidogrel,Vanderbilt,,,,,,,,
146,An H&P with Past Medical History (PMH),Clopidogrel,Vanderbilt,,,,,,,,
147,MI defined by ICD-9 code AND clopidogrel on med list at discharge,Clopidogrel,Vanderbilt,,,,,,,1,
148,Intracoronary stent defined by CPT code or text mention,Clopidogrel,Vanderbilt,,,,,,,,
149,"Evidence of  :          MI (ICD9)
OR
Revascularization (CPT)
OR
Stroke (ICD9)
OR
death
between 30 and 730 days from initial event
",Clopidogrel,Vanderbilt,,,,,,,,
150,"No evidence of:    MI (ICD9 or text mention in PL)
OR
Revascularization (CPT or text mention in PL)
OR
Stroke (ICD9)
OR
death
OR
PltP2Y (Platelet Function P2Y12) lab value
within 730 before or after the initial event
",Clopidogrel,Vanderbilt,,,,,,,,
151,Evidence of clopidogrel use (dose information available) within 30 days of second event.,Clopidogrel,Vanderbilt,1,,,,,,,
152,"Record must have:
Presence of follow up (defined below) at least 730 days from initial event",Clopidogrel,Vanderbilt,,,,,,,,
153,use only the first text mention ,Clopidogrel,Vanderbilt,,,,,,,,
154,"OR text mention = ※cypher§, ※taxus§, ※BMS§, ※DES§, ※stent§ (note:  for controls, use only BMS, DES)",Clopidogrel,Vanderbilt,,,,,,,,
155,410.*  Code must occur on two successive days,Clopidogrel,Vanderbilt,,,1,1,,,,
156,"Confirmation of a discharge summary, history and physical, past medical history or clinic visit or clinic note, or any clinical report",Clopidogrel,Vanderbilt,,,,,,,,
157,May also be defined as a problem list consisting of a non-zero medication section or non-zero problem section,Clopidogrel,Vanderbilt,,,,,,,,
158,Text Keywords?  Disease and medication,Crohn's Disease,Vanderbilt,,,,,,,,
159,"Narrative Notes to search? H&P, Discharge summary, all notes
Pathology reports
",Crohn's Disease,Vanderbilt,,,,,,,,
160,Requires manual curation if dual diagnosis of Crohn＊s and UC,Crohn's Disease,Vanderbilt,,,,,,,,
161,Diagnostic codes? Yes (Absence of codes),Crohn's Disease,Vanderbilt,,,,,,,,
162,Text Keywords? Absence of keywords,Crohn's Disease,Vanderbilt,,,,,,,,
163,"ICD-9 code 
(more than 2 occurrences of any of the below)",Crohn's Disease,Vanderbilt,,,1,,,,,
164,Note:  must screen for ulcerative colitis,Crohn's Disease,Vanderbilt,,1,,,,,,
165,Case contains more than two ICD-9 codes and at least one medication from Case criteria,Crohn's Disease,Vanderbilt,,,1,,,,,
166,Exclude all records with any of the following ICD-9 codes,Crohn's Disease,Vanderbilt,,,,,,,,
167,Case contains more than two ICD-9 codes and at least one medication from Case criteria ,Crohn's Disease,Vanderbilt,,,1,,,,,
168,contains more than two ICD 9 codes for Ulcerative Colitis (556*),Crohn's Disease,Vanderbilt,,,1,,,,,
169,Record contains none of the above and also excludes:,Crohn's Disease,Vanderbilt,,,,,,,,
170,"Individuals 1,095 days old or older",GERD,CHOP,,,,,,,,
171,"relevant ICD9 code for GERD (530.81 or 530.11) in two or more in person visits, on separate calendar days",GERD,CHOP,,,1,1,,,,
172,medical record includes two or more prescriptions for GERD -related medications ,GERD,CHOP,,,1,,,,,
173,"Individuals 1,095 days old or older",GERD,CHOP,,,,,,,,
174,"relevant ICD9 code GERD (530.81) in three or more in person visits, on separate calendar days",GERD,CHOP,,,1,1,,,,
175,Individual＊s medical record includes one or more of the ICD9 codes ,GERD,CHOP,,,,,,,,
176,Must have two or more in person visits in the last 5 years,GERD,CHOP,,,1,,,,,
177,No diagnosis code for GERD (530.81 or 530.11),GERD,CHOP,,,,,,,,
178,No history of relevant medications ,GERD,CHOP,,,,,,,,
179,No exclusionary ICD 9 codes ,GERD,CHOP,,,,,,,,
180,"Presence of ICD9-CM Diagnosis Codes for HF
? Primary Heart Failure Codes = (428.X) ",Heart Failure,Mayo,,,,,,,,
181,Positive mention of HF in the problem list through either NLP or structured problem list,Heart Failure,Mayo,,,,,,,,
182,at least one positive mention of a HF term in diagnosis-related sections,Heart Failure,Mayo,,,,,,,,
183,"Positive mention is defined using ConText for assigning statuses to each NLP result 每 positive, probable, and negative",Heart Failure,Mayo,,,,,,,,1
184,Mapping of terms is insensitive to upper/lower case.  ,Heart Failure,Mayo,,,,,,,,
185,Structured problem list 每 The descendant traversal of SNOMEDCT code 84114007 (heart failure). ,Heart Failure,Mayo,,,,,,,,
186,assign the earliest note date among those notes with non-negative and non-probable HF terms detected in diagnosis-related sections,Heart Failure,Mayo,,,,,,,,1
187,assign the earliest date among the corresponding HF codes appearing in the problem list.,Heart Failure,Mayo,,,,,,,,
188,If the earliest problem list date and earliest ICD9 date fall within 1 year of each other assign the patient the earlier of the two dates.  ,Heart Failure,Mayo,,,,,,,,
189,"Use the first two dates that occur within a rolling year between any combination of problem list dates and ICD9 dates.  If two dates found within a rolling year, use the earlier one.  ",Heart Failure,Mayo,,,,,,,,
190,Exclude cases where a date could not be assigned because they did not have any ICD9 nor problem list dates within a rolling year of each other ,Heart Failure,Mayo,,,,,,,,
191,Classify the type of HF using the priority metric below,Heart Failure,Mayo,,,,,,,,
192,Absence of any heart failure ICD9 codes in medical record,Heart Failure,Mayo,,,,,,,,
193,Absence of positive heart failure terms in the EMR via NLP at any section or absence of heart failure codes in the structured problem lists,Heart Failure,Mayo,,,,,,,,
194,Has ≡5 years of continuous enrollment/contact since age 35.,Heart Failure,Mayo,,,,,,,,
195,Is at least 40 years of age at time of assessment.,Herpes Zoster,Group Health,,,,,,,,
196,Has at least one diagnosis code for herpes zoster (ICD 053.xx) or varicella zoster (ICD 052.xx) on or after the 40th birthday,Herpes Zoster,Group Health,,,,,,,,
197,Exclude from any such diagnosis codes those occurring on the same calendar date as a herpes vaccination,Herpes Zoster,Group Health,,,,,,,,
198,Has ≡5 years of continuous enrollment (or encounter) history since age 35,Herpes Zoster,Group Health,,,,,,,,
199,Has diagnosis codes on 2+ separate calendar days for HIV infection (ICD 042.xx每044.xx).,Herpes Zoster,Group Health,,,1,1,,,,
200,Has any diagnosis codes for cancer of the blood or bone marrow (ICD 200.xx每208.xx) during the 365-day period prior to the index date ,Herpes Zoster,Group Health,,,,,,,,
201,Has any cancer chemotherapy infusion (see Appendix A) during the 180-day period prior to the index date ,Herpes Zoster,Group Health,,,,,,,,
202,The index date for cases is provided as subject age in years (expressed as real number with at least two significant digits to the right of the decimal point; see data dictionary) at the subject＊s index date,Herpes Zoster,Group Health,,,,,,,,
203,The index date is defined as the date of the first valid herpes zoster or varicella zoster diagnosis on or after the subject＊s 40th birthday,Herpes Zoster,Group Health,,,,,,,,
204,Is at least 40 years of age at time of assessment.,Herpes Zoster,Group Health,,,,,,,,
205,Has ≡5 years of continuous enrollment/contact since age 35.,Herpes Zoster,Group Health,,,,,,,,
206,Has diagnosis codes on ≡2 separate calendar days for HIV infection (ICD: 042.xx每044.xx).,Herpes Zoster,Group Health,,,,,,,,
207,Has any diagnosis codes ever for herpes zoster (ICD: 053.xx) or varicella zoster (ICD: 052.xx).,Herpes Zoster,Group Health,,,,,,,,
208,eGFR <60 mL/min per 1﹞73 m2 for >3 months,CKD,Mount Sinai,,,,1,,,,
209,Kidney damage for >3 months (albuminuria is the most common marker of kidney damage and is also associated with rapid progression),CKD,Mount Sinai,,,,1,,,,
210,We did not allow patients that had serum creatinine tests on consecutive days or within the same day as we assumed these were ＆inpatients,CKD,Mount Sinai,,,,,,,,
211,duplicate serum creatinine tests meaning they had two tests at the same date/time but different values we kept the test with the maximum value in the algorithm,CKD,Mount Sinai,,,,,,,,
212,any 2 eGFR results among all their records which had at least a 90 day window between them,CKD,Mount Sinai,,,,,,,,
213,The ICD-9 codes in Note 1 and the following terms found in observation reports by the physician were used as exclusion criteria for B9,CKD,Mount Sinai,,,,,,,,
214,"For box B10, we ran the output of ＆B9->No＊ patients against the Modified Northwestern Type 2 Diabetes CDA",CKD,Mount Sinai,,,,,,,,
215,run against the IPM Hypertension CDA,CKD,Mount Sinai,,,,,,,,
216,"The code picks up all the patients who have the above mentioned terms in the progress notes as long as they are not preceded or followed by ※negative/no/not/absence§ (within 3 words for nephropathy, 2 words for congenital, apkd & sickle)",CKD,Mount Sinai,,,,,,,,1
217,family history related terms (50 characters prior to 50 characters after),CKD,Mount Sinai,,,,,,,,1
218,"patients must have 2 DISTINCT dates or more, that is not 2 diagnoses on the same day and not including null date values.",CKD,Mount Sinai,,,1,1,,,,
219,2 Abnormal SBP or 2 abnormal DBP lab tests 6 months apart,CKD,Mount Sinai,,,1,1,,,,
220,at least 2 Hypertension diagnoses with ICD-9 code 401.xx that are not on the same day,CKD,Mount Sinai,,,1,1,,,,
221, All BioVU aged 18 and over (shippable and non-shippable),MS,Vanderbilt,,,,,,,,
222,"Two or more ICD 9 code:
340  Multiple Sclerosis",MS,Vanderbilt,,,,,,,,
223,One or more of the following codes:,MS,Vanderbilt,,,,,,,,
224,MEDICATIONS (one or more):  ,MS,Vanderbilt,,,,,,,,
225,"Where the medication has an associated dose, frequency, route or strength",MS,Vanderbilt,1,,,,,,,
226,KEYWORD = multiple sclerosis (include misspellings),MS,Vanderbilt,,,,,,,,
227,Codes:  Record does not contain any of the following:,MS,Vanderbilt,,,,,,,,
228,KEYWORDS:  Record does not contain any of the following:,MS,Vanderbilt,,,,,,,,
229,ICD 9 codes (any of the below) ,RA,Vanderbilt,,,,,,,,
230,Case Medications (any of the below),RA,Vanderbilt,,,,,,,,
231,Case Keywords (any of the below),RA,Vanderbilt,,,,,,,,
232,Inflammatory ICD 9 codes,RA,Vanderbilt,,,,,,,,
233,Inflammatory Keywords,RA,Vanderbilt,,,,,,,,
234,Excluded ICD 9 codes (any of the below) ,RA,Vanderbilt,,,,,,,,
235,Excluded Keywords (any of the below),RA,Vanderbilt,,,,,,,,
236,Case Possible Keywords (any of the below),RA,Vanderbilt,,,,,,,,
237,Mention of warfarin (Coumadin) at any time in history,Warfarin dosing,Vanderbilt,,,,,,,,
238,Have 2 notes (dosing information) from the Coumadin clinic (pharmacy) or the cardiology Coumadin clinic between 3 and 12 weeks apart ,Warfarin dosing,Vanderbilt,,,1,1,,,1,
239,Within the timeframe referenced in step 2 above (up to 7 days before initial note):,Warfarin dosing,Vanderbilt,,,,,,,,
240,2 or more consecutive INR measurements that are between 2 and 3 (measurements must be separated by at least one day),Warfarin dosing,Vanderbilt,,1,1,1,,,,
241,AND have no INRs <2 or >3 ,Warfarin dosing,Vanderbilt,,,,,,,,
242,AND do NOT have a INR reference range outside of 1.9-3.2 documented within the Coumadin clinic (pharmacy) or the cardiology Coumadin clinic notes,Warfarin dosing,Vanderbilt,,,,,,,,
243,Have an INR of 4 or greater within the timeframe referenced in step 2 above (up to 7 days before initial note),Warfarin dosing,Vanderbilt,,,,,,,,
