-2.0737e-07 4.3492e-07 3.6347e-05 -9.6901e-09 -6.9677e-07 -2.8255e-06 0.00035668 -2.9601e-06 -3.6963e-05 6.0365e-05
3.7219e-06 2.9347e-06 0.00030232 -4.7107e-08 0.00030786 4.0223e-05 0.00015305 7.274e-06 -2.8179e-05 0.00080844
0.00022237 7.4844e-05 1.6336e-05 5.9324e-07 3.7687e-06 3.7354e-05 0.16184 0.00034491 -3.1986e-05 0.0002859
4.3275e-07 -2.1733e-06 2.0062e-05 1.0016e-09 1.6854e-06 3.9826e-05 0.00046374 1.2845e-06 5.4432e-07 2.7632e-06
9.1244e-06 -1.4199e-05 7.9955e-06 7.8722e-07 1.3198e-05 -3.5312e-05 0.21352 1.4567e-05 0.00026879 0.0005179
8.6204e-05 4.2509e-05 -5.9333e-06 9.1193e-07 8.9133e-06 -2.6662e-05 0.26523 0.00015937 1.9617e-05 -4.896e-05
6.36e-05 7.6813e-05 0.00038632 -3.2202e-07 0.18211 0.00096491 0.26336 -0.00034238 -0.00070424 0.01829
5.854e-05 6.8754e-05 7.9893e-06 0.00019727 0.00037449 5.5129e-05 2.8285e-05 -0.00049616 -0.00073405 0.17395
-3.1144e-06 5.3691e-05 -6.1954e-06 -1.0828e-06 0.47884 -7.4431e-06 0.0058131 -1.523e-05 -8.6845e-05 0.00027716
1.8032e-06 -4.1345e-06 9.7188e-05 7.3773e-08 -2.0989e-09 0.00015902 7.778e-07 1.5155e-05 5.7279e-05 3.3585e-05
0.13023 -0.00023715 3.332e-05 4.6486e-05 0.00030362 0.00030262 0.18349 -0.00048768 0.0045275 0.13558
0.00010327 0.00010089 0.00047705 3.3685e-05 0.19388 0.16049 0.00064746 -0.00064001 0.0027719 0.11913
9.3773e-06 4.7246e-07 4.1668e-07 1.2754e-06 -6.3642e-07 2.672e-05 6.7284e-05 -3.5853e-05 -9.9017e-05 0.0024568
3.1575e-05 -1.7654e-05 0.00011831 2.013e-07 -2.9891e-06 0.26175 0.00023186 2.7915e-06 -4.5498e-07 -6.5171e-06
0.12563 -0.00026138 -2.1257e-05 2.2477e-08 4.9264e-06 7.6339e-06 0.00022856 -1.7649e-05 1.619e-05 1.3994e-05
9.3426e-05 1.2516e-05 8.0563e-05 3.9375e-05 0.00047066 0.00021114 0.28825 0.13911 0.007422 0.021136
6.5997e-06 2.5478e-05 -6.3406e-06 0.00027021 -3.972e-06 0.00019341 0.00047329 2.2953e-05 -0.00011251 0.0031096
2.0665e-05 -2.024e-06 6.9433e-05 2.1844e-08 1.0681e-07 4.221e-09 0.00045372 4.6904e-05 2.8607e-06 0.00014001
0.18925 -0.00030055 -3.4075e-06 2.0318e-08 1.0889e-05 1.8882e-05 -2.5604e-05 -0.00013623 -0.00025162 0.16927
-2.9941e-06 -7.2943e-06 -3.0578e-06 1.0457e-06 6.0048e-06 -2.9911e-05 0.14712 9.1516e-05 -1.7979e-05 0.00097969
3.2445e-06 3.317e-05 8.419e-05 5.6149e-08 3.0676e-05 0.00021954 0.00068814 0.00099604 -1.054e-05 6.0267e-05
0.13023 -0.00023715 3.332e-05 4.6486e-05 0.00030362 0.00030262 0.18349 -0.00048768 0.0045275 0.13558
0.15165 0.23629 -3.2173e-05 -1.9577e-06 -9.4757e-05 8.8104e-07 0.00024337 0.28002 0.2072 0.17249
0.00018425 -4.1453e-05 0.00056323 2.4177e-05 5.5434e-07 0.00017765 0.0015779 -9.419e-05 2.1559e-05 0.0049898
3.9512e-05 -3.1125e-05 5.5458e-07 -3.4858e-08 -2.2258e-07 -5.4248e-06 -1.2009e-06 1.125e-06 -2.3223e-05 0.0004795
-9.8604e-07 -1.6434e-06 0.00017636 0.62336 -2.0355e-06 -2.711e-06 9.4835e-06 0.00097195 -9.2757e-05 0.0012522
6.237e-05 -4.2484e-05 3.3137e-05 5.5975e-05 6.2687e-05 0.28029 0.00028203 -0.00038962 -0.00030227 0.015813
0.00017504 4.6158e-05 0.00011285 5.686e-05 0.00056394 0.0003774 0.23248 0.0002331 0.0060505 0.020714
3.1508e-05 0.00015179 2.7999e-05 5.3665e-06 0.00054361 -0.00010132 0.42747 0.0003417 0.0057469 0.1446
1.8044e-05 -8.4405e-07 0.00010207 8.0802e-08 1.2851e-06 0.00018654 5.493e-05 2.9313e-06 6.069e-05 6.708e-05
0.00010649 9.2985e-05 0.00098684 4.4643e-06 0.43616 0.0021554 0.0010246 -0.00050037 0.0074778 0.23659
1.2452e-05 -0.0010936 2.9265e-05 3.9358e-05 -5.1495e-05 0.00027801 0.0002641 -0.00059141 0.16292 0.12067
3.0158e-05 -1.9185e-05 0.00027507 0.00019739 3.2425e-06 0.00033635 0.0002897 0.00054206 0.00022997 0.0066912
0.38292 0.29987 -6.2338e-05 -1.1774e-07 8.072e-06 9.9654e-05 0.0018685 0.00052131 0.0037706 0.0015709
0.15903 -0.0017767 -3.373e-05 -8.2849e-08 -7.7466e-05 0.25643 -7.8453e-05 0.0092624 0.2057 0.01844
1.923e-05 -4.6909e-06 0.00034621 4.2355e-05 0.00031802 0.000335 0.0003382 -7.0801e-05 -6.7736e-05 0.0071298
0.00017504 4.6158e-05 0.00011285 5.686e-05 0.00056394 0.0003774 0.23248 0.0002331 0.0060505 0.020714
0.00019543 -3.0811e-05 0.00050021 2.1552e-05 3.0553e-07 0.00018668 0.00084622 -1.1201e-06 -1.7782e-05 0.0031654
0.079546 -0.00014927 2.8293e-05 8.0647e-07 0.00024304 7.6381e-05 0.00039358 1.0942e-05 -0.00012794 0.0030937
1.4958e-25 -7.2261e-25 -1.2831e-24 9.8374e-20 -4.5758e-25 6.3578e-26 3.1735e-25 1.3048e-24 -2.7141e-24 4.2126e-23
0.28731 0.44741 -3.5534e-05 -2.3441e-07 -9.7878e-05 3.2784e-05 -4.0939e-05 -0.00055374 0.37186 0.25336
0.28731 0.44741 -3.5534e-05 -2.3441e-07 -9.7878e-05 3.2784e-05 -4.0939e-05 -0.00055374 0.37186 0.25336
0.15903 -0.0017767 -3.373e-05 -8.2849e-08 -7.7466e-05 0.25643 -7.8453e-05 0.0092624 0.2057 0.01844
6.268e-05 2.4031e-05 0.00066691 0.00011673 5.0294e-07 0.00010449 1.863e-06 0.15806 -0.00028674 0.00017394
7.6901e-05 2.966e-05 1.5874e-05 0.00024175 3.638e-05 0.2289 0.00019576 0.19486 -0.00024938 0.12553
6.3654e-06 2.7933e-06 0.00093325 1.0313e-07 1.8743e-07 -3.5705e-06 3.8937e-05 0.00049876 -2.2986e-05 0.00019644
0.23477 -0.0066855 0.00052104 9.1428e-08 0.00015822 -0.0016793 0.00092448 0.00086337 0.00010861 0.0015906
3.2499e-05 -3.5735e-06 0.00050858 9.5854e-08 -7.3003e-07 9.3677e-06 2.2437e-05 1.6332e-05 -2.7422e-05 0.0020803
0 0 0 0 0 0 0 0 0 0
1.7943e-05 -2.7953e-05 0.24473 4.9658e-05 0.00073542 0.0003795 0.0008806 0.00032751 0.0055611 0.019451
0.10466 -0.00021564 0.00031859 5.8042e-08 5.4318e-07 -8.6621e-06 0.00010954 0.0001365 -1.8427e-05 0.00093759
-7.1655e-07 1.602e-06 -1.3792e-06 -1.4847e-09 -5.2405e-07 -2.0025e-07 0.0010593 -1.7151e-05 -1.6126e-06 0.00049161
0.00025394 -5.561e-05 0.38696 -2.3087e-06 1.6407e-05 0.0010445 0.00086059 -0.00022669 -0.00018727 0.1073
1.638e-05 -2.9559e-06 3.0317e-05 4.5233e-05 0.00017365 0.00031949 0.0039807 -7.0979e-05 -9.1825e-05 0.0074358
1.8044e-05 -8.4405e-07 0.00010207 8.0802e-08 1.2851e-06 0.00018654 5.493e-05 2.9313e-06 6.069e-05 6.708e-05
1.455e-05 -2.1823e-05 0.15936 3.5015e-05 0.00069588 0.00023956 0.00041209 0.0029454 0.0072674 0.020932
8.7142e-07 -1.2941e-05 -8.7186e-07 1.2642e-09 -8.3921e-08 4.6662e-06 0.00011679 0.00015004 -3.1498e-05 0.00033021
4.6164e-05 -2.9126e-05 0.40052 -3.535e-06 7.2725e-06 0.38917 -9.9073e-05 -0.00027962 -0.00032042 0.21492
-1.6959e-06 3.1259e-07 -1.9555e-06 2.7631e-08 2.5617e-07 5.9103e-07 0.00075049 8.7251e-05 3.8981e-06 -5.076e-06
6.237e-05 -4.2484e-05 3.3137e-05 5.5975e-05 6.2687e-05 0.28029 0.00028203 -0.00038962 -0.00030227 0.015813
3.5064e-05 -6.0924e-06 -1.2359e-06 -3.142e-09 7.9685e-07 1.4492e-05 0.00069426 -5.0632e-05 2.3589e-07 0.0018635
6.8489e-05 8.3008e-06 -1.7134e-06 -2.3344e-08 -3.3392e-07 5.4784e-05 0.00025138 7.597e-05 -2.4481e-05 0.001386
-1.3666e-05 -0.001816 4.2804e-05 5.3173e-06 0.00039411 1.954e-05 0.00020146 0.30236 0.28333 0.22762
1.407e-05 -0.0020226 4.7647e-05 6.5422e-06 0.00043529 2.0066e-05 0.00022397 0.013718 0.31552 0.25448
2.8968e-06 -6.9278e-06 0.00014721 0.5184 -1.3818e-06 -1.2365e-06 4.8119e-05 0.00081535 -5.9213e-05 0.0014463
4.7309e-07 -7.4203e-06 0.00013227 3.8715e-07 3.2809e-06 6.7121e-05 0.10111 0.00010278 1.6142e-05 0.00019427
9.4869e-05 4.2432e-06 -1.0929e-06 2.0734e-07 -1.7771e-06 -2.8212e-06 0.00038679 -0.0002055 -7.6751e-05 0.0011254
0.16487 -0.00036929 0.0018833 5.3528e-05 2.2023e-05 0.0018768 0.00087001 -0.00014372 -0.00015236 0.0093217
0.00010327 0.00010089 0.00047705 3.3685e-05 0.19388 0.16049 0.00064746 -0.00064001 0.0027719 0.11913
2.9689e-05 -3.3336e-05 0.00010246 3.5373e-05 0.00022759 0.00022413 0.14117 -0.00014965 0.0054351 0.016428
6.5335e-06 9.8199e-07 0.00043441 1.7868e-08 -4.7845e-08 -9.0339e-06 1.547e-05 0.00013674 -1.5315e-05 0.00013756
-1.2082e-07 7.7239e-08 4.6102e-09 -1.6238e-09 7.3599e-09 5.2418e-08 4.6339e-05 3.6425e-08 1.2667e-07 1.6908e-05
0.15844 0.24661 3.9945e-06 2.9208e-06 0.00028342 9.7179e-06 0.00042402 0.29189 0.21483 0.18356
1.923e-05 -4.6909e-06 0.00034621 4.2355e-05 0.00031802 0.000335 0.0003382 -7.0801e-05 -6.7736e-05 0.0071298
0.16358 0.25461 2.5045e-06 3.1022e-06 0.0003009 2.6011e-06 0.0028259 0.30025 0.22195 0.18245
-2.1282e-06 6.986e-06 0.00059806 4.9216e-08 0.00048716 6.3955e-05 -4.4566e-06 0.00049179 -4.8737e-05 0.001254
8.2199e-05 0.00015196 0.00055653 2.264e-06 0.23547 0.001624 0.00059281 -0.00053658 0.0035528 0.13469
0.17068 -0.00041429 6.9587e-06 5.1307e-06 0.00039048 0.0005766 0.00062682 -6.4181e-05 0.0065925 0.16561
0.13152 0.20597 8.8963e-06 -1.2233e-06 0.25483 0.00037339 3.2319e-05 0.00054464 0.0020197 0.013094
0.13152 0.20597 8.7403e-06 -1.274e-06 0.25481 0.00036482 3.3195e-05 0.00051446 0.0019947 0.014047
-1.3666e-05 -0.001816 4.2804e-05 5.3173e-06 0.00039411 1.954e-05 0.00020146 0.30236 0.28333 0.22762
0.16152 0.25165 -3.5857e-05 -1.9985e-06 -9.2655e-05 -6.398e-06 0.0026172 0.29714 0.22083 0.17674
0.20717 -0.00040637 9.01e-06 6.0747e-06 0.00047483 4.0169e-05 0.0002055 0.00014585 0.0078777 0.017057
1.2452e-05 -0.0010936 2.9265e-05 3.9358e-05 -5.1495e-05 0.00027801 0.0002641 -0.00059141 0.16292 0.12067
2.3408e-05 -3.1616e-05 0.00014324 0.58539 0.00038555 0.00069432 0.00056406 -7.875e-05 0.0063832 0.023675
0.16698 -0.00035354 2.5593e-05 1.4401e-07 -3.507e-06 0.26979 0.00083645 0.00014474 0.00033827 0.00014694
4.3063e-05 -2.6615e-05 0.0010247 0.00013873 2.6515e-06 0.0022114 2.68e-05 0.0010157 0.00048456 0.00018552
0.14086 -0.00026388 3.0851e-05 9.6665e-09 1.2409e-06 1.6127e-05 0.00073706 1.8286e-05 2.0531e-05 -6.9717e-06
8.2199e-05 0.00015196 0.00055653 2.264e-06 0.23547 0.001624 0.00059281 -0.00053658 0.0035528 0.13469
6.8489e-05 8.3008e-06 -1.7134e-06 -2.3344e-08 -3.3392e-07 5.4784e-05 0.00025138 7.597e-05 -2.4481e-05 0.001386
-1.4179e-05 4.1337e-06 0.37536 7.3673e-05 -2.546e-06 7.9113e-05 7.3148e-05 0.00059294 -7.0062e-06 0.00024279
5.4816e-05 5.7968e-05 0.24683 -2.7155e-06 0.00031669 5.5362e-05 0.00013214 -0.00036673 -0.0004304 0.14603
1.3331e-06 -1.6889e-06 -6.3604e-08 1.7568e-07 -5.7638e-07 1.7458e-05 0.00053555 -2.9082e-06 1.629e-05 0.00012753
0.15165 0.23629 -3.2173e-05 -1.9577e-06 -9.4757e-05 8.8104e-07 0.00024337 0.28002 0.2072 0.17249
-1.0075e-06 4.4367e-08 -1.0198e-06 0.00017026 -7.816e-07 0.00012446 0.00036102 -9.207e-07 1.0255e-05 0.00011442
7.7195e-06 -1.1459e-05 3.3971e-05 3.9258e-05 0.00015274 0.00027078 0.0031034 0.00011606 -1.8573e-05 0.0052047
0.15844 0.24661 3.9945e-06 2.9208e-06 0.00028342 9.7179e-06 0.00042402 0.29189 0.21483 0.18356
0.00012323 8.5106e-06 0.00072365 5.2405e-06 0.00048412 -9.7124e-06 0.00022501 0.37486 0.0077113 0.20366
-1.8313e-06 3.1069e-06 0.41511 -3.6963e-06 9.2656e-07 -2.5035e-05 0.088825 -9.998e-06 -1.1965e-05 4.9844e-05
-7.1929e-06 9.768e-05 2.5542e-05 5.5199e-06 0.00050618 -7.7697e-05 0.39687 -0.00016422 0.0051276 0.13587
0.00010327 0.00010089 0.00047705 3.3685e-05 0.19388 0.16049 0.00064746 -0.00064001 0.0027719 0.11913
0.022645 -0.0054295 0.28402 5.2628e-05 -2.2238e-06 -0.0011855 0.00050841 -2.7178e-05 3.0488e-05 0.007463
-3.1858e-06 4.482e-06 -1.3665e-06 5.7604e-08 -7.2026e-07 3.6162e-05 0.00096049 5.1799e-06 -5.8886e-05 0.00089218
7.1807e-05 0.00013003 1.6883e-05 -1.8792e-06 0.44021 7.1732e-05 0.00010002 -0.00026734 -0.00071301 0.019198
0.32523 -0.00066284 3.2126e-05 0.00010428 4.3627e-06 0.51957 0.00050941 -9.0443e-05 -5.7728e-06 0.013173
-3.0828e-08 5.2311e-08 -5.6647e-09 5.1248e-10 -1.8901e-07 -6.5141e-08 4.7794e-05 -4.4331e-08 3.9903e-08 2.3609e-07
1.923e-05 -4.6909e-06 0.00034621 4.2355e-05 0.00031802 0.000335 0.0003382 -7.0801e-05 -6.7736e-05 0.0071298
0.00025394 -5.561e-05 0.38696 -2.3087e-06 1.6407e-05 0.0010445 0.00086059 -0.00022669 -0.00018727 0.1073
0.16152 0.25165 -3.5857e-05 -1.9985e-06 -9.2655e-05 -6.398e-06 0.0026172 0.29714 0.22083 0.17674
0.09761 -0.00018185 3.4546e-05 1.0817e-06 0.00023655 6.7375e-05 0.00012082 2.9701e-05 -0.00012287 0.0038453
0.085238 -0.00021433 3.9254e-05 5.4546e-05 0.00012064 0.1377 0.0006159 -0.00015474 0.00018567 0.009082
0.00020292 8.7757e-05 3.2755e-05 3.0467e-05 8.7657e-06 0.00029596 0.26111 0.00040994 -4.427e-05 0.0047741
4.3664e-05 0.00019377 4.7273e-07 3.7376e-08 0.00028719 0.00033727 -5.2001e-06 0.00094927 0.00055311 0.0029519
2.5735e-06 -1.8025e-05 4.7861e-05 5.7344e-05 1.2475e-05 0.00035696 0.24855 0.0011893 5.303e-05 0.0082374
