8.3087e-06 -4.4613e-06 8.6078e-07 1.068e-05 2.7912e-06 -0.00013483 -6.5191e-07 8.972e-07 -1.4434e-06 0.00014378
-1.1072e-06 -0.00013701 1.9717e-05 0.17553 0.12887 -0.00014445 -8.6582e-05 3.3783e-05 -5.2158e-06 0.23829
1.5287e-05 2.9928e-05 0.00027432 -2.9783e-05 0.00055152 -0.31565 -0.00059985 -0.00074648 -0.0012814 1.9409e-05
4.963e-06 -6.6954e-06 7.273e-05 6.0447e-06 0.00019286 8.1262e-07 1.0103e-06 1.278e-06 -6.2554e-05 0.00055974
2.4e-05 9.3908e-07 3.9259e-06 -2.192e-05 0.00033717 -0.00013612 -0.00059495 -0.00076905 -5.9989e-05 0.00014756
4.4851e-06 -1.828e-05 7.7646e-05 -2.6913e-05 0.00030941 -8.3259e-05 -0.00059142 -0.00077067 -0.0011113 5.1624e-07
0.28876 0.0013274 0.00053803 0.00054104 0.13106 -0.00016717 -0.00074734 -0.0011329 0.00025438 0.01377
0.28813 0.1731 1.4301e-05 0.17547 0.12874 -1.6992e-05 -0.00010093 1.1633e-05 -3.2592e-05 -2.159e-05
0.00015503 4.2084e-05 9.4244e-05 0.00016478 0.00022955 -0.00015897 -0.00014484 -0.00043347 1.441e-05 0.0038172
1.5223e-06 7.7675e-07 4.9972e-05 0.00028394 6.7555e-06 -0.0015342 -0.00012209 -2.4868e-05 -2.7262e-06 -6.1928e-06
0.0001996 0.17359 0.00015285 0.00082667 0.0017007 -0.31582 -0.19602 -0.18377 -0.0046629 -6.6521e-05
0.28885 0.17627 0.27825 0.17634 0.13193 -0.0011356 -0.19622 -0.18189 0.00017273 0.26143
-2.2282e-06 2.5777e-05 -2.1271e-06 1.9751e-05 3.9488e-05 2.3475e-06 -2.1196e-05 -0.0011036 1.4272e-06 0.00053291
3.3334e-06 7.3372e-06 0.27683 -4.9436e-06 2.4717e-06 -3.7495e-06 -3.0423e-05 -0.0001306 -0.00015563 3.0293e-05
0.00019628 -1.9125e-05 0.00013023 3.5524e-05 0.00060668 -3.4522e-05 -5.4042e-05 -0.00028386 -0.0043064 0.00065335
4.0444e-06 0.00040115 0.00013199 0.00015956 0.0010941 -0.00032241 -0.19586 -0.18185 -0.27266 0.00015004
4.7325e-07 0.0001397 0.0001762 6.274e-06 0.00014797 -5.1743e-05 -2.4924e-05 -0.00048654 -0.00024604 -3.3741e-05
9.1167e-06 -3.3606e-05 3.0885e-08 -9.8835e-07 0.12904 -2.369e-05 -0.00012823 -0.00065783 5.077e-05 9.4027e-05
0.00019852 0.17312 6.4498e-05 0.0002956 0.12922 -6.5253e-05 -0.00039924 -0.00057626 -0.0042965 -5.1673e-05
9.5138e-06 1.067e-05 -5.0272e-06 3.0728e-06 0.12933 -2.4474e-05 -0.00066131 -0.0014628 -0.00020972 0.00050959
0.00012859 8.5671e-05 0.00019355 7.3185e-06 1.226e-05 -0.0001837 -7.3562e-05 -0.00011924 -0.00031975 0.00096264
0.0001996 0.17359 0.00015285 0.00082667 0.0017007 -0.31582 -0.19602 -0.18377 -0.0046629 -6.6521e-05
0.00020257 0.17459 0.0004384 0.17712 0.13105 -0.00014218 -0.0026851 -0.00018951 -0.28064 -0.00019289
3.22e-05 0.00016932 1.6356e-05 0.00021556 0.13012 -0.00016227 -0.000187 -0.18209 2.5594e-05 0.00048946
-4.7227e-06 4.0328e-05 8.7291e-05 4.3687e-06 0.00019554 -0.00027376 -1.902e-05 1.9146e-06 -2.3481e-05 0.00067542
6.1165e-06 -4.2948e-05 1.2855e-06 -9.4595e-06 0.00046191 -3.7753e-05 -3.795e-06 -0.00064883 -7.1629e-05 3.8271e-05
0.00011911 0.0016687 0.27704 0.17574 0.0010601 -0.00011727 -0.00038696 -0.18118 -6.8897e-05 0.0055419
1.9925e-05 0.0003054 8.6339e-05 0.00018025 0.13048 -0.00024737 -0.1958 -0.18022 -0.0010437 5.9539e-05
-4.7874e-06 0.17331 3.4786e-06 6.8428e-05 0.00019891 -4.667e-06 -0.19562 -0.00088556 -0.00018066 -8.5584e-05
4.2354e-06 -6.8085e-06 6.3679e-05 0.0002869 0.00015752 -0.0015407 -0.00011614 -0.00072071 -7.0546e-05 0.00059635
0.28868 0.17433 0.00037126 0.00020621 0.0017709 -0.0001534 -0.19523 -0.00032285 0.00010718 0.0073345
1.7807e-06 0.17378 0.00013893 0.17735 0.13169 -0.00053763 -0.00021033 -0.18333 -0.0020774 -8.6615e-05
3.6253e-05 0.00011901 9.9179e-05 0.00057555 0.12998 -0.00056877 -8.0209e-05 -0.1836 -8.2114e-05 0.00026797
0.00021342 0.00035069 0.00015336 7.2392e-05 0.12934 -0.00022188 -8.5473e-05 -3.9911e-05 -0.0057783 5.685e-05
0.00021041 0.00032722 0.27733 0.1769 0.13086 -4.8578e-05 -0.0014549 -0.00024144 -0.0064312 -7.2467e-05
2.4641e-06 -5.1513e-05 0.0001182 0.17827 0.13062 -0.00073105 -0.00034304 -0.18477 -1.7948e-05 0.24499
1.9925e-05 0.0003054 8.6339e-05 0.00018025 0.13048 -0.00024737 -0.1958 -0.18022 -0.0010437 5.9539e-05
1.8918e-05 0.00017578 9.5609e-05 0.00057122 0.13009 -0.31587 -0.00010253 -0.18347 -0.00020168 4.7493e-05
0.000199 0.00034224 0.0002491 0.00026174 0.1311 -0.00032716 -0.00037243 -0.00054625 -0.0042175 0.24606
1.0025e-05 -1.4006e-05 4.908e-07 1.3602e-05 0.12872 -1.4111e-05 -1.4153e-05 1.6314e-05 4.6301e-05 -2.4522e-06
0.00019643 0.17344 9.6136e-05 0.17677 0.13078 -0.00013316 -0.00019206 -0.00019209 -0.0068037 -7.9903e-05
0.00019643 0.17344 9.6136e-05 0.17677 0.13078 -0.00013316 -0.00019206 -0.00019209 -0.0068037 -7.9903e-05
0.00021041 0.00032722 0.27733 0.1769 0.13086 -4.8578e-05 -0.0014549 -0.00024144 -0.0064312 -7.2467e-05
-8.774e-06 -6.4147e-05 9.6015e-05 0.00026344 0.00040902 -0.31667 -0.00011159 -0.00057797 -0.27344 0.0024597
0.00014184 0.17333 0.27719 0.00035268 0.00018359 -0.00056447 -9.2373e-05 -0.0032552 -0.2709 0.00094414
1.2186e-05 3.6533e-05 9.1044e-05 0.0021602 0.13037 -0.00052199 -0.0002012 -0.00037975 -0.00030928 0.0031463
0.00038129 0.00021126 0.00057462 7.7796e-06 0.00060028 -0.0010182 -0.00062701 -0.00035792 -0.0056235 0.0067013
1.0068e-05 -2.1402e-05 -2.1646e-07 -2.769e-05 0.0011808 -2.4179e-05 2.4154e-05 -4.0695e-05 -1.018e-05 0.00014092
8.853e-06 -1.3422e-05 4.8783e-07 1.2569e-05 0.1287 -1.4256e-05 -1.4651e-05 1.6241e-05 4.5688e-05 -1.7306e-06
0.00051654 0.00038819 0.0001104 0.0006127 0.00097663 -0.00052579 -0.19703 -0.1856 -0.0001154 0.24829
0.00020838 7.9035e-05 5.5431e-05 5.7864e-05 0.12938 -5.3844e-05 -0.00025053 -0.00030915 -0.0042619 8.9429e-05
9.214e-06 -1.7274e-05 1.1733e-06 1.0058e-05 0.12879 -1.3988e-05 -2.0291e-05 -9.004e-05 4.8293e-05 -7.5067e-06
0.00077258 0.17411 0.00027309 0.17789 0.13072 -2.7532e-05 -0.00067051 -0.00062393 0.00012125 0.012526
-1.7785e-07 0.00027576 0.00018061 0.00056425 0.0010443 -0.00084711 -0.00015377 -0.18357 -0.00034167 0.00072414
4.2354e-06 -6.8085e-06 6.3679e-05 0.0002869 0.00015752 -0.0015407 -0.00011614 -0.00072071 -7.0546e-05 0.00059635
0.00051204 0.00038107 0.00011644 0.00061196 0.0011381 -0.00051226 -0.19715 -0.1843 -9.5339e-05 0.24935
7.2206e-08 7.7473e-09 1.2033e-07 1.9264e-08 2.5655e-08 -8.1963e-09 -4.0916e-06 -4.2722e-09 -4.3847e-08 1.9315e-08
0.00045803 0.17327 0.27671 3.8123e-06 0.12877 -5.8752e-06 -0.0003492 -1.3231e-05 -0.00021373 0.0093522
1.5413e-07 3.5148e-07 -2.82e-06 -1.6215e-07 3.0484e-05 -1.6057e-06 -8.1398e-07 -0.0003525 -4.9628e-06 -7.2392e-06
0.00011911 0.0016687 0.27704 0.17574 0.0010601 -0.00011727 -0.00038696 -0.18118 -6.8897e-05 0.0055419
2.9136e-05 4.231e-06 0.00010747 4.93e-05 0.129 -1.1149e-05 -0.00028349 -0.00025167 3.1165e-05 0.0016907
9.4017e-06 -2.6341e-05 9.337e-05 1.2786e-05 0.12948 -0.31549 -8.4104e-06 -0.00072647 3.5096e-05 0.00081069
-2.3369e-05 0.1736 0.00037993 0.17668 0.0015773 -1.4406e-06 -0.19638 -0.00014277 -0.27934 -0.00017016
-2.1158e-05 0.17359 0.00038097 0.17668 0.0016624 -5.1695e-05 -0.19637 -0.00016495 -0.0021504 -0.00017912
-4.72e-06 -3.4014e-05 6.8637e-07 8.2178e-06 0.00047352 -3.8212e-05 -2.6718e-05 -0.00095394 -7.6655e-05 0.00057301
2.1725e-05 -5.8494e-05 0.00011994 0.0002429 0.0022136 -0.0015546 -0.00095971 -0.0011477 -7.9274e-05 0.00063076
-1.1562e-06 3.1613e-06 -6.1809e-08 3.3704e-06 -5.7556e-06 -0.00027442 -4.499e-05 -8.7511e-07 -6.7599e-06 -6.5003e-06
0.00056168 0.00099107 0.00033796 0.176 0.13143 -0.00020902 -0.00041579 -0.17983 -0.0040055 0.0031039
0.28885 0.17627 0.27825 0.17634 0.13193 -0.0011356 -0.19622 -0.18189 0.00017273 0.26143
4.2198e-05 0.00039427 0.00012623 0.00051636 0.13066 -0.00054908 -0.19623 -0.18508 -2.7048e-05 -1.5085e-05
3.6445e-06 8.1611e-05 3.7029e-07 0.1758 -4.4925e-05 -1.9281e-06 -0.00022252 -0.00017663 -2.4766e-06 4.1072e-05
1.1122e-05 -1.7623e-06 8.985e-08 -7.1208e-06 0.00094138 -9.4445e-07 1.8037e-05 2.3366e-07 1.7231e-05 1.3345e-05
0.00020131 0.17474 0.00043248 0.17708 0.13106 -0.00014243 -0.19754 -0.00019461 -0.2799 -0.00014281
2.4641e-06 -5.1513e-05 0.0001182 0.17827 0.13062 -0.00073105 -0.00034304 -0.18477 -1.7948e-05 0.24499
0.00018687 0.17413 0.00043497 0.17697 0.13106 -0.00014236 -0.19674 -0.00018095 -0.27842 -0.00011622
-2.0902e-06 -0.000157 1.6403e-05 2.0881e-05 0.12881 -5.479e-05 -6.76e-05 1.788e-05 -0.00033105 0.24001
0.28877 0.17488 0.00080861 0.00055385 0.1309 -0.00088268 -0.19591 -0.00064857 0.00027954 0.25688
0.00019503 0.17336 6.1352e-05 2.9391e-05 0.12934 -0.00010403 -0.19508 -4.2096e-05 -0.0045651 -8.955e-05
0.2887 0.00049544 0.0010056 0.00028508 0.00081879 -0.31706 -0.00090062 -0.00065529 -0.0050819 0.24864
0.28875 0.00076744 0.0005993 0.0002427 0.00085049 -0.31693 -0.00097759 -0.0006025 -0.005044 0.24962
-2.3369e-05 0.1736 0.00037993 0.17668 0.0015773 -1.4406e-06 -0.19638 -0.00014277 -0.27934 -0.00017016
0.00018813 0.17397 0.0004409 0.17702 0.13106 -0.00014212 -0.0018842 -0.00017585 -0.27915 -0.0001663
0.0002028 0.00014946 5.3974e-05 0.17543 0.12908 -4.8659e-05 -0.19494 -5.1926e-05 -0.0041691 3.7759e-05
1.7807e-06 0.17378 0.00013893 0.17735 0.13169 -0.00053763 -0.00021033 -0.18333 -0.0020774 -8.6615e-05
4.4626e-06 0.0004443 6.4096e-05 0.17593 0.00088508 -0.0016805 -0.19511 -0.17941 -6.5667e-05 0.00057831
0.00020044 7.1332e-05 0.27722 0.002767 0.00055211 -0.3174 -0.00014502 -0.0036968 -0.005493 0.00022702
9.4697e-06 2.8852e-05 0.00015767 0.00010036 0.12892 -9.1714e-05 -0.00022308 -0.00078201 -0.00045371 0.0030216
0.0001954 -5.4303e-06 5.4274e-05 -1.2914e-05 0.00080212 -3.2637e-05 -1.8766e-05 -5.1446e-05 -0.0042302 2.9027e-05
0.28877 0.17488 0.00080861 0.00055385 0.1309 -0.00088268 -0.19591 -0.00064857 0.00027954 0.25688
9.4017e-06 -2.6341e-05 9.337e-05 1.2786e-05 0.12948 -0.31549 -8.4104e-06 -0.00072647 3.5096e-05 0.00081069
0.00041086 3.4775e-05 0.00018726 0.0027623 0.0011366 -0.0021735 -0.0006276 -0.0042335 -0.00046637 0.012267
0.28863 0.17361 2.3441e-05 1.5387e-05 0.12899 -8.0311e-06 -0.00034783 -7.4055e-06 -3.5196e-05 0.0094189
-1.051e-06 2.5726e-06 1.1388e-07 7.3264e-08 4.5722e-06 2.8249e-07 5.4909e-07 -7.8435e-07 -7.3214e-07 8.6663e-05
0.00020257 0.17459 0.0004384 0.17712 0.13105 -0.00014218 -0.0026851 -0.00018951 -0.28064 -0.00019289
-9.8325e-07 4.9708e-06 2.7372e-07 2.1959e-06 1.016e-05 -5.9022e-06 -1.3387e-05 -4.6708e-06 -9.9376e-05 8.8927e-05
1.3317e-05 0.00011647 9.4815e-05 0.00055215 0.13031 -0.00054346 -9.7621e-05 -0.18297 1.6938e-05 4.8488e-05
0.00020131 0.17474 0.00043248 0.17708 0.13106 -0.00014243 -0.19754 -0.00019461 -0.2799 -0.00014281
1.2099e-06 0.17352 5.8077e-05 0.00014188 0.12906 -2.8191e-05 -0.19539 -0.00020441 -0.2707 -3.2105e-05
0.00042647 8.3497e-05 -4.3211e-07 -1.3128e-05 0.1289 -6.248e-06 -0.00086843 -0.00077027 6.7678e-06 0.0094413
-4.7087e-06 0.17355 3.1698e-06 0.00015148 0.00019107 -5.5358e-06 -0.19618 -0.00090435 -0.001183 -7.2674e-05
0.28885 0.17627 0.27825 0.17634 0.13193 -0.0011356 -0.19622 -0.18189 0.00017273 0.26143
0.00042083 0.00029475 0.00012664 0.00057496 0.0010531 -0.00052659 -0.00035486 -0.18276 -3.5766e-05 0.009511
1.1666e-05 2.7412e-05 0.00017927 -1.898e-06 0.12909 -0.00026345 -0.00037344 -0.00037188 4.6188e-05 -3.4757e-05
0.28836 -7.4854e-06 0.00010229 0.0001672 0.00021902 -0.00017605 -0.0016742 -0.0015834 2.2307e-05 0.0050387
0.00021356 0.00014897 0.27677 0.00022072 0.13 -0.00019617 -9.0517e-05 -0.17902 -0.0043267 3.1082e-05
5.6578e-08 -4.124e-07 2.2714e-10 -1.4706e-06 2.9894e-05 8.4161e-07 2.1936e-07 -1.3396e-06 1.1405e-06 -7.6455e-08
2.4641e-06 -5.1513e-05 0.0001182 0.17827 0.13062 -0.00073105 -0.00034304 -0.18477 -1.7948e-05 0.24499
0.00077258 0.17411 0.00027309 0.17789 0.13072 -2.7532e-05 -0.00067051 -0.00062393 0.00012125 0.012526
0.00018813 0.17397 0.0004409 0.17702 0.13106 -0.00014212 -0.0018842 -0.00017585 -0.27915 -0.0001663
0.00019188 -0.00013118 0.00021562 4.5581e-05 0.13055 -0.00033115 -0.00035339 -0.00050806 -0.0043569 0.24219
0.00024129 0.00070181 0.27735 0.0009317 0.0018917 -0.00083954 -9.6827e-05 -0.18326 -0.0043321 0.0086617
3.8758e-06 0.00019442 0.00018967 0.00015883 0.0012646 -0.00061469 -0.00084665 -0.18224 -0.0014627 0.00077327
0.00018511 0.00027157 0.00047203 4.5104e-06 5.3175e-05 -0.00094636 -0.00060103 -0.00029616 -0.0002868 0.0066348
2.4635e-05 0.00019913 0.00019617 0.00019392 0.13013 -0.00020449 -0.00074481 -0.18079 -0.00014685 -2.9272e-05
