8.9369e-06 3.5982e-06 8.174e-07 8.995e-06 2.7965e-06 -0.00013558 2.1026e-06 -9.3206e-07 -7.4239e-07 -2.3804e-07 1.2919e-07 5.5413e-07 3.127e-08 2.9456e-08 0.00012644 7.4884e-07 -5.8898e-07 -4.8408e-05 1.382e-05 -0.00012027
-1.4834e-05 9.503e-05 1.2797e-05 0.17644 0.12971 -0.00014158 -2.0877e-05 2.0665e-06 -9.658e-06 -9.2738e-06 3.8687e-07 -3.697e-05 -1.8715e-05 -3.2291e-05 0.2413 0.00079908 -2.893e-05 -0.00041207 0.01016 0.00015876
1.5599e-05 -5.1848e-05 0.00018347 -2.9338e-05 0.00054716 -0.316 -4.303e-05 1.4071e-05 0.00073949 -0.00058968 -9.3279e-06 -0.00015624 7.9709e-05 2.3088e-05 -7.1241e-05 -3.1589e-05 -4.2069e-05 0.0002334 -2.0696e-05 -0.33093
6.343e-07 1.2853e-05 8.7712e-05 6.8184e-06 0.00018573 7.2525e-06 9.9555e-05 -1.9289e-06 2.7731e-06 1.8331e-06 -0.00032271 -0.00018749 4.4038e-06 -3.0624e-05 -7.8457e-05 1.2617e-05 1.3327e-06 -5.1335e-05 0.32041 5.305e-06
2.4538e-05 -7.5533e-06 7.5366e-06 -2.0387e-05 0.000319 -0.00013359 2.6649e-06 4.3604e-06 0.00074633 -0.00058614 -3.0366e-05 -5.4428e-05 8.2633e-05 -1.4017e-06 0.00016048 9.6989e-05 1.4094e-05 0.00089848 0.0010273 -0.00010064
5.6092e-06 -2.768e-06 -1.1152e-05 -2.7768e-05 0.0003153 -3.7227e-06 0.00010036 5.8133e-06 0.00074774 -0.0005772 -1.9706e-05 1.4447e-05 2.5279e-05 2.7484e-05 -0.00010066 -6.8776e-06 3.8376e-06 0.00014412 7.6244e-05 -0.33411
0.28878 -0.0012951 0.00044088 0.00031947 0.13161 6.3011e-05 1.0919e-05 -0.00013987 0.00074347 -0.000605 -5.5218e-05 9.8699e-05 0.00014713 -3.3713e-05 0.0076236 0.00022385 5.0063e-05 0.29718 0.32743 -0.00033295
0.28811 -0.17343 1.4818e-05 0.17636 0.12955 -6.3319e-06 -2.2509e-05 -1.6946e-05 7.4344e-06 -9.6451e-06 -1.4798e-05 -0.00011437 1.4237e-05 -4.4224e-05 -9.2787e-05 0.00081401 2.1951e-06 0.00017877 4.1248e-06 1.6129e-05
0.00019973 -1.3869e-05 -2.1502e-05 9.1579e-06 -2.4296e-05 -2.0457e-06 9.4315e-07 -2.9298e-05 4.6328e-05 -3.5125e-05 -9.4784e-07 3.3351e-05 -2.2044e-06 1.6946e-05 -0.00018102 -7.9811e-06 -8.8632e-06 0.28727 -5.9704e-05 -0.00025399
8.5898e-07 -4.0658e-07 -1.0238e-06 -2.9143e-05 -1.1277e-06 -1.6692e-06 0.35313 -1.3313e-08 -1.2765e-05 -9.3536e-06 -3.9138e-06 -8.6073e-07 -5.948e-06 -1.8636e-06 -1.262e-05 -1.8571e-06 -1.5269e-05 2.4262e-06 8.1182e-06 -0.00018256
0.00018895 -0.1736 0.00014692 0.0005651 0.00065548 -0.31609 0.00016685 5.506e-05 0.18388 -0.19609 -2.7926e-05 -0.0042385 0.18211 -0.0013007 -6.3814e-05 0.00068301 -0.00040786 0.0017116 0.00024728 -0.0016
0.28884 -0.17631 0.27814 0.17683 0.13157 -0.00060301 -5.5922e-05 5.4269e-06 0.18159 -0.19606 5.4516e-06 0.0001018 0.18288 -7.0739e-05 0.25796 0.00079566 4.3313e-05 0.31908 0.0033062 -0.0022908
-2.3384e-06 -2.7153e-05 -8.69e-07 2.1322e-05 3.8982e-05 1.034e-05 4.762e-05 -8.441e-07 0.0010222 -1.8848e-05 -2.3166e-06 7.1232e-07 0.0002398 -1.0881e-06 0.00050672 -3.9018e-07 -3.6271e-06 1.1891e-06 0.0042186 -1.2662e-05
3.1267e-06 -9.062e-06 0.27688 4.3472e-06 4.872e-06 -1.3824e-06 9.2914e-05 -2.4908e-05 0.00015785 -1.8378e-05 -0.00031771 -0.00015345 0.00023457 -1.7699e-07 1.8229e-05 5.1479e-06 -2.1294e-05 -5.7918e-05 0.0029641 9.6832e-06
0.00019039 3.7462e-05 0.00014573 4.7276e-05 0.00053566 -3.6623e-05 0.0003241 8.0767e-05 0.00026008 -4.3458e-05 -6.9694e-07 -0.0039902 0.00015434 -0.0012891 5.1838e-06 0.00065064 -8.864e-06 0.001449 0.32775 -0.0013946
1.4587e-07 -4.934e-05 5.0535e-05 -5.8477e-05 0.00019677 -7.126e-05 -4.369e-07 -6.1039e-05 0.18198 -0.19603 -6.0542e-07 -0.27373 0.18282 -0.00026471 8.8349e-06 -0.00036645 5.9659e-05 -3.0771e-05 0.00019428 -0.33568
4.2691e-07 -0.00014331 0.00017124 6.8784e-06 0.00015157 -4.5438e-05 2.4282e-05 -1.2305e-05 0.00047097 -2.696e-05 2.0658e-06 -0.00021948 0.00011026 1.2375e-06 -2.9119e-05 -6.7086e-06 -4.0533e-05 -3.6513e-05 6.6573e-07 -0.0027945
8.4316e-06 2.6342e-05 1.6404e-06 -5.6856e-05 0.12981 -1.8016e-05 6.4258e-06 3.3654e-06 0.00064224 -0.00011497 -1.2878e-05 1.0909e-05 0.00031516 -2.0992e-06 7.0107e-05 0.00018802 4.638e-06 -0.00011296 0.00071057 -0.00077827
0.00019413 -0.17344 6.7042e-05 0.00021314 0.12993 -5.8772e-05 -9.2154e-06 0.00022291 0.00059649 -0.00032086 -1.1805e-05 -0.0039361 7.4186e-05 -0.0012724 -2.2456e-05 0.00081315 -1.8315e-05 0.001533 0.0004618 -0.0007276
8.8135e-06 -2.4548e-05 -5.9716e-06 -5.0854e-05 0.13012 -3.0056e-06 0.00013452 -4.5612e-06 0.0014012 -0.00063668 -4.6056e-05 -0.000221 0.00013713 -2.7522e-06 0.000496 0.00020921 8.4408e-06 8.7897e-05 0.0045829 -0.002888
0.000129 -8.8239e-05 0.0001938 5.0244e-06 1.1696e-05 -0.00018679 3.6454e-05 3.8766e-06 0.00015254 -6.0297e-05 -5.7226e-06 -0.00030244 0.00023239 2.3828e-06 0.0009664 -1.6189e-05 5.1203e-06 -5.5192e-06 8.8209e-05 -9.1362e-05
0.00018895 -0.1736 0.00014692 0.0005651 0.00065548 -0.31609 0.00016685 5.506e-05 0.18388 -0.19609 -2.7926e-05 -0.0042385 0.18211 -0.0013007 -6.3814e-05 0.00068301 -0.00040786 0.0017116 0.00024728 -0.0016
0.00020041 -0.17385 0.00040373 0.17637 0.12981 -5.3752e-05 -2.4113e-05 0.28819 3.275e-05 -0.0021989 -1.043e-06 -0.27939 -2.5615e-05 -0.49996 -6.7555e-05 0.25046 -3.2094e-06 0.0016427 0.00046064 0.00015201
2.6628e-05 -3.387e-05 1.3332e-05 -6.4578e-05 0.12997 1.1358e-05 3.8719e-05 3.5962e-06 0.18231 -0.00010983 -1.0217e-05 -7.5815e-06 0.18234 1.1745e-06 0.00047066 0.00031651 1.3467e-05 -1.7283e-05 0.003142 -0.00031222
-5.0782e-06 -4.3342e-05 8.6344e-05 2.0256e-06 0.00021624 -0.0002727 -1.9214e-06 -7.1044e-06 1.9925e-06 -1.6041e-05 -0.00010784 -5.0523e-06 0.00012224 -5.7814e-06 0.00064233 2.9004e-05 -1.6724e-06 -6.0018e-05 0.0016601 -0.00079189
5.9189e-06 5.0863e-05 1.1312e-06 -7.6577e-06 0.00047529 -3.8944e-05 0.00013111 9.2818e-07 0.0006681 -5.6763e-06 -7.3909e-05 -6.8975e-05 8.9799e-05 1.8927e-06 2.4051e-05 -4.8164e-06 9.2513e-07 -2.0369e-05 0.00067891 -4.783e-06
0.0001058 -0.001582 0.27706 0.1765 0.0001545 0.00015224 -3.3536e-05 -6.432e-05 0.18132 -0.00031447 1.3909e-06 -7.6982e-05 0.1825 -1.1494e-05 0.0043102 0.0005604 3.2542e-05 0.020198 -9.7707e-05 8.6111e-06
1.4664e-05 -2.9649e-05 -7.6577e-06 -0.00010369 0.13033 2.6752e-06 4.8497e-07 1.2035e-05 0.18051 -0.19594 -2.2893e-05 4.7687e-05 0.18194 2.1137e-05 -0.00010091 0.00023895 -0.00063529 0.00013318 0.00071813 -0.3317
-7.5701e-06 -0.17345 1.7696e-06 3.6509e-05 0.00017377 -7.3881e-07 2.584e-05 0.00037069 0.00085108 -0.19574 -3.7644e-05 -0.00020301 6.2031e-05 -2.6324e-06 -9.4908e-05 1.3818e-05 2.5451e-05 8.3114e-05 0.00012083 -0.00025287
-7.4948e-07 1.1957e-05 2.675e-05 -2.5212e-05 0.00012768 9.4322e-06 0.35325 -7.4013e-07 0.00066553 -1.1978e-06 -0.00017731 -0.00020654 2.3379e-05 -3.3534e-05 -9.2403e-05 3.1103e-05 -1.2087e-05 -0.00012324 0.35648 3.721e-05
0.2887 -0.17445 0.0002436 1.8265e-05 0.0014547 1.689e-05 7.108e-07 -5.1904e-05 -6.7814e-05 -0.19523 7.191e-06 7.5636e-05 -2.7265e-06 -4.3838e-05 0.0026827 -7.3373e-06 9.56e-06 0.29197 0.0013839 -7.0977e-05
4.1427e-06 -0.17395 9.7643e-05 0.17641 0.12948 -0.00035857 0.00016289 -2.4123e-05 0.18342 -4.6265e-05 -1.3326e-05 -0.00018 0.18282 -5.6051e-05 -6.3507e-05 0.24978 -0.00036969 -9.7029e-05 7.4912e-05 -0.0003872
3.1327e-05 1.4576e-05 9.4084e-05 0.00027496 0.12984 -0.00038929 0.00029089 8.0415e-06 0.18365 -2.7077e-05 -2.2601e-05 -0.00010864 0.18333 -8.7751e-06 0.00021868 0.0004348 -0.00033143 -0.00020088 0.0014195 -0.00043463
0.0002043 -4.1991e-05 5.2653e-05 -4.0364e-05 0.13006 -4.6558e-05 4.3699e-06 0.2886 5.3829e-05 -4.6599e-05 9.2662e-06 -0.0038147 1.9585e-05 -0.0028668 -4.1824e-05 0.00084942 -1.4906e-05 0.001777 0.00016552 -0.32862
0.00021873 -0.00034062 0.27735 0.17627 0.12958 -4.4986e-05 -2.7627e-05 0.00056756 7.966e-05 -0.001361 -1.6316e-05 -0.0039958 6.6111e-05 -0.0019258 -4.0277e-05 0.25029 -1.3097e-05 0.0015521 0.00048255 -0.00016476
-2.0878e-05 0.00014472 0.00011456 0.17889 0.13054 -0.00055949 0.0010634 -1.3404e-06 0.18375 -0.00024205 -9.0041e-05 -4.335e-05 0.18228 -4.7935e-05 0.24559 0.00083063 -0.57735 -0.0010386 0.00046037 -0.0015501
1.4664e-05 -2.9649e-05 -7.6577e-06 -0.00010369 0.13033 2.6752e-06 4.8497e-07 1.2035e-05 0.18051 -0.19594 -2.2893e-05 4.7687e-05 0.18194 2.1137e-05 -0.00010091 0.00023895 -0.00063529 0.00013318 0.00071813 -0.3317
1.2097e-05 -5.0886e-05 8.7606e-05 0.00026765 0.12991 -0.31614 0.00017765 -5.5493e-06 0.18368 -4.1647e-05 -1.3201e-05 -0.00020838 0.18269 -1.7208e-05 1.332e-05 0.00026857 -0.00043198 6.5819e-05 0.001243 -0.0031047
0.00017862 -0.00034004 0.00027152 0.00020239 0.13192 -0.00027018 5.9636e-05 -2.5225e-06 0.00054383 -0.00031129 -0.00067773 -0.0039356 0.00031502 -0.0013206 0.24748 0.000955 -0.00066615 0.0067093 0.33149 -0.0015675
9.5054e-06 6.2128e-06 3.0911e-07 -4.4326e-05 0.1295 -7.3353e-06 -4.0517e-07 1.6328e-07 -8.9319e-06 -5.6431e-06 -1.2528e-05 1.0998e-05 8.4953e-06 9.4482e-07 -1.5077e-06 0.00022687 7.1175e-07 -8.0405e-06 1.5687e-05 -1.9602e-06
0.00019588 -0.1734 4.6674e-05 0.17605 0.12949 -4.0061e-05 -2.1924e-05 0.2884 4.3546e-05 -4.6843e-05 -8.5232e-06 -0.0039991 1.8146e-05 -0.00294 -5.5355e-05 0.24935 -9.4103e-06 0.0017109 0.00020916 -0.00028472
0.00019588 -0.1734 4.6674e-05 0.17605 0.12949 -4.0061e-05 -2.1924e-05 0.2884 4.3546e-05 -4.6843e-05 -8.5232e-06 -0.0039991 1.8146e-05 -0.00294 -5.5355e-05 0.24935 -9.4103e-06 0.0017109 0.00020916 -0.00028472
0.00021873 -0.00034062 0.27735 0.17627 0.12958 -4.4986e-05 -2.7627e-05 0.00056756 7.966e-05 -0.001361 -1.6316e-05 -0.0039958 6.6111e-05 -0.0019258 -4.0277e-05 0.25029 -1.3097e-05 0.0015521 0.00048255 -0.00016476
-9.8553e-06 0.00014094 6.4941e-05 -4.5686e-05 0.00044959 -0.31559 0.35322 -4.2755e-05 0.00057588 -8.4472e-06 -0.0023277 -0.27571 7.1197e-05 -0.00030043 0.0024601 -0.00036722 -5.1453e-05 -7.5471e-06 0.0040473 0.00028254
0.00014184 -0.17357 0.27726 0.00031907 0.00022 -0.0005472 0.0002184 -5.5667e-05 0.0030908 -1.4894e-05 4.7035e-06 -0.27322 0.0002596 -0.00034135 0.00098486 -9.8418e-05 -0.00034867 -0.00016575 0.0002151 -0.00076592
1.5025e-06 -5.5779e-05 9.0676e-05 0.0021153 0.13027 -0.00048929 0.00097656 -1.5919e-05 0.00037605 -0.00017125 -0.50158 -0.00031011 0.00021645 5.7343e-06 0.0030866 0.00016836 -0.00014849 -8.1768e-05 0.0048353 -0.001574
0.00037845 -0.00022982 0.00048968 1.1811e-05 0.00053192 -0.00091419 1.3873e-05 0.00016655 0.00030278 -0.00058114 2.6317e-05 -0.0040684 0.00023991 -0.0012268 0.0066108 0.00060535 2.4789e-06 0.0034776 0.00022556 -0.3327
1.2212e-06 2.1908e-05 -1.1965e-06 -1.7674e-05 0.00028796 -2.242e-05 2.9977e-05 1.9663e-06 4.3901e-05 7.7804e-06 -0.49855 2.0444e-06 1.4366e-05 -2.5029e-06 5.8675e-05 -1.7806e-05 9.4883e-07 -1.9433e-05 0.00030202 3.4659e-05
8.2303e-06 5.5927e-06 3.0075e-07 -4.5095e-05 0.12949 -7.5115e-06 -4.0124e-07 -4.6135e-08 -8.8559e-06 -6.1556e-06 -1.2943e-05 1.0656e-05 8.7823e-06 9.4487e-07 -1.0722e-06 0.000225 6.4061e-07 -6.6284e-06 1.6478e-05 -2.0689e-06
0.00049428 -0.00011953 9.7469e-05 0.00036687 3.2157e-05 -0.00037254 0.00021671 8.3489e-06 0.18565 -0.19698 -0.00084746 -0.0001087 0.18343 -4.4264e-05 0.25185 9.2806e-05 -0.00025614 0.00071337 8.7238e-05 -0.00053892
0.00020495 -9.3694e-05 5.4321e-05 1.173e-05 0.13008 -4.431e-05 6.3607e-05 8.6323e-05 0.00031928 -0.00021375 -0.0014123 -0.0038298 5.91e-05 -0.0012644 7.3836e-05 0.00082776 1.536e-05 0.0015439 0.0023625 -0.0038756
8.6609e-06 9.8044e-06 9.3349e-07 -4.7437e-05 0.12957 -6.2331e-06 -2.7203e-07 1.5447e-06 0.00010048 -1.3219e-05 -1.0328e-05 1.5383e-05 1.5386e-05 8.5141e-07 -6.364e-06 0.00021888 -5.4867e-06 -9.3674e-06 2.0412e-05 -0.00029281
0.0007599 -0.17445 0.00025628 0.17881 0.13153 -9.9748e-06 0.00011311 -2.6258e-05 0.00066193 -0.00059238 -0.00010575 1.2596e-05 0.00081881 7.4345e-06 0.012474 0.00067508 -0.00065351 0.0024948 0.0053998 -0.00037967
-5.5152e-06 -0.00013642 0.00017362 0.00031824 0.0001291 -0.00066182 0.00018205 -1.2095e-05 0.18361 -0.00012267 -0.00010984 -0.00029271 0.18263 -3.2259e-06 0.00067454 0.0001226 -0.00032623 -0.00014681 0.0017231 -0.0025344
-7.4948e-07 1.1957e-05 2.675e-05 -2.5212e-05 0.00012768 9.4322e-06 0.35325 -7.4013e-07 0.00066553 -1.1978e-06 -0.00017731 -0.00020654 2.3379e-05 -3.3534e-05 -9.2403e-05 3.1103e-05 -1.2087e-05 -0.00012324 0.35648 3.721e-05
0.00049009 -0.00010808 0.00010492 0.00036347 0.00017751 -0.00036235 0.0002156 8.4083e-06 0.18446 -0.19711 -0.00085014 -9.4507e-05 0.18292 -3.8679e-05 0.25286 7.1542e-05 -0.00025351 0.00059228 0.0007332 -0.00028636
5.9387e-08 2.5641e-08 -2.1196e-07 9.3222e-08 -1.567e-08 -1.0162e-08 8.1397e-06 -7.7641e-07 -1.1309e-08 -4.4479e-06 2.7703e-08 -5.6379e-07 -4.9213e-07 -8.5066e-07 -1.5455e-08 2.3614e-07 1.3698e-08 2.0968e-07 -1.235e-06 -0.0001551
0.00045428 -0.17359 0.27677 -7.2566e-05 0.12953 -2.8139e-06 4.2506e-05 -4.2821e-05 5.0126e-05 -0.00027798 -1.2125e-05 -0.00028765 0.00069522 -5.429e-07 0.0097616 0.00022302 3.8932e-05 -0.00017826 -2.1841e-06 4.9933e-05
2.2926e-07 -2.6214e-07 -1.9899e-06 -1.2011e-06 2.8843e-05 -3.055e-06 3.947e-08 9.7222e-07 0.00033191 -5.9414e-07 5.643e-07 -7.2891e-06 3.2901e-05 -2.5896e-06 -7.2131e-06 -5.4993e-07 7.3719e-06 3.74e-06 1.8116e-06 -0.00010354
0.0001058 -0.001582 0.27706 0.1765 0.0001545 0.00015224 -3.3536e-05 -6.432e-05 0.18132 -0.00031447 1.3909e-06 -7.6982e-05 0.1825 -1.1494e-05 0.0043102 0.0005604 3.2542e-05 0.020198 -9.7707e-05 8.6111e-06
2.8582e-05 -1.7506e-05 0.00010907 -2.0689e-06 0.12976 -3.6504e-06 3.5448e-06 8.4257e-08 0.0002643 -0.00026641 -9.9712e-06 6.8052e-07 0.00010669 -2.4646e-06 0.0015744 0.00021296 1.0291e-05 0.00017354 0.00042287 -0.0003116
5.9833e-06 1.7122e-05 9.2381e-05 -4.9285e-05 0.13021 -0.31594 -1.0215e-05 -1.0725e-05 0.00082973 3.7933e-06 -0.0001211 1.6357e-05 0.00048164 -1.3471e-05 0.00076713 0.00047509 -8.0579e-05 -9.4953e-06 0.0017015 -0.00075228
-1.4928e-05 -0.17368 0.00035954 0.17608 -0.00040828 -1.7782e-06 -2.2322e-05 0.00044238 -2.0236e-05 -0.19643 8.184e-06 -0.27931 3.334e-07 -0.00091207 -0.00014479 0.2503 1.0372e-05 -8.6075e-05 0.00019859 0.00033479
-1.3172e-05 -0.17374 0.00033961 0.17608 -0.00035018 -4.6859e-05 2.361e-05 0.0004686 2.1341e-06 -0.19641 1.9362e-06 -0.00018568 7.265e-06 -0.00068887 -0.00016083 0.24891 1.1283e-05 -9.8586e-06 1.3097e-05 -0.0048791
-4.9468e-06 4.066e-05 1.4306e-06 1.025e-05 0.00048574 -3.5256e-05 0.00017927 4.174e-07 0.00095256 -2.6648e-05 -7.6077e-05 -7.4036e-05 0.00013677 4.5312e-07 0.00055025 -4.5638e-06 -6.1398e-06 -8.1391e-06 0.0037397 -9.3132e-06
6.7949e-06 7.1205e-05 7.7238e-05 -5.9752e-05 0.001309 3.5711e-06 0.35359 -1.3981e-06 0.0010755 -0.00086333 -0.50177 -0.00015391 3.6455e-05 -3.541e-05 -0.00015599 3.6712e-05 -0.0006803 1.7207e-05 0.32722 -0.0047826
-1.1099e-06 -3.4839e-06 3.834e-07 3.1385e-06 -6.7355e-06 -0.00027481 -1.9147e-06 -5.3174e-07 9.4358e-07 -4.3418e-05 -1.5661e-07 -6.8914e-06 2.409e-07 -1.946e-06 -4.7497e-06 -9.369e-07 -1.4448e-06 -9.1155e-06 6.9624e-08 -5.1253e-05
0.00054601 -0.00089185 0.00032335 0.17669 0.13123 -2.6833e-05 1.7167e-06 8.363e-05 0.18014 -0.00034066 -3.8402e-07 -0.0036274 0.18201 -0.0012537 0.0026727 0.0013842 3.5783e-06 0.0041601 0.0048023 -0.00025591
0.28884 -0.17631 0.27814 0.17683 0.13157 -0.00060301 -5.5922e-05 5.4269e-06 0.18159 -0.19606 5.4516e-06 0.0001018 0.18288 -7.0739e-05 0.25796 0.00079566 4.3313e-05 0.31908 0.0033062 -0.0022908
3.5722e-05 -0.00010534 0.00012102 0.00022845 0.13051 -0.00036625 0.00020389 7.1873e-06 0.18518 -0.19629 -4.0314e-05 -5.0912e-05 0.18323 -3.0357e-05 -4.223e-05 0.0003899 -0.0003903 -1.1304e-05 0.00015234 -0.0014718
1.3589e-06 -0.00011674 -1.6674e-06 0.17679 7.1082e-06 -2.3406e-06 -2.7132e-05 -9.127e-07 0.00019718 -0.00017444 -0.00085939 -6.3959e-06 3.0509e-05 -7.7715e-06 4.0391e-05 0.00058872 2.3518e-05 4.3755e-05 0.00028399 3.1603e-06
2.1446e-06 1.6267e-07 -7.1771e-07 8.7899e-08 3.1875e-05 4.159e-07 3.1099e-06 9.8345e-08 -8.8101e-08 2.5205e-06 -0.49806 2.4692e-05 -5.7869e-06 -6.359e-07 -5.2049e-05 -1.4601e-06 9.2474e-08 4.3626e-06 1.1316e-05 5.5905e-05
0.00019915 -0.17384 0.00039577 0.17632 0.1298 -5.2904e-05 -2.3521e-05 0.28818 3.4437e-05 -0.19725 6.3099e-07 -0.27874 -2.5614e-05 -0.49996 -4.4165e-05 0.24998 2.3717e-06 0.0016518 0.00046039 8.932e-05
-2.0878e-05 0.00014472 0.00011456 0.17889 0.13054 -0.00055949 0.0010634 -1.3404e-06 0.18375 -0.00024205 -9.0041e-05 -4.335e-05 0.18228 -4.7935e-05 0.24559 0.00083063 -0.57735 -0.0010386 0.00046037 -0.0015501
0.00018531 -0.17388 0.00039938 0.17625 0.1298 -4.0497e-05 -2.3258e-05 0.28948 3.1539e-05 -0.19673 1.3265e-06 -0.27763 3.4663e-05 -0.0054503 -9.0933e-05 0.24991 8.8151e-07 0.0016254 0.00040611 4.3696e-05
-1.4393e-05 0.0001446 1.2713e-05 -5.1295e-05 0.12961 -5.4725e-05 0.00010107 2.9212e-06 -5.9298e-06 -2.7803e-06 -0.0021592 -0.00035445 4.2709e-05 -1.4207e-05 0.24316 0.00023487 -3.2962e-05 -0.00024614 0.00274 0.00013806
0.28878 -0.175 0.00068327 0.00029371 0.13144 -0.00063798 -6.193e-06 -0.00010721 0.00021502 -0.1958 4.8728e-06 0.00021447 0.00035214 -6.419e-05 0.25442 0.00023444 2.107e-05 0.29936 0.0034094 -0.0023019
0.00018994 -0.1735 6.0908e-05 -5.2736e-05 0.13002 -9.6766e-05 8.5525e-07 5.1538e-05 4.1904e-05 -0.19521 -7.1569e-06 -0.0041761 2.4964e-05 -0.0012736 -7.99e-05 0.0009687 4.5699e-06 0.0015499 0.00018306 -0.0011058
0.28871 -0.00013188 0.00085059 5.484e-05 0.00046463 -0.3172 -4.194e-05 0.28882 0.00022317 -0.00065909 1.8574e-05 -0.0041084 0.00016535 -0.0029784 0.2477 0.00062662 -6.8703e-05 0.29567 -0.00032468 -0.0024748
0.28875 -0.00040848 0.00045766 1.9083e-05 0.00048868 -0.31708 -2.5747e-05 0.28864 0.00016616 -0.00071079 1.9386e-05 -0.0040727 0.00014433 -0.0029834 0.24847 0.0006258 -5.8404e-05 0.29616 -0.00031921 -0.0024773
-1.4928e-05 -0.17368 0.00035954 0.17608 -0.00040828 -1.7782e-06 -2.2322e-05 0.00044238 -2.0236e-05 -0.19643 8.184e-06 -0.27931 3.334e-07 -0.00091207 -0.00014479 0.2503 1.0372e-05 -8.6075e-05 0.00019859 0.00033479
0.00018658 -0.17389 0.00040735 0.1763 0.12981 -4.1345e-05 -2.385e-05 0.28949 2.9852e-05 -0.0016763 -3.4741e-07 -0.27829 3.4662e-05 -0.0054497 -0.00011432 0.2504 -4.6996e-06 0.0016163 0.00040636 0.00010639
0.00019774 -2.161e-05 5.3801e-05 0.17636 0.12984 -4.4011e-05 -2.2451e-05 8.0255e-05 6.2812e-05 -0.19513 -7.6108e-06 -0.0037772 2.6902e-06 -0.0012603 1.953e-05 0.0014125 1.2663e-06 0.0016142 0.00024235 -0.00024242
4.1427e-06 -0.17395 9.7643e-05 0.17641 0.12948 -0.00035857 0.00016289 -2.4123e-05 0.18342 -4.6265e-05 -1.3326e-05 -0.00018 0.18282 -5.6051e-05 -6.3507e-05 0.24978 -0.00036969 -9.7029e-05 7.4912e-05 -0.0003872
-3.828e-06 -0.00017466 7.5023e-06 0.17638 -1.9229e-05 2.0943e-05 0.35299 -2.0682e-06 0.17967 -0.19513 -3.4038e-06 -7.8999e-05 0.18193 -1.6416e-05 0.00051798 0.00058129 1.6066e-05 3.761e-05 0.0031108 -4.2251e-05
0.00019795 -8.4627e-05 0.27714 0.002451 0.00046136 -0.31618 0.35447 4.6279e-05 0.0034649 -3.0007e-05 2.0495e-05 -0.0039436 0.00022563 -0.0012602 0.00014703 0.00060602 -0.0006169 0.0016915 0.0002323 -0.33667
4.3876e-06 -3.9052e-05 0.00017189 3.9183e-05 0.12968 -8.1564e-05 0.00021658 3.9187e-07 0.00081341 -0.00018267 -0.0030673 -0.00056032 0.00022984 -2.6814e-05 0.0023855 0.00049804 3.1577e-05 -0.000168 0.32202 -0.0011041
0.00019348 9.4667e-06 5.8011e-05 -3.8731e-06 0.00075973 -3.4416e-05 -1.7713e-06 8.6938e-05 5.0598e-05 -2.6648e-05 -0.00038777 -0.0037989 2.0641e-05 -0.0012616 3.5667e-05 0.00061122 -9.6461e-06 0.0015868 0.00027485 -0.00029064
0.28878 -0.175 0.00068327 0.00029371 0.13144 -0.00063798 -6.193e-06 -0.00010721 0.00021502 -0.1958 4.8728e-06 0.00021447 0.00035214 -6.419e-05 0.25442 0.00023444 2.107e-05 0.29936 0.0034094 -0.0023019
5.9833e-06 1.7122e-05 9.2381e-05 -4.9285e-05 0.13021 -0.31594 -1.0215e-05 -1.0725e-05 0.00082973 3.7933e-06 -0.0001211 1.6357e-05 0.00048164 -1.3471e-05 0.00076713 0.00047509 -8.0579e-05 -9.4953e-06 0.0017015 -0.00075228
0.00040655 -2.3578e-05 0.00013398 0.002436 0.0011533 -0.00060163 0.35451 -4.9794e-06 0.0040562 -0.00053414 -0.0026932 -0.00045233 0.00098808 2.167e-05 0.012642 2.4316e-06 -0.0011855 -0.00021944 0.0076035 -0.0016969
0.28861 -0.17392 2.5621e-05 -7.9445e-05 0.12974 -2.7859e-06 4.7205e-05 -1.6895e-05 5.4212e-05 -0.00028629 -1.5604e-05 -0.00010779 0.00076099 -2.7626e-05 0.009731 0.00034752 4.5406e-05 2.6497e-05 -6.2496e-05 -0.0001156
-1.0788e-06 -2.3706e-06 1.9144e-07 1.5375e-07 3.4751e-06 1.9166e-07 1.2702e-06 4.6705e-09 6.2263e-07 4.7816e-07 -7.4327e-08 -1.263e-06 -8.5667e-08 -2.9409e-06 8.296e-05 1.1345e-06 -1.5502e-06 -8.3378e-06 0.00024273 -2.9822e-06
0.00020041 -0.17385 0.00040373 0.17637 0.12981 -5.3752e-05 -2.4113e-05 0.28819 3.275e-05 -0.0021989 -1.043e-06 -0.27939 -2.5615e-05 -0.49996 -6.7555e-05 0.25046 -3.2094e-06 0.0016427 0.00046064 0.00015201
-1.036e-06 -4.7236e-06 7.3238e-07 2.5145e-06 1.0619e-05 4.3117e-06 4.2421e-05 2.2293e-07 3.7764e-06 -1.3065e-05 -6.0597e-07 -0.00011213 8.9352e-06 -8.817e-06 8.646e-05 3.2164e-06 -2.9643e-06 -7.725e-06 0.00040904 -1.5093e-05
7.2504e-06 2.5179e-05 8.9937e-05 0.00025272 0.13017 -0.00035843 0.00019742 6.8748e-06 0.18308 -4.6297e-05 -7.4106e-05 -1.8503e-05 0.18223 -5.9975e-06 3.5618e-05 0.00029259 -0.00033717 -0.00012437 7.589e-05 -0.00061006
0.00019915 -0.17384 0.00039577 0.17632 0.1298 -5.2904e-05 -2.3521e-05 0.28818 3.4437e-05 -0.19725 6.3099e-07 -0.27874 -2.5614e-05 -0.49996 -4.4165e-05 0.24998 2.3717e-06 0.0016518 0.00046039 8.932e-05
-1.4309e-06 -0.17361 7.4567e-05 6.3391e-05 0.12987 -1.8749e-05 -6.6606e-07 -9.0084e-06 0.00021572 -0.19547 -0.0008626 -0.27303 9.9067e-05 -0.00039595 -2.3199e-05 -7.4475e-05 3.4958e-05 -0.00011728 0.00043117 0.00019407
0.00042361 -9.2812e-05 -8.9814e-07 -6.5506e-05 0.12967 -4.39e-06 4.5631e-05 -4.0956e-07 0.00078875 -0.00085958 -4.6687e-05 -2.8244e-05 0.00070246 1.8619e-05 0.0098231 0.00021375 5.133e-05 -2.8686e-05 2.0542e-05 -9.6847e-05
-6.9245e-06 -0.17368 1.9283e-06 0.00011368 0.00016419 -3.9763e-06 2.9265e-05 2.1608e-05 0.00086311 -0.19627 -3.8148e-05 -0.0011366 3.6817e-05 -0.0024184 -8.5298e-05 6.2249e-05 2.9523e-05 0.00014906 0.000133 -0.00026669
0.28884 -0.17631 0.27814 0.17683 0.13157 -0.00060301 -5.5922e-05 5.4269e-06 0.18159 -0.19606 5.4516e-06 0.0001018 0.18288 -7.0739e-05 0.25796 0.00079566 4.3313e-05 0.31908 0.0033062 -0.0022908
0.00041374 -0.00016184 0.00012026 0.00033085 9.5557e-05 -0.00035938 0.00022975 3.9152e-07 0.18299 -0.00031054 -1.1501e-06 -2.4222e-05 0.18303 9.7402e-06 0.0098786 8.0507e-05 -0.00031529 -0.00016671 1.6819e-05 -0.0015472
1.107e-05 -4.0499e-05 0.00017827 -5.8163e-05 0.12988 -0.00025476 1.0079e-07 -1.0019e-06 0.00038408 -0.00034533 -9.48e-06 1.4923e-05 8.1663e-05 1.2116e-06 -2.6821e-05 0.00020093 -2.7447e-05 -4.5022e-05 1.2424e-05 -0.00065601
0.28838 2.4768e-05 -1.1149e-05 4.2835e-06 -3.0521e-05 -3.3011e-05 -6.0403e-06 -2.0737e-05 0.0012079 -0.0014446 -6.6814e-06 3.8724e-05 1.9554e-05 -1.3976e-05 0.0011498 -8.4466e-06 3.3871e-05 0.28827 -7.8089e-05 -8.8387e-05
0.00020644 -1.7299e-05 0.27682 -4.9058e-05 0.12978 -2.8772e-05 -9.8721e-06 6.3909e-05 0.17932 -3.38e-05 -7.1497e-06 -0.003931 0.18186 -0.0012509 2.8571e-05 0.00085961 1.6467e-05 0.0015261 0.00026586 -0.00024023
5.422e-08 4.4446e-07 6.5867e-10 -1.1836e-06 3.0292e-05 9.264e-07 1.1399e-07 1.7039e-07 1.4424e-06 2.0248e-07 7.1336e-07 6.2863e-07 1.1116e-06 -7.6032e-09 5.0496e-07 -1.7406e-06 2.855e-08 -5.0473e-06 -1.0262e-08 -3.6452e-06
-2.0878e-05 0.00014472 0.00011456 0.17889 0.13054 -0.00055949 0.0010634 -1.3404e-06 0.18375 -0.00024205 -9.0041e-05 -4.335e-05 0.18228 -4.7935e-05 0.24559 0.00083063 -0.57735 -0.0010386 0.00046037 -0.0015501
0.0007599 -0.17445 0.00025628 0.17881 0.13153 -9.9748e-06 0.00011311 -2.6258e-05 0.00066193 -0.00059238 -0.00010575 1.2596e-05 0.00081881 7.4345e-06 0.012474 0.00067508 -0.00065351 0.0024948 0.0053998 -0.00037967
0.00018658 -0.17389 0.00040735 0.1763 0.12981 -4.1345e-05 -2.385e-05 0.28949 2.9852e-05 -0.0016763 -3.4741e-07 -0.27829 3.4662e-05 -0.0054497 -0.00011432 0.2504 -4.6996e-06 0.0016163 0.00040636 0.00010639
0.00017316 0.00013009 0.00022975 -2.0449e-05 0.13132 -0.00032163 6.1439e-05 0.00010073 0.00050178 -0.00029842 -0.0006708 -0.0040675 0.0002524 -0.0013344 0.24449 0.00092685 -0.00071294 0.00099622 0.32771 -0.0013729
0.00023141 -0.00056541 0.27742 0.00069058 0.00096392 -0.00061283 0.00018986 -4.5036e-05 0.18337 -3.8058e-05 -0.00012127 -0.0038475 0.1828 -0.0012816 0.0076515 0.0010451 -0.00027498 0.0071636 0.0060553 -0.0016551
-6.3924e-07 -7.7836e-05 9.3763e-05 -7.0551e-05 0.00034104 -0.0003607 1.7492e-05 4.6215e-06 0.18233 -0.00078883 -0.0004651 -0.00030406 0.18333 2.9228e-05 0.00061539 1.5039e-05 5.9621e-05 -8.9154e-05 0.0027053 -0.33743
0.00018328 -0.00027453 0.00046796 7.0801e-06 5.0699e-05 -0.00091776 5.4198e-05 3.7861e-05 0.00023955 -0.00055376 1.4924e-06 -0.00025552 0.00023145 -4.9514e-06 0.0066327 -1.1102e-05 1.6277e-05 0.0018022 7.411e-05 -0.0073935
1.7908e-05 -7.4295e-05 0.00018667 -9.3931e-05 0.12993 -3.0508e-05 -7.1684e-06 -1.1004e-05 0.18116 -0.0006862 -4.4302e-05 -0.00013491 0.18241 6.1067e-06 -4.1174e-05 0.00047841 -1.8374e-05 2.7275e-05 6.7341e-05 -0.0031945
