3.8779e-07 3.6316e-05 -2.7247e-08 2.0478e-06 3.2376e-06 -2.4308e-06 0.00031431 3.427e-06 -5.0757e-05 -2.2032e-05 -4.6758e-06 2.5214e-07 3.3539e-05 3.1143e-06 4.6492e-07 7.6953e-06 -8.542e-07 1.6164e-06 -1.7146e-05 1.0422e-05 -4.8352e-07 -4.4029e-06 7.9094e-05 -5.7825e-06 -2.702e-05 -8.9089e-08 7.4124e-06 -3.2445e-05 7.0421e-06 9.414e-07 0.00095006 -2.2536e-05 -5.0833e-06 -3.9499e-05 -8.5271e-07 -0.00037529 -2.5259e-07 9.7843e-06 -0.00010369 -1.6943e-07
-1.7433e-06 0.00029767 4.6396e-07 0.00031872 -2.2708e-05 6.4584e-06 0.00012867 -0.00017885 3.1248e-06 5.3961e-05 -1.489e-05 1.7833e-06 0.00022616 -3.6574e-05 3.9224e-06 0.00039172 -4.4685e-07 -8.7724e-05 1.555e-05 -9.0817e-07 -9.789e-05 -2.941e-05 0.00054114 8.4861e-05 0.00049681 3.9935e-05 8.579e-06 0.00053289 -3.3608e-05 0.00054179 -0.0001184 -1.7439e-05 -0.0005525 -0.00017814 -5.2154e-06 -0.0054847 -0.00026413 2.5407e-05 0.00032289 -1.1677e-05
-3.3112e-05 1.7316e-05 -1.1689e-06 -6.4166e-06 -3.8174e-05 0.00036715 0.1622 4.0121e-06 -0.00046046 0.00077713 0.00012041 -1.2938e-05 -9.6986e-05 -6.8205e-06 -6.2556e-06 -9.8748e-05 -1.2098e-05 -1.1997e-05 0.00021868 -0.00014552 -2.689e-06 -3.5269e-05 0.00017721 -3.3548e-05 2.2531e-05 0.0012187 2.4868e-05 8.0974e-06 1.6458e-05 3.9531e-05 0.2683 -4.9043e-05 -8.3411e-05 -1.7572e-05 -0.00010187 -0.0024603 -0.0011064 -7.4838e-05 0.001247 9.0817e-06
1.7451e-06 1.9864e-05 -5.136e-08 1.787e-06 -3.9616e-05 -4.9846e-06 0.00044937 -6.7931e-05 -7.922e-06 7.2844e-05 1.5271e-06 -9.1037e-07 9.359e-07 -6.3458e-06 2.4435e-07 7.1159e-05 -9.0278e-09 1.7389e-06 3.5647e-05 -1.7079e-05 2.6059e-06 -2.1129e-05 4.2065e-06 6.0301e-07 -1.7291e-05 2.6105e-06 1.6686e-06 5.5824e-06 -2.5463e-06 0.00027344 0.00043101 3.5945e-06 1.1102e-05 3.3739e-06 6.9715e-05 -3.8202e-05 -0.0011677 3.4385e-06 0.00033547 4.3164e-05
8.8896e-06 8.5669e-06 -2.1277e-07 5.8186e-06 -9.7518e-06 -8.911e-05 0.21561 6.589e-07 -4.727e-05 0.00049971 3.2716e-06 -1.8606e-05 2.4894e-05 0.00020806 -4.1215e-05 0.00018216 -1.9863e-06 -2.9463e-05 6.9133e-05 -1.2144e-05 4.2899e-06 -3.1334e-05 0.00053694 0.00050977 -6.2363e-05 -3.5371e-05 2.3711e-05 6.522e-05 2.9929e-05 1.0602e-05 -0.00011238 -0.00017834 -0.00019528 -3.4628e-05 -6.6861e-05 -0.0005401 -7.5175e-05 0.00077607 0.001502 -4.4147e-06
-3.8332e-06 -3.6011e-06 -6.0131e-07 -2.1246e-06 9.1538e-07 2.3046e-06 0.26687 -4.533e-05 -0.00033601 -4.3445e-05 -1.503e-05 -1.9338e-05 1.225e-05 1.3239e-05 6.9395e-06 -5.5397e-05 -1.2894e-05 -2.9645e-05 2.6879e-05 4.797e-06 5.7865e-06 1.0421e-06 5.2292e-06 -3.892e-05 -5.7093e-05 1.9068e-05 3.1458e-05 -0.00013538 -1.2837e-06 -1.0353e-05 0.21888 -8.9291e-05 -1.2255e-06 -4.2456e-05 -7.9554e-05 -0.00011386 7.2135e-05 7.5844e-05 0.00024742 -2.0225e-05
1.8753e-05 0.00037864 -2.6916e-06 0.18199 -0.00083012 -6.463e-05 0.26584 -7.9283e-05 -9.3466e-05 0.00034296 -1.0397e-05 -2.2578e-05 -1.142e-05 3.4477e-05 1.4633e-05 0.18623 -1.604e-05 0.00011088 0.00012415 -5.487e-05 -4.5272e-06 -1.5229e-05 0.35025 0.18542 0.0016058 0.0047717 -7.5217e-05 0.00031493 5.6998e-05 -3.4434e-05 -0.00040189 -0.00058588 -0.00026667 -0.0017191 -8.2793e-05 -3.6649e-06 -0.0014323 -7.0037e-05 0.0017721 3.1803e-05
1.5812e-06 1.5571e-07 0.000196 4.8256e-05 5.0399e-06 -3.5899e-05 2.0427e-06 2.7673e-07 8.1611e-08 -9.1824e-05 -2.0997e-05 -2.2739e-05 -1.2336e-05 -0.00025704 1.3863e-05 -4.016e-05 -1.2574e-05 -7.5644e-07 -0.00010465 7.5336e-05 -2.7834e-05 -6.4673e-05 0.3338 -1.5509e-05 1.8361e-05 1.5805e-05 -7.6604e-06 -1.6348e-05 6.2413e-06 0.00016236 3.8656e-06 -8.8204e-06 -0.17997 4.3645e-05 -1.3094e-06 1.6389e-05 2.0989e-05 -0.0020092 -0.0001814 -1.4805e-06
-6.054e-07 -2.406e-06 1.403e-07 0.47948 7.3884e-07 -1.6311e-05 -7.798e-05 -1.5394e-05 0.56527 1.3882e-05 3.816e-06 1.6288e-07 -2.445e-06 -3.3438e-05 -5.7381e-06 -6.1188e-05 6.9438e-06 6.2535e-08 -1.1902e-06 1.9538e-06 1.8082e-06 -1.6333e-05 -0.00014129 -3.2367e-05 -1.1826e-06 3.2501e-05 1.9873e-06 1.2486e-05 -1.8467e-06 -3.3918e-05 -0.00040246 -0.00010276 1.5349e-05 -4.9494e-06 1.1445e-05 2.5376e-06 0.00018968 -6.8205e-05 8.5943e-05 -5.68e-06
5.6638e-06 3.3519e-07 -3.1568e-07 -1.0863e-06 2.4091e-06 6.7363e-06 3.8532e-07 -0.47926 1.7336e-05 -3.8452e-05 -3.4628e-05 -3.274e-08 -0.47284 1.5538e-05 5.1439e-06 1.435e-05 -9.7905e-05 7.5789e-07 6.1923e-06 -4.0561e-07 -2.6213e-07 1.0944e-05 1.8017e-05 1.8999e-06 8.9439e-06 -6.652e-05 1.6763e-05 1.2734e-05 -4.2413e-06 -3.4038e-05 -9.7708e-05 7.3199e-07 -3.7876e-08 -1.6748e-05 2.9601e-06 4.0727e-05 3.7934e-05 5.064e-05 -0.00011249 0.0053133
-6.8636e-05 1.3184e-05 6.0914e-06 -1.7719e-05 -7.6019e-05 0.1337 0.18473 -6.5393e-06 7.5824e-05 0.4888 -0.00029547 -4.3181e-05 4.1121e-06 -0.00035768 -5.2713e-05 -3.412e-05 9.6611e-06 -1.0292e-05 -0.097499 0.053989 -0.00012215 -3.9116e-05 0.00018981 4.0253e-05 0.15421 -0.00040417 3.0716e-05 0.15978 7.4628e-05 8.355e-05 -0.00095194 -0.00015317 -0.13244 1.8364e-05 -6.1035e-05 -7.9247e-05 0.00015367 -0.00033313 0.14979 7.447e-06
5.7491e-06 0.0004097 2.4863e-06 0.19344 -0.15996 6.6323e-05 0.00026482 1.7407e-06 -4.7843e-05 -0.00040854 -5.9667e-05 -7.7991e-07 2.1338e-05 0.00014381 1.9616e-05 0.397 -7.1943e-05 9.7094e-05 -2.3586e-05 -1.8468e-06 -0.00012252 1.4041e-05 0.18701 0.39318 0.11867 0.26098 -7.3987e-05 0.12864 0.00011152 -1.9132e-05 -0.00034773 -3.9932e-05 -0.1017 -0.33089 -5.8465e-06 0.00025517 -0.00019772 9.849e-05 -0.00024906 -1.0044e-05
-7.2813e-06 -1.3718e-06 5.6184e-07 -2.6341e-06 -9.4286e-06 1.3833e-05 -2.1626e-05 -0.00022113 6.2646e-05 -0.00052033 -4.6766e-06 3.3003e-06 1.1844e-06 6.3463e-05 -2.2784e-07 1.9886e-05 -2.9816e-05 3.471e-06 -0.00026615 0.00018552 -6.391e-05 3.957e-05 8.0405e-07 -4.742e-06 -7.2678e-05 -5.9617e-06 -4.0702e-05 0.00059275 1.9457e-05 -4.1103e-05 -7.5144e-05 -5.832e-06 4.8245e-05 4.9779e-05 -3.0997e-06 3.8589e-05 -0.43138 0.00010418 -0.001571 0.0034652
-2.3903e-05 7.2236e-05 -1.5492e-06 -3.9579e-06 -0.26203 8.5857e-05 0.00023155 9.6886e-06 -3.6666e-05 -0.00019744 -7.7816e-06 5.0006e-06 -1.1398e-05 6.1881e-06 2.5828e-06 -1.8367e-05 6.1828e-06 -0.00054248 -0.00036277 5.5299e-05 7.0609e-06 2.4616e-05 -9.5666e-06 -1.6255e-06 0.00011115 0.00043334 0.00024167 0.00016738 0.002925 0.0072365 0.00010105 -3.1223e-05 2.4587e-06 0.00021767 6.4654e-07 -1.9099e-05 -4.033e-05 6.3317e-05 -0.0024926 1.0896e-05
6.8116e-06 -2.2685e-06 9.5194e-08 3.3832e-06 3.815e-05 0.12804 0.000202 -0.00018964 -7.0354e-05 0.039709 -4.1635e-05 5.1025e-06 2.0938e-05 -9.9488e-05 -1.2484e-05 0.00012738 -2.3994e-06 5.2144e-06 -0.096504 0.052723 1.9269e-05 -2.0446e-05 3.0001e-06 -1.6199e-06 4.0375e-05 -0.000182 3.0985e-06 0.0001161 1.4919e-05 -1.5646e-05 0.0024616 -7.1234e-05 -2.8256e-05 -1.2012e-05 3.1987e-06 3.872e-05 -0.0019338 -0.00029325 0.12715 0.00024511
-3.7406e-06 3.1177e-05 -5.579e-06 -5.9477e-06 8.5019e-06 9.1869e-05 0.28934 2.9799e-06 -0.00028294 0.00046046 0.1711 -2.2089e-05 -2.1922e-05 0.00048863 -0.00018686 -7.5673e-05 -2.1611e-05 -0.0029951 -0.00017038 0.00013661 -0.0001243 -2.2219e-06 3.3553e-05 -5.1508e-05 0.23996 -0.00030995 4.3304e-05 0.12905 2.5216e-05 -5.6191e-05 0.23943 -0.00040802 -0.001314 0.00082377 0.0072981 -0.26323 6.7133e-05 0.00011276 -0.000907 -7.1494e-06
-5.1251e-06 5.519e-07 0.00027178 7.7747e-06 -0.00018048 -0.0029355 0.00037459 8.6413e-08 -6.0666e-05 0.55934 0.00018176 -1.3505e-05 2.011e-05 0.00014021 -1.2341e-05 -7.9745e-06 -1.1279e-05 -8.712e-06 -0.00099726 0.00067083 -0.00018607 9.615e-05 -1.1513e-06 6.5965e-07 1.7094e-05 0.00039679 -2.0753e-07 -0.00028908 2.8604e-05 -1.4788e-05 0.0018734 -5.5683e-05 0.00014476 -1.8363e-05 -3.7072e-06 -0.0032351 -0.00044657 0.00023149 0.004703 6.2495e-06
4.4806e-06 5.3798e-05 -8.2763e-07 4.1296e-07 5.0012e-06 -0.0001065 0.00036428 -0.00029405 -6.6612e-05 0.00042181 2.2535e-05 1.8494e-06 4.3963e-07 -4.9099e-05 -1.622e-06 1.3557e-05 -1.5945e-06 -0.00013289 0.00014703 -1.8562e-05 -1.9949e-06 1.1103e-05 4.2791e-06 -4.9527e-07 0.0011406 -5.0946e-05 0.00045048 0.00055318 0.0019319 0.0003355 0.0018414 -0.00010883 6.3674e-05 0.00029081 0.0088791 -0.0029953 -0.0021657 -4.764e-05 0.0019806 0.0014535
-4.1839e-05 2.1589e-05 9.7314e-07 -5.7986e-06 1.8553e-05 0.19454 -3.5545e-05 -5.366e-06 -0.00010865 0.061708 -1.757e-05 -2.3635e-05 -0.00016666 -0.00045647 2.2262e-05 -6.2212e-05 0.0037224 -4.5906e-05 -0.1432 0.077997 -0.00011713 -0.00045942 -0.00017531 -0.00023007 -6.7517e-06 0.00054561 1.0032e-05 0.0030092 0.00065605 -1.3836e-05 0.0048614 2.2251e-05 -0.19205 -7.9764e-05 2.6308e-06 0.0001408 -0.00562 -0.0029261 0.20199 8.1786e-05
-3.1278e-07 -4.0969e-06 -3.3225e-07 -5.7326e-07 5.0579e-06 -5.3627e-06 0.14845 -0.00073381 -0.0001169 -0.00020538 0.00012373 -1.1202e-05 4.7684e-06 -2.6575e-05 2.5829e-06 3.4469e-06 -1.2943e-05 -2.5257e-05 -9.3134e-05 6.9123e-05 -7.8962e-06 5.6233e-07 1.7519e-05 4.191e-06 0.00076263 -3.1785e-05 2.6329e-06 8.8928e-06 3.8849e-06 -1.8691e-05 0.0019682 -0.00017199 1.1376e-06 6.8869e-05 0.0078856 -0.0029168 -0.18014 7.1827e-06 -0.00059595 0.0014474
-3.2748e-05 5.8117e-05 -4.4212e-07 7.2918e-06 -0.0002413 -0.00011622 0.00056882 -0.000196 -6.741e-05 0.00013532 0.0010274 2.8592e-05 -0.0026949 -4.3416e-06 -0.00013679 -8.9299e-05 0.0075682 6.5082e-06 -0.00066619 6.4258e-05 1.334e-05 -9.069e-05 0.00051897 -6.9004e-05 0.00028489 0.010041 -0.0017326 5.1083e-05 0.0030056 0.0021141 0.00091431 0.001216 -0.00010759 0.00076606 -4.6622e-06 -0.0016942 -0.0021762 -0.00044339 -0.00087375 2.6241e-06
-6.8636e-05 1.3184e-05 6.0914e-06 -1.7719e-05 -7.6019e-05 0.1337 0.18473 -6.5393e-06 7.5824e-05 0.4888 -0.00029547 -4.3181e-05 4.1121e-06 -0.00035768 -5.2713e-05 -3.412e-05 9.6611e-06 -1.0292e-05 -0.097499 0.053989 -0.00012215 -3.9116e-05 0.00018981 4.0253e-05 0.15421 -0.00040417 3.0716e-05 0.15978 7.4628e-05 8.355e-05 -0.00095194 -0.00015317 -0.13244 1.8364e-05 -6.1035e-05 -7.9247e-05 0.00015367 -0.00033313 0.14979 7.447e-06
-0.23643 7.0155e-07 8.4043e-07 2.2836e-05 1.8094e-05 0.15375 0.00025072 -4.3188e-06 2.0464e-05 0.046128 0.25363 0.48893 2.2103e-05 0.20468 0.32497 9.7145e-06 0.00011904 -1.2504e-05 -0.11725 0.064197 -0.00016856 0.36331 1.8918e-06 1.592e-06 -0.0068492 -9.8537e-05 8.1303e-06 0.00025583 -2.0164e-06 -3.7969e-07 2.8577e-05 0.00027879 -0.15547 0.00045024 4.6828e-06 1.9913e-05 8.0752e-06 0.2574 0.14933 9.3857e-06
1.1571e-05 3.3308e-05 5.6215e-06 5.3469e-07 -1.7348e-05 3.6832e-05 0.0010311 1.6514e-05 0.0012442 0.00075888 -1.4187e-06 1.1758e-05 -2.1272e-08 0.00010561 -2.1995e-05 0.00030002 -6.205e-06 5.4541e-05 -0.00025356 0.0001831 0.00071462 6.5954e-06 0.00018071 0.00035693 0.0017289 -5.1393e-05 -0.00010996 0.098998 0.24047 4.8479e-06 0.012198 -0.00017981 0.000161 -0.0071457 -5.9528e-06 9.3197e-05 -0.12991 0.00056422 -0.0017042 4.7866e-05
0.00017898 1.7098e-07 -1.7145e-07 -5.6858e-06 8.9828e-05 -0.00029506 -4.3312e-06 1.4405e-06 0.00029524 0.00055154 4.1303e-06 -3.0357e-05 5.0568e-06 -1.2774e-05 -7.2727e-06 0.00050905 -1.2942e-07 -2.7397e-05 -0.00081251 0.00088119 -5.302e-06 -7.1644e-05 -3.7086e-05 6.6507e-05 0.00012543 -1.6005e-05 -5.239e-08 -3.1267e-05 -1.4099e-06 0.00013362 -5.229e-06 -3.5387e-05 -0.00013332 -1.4937e-06 5.2516e-06 -0.00010868 2.2134e-05 -0.00017519 0.002623 7.9752e-06
4.5497e-06 0.00011744 0.62338 -3.0162e-06 6.243e-06 2.0522e-05 -9.1765e-06 -8.0042e-05 0.00011302 -4.5491e-05 0.00089912 -1.1425e-05 -6.9763e-07 -8.045e-06 -0.00014046 -2.2321e-05 9.5695e-06 -0.0012408 -1.1158e-05 5.712e-06 -1.9141e-05 -9.7913e-05 0.00052301 1.4996e-05 -5.3119e-05 -2.9478e-05 -6.6977e-06 0.00033301 -2.2176e-05 0.027503 -2.7796e-05 -2.3407e-06 -0.0007309 0.0002326 -4.4188e-07 4.5044e-05 -0.0006368 -0.00063079 -0.00016636 9.5629e-06
-7.6006e-06 4.5424e-06 7.0935e-06 4.9292e-05 -0.28006 0.00015188 6.0918e-06 -6.2675e-06 5.2246e-05 -0.00058158 -3.852e-06 -6.402e-06 -1.8104e-05 3.8478e-05 -1.4067e-05 0.0033752 1.2326e-05 2.8414e-05 -0.0001149 1.929e-05 -7.7882e-05 -6.4467e-06 0.00061335 0.00030411 0.00055585 0.0025313 3.4496e-05 0.2253 8.6237e-05 1.3873e-05 -7.0339e-07 -5.1905e-06 -0.0019787 -0.57922 4.7569e-06 -9.3814e-05 8.3843e-05 -0.0002342 -0.0016395 -6.4284e-06
-1.2086e-05 5.8783e-05 5.6305e-06 9.261e-06 -2.4539e-06 0.00011094 0.22774 -6.2456e-05 0.36942 -0.00035169 -8.0441e-05 5.5542e-06 -1.0749e-06 0.00051489 4.1475e-05 0.000617 -3.1417e-05 9.6107e-05 -0.00048605 0.00034106 4.0263e-06 9.0448e-05 -4.4796e-05 0.00086791 0.19035 -0.0004527 -9.9367e-05 0.20562 0.00010936 0.00034962 0.41608 -0.00047025 -8.8835e-05 0.0018335 -0.0001637 0.00051729 -0.0021859 0.0013679 -0.003047 -1.4464e-05
-8.7254e-06 -1.3572e-05 -5.473e-07 -2.9166e-06 -4.331e-06 -3.1523e-05 0.42482 -0.00012867 0.34493 5.6738e-05 -5.9011e-05 -7.4116e-05 -9.3842e-06 0.0001771 -6.958e-05 -4.2179e-05 1.2663e-05 -6.1323e-05 -2.1987e-05 2.9682e-05 1.0949e-05 0.00097486 1.955e-06 -2.836e-05 0.17474 -2.6616e-05 -0.0019356 -0.0002335 0.00042731 -1.1966e-05 -0.0027221 0.47453 -0.1504 0.00026601 -0.00013947 -6.9365e-05 -0.0020363 -0.00023142 0.00017429 1.4507e-07
7.8977e-06 -2.6715e-06 -6.0679e-07 2.0402e-06 9.1154e-07 -0.00010422 4.5934e-05 -0.50765 1.4513e-05 0.00035877 2.8451e-06 7.8114e-07 -1.9524e-06 1.1759e-05 5.5836e-07 8.4966e-05 -3.1274e-06 6.1271e-07 -1.0757e-05 5.1636e-05 3.8576e-06 3.507e-06 -8.5864e-06 3.7881e-06 3.085e-05 -2.2147e-05 1.7897e-05 2.9694e-05 3.9264e-06 -4.642e-05 9.5377e-06 -6.309e-06 3.7722e-05 1.1148e-05 8.8846e-06 -3.5733e-05 -0.0038169 1.9036e-05 0.0013195 0.70708
4.157e-05 0.00090762 -4.2182e-06 0.43608 -0.0019683 -0.00011279 0.00060434 1.1979e-05 -6.4895e-05 0.00062394 -9.292e-05 -1.2409e-05 -1.1144e-05 0.00016383 5.7969e-05 0.00039775 -1.5451e-05 0.00034181 0.00028316 -0.00014033 -1.0722e-05 6.8348e-05 0.41966 0.0015243 0.26691 0.011297 -0.00024595 0.00082338 0.00019358 -7.6232e-05 -0.00044192 -7.7589e-05 -0.22736 -0.0036207 -2.4045e-05 0.00010449 -0.00028627 0.00023681 0.0037559 -1.555e-05
-9.096e-06 2.6417e-05 8.9377e-06 3.6126e-06 -4.5413e-05 0.00012903 2.643e-05 -7.6007e-06 1.5881e-05 3.2833e-05 -1.367e-05 -1.8694e-06 1.852e-05 0.16459 -2.7072e-05 -2.4824e-05 8.5165e-06 2.3184e-06 0.00016274 -8.3188e-05 0.68036 -1.0795e-05 9.5394e-06 2.3199e-05 -0.00038288 -3.9613e-05 1.2922e-05 0.15637 4.3104e-06 1.7185e-05 0.00011348 1.9512e-07 -0.12591 0.00028394 1.5711e-06 -0.0009811 -3.3126e-05 -0.00064961 0.00018242 -5.4962e-06
1.0674e-05 0.0001929 0.00015128 3.4439e-06 -3.3864e-05 2.8762e-06 -3.1248e-05 -5.4692e-05 3.1e-05 0.00040215 0.00046875 1.8076e-06 -3.873e-06 0.00019008 -0.00012698 -7.0585e-05 3.2383e-06 -0.0010082 0.00010519 -4.3881e-05 9.9702e-07 -4.338e-05 0.00039275 3.7035e-05 0.0001214 -0.0001009 1.0387e-05 0.18471 1.735e-05 0.042385 7.3778e-05 -1.2991e-06 -5.0122e-05 0.00058137 6.8801e-06 -0.00014737 -0.00041177 0.00062885 0.0013856 -7.0346e-06
-0.29894 -1.0602e-05 -1.2145e-06 -1.1215e-05 -2.0807e-05 0.39049 2.7906e-05 9.8255e-06 -0.00047858 0.11976 8.1522e-06 1.327e-06 -0.00017183 -2.1519e-05 2.5762e-05 -0.00010962 -4.421e-05 2.351e-05 -0.29284 0.15951 1.4089e-05 1.5932e-06 -6.5106e-05 -5.4378e-05 -6.0874e-05 0.0014641 5.9319e-06 0.00019634 -1.3528e-05 -5.8017e-05 0.44266 0.00011701 -0.0013151 -4.9401e-05 -7.2178e-05 -0.0025975 -0.0015797 -0.0010964 0.38482 3.3085e-05
4.3381e-05 -1.2187e-05 -1.2732e-06 -1.2703e-05 -0.25665 0.16068 8.0669e-06 2.273e-05 1.6314e-05 0.05537 0.00042899 -6.0174e-05 1.6231e-06 0.21012 -0.0011866 -3.3337e-05 4.256e-05 -0.00013056 -0.11927 0.065063 4.3614e-06 0.0011378 0.00038757 1.7389e-05 0.00079892 -0.00017048 1.9635e-05 0.00035778 2.0488e-05 0.0023782 -0.00066825 8.3288e-05 -0.0025945 0.0005431 1.5336e-05 -0.00014338 -4.2581e-05 0.26087 0.18323 1.8565e-06
-4.4923e-06 0.00034319 2.3505e-06 0.00033278 -5.6819e-05 0.00014389 3.0121e-05 -0.00011535 0.00051439 8.7013e-06 -4.6558e-06 -2.9652e-07 5.8145e-07 -3.7515e-05 -5.7711e-06 0.00036933 2.0764e-05 -0.0001033 0.00010154 -3.9921e-05 -0.00015005 -6.6986e-05 0.00053795 0.0001089 0.00035614 -9.2123e-07 -0.00032894 0.16362 1.0322e-05 0.0012881 0.0014094 -1.1279e-05 -0.00094045 -3.8727e-05 -1.7966e-07 4.4862e-05 -0.0015999 -4.598e-06 0.00028771 7.123e-06
-1.2086e-05 5.8783e-05 5.6305e-06 9.261e-06 -2.4539e-06 0.00011094 0.22774 -6.2456e-05 0.36942 -0.00035169 -8.0441e-05 5.5542e-06 -1.0749e-06 0.00051489 4.1475e-05 0.000617 -3.1417e-05 9.6107e-05 -0.00048605 0.00034106 4.0263e-06 9.0448e-05 -4.4796e-05 0.00086791 0.19035 -0.0004527 -9.9367e-05 0.20562 0.00010936 0.00034962 0.41608 -0.00047025 -8.8835e-05 0.0018335 -0.0001637 0.00051729 -0.0021859 0.0013679 -0.003047 -1.4464e-05
-1.7036e-05 1.2727e-05 1.4216e-06 8.6455e-06 -4.3698e-05 0.00025014 0.00026297 -8.2834e-05 0.0034903 1.5465e-05 5.002e-05 1.027e-06 9.9242e-06 6.045e-07 7.4514e-06 0.00099099 -2.1195e-06 7.1596e-06 0.00026828 -6.346e-05 -5.8179e-05 3.2129e-05 -2.3987e-06 0.0011514 0.0002194 -7.2018e-05 0.00059177 0.083648 0.22108 4.4616e-05 0.025051 -4.4199e-05 9.5076e-05 -1.4819e-05 1.2036e-05 -1.322e-06 -0.0017189 -1.5394e-05 2.85e-05 0.00090416
-3.5248e-05 3.2531e-05 -1.4641e-06 0.00020301 -4.173e-05 0.080964 0.00011322 -0.00020808 0.0017504 0.026104 -1.2233e-05 -1.0591e-06 -7.9622e-05 -0.00010214 -5.9815e-05 0.028673 -2.2836e-05 -5.6734e-05 -0.060406 0.033091 -6.3522e-05 -6.5702e-05 0.00018908 0.13375 0.0003743 0.00069624 -0.0001125 0.00059424 1.1e-05 0.0002018 0.010427 -2.2178e-05 -0.00019357 -7.1767e-05 5.3035e-06 -0.0010491 -0.2866 -0.00014855 0.085366 0.0013087
-5.5749e-20 -4.1526e-21 -4.5617e-19 -3.5288e-20 1.976e-20 7.961e-18 2.3636e-21 -6.1021e-20 4.6828e-21 -1.7465e-18 -1.6787e-20 -1.2931e-20 5.1225e-20 1.0163e-19 -2.4571e-20 -1.9467e-19 -3.1048e-21 1.4254e-22 7.6449e-18 -5.8648e-18 1.0926e-20 -7.4427e-20 -1.5163e-19 4.2751e-20 -1.9074e-19 2.5335e-17 6.6597e-21 8.7487e-19 4.0141e-20 2.7684e-19 -2.9701e-19 5.4981e-20 -1.5973e-19 -3.2421e-20 -4.6832e-22 -2.6062e-19 2.225e-19 2.6857e-19 -6.4305e-18 -8.9296e-18
-0.44801 -3.6977e-06 3.5512e-08 1.9318e-07 -3.9923e-05 0.29194 -6.6737e-06 -4.8628e-06 3.29e-06 0.087909 7.028e-06 1.8918e-06 2.9542e-05 0.37929 -5.9145e-05 1.1572e-05 -8.4477e-06 7.1975e-06 -0.22079 0.12029 2.538e-05 0.00029219 1.7462e-05 8.7676e-07 0.00026059 -0.00015512 -8.4738e-06 0.00031917 -5.1756e-06 -2.7859e-05 4.8453e-05 5.8812e-05 -0.28814 1.6785e-05 1.2736e-05 7.6772e-05 -1.1074e-05 -0.00086781 0.27978 1.7371e-05
-0.44801 -3.6977e-06 3.5512e-08 1.9318e-07 -3.9923e-05 0.29194 -6.6737e-06 -4.8628e-06 3.29e-06 0.087909 7.028e-06 1.8918e-06 2.9542e-05 0.37929 -5.9145e-05 1.1572e-05 -8.4477e-06 7.1975e-06 -0.22079 0.12029 2.538e-05 0.00029219 1.7462e-05 8.7676e-07 0.00026059 -0.00015512 -8.4738e-06 0.00031917 -5.1756e-06 -2.7859e-05 4.8453e-05 5.8812e-05 -0.28814 1.6785e-05 1.2736e-05 7.6772e-05 -1.1074e-05 -0.00086781 0.27978 1.7371e-05
4.3381e-05 -1.2187e-05 -1.2732e-06 -1.2703e-05 -0.25665 0.16068 8.0669e-06 2.273e-05 1.6314e-05 0.05537 0.00042899 -6.0174e-05 1.6231e-06 0.21012 -0.0011866 -3.3337e-05 4.256e-05 -0.00013056 -0.11927 0.065063 4.3614e-06 0.0011378 0.00038757 1.7389e-05 0.00079892 -0.00017048 1.9635e-05 0.00035778 2.0488e-05 0.0023782 -0.00066825 8.3288e-05 -0.0025945 0.0005431 1.5336e-05 -0.00014338 -4.2581e-05 0.26087 0.18323 1.8565e-06
-1.5978e-06 0.00024919 8.4418e-05 -1.4445e-06 -7.8001e-06 0.00056202 -8.7722e-06 -0.23596 6.7343e-05 0.0014852 0.1949 -1.2165e-05 -9.3719e-05 -5.0569e-05 -0.00039442 -4.4514e-05 0.0022919 -0.0007302 0.0012342 -0.00073546 -1.4943e-05 -0.00038778 2.3957e-05 1.122e-06 6.2276e-05 0.00061515 -0.0001725 0.00028285 -1.3771e-06 0.36581 2.9524e-05 2.2765e-05 -0.0010058 0.00015285 -2.953e-06 -4.8152e-05 -0.0039781 -0.0026486 0.0071202 0.0026808
-4.6188e-05 6.0076e-06 0.00023778 1.0907e-05 -0.22917 -9.7556e-05 0.00011168 1.1518e-05 -8.8816e-05 0.0015861 0.24093 -3.748e-06 -0.0028766 -3.0189e-05 -0.0002857 -0.00012176 0.0073389 2.9851e-05 -0.00039984 -1.8545e-05 -4.6167e-05 -0.00020214 0.00084254 -3.4567e-05 0.00016176 0.010576 1.4341e-05 3.8049e-05 3.476e-05 -3.8114e-05 0.003026 1.5593e-05 -0.14424 0.00034684 -0.00025443 -0.35612 -0.0017101 -0.0033275 0.003092 4.5882e-06
-1.2011e-06 -1.2368e-05 -4.475e-05 -2.228e-06 1.2177e-05 3.0419e-05 -2.8495e-05 -0.00045691 0.00020839 6.8133e-06 -0.00028269 1.2466e-06 3.6116e-06 8.858e-07 2.0622e-05 0.0003861 2.0215e-05 -0.34343 4.3732e-05 -2.6657e-05 -2.5759e-06 -8.9301e-06 -3.4815e-05 4.6215e-05 4.1279e-06 2.1779e-05 -1.3314e-05 7.5777e-06 -7.4918e-06 0.46984 -6.4454e-05 -5.8783e-06 -8.7159e-06 -4.7504e-05 2.2568e-06 -1.7529e-05 3.3152e-05 3.4048e-06 3.3448e-05 -3.3818e-06
-6.2682e-05 -4.805e-06 -4.2194e-07 2.6709e-06 -6.8242e-05 0.12788 8.3546e-06 -3.2599e-06 -0.00030586 0.054099 0.00053652 -5.744e-06 -0.21286 -8.021e-05 -6.7871e-05 -7.3706e-05 0.0072068 -1.6311e-05 -0.57377 -0.66882 1.1042e-05 -0.00038441 0.00027099 -3.4698e-05 -8.6386e-05 0.27457 3.6683e-05 -6.1466e-05 0.000167 -4.1759e-05 0.2418 6.7161e-05 -0.00081288 0.00017457 -4e-05 -0.0022104 -0.004008 -0.00096129 0.17994 4.7188e-05
2.3757e-05 0.00052778 -9.7479e-07 -1.2709e-06 -7.3333e-06 0.0004214 1.7323e-05 -0.00040997 8.7448e-06 0.0019293 -1.536e-06 -2.0541e-05 -0.00014675 -5.5019e-05 1.3543e-05 -3.6346e-05 0.0030391 -7.3837e-05 0.0011761 -0.00069236 -3.1874e-05 -0.0005488 -0.00019089 1.8994e-05 -8.4415e-06 0.00081657 -0.00047865 -8.6133e-05 9.4642e-07 0.002906 8.6814e-05 1.5e-05 -0.0015927 8.1586e-06 4.1965e-07 3.438e-05 -0.0081932 -0.000693 0.00964 8.0313e-05
0 0 0 -0 0 0 0 0 0 0 0 0 0 0 -0 0 0 0 0 0 0 0 0 -0 -0 0 0 0 -0 -0 0 0 0 0 -0 0 0 0 -0 0
-3.1814e-06 0.24479 -9.202e-07 0.00041475 -6.7178e-05 0.00014579 0.00027022 -1.1305e-05 -2.8983e-05 4.0482e-05 8.6278e-05 5.2973e-06 1.1481e-05 0.0004005 -1.1487e-05 0.0074771 3.8958e-06 -0.3608 0.00015521 -6.9558e-05 -5.9606e-05 1.7492e-05 0.00074837 0.00075735 0.17541 -0.00023755 -6.857e-06 0.18469 2.3098e-05 -3.1044e-05 0.0010417 -0.00015071 -0.00082392 0.00011399 -1.5551e-05 -0.0012043 -0.00023924 0.0012976 0.00034591 -3.8447e-06
4.9241e-05 -4.7246e-07 -3.1924e-07 -3.6155e-06 6.6998e-05 0.10662 5.7524e-05 -0.00045054 -3.4104e-06 0.034564 1.1429e-05 -1.0652e-05 -9.0759e-05 -8.8865e-05 8.491e-06 -7.6719e-06 0.0020615 -0.2514 -0.079941 0.043743 3.4369e-06 -0.00035163 -8.8458e-05 -8.8062e-06 -5.3955e-05 0.00037756 3.5069e-07 0.00085116 -8.0718e-06 -4.9482e-05 6.7095e-05 9.9264e-06 -0.00062593 7.6316e-05 3.4236e-06 8.8996e-05 -0.0031364 -0.00061623 0.11372 0.0001659
2.0677e-06 -6.27e-06 3.1378e-06 -3.7846e-06 3.5396e-05 -1.3643e-06 0.00079447 6.9639e-06 -1.1744e-05 -3.9939e-05 -1.7874e-05 1.3825e-05 -2.8856e-06 1.534e-05 1.0364e-05 -3.1801e-05 3.7312e-06 8.4834e-05 -0.00039762 0.0002386 -3.5195e-05 2.3581e-05 2.3776e-05 3.2475e-05 0.0032084 -0.00019468 1.7969e-06 0.0090743 5.014e-05 8.0422e-06 0.0049736 -6.566e-05 0.00037509 0.0017712 -5.9224e-06 0.00025181 1.4816e-05 -0.00014939 -0.0025756 1.7181e-06
1.6339e-05 0.38591 -3.5852e-06 6.4197e-07 -0.0010356 -5.8693e-05 0.00062296 -9.0204e-05 0.00035571 7.38e-05 -2.7134e-05 1.7454e-05 6.2653e-06 -0.00025449 5.8597e-06 6.9024e-05 -1.5224e-05 0.00017503 6.5925e-05 5.1461e-05 -1.5319e-05 -7.892e-05 3.2684e-07 0.00077946 0.0022601 0.0056854 -0.7071 0.00048913 0.38136 0.0010013 0.00060788 0.00093903 -0.11781 -0.0020418 -4.9798e-06 0.00011761 -0.4022 -0.00089852 0.0013106 0.00020804
-8.7121e-06 2.4693e-05 3.541e-06 -2.7018e-06 -3.4244e-05 0.0002008 0.00030667 2.032e-05 0.32389 0.00067933 1.4804e-05 -4.4462e-07 -2.2544e-06 -0.00010039 9.4727e-06 0.00031839 6.6584e-06 -2.6246e-05 0.00014223 -8.1552e-05 -0.00012233 -1.1218e-05 -1.3298e-05 2.9027e-05 0.0004289 -3.6535e-05 -7.081e-06 0.17342 3.5095e-05 9.0697e-05 0.0002851 -0.00012135 -0.0011093 -0.00022926 2.6432e-05 -0.00011648 -0.0027136 -9.4298e-05 0.00020208 4.9133e-06
7.8977e-06 -2.6715e-06 -6.0679e-07 2.0402e-06 9.1154e-07 -0.00010422 4.5934e-05 -0.50765 1.4513e-05 0.00035877 2.8451e-06 7.8114e-07 -1.9524e-06 1.1759e-05 5.5836e-07 8.4966e-05 -3.1274e-06 6.1271e-07 -1.0757e-05 5.1636e-05 3.8576e-06 3.507e-06 -8.5864e-06 3.7881e-06 3.085e-05 -2.2147e-05 1.7897e-05 2.9694e-05 3.9264e-06 -4.642e-05 9.5377e-06 -6.309e-06 3.7722e-05 1.1148e-05 8.8846e-06 -3.5733e-05 -0.0038169 1.9036e-05 0.0013195 0.70708
-1.0628e-05 0.15905 4.3391e-07 0.00026083 -3.1102e-05 0.00010657 -0.00010152 -5.6365e-06 -1.1944e-05 -4.7481e-05 0.0030665 -7.9146e-06 -2.5143e-06 0.00043645 7.3513e-05 0.00022888 -5.6326e-06 -0.4667 7.0535e-05 -2.7917e-05 -6.2438e-05 -4.9267e-05 0.00081035 5.5067e-05 0.22753 -0.0001113 4.3347e-06 0.1203 2.1885e-05 -7.0588e-05 -3.6338e-05 -3.7256e-06 -0.0010455 0.00047804 -1.63e-05 3.7695e-05 -0.00013846 0.0012122 3.2862e-05 -4.4681e-06
1.053e-05 3.1041e-06 -4.6969e-06 -2.1205e-06 -9.5892e-06 8.5104e-06 1.7871e-05 9.726e-07 -2.2053e-06 -7.6701e-05 -4.8953e-05 4.7801e-08 -0.76666 1.5144e-06 1.2297e-05 3.0837e-05 -0.00020936 2.8567e-05 -4.5736e-06 6.4313e-06 -3.6468e-05 1.9108e-05 2.1874e-05 2.0557e-06 4.2409e-05 -0.00035963 -1.059e-07 -2.6921e-05 -9.5862e-06 -4.4116e-06 -0.00016593 -3.7784e-06 -3.2741e-05 -0.00035828 -0.00031573 -0.46011 3.8257e-05 4.9531e-05 -0.0002802 -4.2202e-06
-1.4555e-05 0.40145 -3.7959e-06 -6.7177e-07 -0.38959 -9.3005e-05 -7.6013e-06 5.9502e-06 -3.634e-06 -0.000271 -1.4137e-05 -9.2249e-06 -5.7735e-06 -0.00044579 -1.2971e-05 -1.1941e-06 7.9752e-07 1.637e-05 -0.00031516 0.00023632 -1.1653e-06 -1.3514e-05 2.8287e-05 -9.3788e-06 5.3679e-05 -1.4427e-06 -1.1654e-05 6.0259e-05 3.0694e-06 -8.2279e-05 -5.1263e-05 -8.1725e-06 -0.24495 6.6881e-05 5.6187e-07 -1.5168e-05 1.6498e-06 -0.0018036 -0.00079131 2.1281e-06
1.2437e-07 -4.4455e-06 -1.0298e-06 2.5818e-06 4.2833e-06 1.0112e-05 0.00047151 1.1658e-08 -0.00010211 -6.3122e-05 3.7085e-05 3.3018e-07 -5.7541e-06 -4.5655e-05 -5.9896e-06 -3.3294e-07 -1.8581e-06 -1.3273e-05 -1.7304e-05 6.7283e-06 -4.0255e-07 7.745e-06 8.7655e-06 -2.6867e-06 0.0014897 -1.709e-05 5.9699e-08 -2.9369e-06 -7.9457e-07 -8.605e-07 0.0026578 -0.0001891 -3.0012e-05 5.4599e-05 0.99988 -0.0051199 -2.5496e-05 -4.1846e-05 -0.00024453 4.0921e-06
-7.6006e-06 4.5424e-06 7.0935e-06 4.9292e-05 -0.28006 0.00015188 6.0918e-06 -6.2675e-06 5.2246e-05 -0.00058158 -3.852e-06 -6.402e-06 -1.8104e-05 3.8478e-05 -1.4067e-05 0.0033752 1.2326e-05 2.8414e-05 -0.0001149 1.929e-05 -7.7882e-05 -6.4467e-06 0.00061335 0.00030411 0.00055585 0.0025313 3.4496e-05 0.2253 8.6237e-05 1.3873e-05 -7.0339e-07 -5.1905e-06 -0.0019787 -0.57922 4.7569e-06 -9.3814e-05 8.3843e-05 -0.0002342 -0.0016395 -6.4284e-06
1.1925e-06 -4.1368e-06 1.925e-06 -1.6114e-06 8.6169e-07 0.00016349 0.00053393 4.1929e-06 -7.7607e-06 0.00014324 -2.4479e-05 3.2474e-06 -1.463e-06 -3.9149e-07 9.3369e-06 0.0010696 1.7292e-06 5.1507e-05 -3.049e-06 4.6038e-05 -3.3594e-05 9.4019e-06 -0.0001242 0.00015332 0.0018911 -8.6854e-05 6.4797e-06 0.0066351 2.123e-05 4.9879e-06 0.003058 -5.0517e-05 -0.00070856 -0.0048404 -3.6613e-06 0.0001492 2.1367e-05 -0.00015179 -0.00091178 6.9399e-07
-1.2325e-05 2.0887e-06 -4.7113e-06 2.6783e-07 -6.167e-05 0.00032932 1.0177e-05 -3.8428e-07 0.00014828 -4.7822e-06 -9.182e-05 -4.6088e-06 0.00014655 1.1469e-05 1.7714e-05 0.00027043 -4.9609e-05 1.499e-05 0.00033821 -0.00020649 0.0032112 -5.076e-06 0.00010082 3.8556e-05 -7.5257e-06 -0.00017084 -1.1973e-06 0.0010525 8.6885e-05 0.00011965 -0.00069407 2.0312e-06 -0.0005557 -0.011549 -0.00035685 -0.54408 1.8935e-05 9.6202e-05 5.7645e-05 1.0477e-05
-4.745e-06 -9.7299e-06 -2.5336e-07 -4.1333e-06 4.7619e-06 -4.9758e-05 -6.6844e-06 -6.6798e-06 -9.5274e-06 -0.00041637 0.35939 -1.3477e-05 1.5298e-05 0.28282 -0.0013322 5.3421e-06 0.00014885 4.6584e-06 -0.00013589 0.00010818 2.5092e-05 0.0016583 1.5114e-05 -6.0431e-06 0.25129 -6.6701e-05 7.4928e-06 -0.00015141 1.1755e-05 -4.2854e-06 -2.676e-05 3.2704e-05 -0.21812 0.00085276 -1.9819e-05 -5.9694e-05 -1.3835e-05 0.34292 -0.00041837 -5.8084e-06
4.8527e-06 -1.1333e-05 -1.0994e-07 -8.719e-06 6.2165e-06 1.0359e-05 -6.4131e-06 -7.1876e-06 -3.5657e-06 -0.00052862 0.00072882 -1.0663e-05 0.00015293 0.31348 -0.0012355 2.4542e-05 0.75243 1.9588e-05 -9.7365e-05 9.7688e-05 2.7804e-05 0.0019271 -6.0128e-05 -2.2127e-05 0.27848 -0.00020972 8.0873e-06 -9.8788e-05 2.1607e-05 -2.4351e-05 -4.3482e-05 3.4691e-06 -0.24153 0.00096397 -1.66e-05 0.00016734 6.626e-05 0.38396 -0.00063008 -1.261e-05
3.7414e-06 9.8101e-05 0.51842 -5.9835e-07 4.6677e-06 -1.871e-05 -1.8763e-05 -5.011e-05 5.9984e-05 -0.00019817 0.00074954 -4.8431e-07 1.9607e-07 2.9399e-05 -0.00012755 4.7672e-09 -1.419e-05 -0.0010304 -8.092e-05 5.4876e-05 3.532e-06 -9.6013e-06 -1.9198e-06 1.0388e-05 -8.7796e-05 -4.0648e-07 -9.9379e-06 0.0002693 -2.7685e-05 0.02276 -0.00012499 -7.0341e-06 3.5892e-05 0.0001756 -2.1003e-06 4.962e-05 -0.25887 -3.0796e-05 -0.00049554 0.00012966
4.8021e-06 9.5103e-05 -8.5254e-07 -1.7115e-06 -3.2535e-05 4.4789e-05 0.10203 -0.1481 0.0002741 0.00020459 9.8281e-05 1.3226e-06 3.2929e-06 -1.6128e-05 -1.4691e-05 5.091e-05 3.465e-06 -0.00015582 0.0001151 -3.9698e-05 2.5707e-06 -8.2985e-05 -6.0071e-06 1.8064e-06 7.7941e-05 -7.1791e-06 -0.0010064 0.0005262 0.00018878 0.0016299 0.00067534 0.00052763 -4.5195e-05 7.813e-05 -3.3738e-05 -4.409e-06 -0.0032461 -3.2755e-05 0.0010285 0.0018522
2.1374e-06 -5.4514e-07 1.1421e-06 -9.5127e-06 -5.123e-06 0.0020296 0.00032486 -1.6853e-06 -3.0772e-05 0.0093753 -0.00019532 -1.1857e-05 3.5877e-06 -0.00022952 -6.3392e-05 -3.8206e-06 7.3554e-06 -2.4797e-05 0.00097032 -2.636e-05 -3.2921e-05 -5.0949e-05 -1.7526e-06 1.9606e-05 0.0010506 -0.00022304 -1.7119e-06 -0.00010077 2.8876e-06 1.0003e-05 -0.00014941 1.4686e-05 -0.0004528 1.83e-05 -5.1815e-08 3.2211e-05 5.7109e-05 -0.00030076 0.002623 2.4639e-06
-6.2722e-05 0.000709 5.3581e-06 5.7059e-06 -0.0014817 0.16763 0.00043549 1.3559e-05 -3.872e-05 0.051163 -3.0222e-05 2.4366e-06 2.1518e-05 -0.00011029 1.4806e-05 0.00010376 -5.1405e-06 0.00027488 -0.1265 0.069048 2.9291e-05 6.4171e-05 2.9798e-05 0.001128 0.0028515 0.0078874 -0.00051016 0.20279 0.53504 -7.3651e-05 -0.00028312 -6.8081e-05 -1.6208e-05 -0.0033345 1.65e-06 0.00017254 -0.28075 -0.00037719 0.16388 0.00013162
5.7491e-06 0.0004097 2.4863e-06 0.19344 -0.15996 6.6323e-05 0.00026482 1.7407e-06 -4.7843e-05 -0.00040854 -5.9667e-05 -7.7991e-07 2.1338e-05 0.00014381 1.9616e-05 0.397 -7.1943e-05 9.7094e-05 -2.3586e-05 -1.8468e-06 -0.00012252 1.4041e-05 0.18701 0.39318 0.11867 0.26098 -7.3987e-05 0.12864 0.00011152 -1.9132e-05 -0.00034773 -3.9932e-05 -0.1017 -0.33089 -5.8465e-06 0.00025517 -0.00019772 9.849e-05 -0.00024906 -1.0044e-05
1.2457e-05 6.0727e-05 7.1165e-06 -5.0344e-06 -7.6707e-06 -0.00088406 0.14196 -0.00066546 -5.1059e-05 0.34217 1.7652e-05 -2.9622e-06 -1.8314e-05 0.00041824 -3.0777e-06 -8.0459e-05 3.7909e-07 4.406e-05 5.2415e-05 -9.6112e-05 0.2724 -7.8534e-07 0.00028255 2.978e-05 0.11893 0.00012444 0.00016955 0.12982 0.0019375 0.00021255 0.0042728 -0.00022317 9.4564e-05 0.0014061 -5.7538e-05 5.699e-05 -0.0008018 0.0015139 0.0037239 3.7893e-05
-6.0846e-07 1.0495e-06 -1.0693e-06 2.6695e-07 4.692e-07 1.0561e-05 -4.7615e-05 -6.0409e-07 5.2199e-06 -5.0953e-06 -1.7945e-05 3.4999e-08 5.3166e-08 5.5743e-06 -4.9513e-05 3.8874e-06 -1.5585e-06 -0.3286 3.3436e-06 -2.16e-06 -4.3302e-07 -1.793e-05 4.6538e-07 -2.6643e-06 -0.00011908 7.3976e-06 -1.5735e-06 -3.8582e-05 1.3758e-06 -0.00018357 -1.7054e-05 1.7842e-06 -1.2847e-05 -2.695e-05 -5.794e-07 4.9362e-05 -5.873e-08 4.8513e-05 -5.893e-05 3.6625e-06
1.5129e-07 1.8941e-07 -7.7914e-07 1.0163e-08 1.5594e-06 -1.058e-05 4.5862e-05 -0.00071857 4.6727e-07 8.6157e-05 -4.0055e-06 -4.3509e-07 1.0721e-06 3.9935e-07 2.0655e-06 1.3408e-07 6.0962e-07 -8.7892e-08 7.473e-05 -4.7448e-05 3.9993e-07 -9.2484e-06 -1.6876e-08 1.1102e-09 -9.3744e-08 -1.1449e-06 -1.3173e-06 -1.5826e-05 -5.807e-07 0.0012443 -1.0848e-05 -5.3513e-06 -6.3663e-06 -2.6603e-06 -9.8405e-08 3.327e-06 -4.9277e-05 -1.7069e-05 0.00037638 -3.3149e-06
-0.24681 -1.0168e-05 3.1668e-07 -4.1758e-06 1.6148e-05 0.16004 0.00026142 -8.0988e-06 -4.1575e-06 0.047876 0.26515 0.51075 2.2984e-05 0.20809 0.33737 1.1587e-05 0.00011867 3.9882e-06 -0.12321 0.06754 2.3272e-05 0.37736 2.5866e-05 -6.2382e-06 0.18531 -0.0001363 9.1121e-06 5.5431e-05 1.2365e-05 -5.1253e-06 2.3473e-06 -0.00019718 -0.16097 0.00073381 -1.2177e-05 8.3491e-06 -7.246e-06 0.25433 0.1543 7.2081e-06
-4.4923e-06 0.00034319 2.3505e-06 0.00033278 -5.6819e-05 0.00014389 3.0121e-05 -0.00011535 0.00051439 8.7013e-06 -4.6558e-06 -2.9652e-07 5.8145e-07 -3.7515e-05 -5.7711e-06 0.00036933 2.0764e-05 -0.0001033 0.00010154 -3.9921e-05 -0.00015005 -6.6986e-05 0.00053795 0.0001089 0.00035614 -9.2123e-07 -0.00032894 0.16362 1.0322e-05 0.0012881 0.0014094 -1.1279e-05 -0.00094045 -3.8727e-05 -1.7966e-07 4.4862e-05 -0.0015999 -4.598e-06 0.00028771 7.123e-06
-0.25468 -1.0486e-05 5.4954e-07 -4.3069e-06 -1.7652e-05 0.16595 -1.6725e-05 -7.308e-06 -3.2233e-05 0.049518 0.27349 0.00017295 2.2955e-05 0.2148 0.34813 1.0236e-05 0.00011727 5.5887e-06 -0.12557 0.068393 2.3347e-05 0.38956 1.6571e-05 -4.9204e-06 0.19122 -0.00013918 -5.5609e-06 5.5559e-05 -4.5801e-06 -9.3099e-06 4.588e-05 0.51217 -0.16606 0.00073747 -8.2415e-06 7.9208e-06 3.4375e-06 0.26262 0.15895 6.7335e-06
-4.9672e-06 -1.4859e-05 -4.9596e-05 0.00050353 -2.3769e-05 7.722e-05 -1.6245e-05 -2.9184e-05 -1.9004e-05 -1.8804e-05 -0.00012774 5.2468e-06 5.0556e-07 -6.4061e-05 3.5128e-05 0.00060909 -1.9005e-06 0.00023834 5.5523e-05 -2.6731e-05 -0.0001493 -1.0932e-05 0.00085508 0.0001333 0.00079734 8.3805e-05 -1.6012e-05 0.0008322 6.4581e-07 0.62599 -4.9523e-05 -1.2514e-06 -0.00087219 -0.00020399 -6.3513e-08 2.0027e-05 -0.000348 2.8344e-05 9.2692e-05 -1.1527e-05
1.328e-05 0.00049446 -2.063e-06 0.23495 -0.0011403 -1.909e-05 0.00031856 6.4163e-06 -9.461e-05 -9.5406e-05 -8.1162e-05 -2.0916e-06 3.5304e-05 0.00012679 3.6319e-05 0.48002 -9.5757e-05 9.6791e-05 5.3252e-05 -1.729e-05 -9.8522e-05 2.8867e-05 0.22678 0.47716 0.144 0.3151 -0.0001154 0.00086931 7.455e-05 -3.2622e-05 -0.00041884 -4.5377e-05 -0.12295 -0.0023521 -1.0404e-05 0.00037223 -0.00029047 0.00020256 0.0008222 -7.6081e-06
0.00013532 -1.8772e-05 -7.3261e-07 -2.2088e-05 -0.00046345 0.17307 0.00040451 -3.9055e-07 0.00016426 0.057146 -8.3635e-05 -2.3428e-05 1.188e-05 0.00010839 -0.00032767 7.1376e-06 -1.2278e-05 3.3996e-05 -0.13024 0.071299 -0.00017932 4.0842e-05 2.5715e-05 -3.2774e-05 0.20057 -0.00018463 7.5815e-06 0.00035384 1.6302e-05 7.3352e-05 -0.00039173 -7.4723e-05 -0.17324 0.00031344 -3.047e-06 -6.6403e-05 8.8364e-05 0.0033166 0.1837 -3.2258e-06
-0.20498 8.5756e-06 -9.1104e-07 0.25491 -0.00020119 0.13365 -1.5903e-05 4.8191e-06 -1.9048e-05 0.041209 0.00067312 -9.7816e-07 -0.0022306 -2.4703e-05 -8.633e-05 2.2407e-05 0.0065415 -9.5268e-05 -0.10055 0.05465 -0.00010118 -1.926e-06 0.24653 0.00037553 0.00042095 0.37674 1.6877e-05 0.000644 2.4327e-05 5.306e-05 0.00052152 1.6783e-05 -0.0010308 0.0010784 4.9314e-06 -0.0011724 -7.6431e-05 -0.00046142 0.13316 1.5031e-05
-0.20498 8.447e-06 -1.1177e-06 0.25489 -0.00019156 0.13366 -1.4761e-05 4.7958e-06 -1.9538e-05 0.041209 0.00066082 -7.0095e-06 -0.0022339 -4.7891e-05 -8.3308e-05 9.0962e-05 0.0065416 -9.6961e-05 -0.10055 0.054648 -0.00010487 6.0618e-06 0.24656 8.5078e-05 0.00066197 0.37653 1.5002e-05 0.00064512 2.2757e-05 5.3265e-05 0.00052488 1.6297e-05 -0.0018601 0.0011801 4.9096e-06 -0.0011751 -6.8235e-05 -0.00054671 0.13316 1.5204e-05
-4.745e-06 -9.7299e-06 -2.5336e-07 -4.1333e-06 4.7619e-06 -4.9758e-05 -6.6844e-06 -6.6798e-06 -9.5274e-06 -0.00041637 0.35939 -1.3477e-05 1.5298e-05 0.28282 -0.0013322 5.3421e-06 0.00014885 4.6584e-06 -0.00013589 0.00010818 2.5092e-05 0.0016583 1.5114e-05 -6.0431e-06 0.25129 -6.6701e-05 7.4928e-06 -0.00015141 1.1755e-05 -4.2854e-06 -2.676e-05 3.2704e-05 -0.21812 0.00085276 -1.9819e-05 -5.9694e-05 -1.3835e-05 0.34292 -0.00041837 -5.8084e-06
-0.25167 7.5665e-07 1.1148e-06 2.432e-05 -1.462e-05 0.16447 -1.5979e-05 -3.5604e-06 -5.7981e-06 0.049216 0.26986 0.00023808 2.2776e-05 0.21796 0.34592 8.6422e-06 0.0001216 -1.1861e-05 -0.12325 0.067051 -0.00018015 0.38689 -7.986e-06 3.1948e-06 -0.0073522 -0.00010343 -6.1204e-06 0.00027078 -1.9272e-05 -4.3731e-06 7.3338e-05 0.5062 -0.16546 0.0004597 9.2593e-06 2.0515e-05 1.9378e-05 0.27419 0.15868 9.296e-06
-8.6199e-05 -1.8102e-05 9.0606e-07 -5.4073e-05 1.2108e-06 0.21177 -3.6615e-05 -5.3498e-06 -2.7237e-05 0.063652 -4.5224e-05 5.6284e-06 1.4814e-05 0.00043452 8.2607e-05 9.3537e-06 1.3388e-05 4.1705e-05 -0.15937 0.08685 4.1063e-05 0.00010759 5.45e-06 1.7819e-06 0.24775 -0.00023241 1.2057e-05 -0.00048784 1.2232e-05 -9.3016e-06 1.0161e-05 1.7343e-05 -0.00043897 0.00056608 -1.5767e-05 -1.3455e-07 0.00016014 0.0016096 0.20236 1.0135e-05
-9.096e-06 2.6417e-05 8.9377e-06 3.6126e-06 -4.5413e-05 0.00012903 2.643e-05 -7.6007e-06 1.5881e-05 3.2833e-05 -1.367e-05 -1.8694e-06 1.852e-05 0.16459 -2.7072e-05 -2.4824e-05 8.5165e-06 2.3184e-06 0.00016274 -8.3188e-05 0.68036 -1.0795e-05 9.5394e-06 2.3199e-05 -0.00038288 -3.9613e-05 1.2922e-05 0.15637 4.3104e-06 1.7185e-05 0.00011348 1.9512e-07 -0.12591 0.00028394 1.5711e-06 -0.0009811 -3.3126e-05 -0.00064961 0.00018242 -5.4962e-06
-1.6337e-05 1.4617e-05 0.58536 -1.6338e-05 -0.00023605 0.0002251 -1.5292e-05 -0.35129 0.0016595 -0.00051974 -5.1668e-05 4.6481e-06 1.3222e-05 0.00035366 5.0512e-05 -3.1459e-05 -6.1261e-06 2.2296e-05 -0.0003748 0.00023766 -9.5011e-05 7.3455e-05 4.5268e-06 1.3469e-05 0.20285 -0.00013159 -5.9371e-06 0.21065 9.0702e-06 -0.00010397 -0.00049261 1.3531e-05 -0.0007459 5.194e-05 -2.1338e-05 -0.002323 -0.29958 0.0013103 -0.0043855 0.004058
-4.649e-05 6.2989e-06 -3.6548e-07 -5.66e-06 -0.27002 0.17104 6.4616e-06 -0.17131 -0.0002086 0.05226 -1.7948e-05 8.7063e-06 0.00015088 -0.00022095 -2.3776e-05 -6.3919e-05 0.26903 2.3025e-05 -0.12661 0.069053 -3.6217e-06 6.4632e-05 7.7138e-05 -3.1951e-05 3.535e-05 -0.00018112 2.9353e-05 0.00022418 1.6306e-05 -2.5093e-05 0.19746 3.0938e-05 -8.3126e-05 5.7308e-05 -2.6838e-05 9.4194e-05 0.00024395 -0.00044295 0.16724 0.00203
4.0557e-05 0.00013282 9.9713e-05 8.4213e-07 -0.0021643 -0.00011906 -5.3601e-05 -5.4012e-05 -1.3537e-05 0.0011583 0.00042916 -2.4437e-05 9.5577e-07 0.00041036 -2.1787e-05 7.5392e-05 -1.5241e-05 -0.33048 0.00063106 -0.00036299 -1.5957e-05 -7.9678e-05 9.5077e-07 2.8157e-05 0.0002203 -1.02e-05 2.1399e-07 0.0010276 -3.5242e-05 0.43476 0.00042138 1.8083e-05 0.0001556 0.00048561 7.0437e-06 7.3751e-05 -0.0011913 0.00046541 0.00531 5.1833e-05
-3.4572e-05 5.2179e-05 -9.7196e-08 -1.646e-06 3.1332e-05 0.14424 0.00072964 2.4525e-05 -2.8866e-06 0.044016 -1.2672e-05 -1.3503e-05 1.0883e-05 -8.8125e-05 4.1587e-06 8.9846e-06 3.4893e-06 2.1502e-05 -0.10804 0.058954 -2.9525e-07 -9.357e-05 6.278e-07 1.6154e-05 -1.1542e-05 -0.00032122 -1.0404e-05 8.9694e-05 4.3547e-06 -1.6098e-05 0.00029657 3.1816e-05 1.2046e-05 -1.7537e-05 7.1729e-05 3.8765e-07 -0.0028172 -0.00022784 0.14122 6.9298e-06
1.328e-05 0.00049446 -2.063e-06 0.23495 -0.0011403 -1.909e-05 0.00031856 6.4163e-06 -9.461e-05 -9.5406e-05 -8.1162e-05 -2.0916e-06 3.5304e-05 0.00012679 3.6319e-05 0.48002 -9.5757e-05 9.6791e-05 5.3252e-05 -1.729e-05 -9.8522e-05 2.8867e-05 0.22678 0.47716 0.144 0.3151 -0.0001154 0.00086931 7.455e-05 -3.2622e-05 -0.00041884 -4.5377e-05 -0.12295 -0.0023521 -1.0404e-05 0.00037223 -0.00029047 0.00020256 0.0008222 -7.6081e-06
-1.2325e-05 2.0887e-06 -4.7113e-06 2.6783e-07 -6.167e-05 0.00032932 1.0177e-05 -3.8428e-07 0.00014828 -4.7822e-06 -9.182e-05 -4.6088e-06 0.00014655 1.1469e-05 1.7714e-05 0.00027043 -4.9609e-05 1.499e-05 0.00033821 -0.00020649 0.0032112 -5.076e-06 0.00010082 3.8556e-05 -7.5257e-06 -0.00017084 -1.1973e-06 0.0010525 8.6885e-05 0.00011965 -0.00069407 2.0312e-06 -0.0005557 -0.011549 -0.00035685 -0.54408 1.8935e-05 9.6202e-05 5.7645e-05 1.0477e-05
1.1116e-06 0.37596 5.223e-05 -6.2229e-07 -7.3084e-06 5.27e-05 3.9918e-05 -0.15664 0.00032023 -4.4737e-05 0.0003133 -1.0324e-07 1.7358e-06 -2.272e-06 -5.1988e-05 -1.8295e-06 1.085e-05 -0.00056107 2.3332e-05 6.7383e-06 1.4533e-06 -7.7324e-06 -5.2519e-06 -1.4057e-05 -1.3491e-05 -4.4819e-05 -0.00010539 0.00015197 -2.4736e-05 0.24776 0.0007201 -7.1607e-06 -8.0284e-05 0.00015328 -6.2931e-08 -1.1e-05 -0.00089765 -5.6815e-05 -0.00016792 0.001669
2.3482e-06 0.24742 -4.0776e-06 4.7046e-05 4.6382e-06 -0.00010471 8.136e-05 3.8146e-06 -3.3998e-05 0.00036602 -1.7553e-05 -6.6091e-06 -1.3103e-05 -1.8685e-05 -4.384e-05 -7.9984e-05 -2.12e-05 -1.3333e-05 -1.8974e-05 4.4706e-05 -2.174e-05 -7.6105e-05 0.28279 -5.122e-05 -5.643e-06 -1.2569e-05 -2.1841e-05 5.5509e-05 5.6673e-05 1.9155e-05 0.00075817 -6.8445e-06 -0.15173 8.2065e-05 -1.282e-06 -0.00017278 -9.2293e-05 -0.00031813 0.0011324 -9.3614e-07
-6.2213e-06 -4.837e-07 -1.0029e-06 6.2824e-06 -4.3131e-06 3.604e-06 0.00020017 7.0896e-06 0.0026148 -4.2155e-05 -7.2129e-06 1.6405e-06 3.6323e-06 1.2997e-05 1.8758e-06 0.00077372 -7.0701e-06 3.5213e-06 -6.944e-06 8.8945e-06 -3.5315e-05 2.71e-05 -6.7432e-05 0.00086942 9.7341e-05 -4.6233e-05 2.5826e-05 0.00053742 4.3172e-05 7.8599e-06 0.018029 -3.0844e-05 4.8268e-05 7.2116e-05 -3.6676e-06 9.9511e-05 -0.001688 8.4221e-06 -0.00012462 3.84e-06
-0.23643 7.0155e-07 8.4043e-07 2.2836e-05 1.8094e-05 0.15375 0.00025072 -4.3188e-06 2.0464e-05 0.046128 0.25363 0.48893 2.2103e-05 0.20468 0.32497 9.7145e-06 0.00011904 -1.2504e-05 -0.11725 0.064197 -0.00016856 0.36331 1.8918e-06 1.592e-06 -0.0068492 -9.8537e-05 8.1303e-06 0.00025583 -2.0164e-06 -3.7969e-07 2.8577e-05 0.00027879 -0.15547 0.00045024 4.6828e-06 1.9913e-05 8.0752e-06 0.2574 0.14933 9.3857e-06
-6.1198e-06 -1.1608e-06 0.00016998 5.8727e-06 -0.00011272 0.00014849 0.00013491 -0.00067968 0.0017432 0.00020259 -3.8474e-06 1.4151e-06 1.0066e-05 2.6684e-05 2.4133e-06 0.00050731 -1.5332e-06 -1.9563e-05 -3.7577e-05 2.3528e-05 -4.2278e-05 3.0229e-05 -4.7319e-05 0.0005833 0.00012095 -5.3258e-06 1.6205e-05 0.00037181 2.7539e-05 -2.149e-06 0.012197 -2.1867e-05 1.9718e-05 4.9595e-05 -1.8083e-06 -0.0013298 -0.0010397 -6.3484e-06 -0.0010191 0.0010029
2.2466e-06 2.835e-05 3.5983e-06 2.3054e-06 -3.0135e-05 6.9009e-05 -4.344e-05 -4.9357e-05 0.28129 4.7627e-05 0.00016714 -1.7002e-06 -4.4814e-06 2.7273e-06 -4.242e-05 -4.3737e-05 9.3698e-06 6.6688e-06 6.1003e-05 -3.3854e-05 1.0636e-05 -1.951e-05 1.1764e-05 -6.894e-08 -0.00017771 -4.382e-05 2.3979e-06 0.15081 8.4602e-06 0.00039544 -0.00020517 -5.831e-05 9.7085e-05 -0.00012074 5.0261e-06 9.8232e-06 -5.7255e-05 -5.5913e-05 0.0001739 -1.8459e-05
-0.24681 -1.0168e-05 3.1668e-07 -4.1758e-06 1.6148e-05 0.16004 0.00026142 -8.0988e-06 -4.1575e-06 0.047876 0.26515 0.51075 2.2984e-05 0.20809 0.33737 1.1587e-05 0.00011867 3.9882e-06 -0.12321 0.06754 2.3272e-05 0.37736 2.5866e-05 -6.2382e-06 0.18531 -0.0001363 9.1121e-06 5.5431e-05 1.2365e-05 -5.1253e-06 2.3473e-06 -0.00019718 -0.16097 0.00073381 -1.2177e-05 8.3491e-06 -7.246e-06 0.25433 0.1543 7.2081e-06
-4.6497e-06 -1.7736e-06 -1.3334e-06 -7.3322e-06 1.5401e-05 3.089e-05 -8.0965e-05 -3.1052e-07 -5.4337e-06 -0.00012765 0.35587 -1.677e-05 2.0028e-05 0.00018659 0.44789 5.0802e-06 2.9817e-05 -0.50365 -2.8133e-05 2.694e-05 -2.6167e-06 0.0080833 2.0413e-05 -5.1925e-06 0.24646 -0.00011549 9.567e-06 0.0011304 1.9904e-05 1.393e-05 -0.00014374 -0.0001115 -0.21183 0.00042767 -2.9242e-05 -1.0523e-05 5.1271e-05 -0.0021369 -0.00021579 -2.3858e-06
-1.2788e-06 0.4161 -3.8496e-06 -5.1109e-07 1.9411e-05 -9.4396e-05 0.089701 1.1283e-06 -1.7254e-05 0.00014353 -2.1417e-06 -9.0123e-06 -1.8566e-06 4.9959e-06 2.8544e-07 -2.402e-06 6.3555e-10 -1.6411e-05 -4.4196e-05 7.8738e-05 1.3599e-05 -6.3299e-06 -3.1097e-06 4.1674e-06 -0.00022564 -7.508e-05 -3.5547e-05 0.0019666 1.4075e-05 -6.984e-05 -6.3122e-05 -0.0001036 3.608e-05 0.00029806 -2.7099e-05 -2.8542e-05 2.518e-05 6.5288e-06 0.00065216 -2.4485e-06
-9.0475e-05 -1.9369e-05 -5.4893e-07 -1.6905e-05 2.331e-05 -0.00069265 0.39671 -0.00074804 0.32326 -0.00071907 4.2876e-05 0.012919 -6.5566e-06 -1.3779e-05 4.2439e-05 -4.6233e-05 1.1066e-05 -4.648e-05 -0.0015995 0.0012473 -9.2283e-05 -4.8982e-05 1.2164e-05 -3.116e-05 0.1654 -8.2216e-05 -0.0018083 0.0008161 0.0004088 -1.0518e-05 -0.0030346 0.0047317 -0.14077 0.00037158 -0.00013458 -5.847e-05 -0.0083572 -0.00051486 -0.0021136 3.0388e-05
5.7491e-06 0.0004097 2.4863e-06 0.19344 -0.15996 6.6323e-05 0.00026482 1.7407e-06 -4.7843e-05 -0.00040854 -5.9667e-05 -7.7991e-07 2.1338e-05 0.00014381 1.9616e-05 0.397 -7.1943e-05 9.7094e-05 -2.3586e-05 -1.8468e-06 -0.00012252 1.4041e-05 0.18701 0.39318 0.11867 0.26098 -7.3987e-05 0.12864 0.00011152 -1.9132e-05 -0.00034773 -3.9932e-05 -0.1017 -0.33089 -5.8465e-06 0.00025517 -0.00019772 9.849e-05 -0.00024906 -1.0044e-05
4.9068e-05 0.28296 2.7619e-06 -2.3094e-06 -6.6302e-05 -0.069198 0.00019698 -6.3567e-06 -1.2746e-05 -0.0097027 5.6793e-06 3.4836e-06 7.6342e-06 4.6111e-05 -1.9618e-05 -7.5259e-05 1.2499e-05 1.2796e-05 -0.3425 -0.62281 -3.8936e-05 -1.7948e-05 1.2963e-05 -0.00021889 0.00010024 0.00034167 -3.292e-05 0.2133 0.56226 0.00033146 0.00035191 -4.4113e-05 -3.6082e-05 -0.00028845 -1.7981e-06 -1.1115e-05 -8.3199e-05 -3.9752e-06 -0.029767 -7.1858e-06
6.657e-06 -5.2677e-06 2.2148e-06 -2.9622e-06 -2.7557e-05 0.00023067 0.00070967 6.8777e-06 -0.00012786 -0.00015027 7.9993e-05 1.1713e-05 1.3872e-05 1.2055e-05 6.5109e-06 -1.0096e-06 1.848e-06 6.6966e-05 -0.00029831 0.0001493 0.00021155 2.5712e-05 1.9432e-05 3.3007e-05 0.00258 9.2298e-06 -3.9938e-06 0.0077477 0.00011686 1.9529e-06 0.0077337 -4.525e-05 0.00019737 -0.011115 -6.6347e-06 -0.00059482 -3.7386e-05 -0.00012607 -0.0033471 3.4006e-07
1.1044e-06 1.5235e-05 -2.5143e-06 0.44068 2.9405e-06 -2.9124e-05 2.3459e-06 5.3085e-07 -1.6176e-05 -2.7487e-05 -1.5509e-06 2.0966e-06 -1.1985e-05 7.2671e-05 5.7288e-06 -2.6901e-05 -2.7618e-05 -0.00018189 -5.4987e-05 3.2798e-05 -2.7687e-06 -1.1704e-07 0.42482 -1.4771e-05 6.5352e-05 3.7731e-05 8.2086e-07 6.4036e-05 -7.6882e-06 -1.5804e-05 -8.265e-06 7.3235e-07 -0.00018805 -1.2303e-05 1.4231e-06 6.181e-06 -4.0654e-06 9.737e-05 -3.0348e-05 8.4151e-07
-0.00016213 4.8835e-05 8.331e-06 1.8306e-06 -0.51949 0.3317 1.0344e-05 -1.7612e-05 5.19e-05 0.099616 -5.9692e-06 8.7708e-06 1.5835e-05 -0.00014057 1.2574e-05 -1.8134e-05 6.0891e-07 6.6355e-05 -0.251 0.13681 0.00011301 0.00019721 -2.303e-06 3.8811e-05 -3.4982e-05 -0.00026977 4.0352e-05 0.39876 2.562e-05 -4.8097e-05 0.00030922 5.3088e-06 -6.2289e-05 -0.00061842 1.1586e-05 9.4292e-05 3.6591e-05 -0.00032536 0.31602 1.8518e-05
-5.7237e-07 -7.6645e-09 6.925e-08 -1.7149e-07 -5.2952e-07 -8.0567e-07 4.3148e-05 1.8676e-06 -2.6457e-06 -6.4914e-06 -5.906e-08 6.9432e-08 1.8589e-08 1.9186e-07 -9.8466e-08 -1.3542e-07 -8.8295e-08 -4.3742e-08 -3.5643e-06 2.0287e-06 2.6613e-08 1.4457e-06 9.4513e-07 -1.2315e-07 -1.3666e-06 8.1786e-08 -9.5396e-07 -1.6826e-06 5.0083e-07 -1.5529e-07 -6.7024e-06 -3.968e-06 3.221e-06 -1.7099e-06 2.7669e-05 -3.3291e-06 -0.00023352 5.2211e-06 -2.815e-05 2.2267e-08
-4.4923e-06 0.00034319 2.3505e-06 0.00033278 -5.6819e-05 0.00014389 3.0121e-05 -0.00011535 0.00051439 8.7013e-06 -4.6558e-06 -2.9652e-07 5.8145e-07 -3.7515e-05 -5.7711e-06 0.00036933 2.0764e-05 -0.0001033 0.00010154 -3.9921e-05 -0.00015005 -6.6986e-05 0.00053795 0.0001089 0.00035614 -9.2123e-07 -0.00032894 0.16362 1.0322e-05 0.0012881 0.0014094 -1.1279e-05 -0.00094045 -3.8727e-05 -1.7966e-07 4.4862e-05 -0.0015999 -4.598e-06 0.00028771 7.123e-06
1.6339e-05 0.38591 -3.5852e-06 6.4197e-07 -0.0010356 -5.8693e-05 0.00062296 -9.0204e-05 0.00035571 7.38e-05 -2.7134e-05 1.7454e-05 6.2653e-06 -0.00025449 5.8597e-06 6.9024e-05 -1.5224e-05 0.00017503 6.5925e-05 5.1461e-05 -1.5319e-05 -7.892e-05 3.2684e-07 0.00077946 0.0022601 0.0056854 -0.7071 0.00048913 0.38136 0.0010013 0.00060788 0.00093903 -0.11781 -0.0020418 -4.9798e-06 0.00011761 -0.4022 -0.00089852 0.0013106 0.00020804
-0.25167 7.5665e-07 1.1148e-06 2.432e-05 -1.462e-05 0.16447 -1.5979e-05 -3.5604e-06 -5.7981e-06 0.049216 0.26986 0.00023808 2.2776e-05 0.21796 0.34592 8.6422e-06 0.0001216 -1.1861e-05 -0.12325 0.067051 -0.00018015 0.38689 -7.986e-06 3.1948e-06 -0.0073522 -0.00010343 -6.1204e-06 0.00027078 -1.9272e-05 -4.3731e-06 7.3338e-05 0.5062 -0.16546 0.0004597 9.2593e-06 2.0515e-05 1.9378e-05 0.27419 0.15868 9.296e-06
-3.1376e-05 4.2473e-05 -3.5893e-07 0.00023874 -5.2183e-05 0.099625 7.9048e-06 -0.00027888 0.00046449 0.03309 -4.9904e-06 -9.8264e-06 -0.00019095 -0.00015475 -3.384e-05 0.0017501 0.0018925 -0.00010003 -0.073335 0.040081 -5.6255e-05 -0.00031474 0.00015798 0.00082918 0.00038788 0.0013292 -0.00014062 0.00033511 -1.2486e-05 0.00024966 0.0011938 2.8003e-06 -0.00089404 -0.00014256 8.9617e-06 -0.0013198 -0.35068 -0.00064474 0.10993 0.0016209
-4.3395e-07 3.6406e-05 3.4825e-06 1.8604e-06 -0.1374 0.086988 0.00011803 -0.00010265 0.0016032 0.027249 -1.3267e-05 -1.5237e-05 3.3799e-06 0.00023716 1.6896e-05 0.17535 -6.8488e-06 -0.00013579 -0.064974 0.035508 2.105e-05 7.7224e-06 -0.00053234 0.16908 1.7184e-05 -0.00013257 3.0268e-05 0.20934 2.5176e-05 0.0012894 0.010261 -7.242e-06 0.00013214 -0.0002005 4.1532e-06 3.8388e-05 -0.00079318 0.00022808 0.087728 0.0011247
-8.5417e-06 3.4279e-05 -7.0314e-07 -1.7536e-06 -9.8958e-05 6.7314e-05 0.26148 -1.002e-05 6.8576e-05 0.00036252 7.2085e-05 -1.6583e-05 2.2207e-05 -5.5249e-05 -1.6527e-05 0.00011366 0.00031877 -0.0027702 0.00010656 -2.0427e-05 -5.263e-05 1.0375e-05 -3.0234e-06 -4.8638e-05 0.0014816 3.9332e-05 3.7211e-05 0.11485 -2.0704e-06 0.00030714 0.42595 -0.00028826 -0.00067968 0.00012413 0.0067595 -0.0033495 0.00027084 4.9868e-06 0.00079873 1.9996e-05
-8.9029e-06 -1.6442e-05 4.1876e-07 1.8518e-05 -0.00014038 0.00022325 -3.2215e-05 -1.6721e-05 -3.843e-05 0.0018336 0.00097714 -7.6265e-06 -0.37858 2.4199e-05 -9.5596e-05 5.7648e-05 0.60098 -5.5369e-05 0.00085041 -0.00077931 2.9638e-06 -0.0005243 0.00041794 -3.8602e-05 -9.3542e-05 0.48733 2.2133e-05 -0.00018071 1.1029e-06 -1.4723e-05 0.0013583 -4.7147e-06 -0.00126 0.00022698 2.7696e-06 -0.0013887 -0.0054197 -0.0014283 0.010185 6.0133e-05
7.6756e-07 3.9515e-05 6.3518e-06 -2.6217e-06 -4.7421e-05 0.0003476 0.25046 -7.2203e-06 -7.3819e-05 8.8321e-06 0.0015291 -2.0472e-05 3.0769e-05 5.6219e-05 2.6667e-05 -5.2972e-05 4.1787e-06 1.9142e-05 -0.00044272 0.00028461 0.0028835 -4.0146e-05 3.7179e-05 4.8974e-05 0.0017297 -0.00016777 2.6406e-05 0.22572 5.1934e-05 7.4576e-06 0.0050471 -0.00016 -0.00014968 0.0011545 -8.352e-05 -0.0018283 4.7231e-05 -0.00029672 -0.0037901 -1.2115e-05
