1.5713e-06 3.9556e-05 -1.0204e-07 -5.1452e-06 -7.4094e-05 -6.938e-07 -0.000512 3.036e-06 -0.00079867 6.5792e-05 5.3333e-06 -1.648e-06 2.2386e-06 -7.0593e-06 1.0286e-05 3.2101e-06 -8.4922e-06 -2.1266e-05 -2.659e-07 3.9208e-05 8.8708e-07 3.5036e-05 -7.8788e-05 -4.373e-06 -2.0356e-05 -2.6653e-06 -7.82e-05 -2.0108e-05 -6.3381e-05 -6.2314e-06 -7.4006e-07 5.4885e-05 5.3786e-06 1.4725e-06 -3.3884e-05 0.0092485 -0.00022214 -9.4139e-07 3.9022e-05 -0.00012916 0.00020056 0.00030799 -7.7496e-07 0.47267 -8.1272e-07 -1.3231e-06 -3.6081e-06 -0.00015174 0.00032368 -4.074e-06
1.2562e-06 0.00029039 -5.1698e-07 0.00032014 3.1731e-06 -1.0611e-05 4.8348e-05 -0.00017718 -3.3581e-05 -2.6681e-05 4.4634e-06 -2.4337e-06 -2.9227e-05 3.6733e-05 -1.0579e-05 5.3595e-07 0.00036354 1.8457e-06 9.1021e-05 -2.4988e-05 -0.00012546 -0.00014632 -0.00053162 -1.4776e-06 0.00044004 -1.9058e-07 -7.6958e-05 -1.1137e-05 -1.2699e-05 8.7658e-05 -1.2046e-06 -0.00098613 -3.4011e-05 -3.9584e-06 0.00053871 0.00053975 1.4255e-05 -0.00057607 0.00014481 0.00091168 -0.00024026 2.0804e-05 8.14e-06 0.014639 -7.2366e-06 1.9455e-05 -7.4579e-06 0.0038218 -0.00055141 2.6362e-07
2.4349e-05 1.8078e-05 -1.2632e-06 -4.0753e-06 -0.00019095 -2.8835e-05 0.1632 8.0026e-06 -0.00042527 -2.0678e-05 0.00012351 1.2847e-05 -0.00012423 1.7926e-06 0.00063638 -1.448e-05 -8.4146e-05 1.3838e-05 1.4597e-05 1.8887e-05 -8.5045e-06 3.5234e-05 -0.000174 1.0659e-05 1.5692e-05 1.1038e-06 -0.0013231 -4.91e-06 -1.2961e-05 -2.8757e-06 0.00010196 -0.00022339 1.5604e-05 -2.8175e-06 3.6278e-05 -0.27345 2.6498e-05 -9.6393e-05 2.038e-05 -7.4096e-05 -0.0011976 6.8773e-05 -4.1137e-06 0.00090411 -5.9189e-06 -3.7845e-06 -9.8691e-06 0.0018307 -0.014233 1.3999e-05
2.4105e-07 1.8199e-05 -4.7778e-08 1.7776e-06 -1.4147e-05 -3.9616e-05 0.00046243 -6.5257e-05 -1.0387e-05 1.2364e-05 5.0701e-08 1.3972e-07 1.3488e-06 3.692e-06 -2.4259e-06 3.4091e-07 7.0318e-05 -1.5386e-06 -8.526e-07 2.0225e-06 1.8521e-06 -7.3944e-07 -4.5446e-06 2.7957e-06 -1.5167e-05 2.1014e-08 9.2424e-06 -1.0933e-06 -0.000367 4.2149e-07 6.7197e-06 1.0504e-05 -7.838e-06 6.4382e-07 0.00026882 -0.00051082 -3.0718e-06 4.9712e-06 1.5905e-06 -3.2242e-05 -0.0011633 -0.0023402 1.5362e-06 -4.86e-06 -1.7627e-06 -6.6891e-07 1.0032e-06 1.8488e-06 -0.00022761 -4.8908e-05
-7.5517e-06 9.6906e-06 -4.5694e-07 5.6176e-06 1.0602e-05 -8.2069e-06 0.21776 2.1947e-06 -3.7599e-05 -5.5633e-05 9.6684e-06 1.6124e-05 -9.2721e-06 -0.00025658 0.00016126 -4.7586e-05 0.00023856 1.9297e-06 3.4672e-05 -5.5778e-05 2.1364e-06 -0.00043069 -0.00053685 -3.0152e-06 -4.2232e-05 4.2964e-07 5.1164e-06 1.2579e-06 -1.3316e-06 -3.1511e-07 4.4473e-05 -0.00013372 2.1914e-05 -8.6856e-06 9.7253e-06 0.00041814 9.0709e-05 -0.00018579 3.3032e-05 -2.3809e-05 -0.00012845 -4.8002e-05 0.00087295 0.016118 -4.9244e-07 -3.9004e-06 -0.00017424 9.2223e-05 -0.012743 1.2162e-05
1.9273e-06 -1.0458e-06 -8.7903e-07 -6.1422e-07 -2.7897e-05 5.3929e-06 0.26909 -4.1964e-05 -0.00027494 4.1747e-05 -1.8392e-05 1.5995e-05 2.8473e-05 -2.225e-05 -0.00011733 1.6188e-05 -3.4361e-05 1.4009e-05 3.5642e-05 3.1515e-05 9.0184e-06 4.2541e-05 -3.0742e-06 9.2333e-07 -8.498e-05 1.3179e-06 1.6242e-05 -9.6276e-07 -1.0689e-05 -2.4711e-06 -0.0022615 0.0001227 -2.2937e-06 -1.0792e-05 -1.1055e-05 -0.22341 4.4064e-05 2.2936e-05 4.8356e-05 1.0418e-05 2.1424e-05 0.00020137 5.0927e-05 -0.00041841 4.4335e-06 -4.869e-06 2.3463e-07 0.0001515 -0.019947 -1.243e-05
-1.7695e-07 8.9514e-06 -2.1892e-06 0.18196 -6.7521e-06 1.7881e-05 0.26832 -7.7567e-05 -2.0206e-05 7.6583e-06 1.0578e-05 1.8992e-05 -1.6839e-05 -1.2022e-05 1.2134e-05 5.6783e-06 0.18628 2.0216e-05 3.3019e-05 7.0131e-06 2.3107e-06 -0.18485 -0.35023 1.6006e-06 -4.3387e-05 8.3681e-07 -4.6627e-05 5.3083e-06 -0.00047084 -2.9264e-06 -2.6441e-05 0.00012306 -1.1994e-05 -3.7347e-06 -4.056e-06 -9.9849e-05 0.00039167 -7.2003e-05 3.727e-05 0.22756 -0.0013265 -1.8322e-05 1.6659e-06 -5.1546e-05 -3.1231e-06 -9.1853e-06 5.4379e-05 -0.00014081 -0.015716 1.9872e-05
2.3715e-06 -1.2599e-07 0.00019583 7.1846e-06 2.6934e-05 8.1406e-06 1.6191e-05 2.8182e-07 5.9667e-07 -4.2817e-05 -9.228e-06 1.8271e-05 -1.1743e-05 5.6513e-05 -3.2139e-06 2.0102e-05 -1.7075e-05 1.2328e-05 2.7862e-07 -3.3122e-05 -2.5233e-05 1.4832e-05 -0.33374 -8.0552e-06 -5.5343e-05 -6.3742e-08 -6.1872e-06 4.1185e-06 -1.055e-06 -7.2296e-06 1.1115e-06 4.4942e-05 4.3547e-06 -3.6851e-06 0.0001511 4.4732e-06 1.8389e-06 -0.18099 -4.3037e-05 3.5972e-06 2.075e-05 -5.0652e-05 -0.00070506 2.8267e-06 5.7903e-07 -3.8132e-06 -0.00010485 2.5087e-05 0.00012405 -2.9269e-07
-2.4024e-08 -1.8678e-06 2.0488e-07 0.47953 -3.047e-06 1.8278e-06 -9.3141e-05 -9.3932e-06 0.5666 1.0108e-06 1.6192e-06 -9.0043e-07 -4.0274e-06 -2.5073e-06 1.0799e-06 8.8044e-07 -5.4133e-05 -7.3286e-06 -3.5438e-07 4.9428e-08 2.483e-06 3.6416e-05 -1.8526e-05 3.336e-06 -3.2527e-05 2.713e-07 -2.9644e-05 2.6295e-06 3.8514e-06 -3.1376e-06 -5.9115e-06 -7.6651e-06 -4.3426e-06 -2.0161e-06 -3.3338e-05 0.00049709 -1.8108e-05 -3.4886e-06 2.5347e-06 -8.1095e-06 0.00011616 -0.00023857 1.5299e-05 0.0004932 9.8429e-08 -3.1869e-06 8.281e-05 -6.398e-05 -0.00047105 -1.254e-06
-4.5904e-06 -1.0024e-06 3.2345e-08 -1.1171e-06 -1.8884e-07 1.9092e-06 6.8747e-07 -0.47893 1.3857e-05 5.71e-06 -4.8009e-05 3.8124e-08 -0.47218 -8.8835e-06 -3.2488e-06 7.1101e-06 1.6577e-05 0.00010039 -7.6172e-07 -3.7636e-06 -8.9469e-07 -9.9797e-07 -1.765e-05 3.8438e-07 9.5251e-06 1.1542e-07 7.0837e-05 -1.4071e-05 1.625e-06 -3.1948e-07 -3.8793e-06 -2.8515e-06 6.5973e-06 -7.1701e-08 -3.4381e-05 0.00012481 2.6698e-06 4.0986e-06 1.8745e-05 3.9094e-06 7.4743e-05 0.00030221 4.2836e-05 -8.6421e-06 6.5553e-07 -1.9228e-06 2.6035e-06 9.985e-06 0.00030276 7.1566e-06
6.2008e-05 -8.1229e-06 5.964e-07 -5.9715e-06 -0.13281 -5.282e-05 0.18597 -6.113e-07 0.00013199 -0.09834 1.6406e-05 1.5733e-05 -2.1254e-07 0.00015272 0.48183 1.8694e-05 -5.7836e-05 -8.4062e-06 2.4248e-05 -0.066717 -0.0001367 1.0039e-05 -0.00017037 3.9021e-05 0.15329 -2.7275e-06 -3.241e-05 -2.5669e-06 -2.2812e-06 1.26e-05 -0.64378 -0.1597 2.7053e-05 0.000474 7.0666e-05 -0.00012671 5.4314e-05 -0.13253 0.00013015 -0.00015364 4.0038e-05 7.1986e-05 -9.6565e-05 1.9396e-05 5.6072e-06 2.1462e-05 0.0020816 0.16135 -0.010959 8.3644e-06
6.5468e-06 -4.0943e-06 6.7534e-07 0.19343 4.7923e-05 -0.15912 -8.6488e-05 1.9278e-06 -3.998e-05 -9.4344e-06 -4.2331e-05 6.585e-07 1.4953e-05 6.5075e-06 -0.00014345 1.386e-05 0.39706 8.265e-05 4.051e-05 2.5355e-05 -0.00016343 -0.39274 -0.18697 -5.9085e-06 0.11755 -1.3337e-06 -0.25794 -2.0703e-06 -5.1575e-06 7.8174e-05 1.1035e-05 -0.13091 -1.7356e-05 -4.1074e-07 -5.0131e-07 0.00037219 3.0053e-05 -0.10198 0.3299 0.24103 -2.8197e-05 0.00059657 -1.6878e-05 -4.1127e-05 1.5106e-06 2.6727e-05 0.0017506 0.1283 0.00028432 -8.5798e-07
3.834e-07 -1.322e-06 3.2775e-07 -2.8514e-06 5.5778e-06 -8.6119e-06 3.1999e-05 -0.00026567 9.6936e-05 -1.3308e-05 -2.7874e-06 -1.8287e-06 2.3094e-06 -2.0177e-05 -2.1027e-05 1.3966e-06 1.505e-05 3.2475e-05 -4.8583e-06 -2.4226e-05 -6.4533e-05 8.2063e-06 -3.1002e-07 1.7428e-06 -5.2072e-05 -4.7524e-07 7.1074e-05 4.0065e-05 1.6266e-05 -2.3181e-06 -2.4436e-06 -0.00063528 3.0196e-05 2.9492e-05 -4.1896e-05 8.8085e-05 -2.885e-06 0.00011075 -3.3375e-05 -0.00011719 -0.43152 7.4975e-05 3.4158e-05 -0.00015854 -2.3225e-08 -5.4532e-06 -2.0879e-06 0.00033858 0.0014643 6.7336e-05
2.0894e-05 6.8384e-07 -2.4761e-06 -3.3045e-06 -3.4763e-05 -0.26211 -6.221e-05 2.1831e-05 6.1254e-05 0.00010188 -5.1368e-05 -1.4396e-06 0.00014241 -8.805e-06 6.0463e-05 7.0886e-06 3.3527e-05 -0.00014516 0.00054798 7.3009e-05 5.6212e-06 2.2631e-06 -2.4445e-05 -3.3759e-07 -6.2152e-05 1.9629e-07 0.0014831 -5.7495e-05 -1.0136e-06 -2.3268e-07 -5.1978e-06 -2.6267e-05 -0.00010361 -2.3641e-06 0.0070604 0.00058169 2.1756e-05 -8.9469e-06 0.00010629 0.00012605 8.2887e-05 -0.55079 7.4931e-05 -0.00049138 -2.1997e-06 3.358e-07 2.0563e-08 3.0068e-05 -0.0002997 -6.0333e-07
-3.2559e-06 6.5146e-07 -8.6136e-08 4.1053e-06 -0.12813 3.0264e-05 0.00010448 -0.00017562 -7.9342e-05 -0.095286 -3.3284e-05 -2.7909e-06 1.3369e-05 2.3765e-05 0.00013435 -4.1088e-05 0.00012013 3.7288e-06 -5.0736e-07 -0.064775 4.7035e-06 3.4177e-07 -4.1055e-06 2.0692e-05 3.4102e-05 -7.2969e-08 2.5199e-05 -1.35e-06 -0.00063672 8.3155e-07 4.8859e-06 -2.7833e-05 8.9105e-06 -1.2134e-05 -5.0053e-06 -0.0027238 0.00016623 -8.2013e-07 7.1963e-06 -1.7048e-05 -0.0020463 -0.0008994 6.3397e-05 -4.342e-05 -3.9008e-06 -4.1567e-06 3.6809e-06 -4.6061e-05 -0.0017361 1.9016e-06
7.539e-06 1.8022e-05 -5.9565e-06 -6.572e-06 9.5817e-06 2.2315e-05 0.29166 2.5592e-05 -0.00020036 -1.5482e-05 0.17139 2.3756e-05 -0.00096703 8.2975e-05 0.00092444 -0.00031018 -8.2073e-05 6.1586e-06 0.0030096 -1.6443e-05 -0.00012894 7.016e-05 -2.1936e-05 -1.4484e-05 0.24114 -1.9136e-06 0.00014437 -3.3992e-06 -1.1907e-05 -5.8972e-06 -1.1354e-06 -0.12859 5.3404e-06 0.00037853 -6.4108e-05 -0.24517 0.00030998 -0.0007889 -0.00061561 -0.00045807 1.3463e-05 0.00033495 -0.00077699 -0.00059271 7.0603e-06 6.0699e-05 0.0033714 0.12866 -0.022266 -0.00028381
-2.4347e-06 -4.3069e-06 0.00027095 1.3579e-06 1.6831e-05 -0.0001822 0.00037262 7.8405e-07 -5.3404e-05 3.4383e-06 0.00016131 2.9062e-06 -2.4573e-06 -3.118e-05 0.62481 -1.0007e-05 -1.5242e-05 -3.4233e-06 5.1644e-06 9.75e-06 -0.00021214 -1.8062e-06 -1.3689e-06 1.2818e-06 0.00010607 -1.0241e-06 -0.00010104 -7.3452e-07 -6.3569e-05 2.3376e-06 0.00045894 0.00028131 -7.9323e-06 -2.8685e-05 -1.8654e-05 -0.0019109 1.282e-05 5.854e-05 -9.7347e-07 2.7371e-05 -0.00012875 0.00044047 4.6668e-05 -6.3273e-05 3.956e-05 -2.2422e-05 2.243e-05 0.0015948 -0.00015786 7.5516e-08
-3.9934e-06 5.3764e-05 -7.8843e-07 -5.1088e-07 6.523e-05 6.0618e-06 0.00035469 -0.00033817 -6.2029e-05 -0.00011133 2.5399e-05 -5.8433e-07 5.7835e-07 5.5587e-05 3.181e-06 -6.5675e-06 9.4794e-06 1.2858e-06 0.00013738 -0.00014596 -5.6396e-06 -2.6222e-06 -4.6016e-06 7.8984e-06 0.0011196 2.0027e-07 1.1919e-05 -0.00045212 -3.5982e-05 -9.9132e-08 1.3578e-05 -0.00068439 0.0019574 -2.4057e-06 0.00032689 -0.0020014 8.0889e-05 6.2403e-05 -0.00024946 -0.00020148 -0.0021807 -7.4641e-05 -2.2143e-05 -6.3722e-05 -4.5811e-06 4.4073e-05 4.9094e-05 0.0011525 -4.5058e-06 -0.00020559
7.0954e-05 2.4394e-05 5.9487e-07 -8.786e-07 -0.19287 -5.1093e-06 -2.7868e-05 -1.0551e-05 -0.00010962 -0.14374 1.7505e-05 1.0548e-05 -0.00018692 6.7248e-05 8.3177e-06 2.7361e-05 -7.8027e-05 -0.0037097 5.1187e-05 -0.09759 -0.000116 0.00025662 0.00019028 -2.9047e-05 -0.00010212 -1.854e-07 -0.0010551 -1.3575e-05 -2.7942e-05 2.3889e-06 -9.0916e-06 -0.0032042 0.00074083 -2.0963e-05 1.1818e-06 -0.0048774 1.3059e-06 -0.19375 3.5357e-05 -1.0834e-05 -0.0063111 -0.0017555 -0.00090929 -0.00083247 -5.2669e-06 -1.0105e-05 -1.9853e-05 0.00031543 0.00016217 3.6353e-06
8.9628e-07 -3.0935e-06 -7.2737e-07 -3.5016e-07 9.1625e-06 5.6521e-06 0.15003 -0.00065458 -7.9346e-05 -6.2581e-07 0.00013049 9.4176e-06 1.0096e-06 5.0136e-05 1.5246e-06 -2.1525e-06 -6.6946e-07 1.3931e-05 3.1754e-05 -3.6458e-06 -9.2172e-06 -4.9796e-06 -1.7087e-05 -1.9916e-06 0.00075655 4.2033e-07 5.0988e-05 1.4476e-05 -9.0404e-06 -9.1853e-07 2.9949e-06 -4.8501e-05 7.7647e-06 -6.074e-06 -1.8318e-05 -0.0023917 9.2099e-05 2.735e-05 -4.5535e-05 -0.00021361 -0.18024 3.7495e-05 -4.0926e-05 -7.6262e-05 -8.1783e-07 2.9809e-05 6.748e-05 0.00036274 -0.0084647 -0.016903
3.0698e-05 -1.5567e-05 -1.6488e-06 5.3438e-06 -0.00012358 -0.00016534 -0.00069618 -0.00017013 -6.9428e-06 -0.00012472 0.0010194 -2.1832e-05 -0.002618 2.7327e-06 2.139e-05 -0.00014547 -5.4962e-05 -0.0076919 3.5665e-06 0.00015442 1.181e-05 2.3552e-05 -0.00055577 -1.8656e-05 5.4877e-05 1.6265e-06 -0.0087609 0.0018186 7.0408e-06 3.417e-07 3.8715e-05 0.00012054 0.00043045 3.1101e-06 0.0019572 -0.00038574 -0.00055104 -0.00012599 -0.00042759 0.0020475 -0.0018137 -0.51442 -0.00053886 -0.00049561 3.6055e-06 3.8234e-06 1.9399e-05 3.2331e-05 -0.046309 5.6583e-06
6.2008e-05 -8.1229e-06 5.964e-07 -5.9715e-06 -0.13281 -5.282e-05 0.18597 -6.113e-07 0.00013199 -0.09834 1.6406e-05 1.5733e-05 -2.1254e-07 0.00015272 0.48183 1.8694e-05 -5.7836e-05 -8.4062e-06 2.4248e-05 -0.066717 -0.0001367 1.0039e-05 -0.00017037 3.9021e-05 0.15329 -2.7275e-06 -3.241e-05 -2.5669e-06 -2.2812e-06 1.26e-05 -0.64378 -0.1597 2.7053e-05 0.000474 7.0666e-05 -0.00012671 5.4314e-05 -0.13253 0.00013015 -0.00015364 4.0038e-05 7.1986e-05 -9.6565e-05 1.9396e-05 5.6072e-06 2.1462e-05 0.0020816 0.16135 -0.010959 8.3644e-06
0.23629 -1.6397e-08 -2.0331e-07 1.334e-06 -0.15367 1.0413e-05 0.00022609 -3.0595e-06 1.0293e-06 -0.11496 0.25356 -0.48889 1.6478e-05 -0.20037 -1.5707e-06 0.32422 8.9169e-06 -8.7417e-05 -1.5682e-06 -0.0782 3.9587e-06 -4.7866e-07 -3.7909e-06 0.36237 -0.00068602 -7.167e-11 4.4671e-05 -2.9949e-06 -3.7098e-07 -2.3445e-07 9.976e-07 4.3551e-05 3.1606e-06 -2.8048e-05 1.0553e-06 2.6936e-06 9.2256e-06 -0.15285 1.4489e-05 -5.3997e-05 -3.1603e-05 2.2239e-05 0.24623 -2.2403e-05 -4.3116e-06 2.9047e-06 0.48409 7.5748e-06 -0.00022865 4.5904e-06
-1.2648e-05 1.7696e-05 3.3417e-06 -1.4497e-06 4.5021e-05 -7.317e-07 0.00061293 3.1608e-05 0.0012008 -9.7291e-05 -3.0423e-05 -6.3251e-06 3.4099e-06 -9.0143e-05 0.0011382 -1.47e-05 0.00025133 1.0245e-05 -5.6417e-05 -9.684e-05 0.00071296 -0.00043409 -0.00017055 -1.4159e-06 0.001724 4.1455e-06 0.00013481 4.0344e-05 -0.00029763 2.6906e-06 0.00026162 -0.098118 0.24091 -6.5821e-06 -2.9435e-06 -0.01062 0.00026001 0.00022022 0.0062133 -0.0001916 -0.12989 -0.0061982 0.00049988 0.0043376 -1.8636e-06 -1.5279e-05 0.00011963 0.097088 -0.0061235 2.4254e-05
3.3657e-06 3.419e-07 5.9792e-08 -1.1506e-06 -2.4361e-05 -5.5166e-06 -1.2658e-05 -1.4497e-07 0.00029859 -2.9246e-06 -7.4011e-07 7.4288e-06 -5.7803e-07 2.0189e-05 -1.842e-05 8.9582e-07 0.00046799 -2.6434e-06 3.5539e-05 -1.4752e-05 -6.4754e-06 -0.00011389 3.6569e-05 -5.2915e-07 4.8703e-05 -2.9493e-08 5.1817e-06 -9.1688e-08 -1.2115e-05 3.2161e-07 -1.3143e-06 7.4247e-06 -5.9416e-07 0.75135 0.00014429 -1.2081e-05 2.0527e-06 -6.9884e-05 1.1931e-05 -4.0714e-06 3.2141e-06 -2.1935e-07 -5.6433e-06 7.9944e-06 -2.5259e-07 6.7406e-06 1.4723e-05 0.00036369 -7.7603e-05 -1.637e-08
-4.6781e-06 0.00011772 0.62338 -3.5741e-06 1.2673e-05 6.5754e-06 -2.2115e-06 -7.7485e-05 0.00011269 -1.0257e-05 0.00091161 1.0489e-05 -1.1852e-06 1.1095e-05 -2.1381e-06 -0.00015157 -1.674e-05 -9.7457e-06 0.0012489 -6.9312e-06 -1.4618e-05 -8.3528e-06 -0.00053118 -5.0859e-05 -5.4676e-05 -1.1142e-07 2.7384e-05 8.2434e-06 6.7069e-06 -5.031e-07 9.8052e-06 -0.00043154 -2.9438e-05 -2.5694e-07 0.02692 2.9011e-05 -6.0859e-06 -0.0006407 -0.00020878 -8.7008e-05 -0.00062175 3.8126e-05 -0.00060573 -1.222e-05 0.0010065 -8.4013e-06 -1.1341e-05 0.0010951 0.0001043 4.9417e-07
1.4879e-06 -3.4101e-05 3.5481e-06 4.3212e-05 4.2855e-05 -0.28015 -2.8209e-05 4.3862e-06 1.8136e-05 1.7942e-05 -1.9814e-05 8.0713e-06 -9.7893e-06 -2.6278e-05 -0.00025672 1.4406e-05 0.003373 -1.1898e-05 -3.3874e-05 7.7206e-05 -0.00012702 -0.00037595 -0.00057774 -2.5377e-05 0.00054189 -1.2479e-06 -0.0027012 -1.7517e-06 -2.1602e-06 2.1123e-06 6.1875e-05 -0.22949 -2.6409e-05 -2.5467e-06 -3.6553e-06 0.00035075 -3.9844e-06 -0.0018063 0.58014 0.0046652 0.00022607 2.6215e-05 0.00010886 9.4998e-05 4.5741e-06 3.539e-05 0.00025668 0.22098 -0.00019018 -5.991e-07
8.9127e-06 3.7671e-05 2.6954e-06 1.7742e-06 -6.585e-05 2.3138e-05 0.22789 -3.9354e-05 0.3698 7.3432e-06 -7.8903e-05 4.9528e-07 3.427e-05 -5.0465e-05 0.00057884 3.9557e-06 0.00052534 -5.8822e-09 -0.0001004 -3.0188e-05 1.1874e-05 -0.0010072 7.2257e-05 1.0292e-06 0.19129 4.8605e-06 0.00035755 0.00011857 -0.00077062 0.0002059 1.4393e-05 -0.20284 5.8329e-05 -2.434e-05 0.00028634 -0.40028 0.00012705 0.00030927 -0.0017557 0.00023744 -0.0019599 -0.0040166 -0.00025716 0.62262 6.0006e-06 -4.8932e-05 0.0028762 0.20897 -0.021006 1.7328e-05
5.9015e-07 2.8304e-06 -2.3982e-07 -6.2958e-06 -1.3018e-05 2.1488e-05 0.41901 -3.6628e-05 0.3429 6.211e-06 1.0123e-05 2.1909e-05 3.8125e-06 5.0338e-06 6.8128e-05 -0.00019774 -1.3499e-05 -5.7441e-06 5.998e-05 7.8101e-07 1.321e-05 2.2897e-05 4.179e-08 2.1634e-05 0.1754 6.131e-07 -9.14e-06 0.0015568 1.3617e-05 8.9142e-06 -1.6129e-05 0.00026768 0.00046704 -1.6286e-05 -2.7762e-05 0.00028676 -0.47097 -0.15085 8.364e-05 0.0011869 -0.00027673 0.00018893 -0.00010187 0.00012818 2.3053e-07 1.4693e-06 0.0023451 -1.4614e-05 -0.71327 4.6335e-05
-7.2289e-06 -3.4142e-06 -4.839e-07 1.1804e-06 5.2591e-05 2.0429e-06 4.0394e-05 -0.50801 9.448e-06 -0.00013195 2.7251e-06 2.4829e-07 -7.3442e-06 -4.4447e-06 6.6193e-05 -1.3612e-06 7.8183e-05 6.7473e-07 -7.0673e-07 -0.00013164 8.9555e-07 -8.8279e-06 8.7364e-06 1.6994e-08 3.2818e-05 5.2656e-09 -1.2362e-06 -1.3948e-05 -0.00024838 -9.8837e-08 2.6485e-05 -3.2148e-05 9.0744e-06 -1.2063e-06 -3.8921e-05 -1.405e-05 8.6886e-06 3.4849e-05 -9.5979e-06 -3.4513e-05 -0.0037073 -0.00029183 1.6705e-05 -6.7749e-07 7.3743e-07 1.4822e-06 6.3987e-06 0.0002509 0.00025495 -9.1595e-05
3.9574e-06 3.2839e-06 -2.4221e-06 0.43606 1.1228e-05 -2.17e-05 -0.00013347 -7.7696e-07 -1.5084e-05 -1.84e-05 -1.0139e-05 8.4313e-06 -2.1645e-05 6.3761e-05 5.221e-06 2.0167e-07 0.00026767 3.5842e-05 -2.7841e-05 -2.0392e-05 6.5183e-06 -2.8722e-06 -0.41971 4.5012e-05 0.26423 -1.4868e-06 -0.00082546 6.2903e-06 -7.8934e-07 -1.6227e-05 -1.7691e-05 0.00022621 1.201e-06 1.0875e-06 -6.3492e-06 4.6723e-05 7.3043e-05 -0.22836 3.6213e-05 0.53449 4.7659e-06 9.6286e-06 -0.00037035 -0.00010044 -2.6749e-06 -4.8762e-06 0.0036258 -0.00013556 0.00084668 -9.5745e-07
6.218e-06 -3.1823e-06 4.7541e-06 8.2434e-07 -5.4008e-05 -2.3936e-05 -1.1883e-05 -8.4757e-07 1.1691e-06 6.7059e-05 -1.2846e-05 -1.2113e-06 -2.2713e-06 -0.16515 1.1621e-05 1.0335e-05 -4.9394e-05 -3.8769e-06 -4.287e-06 4.3555e-05 0.68036 -3.4703e-06 9.6123e-06 -2.3111e-05 -0.00050023 -1.963e-06 3.5436e-05 -1.3026e-05 -4.3277e-06 1.4111e-05 -1.5306e-05 -0.15633 3.3017e-06 -5.9071e-06 1.0958e-05 -5.8463e-06 1.7485e-06 -0.12644 -0.00036272 -9.1057e-05 4.1947e-06 6.5212e-06 -0.00063453 3.3104e-05 3.5395e-06 -2.4622e-05 -0.00017578 0.1539 5.9082e-05 -5.6092e-07
-1.105e-05 0.00015986 0.00014866 -3.9347e-07 3.1136e-05 -7.2414e-06 -6.8787e-05 -4.1311e-05 7.3443e-06 -8.437e-05 0.00046803 -1.352e-06 -4.0306e-07 -0.00023675 5.6105e-05 -0.00012798 -0.00010268 -1.6069e-06 0.0010164 -7.2364e-05 -1.3021e-05 -5.4279e-06 -0.00037667 7.343e-06 0.0001101 -1.7287e-06 5.8732e-05 -6.4251e-06 -2.7072e-06 1.1848e-05 1.1285e-05 -0.18412 4.63e-06 -3.0811e-07 0.041645 4.0367e-05 -8.1684e-07 -2.825e-05 -0.0006568 -0.00022059 -0.00038584 5.0951e-06 0.00076098 4.0903e-05 2.2069e-05 -4.6286e-06 -9.0633e-05 0.18192 8.2192e-05 -3.2792e-07
0.29899 -1.2919e-06 -1.4695e-06 -3.6296e-06 -0.38944 -2.9758e-05 -0.0010363 6.7063e-06 -0.00045616 -0.28996 9.1294e-06 1.5279e-06 -0.00022281 -6.5828e-05 -1.7547e-05 -5.8927e-06 -9.2381e-05 4.8606e-05 -1.7696e-05 -0.1967 6.7141e-06 5.3236e-05 7.1191e-05 -2.9492e-06 -9.2924e-05 5.9331e-07 -0.0021139 -5.9016e-06 -1.9437e-05 -4.0884e-06 5.9314e-06 0.00014703 -8.3455e-06 -1.3217e-05 -3.1181e-05 -0.45113 -1.2016e-05 -0.0013382 3.0255e-05 -5.1453e-05 -0.0020408 0.00021629 -0.00031052 -0.001262 -8.0252e-06 -2.3561e-06 -2.8588e-05 0.00040045 -0.0065675 9.0465e-06
-3.5093e-05 -2.5015e-06 -8.0071e-07 -5.1322e-06 -0.16285 -0.25684 1.7216e-05 2.1672e-05 -5.4696e-07 -0.11977 2.3875e-05 2.6821e-05 -1.0373e-05 -0.2116 0.0001679 -0.00040613 -3.0309e-05 -1.6339e-05 0.00015232 -0.081445 5.1192e-06 -1.8936e-05 -0.0003815 6.405e-05 0.0004193 1.545e-08 -4.0935e-05 -6.3768e-07 2.0085e-06 -1.1862e-06 0.00011483 -0.00023926 2.2035e-05 9.8784e-05 0.002399 0.00025835 5.0917e-05 -0.0006906 -0.00014442 -0.00050948 -0.00015011 -3.8241e-05 0.26533 5.3191e-05 -2.2157e-06 3.563e-05 -0.00023556 0.00042187 -0.00015787 7.9061e-07
2.4487e-06 0.00029566 -1.977e-06 0.00032466 -3.6225e-05 -1.5899e-05 -2.3927e-05 -0.00010881 0.0004466 -4.6329e-07 -1.0058e-05 9.0031e-07 1.5644e-06 3.5306e-05 -5.9517e-05 -4.003e-07 0.0003237 -2.0225e-05 0.00010864 -1.7894e-05 -0.00019917 -0.00014808 -0.00050676 -2.8387e-05 0.00023965 -2.0992e-06 2.7948e-05 0.00032594 -1.5721e-05 0.57735 6.5019e-06 -0.16424 3.6601e-06 -1.6257e-06 0.0012666 -0.00077111 2.9606e-06 -0.00095243 -6.8528e-05 0.0015928 -0.0014723 -3.6107e-06 9.6216e-05 0.0038157 -9.6741e-05 1.0835e-05 3.8843e-05 0.16678 -0.00015945 2.3364e-06
8.9127e-06 3.7671e-05 2.6954e-06 1.7742e-06 -6.585e-05 2.3138e-05 0.22789 -3.9354e-05 0.3698 7.3432e-06 -7.8903e-05 4.9528e-07 3.427e-05 -5.0465e-05 0.00057884 3.9557e-06 0.00052534 -5.8822e-09 -0.0001004 -3.0188e-05 1.1874e-05 -0.0010072 7.2257e-05 1.0292e-06 0.19129 4.8605e-06 0.00035755 0.00011857 -0.00077062 0.0002059 1.4393e-05 -0.20284 5.8329e-05 -2.434e-05 0.00028634 -0.40028 0.00012705 0.00030927 -0.0017557 0.00023744 -0.0019599 -0.0040166 -0.00025716 0.62262 6.0006e-06 -4.8932e-05 0.0028762 0.20897 -0.021006 1.7328e-05
1.8267e-05 -2.1339e-06 -8.1754e-07 7.2783e-06 -0.00016506 -2.9434e-05 0.00022519 -9.7447e-05 0.0034438 0.00012861 4.9946e-05 -7.7811e-07 5.2679e-06 2.1801e-05 -9.9348e-06 8.6423e-06 0.00085634 4.4636e-06 -7.4936e-06 -3.6224e-06 -6.0279e-05 -0.001422 1.4163e-05 4.7306e-06 0.00018089 -1.0046e-06 7.8246e-05 -0.00065553 -0.00082345 5.0861e-06 -5.3322e-05 -0.083433 0.22148 1.8001e-07 4.0189e-05 -0.022076 8.5293e-06 0.0001101 -0.00010698 -5.9355e-05 -0.0017109 -0.00011197 1.8134e-05 0.0074389 5.9129e-06 1.2711e-05 7.9602e-05 0.083168 0.0013954 -9.4679e-05
1.916e-05 2.9962e-05 -2.2954e-06 0.00020565 -0.081507 -4.4773e-05 0.00013143 -0.00021933 0.0017329 -0.060075 -2.4506e-06 -6.4142e-07 -0.00010842 7.848e-05 -3.3799e-06 -8.0619e-05 0.021377 2.4473e-05 6.293e-05 -0.040936 -8.9802e-05 -0.14225 -0.00016259 -1.7174e-06 0.00034927 -1.0594e-07 -0.00084539 0.00011202 -0.23272 0.00015719 3.7575e-05 -0.00080449 2.2894e-05 0.00031123 0.00020413 -0.0091056 1.7643e-05 -0.00023141 6.7994e-05 0.00096555 -0.2867 -3.1803e-05 5.5807e-05 0.0049618 1.1233e-06 1.813e-05 5.2307e-05 0.0032586 0.0017211 5.8301e-05
1.3767e-14 2.2443e-11 1.7722e-10 -1.1135e-14 7.4835e-13 4.9965e-14 1.0651e-11 1.9059e-14 -2.8491e-13 -6.3084e-13 4.1382e-14 2.2879e-14 5.687e-15 6.3615e-14 1.4989e-14 -9.0458e-15 -6.0232e-14 4.5247e-15 -3.8822e-13 -1.1717e-12 -2.0275e-13 1.4397e-13 -6.2005e-14 1.6188e-15 -1.0439e-12 7.9797e-16 -2.1411e-12 7.461e-14 3.5414e-14 -1.6737e-14 3.7608e-13 -2.611e-12 3.823e-12 1.612e-14 -1.8777e-12 1.2944e-12 1.8993e-12 9.7012e-14 2.2981e-14 -1.216e-11 8.4489e-13 3.6543e-12 -1.4354e-13 -6.884e-12 -4.3525e-08 6.3598e-14 -1.3608e-13 -2.7218e-12 -1.4883e-12 2.8934e-14
0.4481 1.2717e-07 -6.7347e-07 8.3429e-07 -0.292 -4.4584e-05 1.8912e-06 -5.0857e-06 3.9206e-06 -0.2169 -1.0786e-05 -2.7243e-07 1.0076e-05 -0.38049 -6.8845e-06 2.18e-05 3.5699e-06 1.5057e-05 -2.383e-06 -0.1471 6.1519e-06 -4.4243e-06 -2.32e-06 1.0147e-05 1.5708e-05 2.9283e-07 3.5038e-05 3.8828e-07 2.8864e-07 6.1755e-07 -9.4995e-06 2.2753e-05 7.9758e-07 -4.7512e-06 -1.0695e-05 -1.8211e-05 -5.7673e-06 -0.28953 4.322e-06 3.2983e-06 -5.3572e-05 1.0095e-05 -0.0011196 5.1203e-06 -6.4072e-06 1.1314e-06 0.00029798 7.5434e-05 -2.7941e-05 -1.465e-07
0.4481 1.2717e-07 -6.7347e-07 8.3429e-07 -0.292 -4.4584e-05 1.8912e-06 -5.0857e-06 3.9206e-06 -0.2169 -1.0786e-05 -2.7243e-07 1.0076e-05 -0.38049 -6.8845e-06 2.18e-05 3.5699e-06 1.5057e-05 -2.383e-06 -0.1471 6.1519e-06 -4.4243e-06 -2.32e-06 1.0147e-05 1.5708e-05 2.9283e-07 3.5038e-05 3.8828e-07 2.8864e-07 6.1755e-07 -9.4995e-06 2.2753e-05 7.9758e-07 -4.7512e-06 -1.0695e-05 -1.8211e-05 -5.7673e-06 -0.28953 4.322e-06 3.2983e-06 -5.3572e-05 1.0095e-05 -0.0011196 5.1203e-06 -6.4072e-06 1.1314e-06 0.00029798 7.5434e-05 -2.7941e-05 -1.465e-07
-3.5093e-05 -2.5015e-06 -8.0071e-07 -5.1322e-06 -0.16285 -0.25684 1.7216e-05 2.1672e-05 -5.4696e-07 -0.11977 2.3875e-05 2.6821e-05 -1.0373e-05 -0.2116 0.0001679 -0.00040613 -3.0309e-05 -1.6339e-05 0.00015232 -0.081445 5.1192e-06 -1.8936e-05 -0.0003815 6.405e-05 0.0004193 1.545e-08 -4.0935e-05 -6.3768e-07 2.0085e-06 -1.1862e-06 0.00011483 -0.00023926 2.2035e-05 9.8784e-05 0.002399 0.00025835 5.0917e-05 -0.0006906 -0.00014442 -0.00050948 -0.00015011 -3.8241e-05 0.26533 5.3191e-05 -2.2157e-06 3.563e-05 -0.00023556 0.00042187 -0.00015787 7.9061e-07
1.6932e-05 0.00023903 8.462e-05 -5.8997e-07 -0.00022909 -1.4501e-05 2.7412e-06 -0.23578 4.5465e-05 0.0001324 0.19521 8.2681e-06 -9.9598e-05 4.1217e-05 9.5304e-06 -0.00043827 -5.0855e-05 -0.0022853 0.00073542 7.7842e-05 -1.4926e-05 -1.6883e-06 -2.2254e-05 -2.3565e-05 5.2816e-05 -4.4736e-08 -0.00066515 0.0001793 -1.8529e-05 -1.5622e-06 -2.2499e-05 -0.00052539 -6.5541e-06 5.3582e-06 0.36568 -4.0941e-05 -9.9343e-06 -0.0010412 -0.00011809 3.567e-06 -0.004211 -0.0016169 -0.00087349 -1.4539e-05 -2.4086e-05 -6.2431e-06 1.5517e-05 0.002269 -0.00017992 6.2158e-06
3.469e-05 5.4279e-06 0.00024054 1.0691e-05 2.7706e-05 -0.22927 0.00015593 2.2836e-05 -7.7972e-05 -0.00045633 0.24133 3.5422e-06 -0.0042927 -0.00021913 0.00094714 -0.00035642 -0.00016347 -0.0073541 -1.5927e-05 -2.621e-06 -2.8529e-05 -2.758e-06 -0.00083869 1.3106e-05 0.00021283 -1.2462e-08 -0.011443 6.8034e-06 -5.7663e-05 1.3276e-05 0.00027047 -0.00035114 4.2904e-05 -3.0334e-06 -4.096e-05 -0.0038969 -3.2758e-06 -0.14533 -0.00045653 -0.00026707 -0.0018402 -0.01093 -0.00014317 -0.0001193 4.1659e-05 -3.1995e-05 -0.00011435 0.0014887 -0.00092212 2.4766e-06
5.5184e-07 -2.3158e-05 -4.3383e-05 -2.2545e-06 -4.7472e-06 1.7374e-05 -3.7469e-05 -0.00044378 0.00021489 3.1374e-06 -0.00028151 -1.4991e-06 -2.1133e-08 -3.266e-06 3.2718e-06 4.0779e-05 0.00035622 -2.0007e-05 0.34343 4.9692e-07 -4.711e-06 -8.1527e-05 3.2643e-05 2.6911e-05 -4.9769e-05 1.7192e-07 -1.1648e-05 1.2519e-05 -1.1182e-05 3.6938e-05 1.6377e-06 -4.7534e-05 -8.2013e-06 0.00055467 0.47004 5.3641e-05 3.8379e-06 -8.6704e-06 3.8834e-05 2.6077e-05 3.797e-05 0.00051732 2.097e-05 -1.7763e-05 -1.0262e-05 -1.024e-06 1.8984e-05 0.00064807 -0.00027494 5.8837e-07
3.7632e-05 1.0537e-05 -4.5865e-07 6.9491e-06 -0.13004 -6.7853e-05 -0.00059596 -1.8027e-06 -0.00030402 -0.58116 0.00053994 2.1975e-06 -0.21266 -8.0871e-06 -3.7898e-06 -7.9648e-05 -7.3209e-05 -0.0071847 1.8998e-05 0.62352 8.404e-06 4.0134e-05 -0.00026812 -1.1341e-05 -6.5586e-06 5.3984e-07 -0.27686 -1.9272e-05 -2.4848e-05 -4.2623e-06 4.8444e-05 0.00014032 0.0002243 1.5024e-06 -2.7652e-05 -0.24644 -7.7006e-06 -0.0008317 -2.188e-05 0.00024537 -0.0044817 -0.0070784 -0.00069428 -0.00055179 -5.212e-06 -8.0908e-06 -9.6348e-07 0.00024378 -0.0038361 6.2813e-06
-2.1675e-06 0.00051647 -2.2601e-06 4.767e-07 8.6901e-06 -2.756e-05 8.9683e-06 -0.00040301 -2.7133e-05 -9.2403e-05 7.7924e-06 1.1147e-05 -0.00015486 2.6271e-05 -1.3422e-05 7.4575e-06 -4.9734e-05 -0.0030272 7.4155e-05 -7.3855e-05 -3.8827e-05 -1.9476e-05 0.00019392 -0.00010746 7.6821e-06 -2.0951e-07 -0.00087321 0.0004898 -3.9239e-05 -5.0914e-06 3.3156e-05 -0.00010234 1.1743e-05 6.8882e-06 0.002897 -9.086e-05 -7.3762e-06 -0.0018066 -1.1619e-05 0.00016715 -0.008569 1.4952e-05 -0.00043346 7.2964e-05 -9.9476e-05 -1.1354e-05 2.962e-06 0.0017341 -0.0005124 9.2678e-06
0 0 0 -0 0 0 0 0 0 0 0 0 0 0 -0 0 0 0 0 0 0 0 0 0 -0 -0 0 0 0 0 0 0 -0 -0 -0 0 0 0 0 -0 0 0 0 -0 0 0 0 0 0 0
2.0382e-06 0.24485 -2.1039e-05 0.00041445 -3.0561e-05 -3.3446e-05 0.00020564 -2.6541e-06 -4.3863e-05 2.399e-05 0.00010241 -3.8107e-06 1.7069e-06 -8.1448e-06 -4.5199e-05 -3.8629e-05 0.0077056 -1.4609e-06 0.3608 -7.1016e-06 -0.00010218 -0.00054719 -0.00071634 2.754e-05 0.17614 -3.2491e-06 9.2082e-05 -7.6025e-06 -1.5352e-05 0.00011785 -2.9079e-05 -0.1846 4.5e-06 -9.2318e-06 -4.664e-05 -0.00088298 0.00012153 -0.00045347 3.2062e-05 0.00084389 -0.00018838 1.5808e-05 -8.5826e-05 -0.00015379 1.8338e-05 3.3361e-05 0.0024505 0.18669 9.8261e-05 -6.9493e-06
-2.7497e-05 -2.2817e-06 -5.3372e-07 -1.4607e-06 -0.10632 3.7708e-05 4.44e-05 -0.00043598 -1.2561e-05 -0.079958 6.7074e-06 4.3207e-06 -0.00010149 2.5534e-06 -3.5337e-06 1.5514e-05 -1.8076e-05 -0.0020512 0.2514 -0.054438 1.1704e-06 3.4232e-06 9.2246e-05 -7.6737e-06 -9.624e-05 5.924e-08 -0.00062084 2.7784e-06 -1.5033e-05 7.0748e-07 3.5562e-06 -0.0007987 -4.5658e-06 -2.5018e-05 -4.5083e-05 -0.00015003 3.8388e-05 -0.00066023 -6.7828e-05 -1.077e-05 -0.0034533 1.3103e-05 -0.000306 -1.4373e-05 -2.3302e-06 -4.6346e-06 -5.4521e-06 4.5247e-05 -0.00012626 2.7617e-06
-5.7867e-06 -1.4201e-06 4.0181e-06 -3.5774e-06 2.9768e-05 2.696e-05 0.00056498 1.0948e-05 -1.6651e-05 -3.264e-05 -2.7479e-05 -9.1747e-06 -2.9755e-06 -6.6483e-06 0.00055524 7.2305e-06 -1.875e-05 -2.6587e-06 -8.986e-05 -1.9806e-05 -1.2013e-05 -2.3099e-05 -1.7196e-05 1.9965e-06 0.0032577 1 0.00024147 -1.992e-06 -7.8327e-07 3.4611e-06 3.275e-05 -0.0069824 2.6785e-05 -1.1631e-05 1.2592e-05 -0.0043827 5.5534e-05 0.00036123 -0.0018132 -0.00031782 1.838e-05 -0.0036033 -0.00018458 0.003326 -2.8334e-06 -4.2389e-05 0.00030107 0.011453 -0.0012467 1.4256e-06
5.6694e-06 0.38561 -2.9843e-05 -4.8723e-06 -3.4247e-05 -1.9448e-06 -0.00042639 -5.5254e-05 0.00035371 2.824e-05 3.8885e-06 -1.5872e-05 -1.8827e-06 3.8182e-05 -8.4551e-06 8.5855e-06 -2.8831e-06 3.4671e-05 -9.369e-06 -4.6872e-05 -8.9305e-06 -1.7793e-05 1.218e-05 -1.4031e-05 0.00018315 8.7681e-07 -5.7637e-05 0.7071 8.3981e-06 0.00014893 2.7104e-05 1.5871e-06 0.38187 4.0051e-06 0.0010264 -0.00042302 -0.00040998 -0.11869 -9.634e-05 0.28118 -0.40201 -0.0017164 -1.1157e-05 0.0027976 -1.3847e-05 4.3159e-06 6.2359e-05 0.0012201 -0.032993 5.3152e-05
8.1354e-06 -1.2001e-05 5.1752e-07 -5.2812e-06 -2.995e-05 7.364e-07 0.0002813 3.0107e-05 0.32465 2.095e-05 8.6105e-06 9.8949e-07 -4.2818e-06 0.0001024 0.00073457 1.1279e-05 0.00026126 -6.2352e-06 2.5665e-05 1.3316e-05 -0.00016096 -2.7008e-05 2.6725e-05 5.6053e-06 0.00040606 -2.0182e-06 3.2975e-05 1.1495e-05 -6.7158e-06 1.9473e-05 -6.9772e-05 -0.1733 2.3375e-05 0.0010977 8.0085e-05 -4.6042e-05 3.1686e-05 -0.0011311 0.00011402 -0.00020434 -0.0026612 -0.0001299 6.7426e-05 2.826e-05 5.9658e-06 2.4648e-05 3.4382e-05 0.17656 0.00013855 8.2834e-06
-7.2289e-06 -3.4142e-06 -4.839e-07 1.1804e-06 5.2591e-05 2.0429e-06 4.0394e-05 -0.50801 9.448e-06 -0.00013195 2.7251e-06 2.4829e-07 -7.3442e-06 -4.4447e-06 6.6193e-05 -1.3612e-06 7.8183e-05 6.7473e-07 -7.0673e-07 -0.00013164 8.9555e-07 -8.8279e-06 8.7364e-06 1.6994e-08 3.2818e-05 5.2656e-09 -1.2362e-06 -1.3948e-05 -0.00024838 -9.8837e-08 2.6485e-05 -3.2148e-05 9.0744e-06 -1.2063e-06 -3.8921e-05 -1.405e-05 8.6886e-06 3.4849e-05 -9.5979e-06 -3.4513e-05 -0.0037073 -0.00029183 1.6705e-05 -6.7749e-07 7.3743e-07 1.4822e-06 6.3987e-06 0.0002509 0.00025495 -9.1595e-05
8.7095e-06 0.15908 -1.357e-05 0.00026045 1.2662e-06 -2.7953e-06 -0.00012107 2.5153e-07 -2.5622e-05 3.1974e-07 0.0031343 9.5963e-06 1.0511e-06 8.706e-05 -3.3011e-05 6.0563e-05 0.00017933 1.0652e-05 0.46669 -1.3228e-05 -9.4513e-05 -0.00010484 -0.00079214 4.0091e-06 0.22846 -2.1917e-06 -2.4521e-05 -1.0917e-05 -1.0028e-05 7.828e-05 2.9532e-06 -0.12078 8.2439e-06 -1.3495e-05 -9.1978e-05 0.00017561 5.8082e-06 -0.00056963 -0.00015639 0.00030504 -0.00010838 5.7944e-05 -0.00080762 1.752e-05 1.1403e-05 7.4446e-05 0.0030852 0.12405 -3.609e-05 2.434e-07
-8.8643e-06 -1.2505e-06 1.1669e-07 -2.4122e-06 4.9339e-06 -1.2163e-05 8.1738e-05 8.1062e-06 3.2457e-05 5.4495e-06 -4.4577e-05 1.4964e-07 -0.76731 1.8663e-05 -5.5665e-06 -9.4984e-06 2.2767e-05 0.00018327 -5.215e-06 -7.5111e-06 -3.0481e-06 -1.6025e-06 -2.6389e-05 -2.362e-05 0.00017415 1.2284e-07 0.00013087 2.1183e-06 2.9835e-06 1.8934e-08 7.617e-06 -0.00017602 5.6159e-06 1.928e-06 -3.3447e-06 -0.00065556 -3.3138e-06 -0.00012232 0.00010247 -3.9154e-05 1.1283e-05 0.00033113 -7.4998e-05 -1.4525e-05 -5.2773e-07 -1.0813e-05 9.9824e-06 1.0676e-05 -4.9687e-05 -1.7916e-07
1.2981e-05 0.40162 -2.9949e-05 -8.3465e-07 4.8903e-05 -0.38978 1.8776e-05 9.6881e-06 -2.6913e-06 -5.2844e-05 3.9055e-07 5.6531e-06 -6.0533e-06 7.8317e-05 -1.0414e-05 1.6277e-05 2.6728e-06 -2.2907e-06 -2.8879e-05 -5.4458e-05 -1.3635e-06 -2.8662e-06 -1.302e-05 1.778e-05 1.2014e-05 7.1679e-08 5.9733e-06 -4.687e-07 -9.6367e-07 -1.9426e-07 -3.4127e-06 -6.6501e-05 -3.9738e-06 -1.5904e-05 -8.1544e-05 5.5897e-05 -1.0861e-06 -0.24681 -2.1698e-07 0.00012983 -1.5041e-06 -3.4135e-05 -0.0002217 1.9089e-05 2.3538e-05 -1.2073e-06 6.7359e-05 1.3513e-05 -0.00013537 -1.3797e-07
-6.962e-07 -4.913e-06 -1.1626e-06 1.6642e-06 2.8276e-05 8.1302e-06 0.00061796 1.6745e-08 -9.9748e-05 -1.7574e-05 4.8852e-05 -1.9445e-07 2.9688e-07 6.2893e-05 1.4474e-06 -1.1345e-05 -1.5602e-07 1.6826e-06 1.9177e-05 -9.186e-06 1.2176e-07 1.1808e-06 -9.8861e-06 3.3358e-06 0.001523 -5.3099e-09 1.5662e-05 1.0158e-06 4.3807e-07 -3.8594e-08 2.0453e-05 -3.1678e-05 3.9323e-07 -3.9117e-06 -2.1054e-06 -0.0031287 0.00014295 -2.8549e-05 -4.3739e-05 -0.0003146 -3.0823e-05 1.2364e-05 -5.2467e-05 -6.0552e-05 -6.9241e-06 6.2863e-05 6.5169e-05 0.00066292 0.00028228 -0.00035365
1.4879e-06 -3.4101e-05 3.5481e-06 4.3212e-05 4.2855e-05 -0.28015 -2.8209e-05 4.3862e-06 1.8136e-05 1.7942e-05 -1.9814e-05 8.0713e-06 -9.7893e-06 -2.6278e-05 -0.00025672 1.4406e-05 0.003373 -1.1898e-05 -3.3874e-05 7.7206e-05 -0.00012702 -0.00037595 -0.00057774 -2.5377e-05 0.00054189 -1.2479e-06 -0.0027012 -1.7517e-06 -2.1602e-06 2.1123e-06 6.1875e-05 -0.22949 -2.6409e-05 -2.5467e-06 -3.6553e-06 0.00035075 -3.9844e-06 -0.0018063 0.58014 0.0046652 0.00022607 2.6215e-05 0.00010886 9.4998e-05 4.5741e-06 3.539e-05 0.00025668 0.22098 -0.00019018 -5.991e-07
-2.6989e-06 -2.6967e-06 2.4685e-06 -1.8834e-06 -0.00021188 -4.2826e-06 0.00038251 6.7512e-06 -1.0776e-05 0.00012968 -2.7677e-05 -4.4033e-07 -1.398e-06 4.5373e-06 0.00033402 9.5886e-06 0.0010198 -3.4335e-07 -5.4963e-05 5.0232e-05 -2.7899e-05 -0.0002391 0.00012339 -1.2709e-05 0.0019234 6.3382e-06 0.00011024 -6.7058e-06 -1.4198e-06 1.0511e-06 4.003e-05 -0.0058587 4.0246e-06 -5.751e-06 7.9746e-06 -0.0026904 4.4356e-05 -0.00074772 0.0037515 -8.2858e-05 3.107e-05 -0.0021969 -0.00018339 0.0020504 -1.2869e-06 -2.537e-05 0.00017254 0.0079689 -0.00081045 1.129e-06
1.2174e-05 -1.7053e-06 2.4149e-07 -7.0373e-07 -0.00021384 -7.0146e-05 0.00010024 1.1326e-05 0.00014424 0.00014621 3.4465e-05 3.8473e-06 -0.0019479 7.7272e-06 -2.0934e-05 -1.5065e-05 0.00023555 1.5496e-05 1.3106e-05 0.00010109 0.0032259 -6.9969e-05 -0.00010619 -2.9298e-05 0.00019428 -3.0747e-07 -0.00013571 2.1359e-06 -7.9469e-06 1.0927e-06 1.376e-05 -0.0021006 8.2572e-05 0.00037409 0.00011495 -0.00034409 1.5379e-05 -0.00065284 0.010122 0.00016738 1.2009e-05 -0.00010985 -0.00015831 0.016132 -2.5123e-06 -8.8801e-06 -5.4178e-05 0.0029294 -0.0012504 -9.9634e-08
1.5118e-06 -7.558e-07 -1.8322e-07 -1.4092e-06 4.4695e-06 -6.5571e-06 -4.9122e-06 -6.906e-06 -5.2747e-06 -8.3964e-06 0.35939 -1.7187e-06 2.037e-05 -0.28416 -1.0562e-05 -0.00035953 8.9841e-06 -0.00013046 -1.1866e-05 -1.7671e-06 1.2002e-05 -3.6142e-06 5.5802e-06 8.7854e-05 0.25184 -1.4387e-06 2.3566e-05 -4.0008e-06 -1.1149e-06 -7.8958e-08 -1.7333e-05 0.00014954 3.5137e-07 -1.4687e-05 -1.2979e-05 2.691e-05 -2.0143e-05 -0.21667 4.3521e-05 3.2302e-07 1.2069e-05 4.3656e-05 0.35026 9.3437e-09 8.0602e-07 -1.1666e-05 0.0038511 2.1269e-05 -0.00018578 9.4207e-07
-3.9208e-06 -8.6782e-07 -2.4532e-08 -6.112e-06 8.5591e-06 -6.2314e-06 -3.789e-06 -7.1944e-06 2.4152e-06 -1.0548e-06 0.00017282 -3.5618e-06 0.00014813 -0.31496 -1.4496e-05 -9.47e-05 2.3003e-05 -0.75244 -2.7708e-05 -7.2099e-06 1.0851e-05 5.3682e-07 8.3418e-05 8.1502e-05 0.27911 -1.5566e-06 0.00016016 -6.7495e-06 9.5318e-07 4.0255e-07 -2.3309e-05 0.00010342 -1.2932e-05 -1.5538e-05 -2.9042e-05 5.5175e-05 -1.6832e-05 -0.24015 1.9262e-05 -4.1524e-05 0.00010415 -0.00040245 0.38866 4.5092e-05 8.4026e-07 -1.1696e-05 0.0042779 2.3716e-05 2.1462e-05 3.566e-07
-3.9279e-06 9.8394e-05 0.51842 -3.7151e-07 8.9353e-06 3.736e-06 1.8746e-05 -2.9011e-05 7.5651e-05 -7.0645e-06 0.0007603 6.3708e-07 -1.3084e-07 -7.9908e-06 -3.1139e-06 -0.00013103 -3.4243e-06 1.5278e-05 0.0010366 -8.2566e-06 5.0242e-06 -1.1833e-05 2.2205e-06 -7.4356e-06 -7.8315e-05 -1.378e-07 3.9084e-05 1.117e-05 1.0388e-05 -1.4119e-06 1.1959e-06 -0.00034867 -2.7339e-05 6.9639e-07 0.022281 0.00011702 -4.3446e-06 6.2651e-05 -0.00015378 -6.7808e-05 -0.25899 7.2187e-05 -0.00016655 -0.00012565 0.00087015 -7.4213e-06 2.2513e-05 0.00089578 0.00096155 3.0976e-05
-3.1544e-06 9.1877e-05 -1.0308e-06 -2.188e-06 -1.9027e-05 -1.727e-05 0.10256 -0.14797 0.00026025 -1.01e-05 0.00010364 -2.4932e-06 4.4786e-06 1.329e-05 -9.4492e-06 -1.8749e-05 5.1472e-05 -6.1546e-06 0.00016063 -3.3136e-05 3.6576e-06 -5.2121e-06 2.7257e-06 -6.0558e-06 2.5048e-05 1.038e-06 6.2677e-05 0.00096906 -0.00018743 9.2346e-05 1.488e-05 -0.00059559 0.00019265 -4.1979e-06 0.001617 -0.00056771 -0.00020496 -6.3668e-05 -8.9572e-05 0.0014304 -0.0031185 -0.0033167 -1.6743e-05 0.0018495 -4.9947e-06 2.4796e-06 1.0988e-05 0.0008566 -0.028431 1.259e-05
4.7533e-07 6.2128e-07 -3.957e-07 1.4461e-06 -4.0019e-05 3.9758e-06 -8.9933e-05 -4.479e-07 -4.93e-06 6.3874e-05 8.1693e-07 -4.1585e-06 8.1573e-07 -3.2881e-05 5.9157e-05 6.0646e-06 4.0839e-06 -4.6385e-07 3.5018e-05 6.6529e-05 1.0027e-05 -1.4631e-06 -1.1976e-08 -4.5508e-08 -5.1093e-05 2.5287e-07 5.558e-06 6.0947e-07 -0.00013821 -3.7719e-07 -0.41363 -3.1462e-05 -3.1685e-07 2.3226e-06 -2.3392e-06 -0.00046785 3.6342e-06 4.3882e-05 6.1001e-06 2.6981e-05 -1.0885e-05 -1.771e-05 1.6822e-05 -2.1638e-05 2.2628e-06 -2.8917e-06 -9.265e-06 1.5799e-05 -0.00069785 -1.9959e-06
5.9248e-05 6.7829e-07 1.5886e-06 -5.2328e-06 -0.16771 4.5795e-05 -0.00015224 3.7053e-05 -1.8231e-05 -0.12462 -8.4292e-06 -3.5097e-07 -3.5716e-06 1.1797e-05 -1.4508e-07 3.6126e-06 -4.1336e-05 3.0704e-05 -2.4424e-05 -0.08463 2.9976e-05 9.0695e-06 2.7619e-06 1.4527e-05 -7.8916e-05 -2.5137e-06 -9.8075e-05 0.00020802 -7.8033e-07 5.4706e-06 -2.6641e-05 -0.20128 0.53587 3.3155e-06 -1.8954e-05 9.9136e-05 6.1722e-05 0.00011312 0.00013338 0.40347 -0.28066 -7.3635e-05 0.00012158 -0.00017184 3.8518e-06 -8.5665e-06 8.5766e-05 0.20102 0.0017349 3.3355e-05
6.5468e-06 -4.0943e-06 6.7534e-07 0.19343 4.7923e-05 -0.15912 -8.6488e-05 1.9278e-06 -3.998e-05 -9.4344e-06 -4.2331e-05 6.585e-07 1.4953e-05 6.5075e-06 -0.00014345 1.386e-05 0.39706 8.265e-05 4.051e-05 2.5355e-05 -0.00016343 -0.39274 -0.18697 -5.9085e-06 0.11755 -1.3337e-06 -0.25794 -2.0703e-06 -5.1575e-06 7.8174e-05 1.1035e-05 -0.13091 -1.7356e-05 -4.1074e-07 -5.0131e-07 0.00037219 3.0053e-05 -0.10198 0.3299 0.24103 -2.8197e-05 0.00059657 -1.6878e-05 -4.1127e-05 1.5106e-06 2.6727e-05 0.0017506 0.1283 0.00028432 -8.5798e-07
-1.1654e-05 3.9018e-06 4.942e-06 -8.1811e-06 5.8876e-05 2.3325e-05 0.14292 -0.00063449 2.2103e-06 -9.9716e-05 -5.0209e-05 2.7488e-06 8.9518e-05 -0.00014161 0.38116 -2.5699e-05 -6.5013e-05 -8.9665e-05 -4.484e-05 -8.3507e-05 0.2724 -5.8427e-06 -0.00028732 1.9204e-06 0.11946 5.1277e-06 0.0010936 -3.9169e-05 -2.0358e-06 1.2213e-05 0.00084581 -0.12811 0.00023626 -3.4173e-05 9.8618e-05 -0.0034261 0.00020027 0.00028264 -0.0011479 -0.00036297 -0.00064635 -0.33287 0.00052337 0.0020249 1.1096e-06 -1.0618e-05 0.0016882 0.13028 -0.013738 1.1055e-05
3.5744e-07 -4.5932e-06 -9.8333e-07 3.4422e-07 -7.964e-06 4.8472e-06 -4.7988e-05 -5.4544e-07 5.3894e-06 1.0578e-05 -1.7143e-05 -1.1814e-07 1.4441e-07 -1.3577e-05 -3.3002e-05 -3.1595e-05 4.1332e-06 1.6011e-06 0.3286 8.0638e-06 2.4173e-06 2.3286e-06 -3.1195e-07 2.2513e-05 -0.00017616 1.6797e-07 -2.428e-06 9.873e-07 -0.00011448 6.9935e-07 -0.00035035 3.8453e-05 2.2676e-06 -1.6018e-06 -0.00018852 1.9906e-05 -4.4629e-06 1.075e-05 2.4125e-05 1.7099e-05 -5.1993e-07 6.707e-06 8.1106e-05 2.2933e-06 2.9021e-07 -6.7673e-06 1.0116e-05 -2.7814e-05 -1.2226e-05 -5.8762e-07
1.5528e-08 2.1361e-07 -7.4543e-07 3.5558e-09 -3.1297e-07 1.3992e-06 2.8276e-05 -0.00070316 1.0892e-06 1.9798e-07 -3.5578e-06 -6.3872e-09 1.1543e-06 -4.0147e-08 -1.0774e-08 2.2643e-06 3.1216e-08 -5.7659e-07 8.135e-08 2.9853e-07 2.1537e-08 -6.7127e-09 -1.7151e-08 -2.7199e-10 -3.5128e-08 4.1604e-09 -2.672e-06 1.2135e-06 4.5417e-08 7.0923e-09 1.1832e-06 7.2048e-06 -4.6303e-07 2.1276e-06 0.0012497 3.6374e-06 1.6691e-05 -1.1737e-05 3.7178e-07 2.8325e-07 -5.4807e-05 -6.5561e-06 -5.4592e-06 5.4552e-06 -5.1641e-07 4.0877e-09 -2.4169e-09 2.4059e-06 -0.00026424 2.6262e-06
0.24686 -3.7089e-07 -1.4771e-07 -9.3109e-07 -0.16055 1.4644e-05 0.00023001 -5.7332e-06 -3.3517e-06 -0.1201 0.26491 -0.51078 1.7207e-05 -0.20937 -5.0516e-06 0.33899 8.8966e-06 -9.2156e-05 1.9142e-06 -0.081698 9.1946e-06 -1.2834e-06 -4.5335e-06 0.37882 0.18557 -1.0936e-06 1.8751e-05 -5.4778e-06 -8.4215e-07 6.6016e-08 -9.8838e-06 0.00010981 4.3336e-06 -3.4291e-05 -4.2574e-06 1.1642e-05 8.7023e-05 -0.15968 2.3781e-05 -6.1982e-05 -5.2026e-06 4.1209e-05 0.2579 -2.6909e-05 -4.3655e-06 -5.3026e-06 0.0036031 2.199e-06 -0.00023452 5.0538e-06
2.4487e-06 0.00029566 -1.977e-06 0.00032466 -3.6225e-05 -1.5899e-05 -2.3927e-05 -0.00010881 0.0004466 -4.6329e-07 -1.0058e-05 9.0031e-07 1.5644e-06 3.5306e-05 -5.9517e-05 -4.003e-07 0.0003237 -2.0225e-05 0.00010864 -1.7894e-05 -0.00019917 -0.00014808 -0.00050676 -2.8387e-05 0.00023965 -2.0992e-06 2.7948e-05 0.00032594 -1.5721e-05 0.57735 6.5019e-06 -0.16424 3.6601e-06 -1.6257e-06 0.0012666 -0.00077111 2.9606e-06 -0.00095243 -6.8528e-05 0.0015928 -0.0014723 -3.6107e-06 9.6216e-05 0.0038157 -9.6741e-05 1.0835e-05 3.8843e-05 0.16678 -0.00015945 2.3364e-06
0.25473 -3.6636e-07 1.3571e-07 -1.3845e-06 -0.166 -2.8251e-05 3.2e-05 -4.4826e-06 3.8331e-06 -0.12329 0.27324 -8.1922e-05 1.7528e-05 -0.21608 -5.2243e-06 0.34969 8.232e-06 -8.8578e-05 5.5746e-07 -0.083597 9.5779e-06 -1.7729e-06 4.4826e-06 0.3909 0.19148 -1.0634e-06 2.4474e-05 1.8193e-06 2.3434e-07 2.0156e-07 -1.4423e-05 0.00010143 -4.0554e-06 -8.5729e-06 -7.0066e-06 5.7478e-06 -0.51357 -0.16477 3.0875e-05 -5.2802e-05 -2.3345e-06 8.4105e-05 0.26629 -1.7214e-05 -3.2137e-06 -7.6931e-06 0.0035638 1.5439e-05 -0.00096396 1.2604e-05
3.1554e-06 -3.283e-05 -5.0041e-05 0.00050578 2.6048e-06 -3.2169e-06 -5.0036e-06 -2.1627e-05 -1.7499e-05 -9.645e-06 -0.00012839 -4.6528e-06 9.2362e-07 6.4448e-05 -1.644e-05 3.214e-05 0.00056617 3.0932e-06 -0.0002316 -1.3822e-05 -0.00019431 -0.00023205 -0.00084094 -9.0989e-06 0.00070183 6.1682e-08 -0.00012594 1.1133e-05 -1.8763e-05 0.00013928 -4.5687e-07 -0.0015298 1.7446e-07 6.0218e-06 0.62613 6.3787e-05 -8.294e-07 -0.00090223 0.00016245 0.0014955 -0.00031682 0.00062086 -1.2995e-05 -7.3007e-05 -1.5552e-06 3.2212e-05 -8.4836e-07 0.0061923 8.6833e-05 2.7894e-07
5.9607e-06 1.7681e-05 -1.8298e-06 0.23494 2.9026e-05 -5.1975e-05 -8.5302e-05 -6.9438e-07 -6.1583e-05 -2.3974e-05 -4.6401e-05 8.0282e-07 2.1747e-05 5.0576e-05 3.8208e-06 7.5854e-06 0.4801 0.00010869 7.378e-05 -2.2484e-05 -0.00011419 -0.47656 -0.22677 1.9271e-05 0.14265 -7.4605e-07 -0.31134 1.3546e-06 -4.8668e-06 9.3443e-05 -2.3854e-05 -0.00072702 -2.5685e-06 1.9924e-07 2.0589e-06 0.00020706 4.0039e-05 -0.1234 0.00053356 0.2892 -0.00018375 0.00070553 -0.00015291 -0.00011564 -1.3252e-06 1.3442e-05 0.0019414 0.0034462 0.0004626 -6.2168e-07
1.9623e-05 -8.1809e-06 -5.1798e-07 -1.3811e-05 -0.17446 -0.00058415 0.00040106 -3.4875e-06 0.00015963 -0.12877 -8.2736e-05 6.7949e-06 3.0136e-06 -3.4847e-05 0.00089802 -0.00035565 1.8386e-06 1.0943e-05 -2.1484e-05 -0.087407 -0.00020248 1.7663e-05 -1.3643e-05 5.8498e-05 0.2014 -1.204e-06 -1.7345e-05 -4.199e-06 -2.064e-06 1.4771e-06 -3.3809e-05 -0.00041509 5.9942e-06 0.6599 0.00010204 0.00013715 0.00010253 -0.17405 -2.0477e-05 -0.0002846 2.7554e-05 6.6242e-05 0.0031815 -7.2824e-05 -1.8074e-07 7.1346e-05 0.0023443 0.0017006 0.00031737 -2.3307e-10
0.20503 1.7085e-05 -2.339e-06 0.25491 -0.13395 -0.00014903 -4.2368e-06 4.5171e-06 -3.5983e-05 -0.099131 0.0007041 2.1334e-06 -0.0023068 8.0332e-05 2.4632e-05 -0.00011061 -2.2225e-05 -0.0065236 9.7629e-05 -0.0671 -0.00013401 -0.00044994 -0.24657 6.2263e-06 0.00049887 3.2047e-07 -0.37991 1.1416e-06 -8.1979e-06 7.2329e-05 1.8414e-05 -0.0012318 2.5475e-05 5.1287e-06 6.0949e-05 -0.0005782 1.141e-05 -0.00086949 -0.0007546 -0.00039259 -0.00023136 -0.0097004 -0.00042392 5.2414e-05 -3.0446e-06 1.6586e-05 0.00015221 0.0050003 -0.00056263 1.3166e-07
0.20503 1.6145e-05 -2.559e-06 0.25489 -0.13395 -0.00014058 -3.9041e-06 4.5053e-06 -3.653e-05 -0.099131 0.00069472 8.1757e-06 -0.0023102 0.00010696 2.5727e-05 -0.00010986 5.1279e-05 -0.0065235 9.8933e-05 -0.0671 -0.00013755 -0.00013026 -0.2466 1.5928e-05 0.00074065 3.3506e-07 -0.37974 4.0286e-06 -8.2971e-06 7.2257e-05 2.4293e-05 -0.0012258 2.58e-05 3.9806e-06 6.1108e-05 -0.00058161 1.2257e-05 -0.0016906 -0.0008303 -0.00080839 -0.00022437 -0.0097016 -0.0004861 5.2252e-05 -3.0503e-06 2.2427e-05 0.00014333 0.0050141 -0.0005778 1.3966e-07
1.5118e-06 -7.558e-07 -1.8322e-07 -1.4092e-06 4.4695e-06 -6.5571e-06 -4.9122e-06 -6.906e-06 -5.2747e-06 -8.3964e-06 0.35939 -1.7187e-06 2.037e-05 -0.28416 -1.0562e-05 -0.00035953 8.9841e-06 -0.00013046 -1.1866e-05 -1.7671e-06 1.2002e-05 -3.6142e-06 5.5802e-06 8.7854e-05 0.25184 -1.4387e-06 2.3566e-05 -4.0008e-06 -1.1149e-06 -7.8958e-08 -1.7333e-05 0.00014954 3.5137e-07 -1.4687e-05 -1.2979e-05 2.691e-05 -2.0143e-05 -0.21667 4.3521e-05 3.2302e-07 1.2069e-05 4.3656e-05 0.35026 9.3437e-09 8.0602e-07 -1.1666e-05 0.0038511 2.1269e-05 -0.00018578 9.4207e-07
0.25151 -1.1894e-09 6.8054e-08 1.0025e-06 -0.1639 -3.1731e-05 3.7922e-05 -1.8405e-06 8.2967e-06 -0.12174 0.26979 -7.8644e-05 1.7315e-05 -0.21331 -1.6823e-06 0.34501 8.5556e-06 -8.6618e-05 -3.0703e-06 -0.082544 4.3013e-06 -9.5225e-07 5.0098e-06 0.38572 -0.00079931 6.4496e-08 5.2621e-05 4.1901e-06 6.9466e-07 -1.1791e-07 -3.1048e-06 3.461e-05 -5.0555e-06 -3.3814e-06 -1.4553e-06 -3.3216e-06 -0.50716 -0.16271 2.1675e-05 -4.6461e-05 -3.0654e-05 6.4724e-05 0.26226 -1.3426e-05 -3.3148e-06 9.0136e-07 0.51531 2.1069e-05 -0.00095624 1.2182e-05
5.5381e-05 -1.0207e-06 2.3919e-07 1.6212e-05 -0.21126 -1.9095e-05 -1.6899e-05 -4.6859e-06 -3.7011e-05 -0.15699 -9.6369e-06 -4.3608e-06 3.4596e-06 -6.3e-05 -1.8152e-06 2.576e-06 1.192e-06 1.0643e-05 -7.838e-06 -0.10651 1.0365e-05 3.9719e-06 -1.7252e-06 7.4105e-06 0.24554 -1.4293e-06 -3.6522e-06 -1.8422e-06 1.3347e-07 6.3095e-07 -4.1908e-06 0.0003403 1.8709e-06 -1.4606e-05 -2.3072e-07 -1.6146e-06 -2.001e-06 9.2212e-05 -0.00012157 -7.3858e-05 3.4183e-05 5.7725e-05 -0.00028217 -5.0272e-06 -3.9429e-06 -1 0.0032932 2.8403e-07 7.0165e-05 3.6001e-07
6.218e-06 -3.1823e-06 4.7541e-06 8.2434e-07 -5.4008e-05 -2.3936e-05 -1.1883e-05 -8.4757e-07 1.1691e-06 6.7059e-05 -1.2846e-05 -1.2113e-06 -2.2713e-06 -0.16515 1.1621e-05 1.0335e-05 -4.9394e-05 -3.8769e-06 -4.287e-06 4.3555e-05 0.68036 -3.4703e-06 9.6123e-06 -2.3111e-05 -0.00050023 -1.963e-06 3.5436e-05 -1.3026e-05 -4.3277e-06 1.4111e-05 -1.5306e-05 -0.15633 3.3017e-06 -5.9071e-06 1.0958e-05 -5.8463e-06 1.7485e-06 -0.12644 -0.00036272 -9.1057e-05 4.1947e-06 6.5212e-06 -0.00063453 3.3104e-05 3.5395e-06 -2.4622e-05 -0.00017578 0.1539 5.9082e-05 -5.6092e-07
1.1454e-05 -1.9118e-05 0.58535 -2.2404e-05 -7.9678e-06 -0.00020791 -0.00011 -0.35098 0.0010982 3.7089e-06 -4.556e-05 -8.206e-07 -1.755e-06 0.00018122 0.00040691 6.9729e-06 -7.5898e-05 1.1187e-05 -3.0232e-05 -1.0509e-05 -0.00010839 1.6788e-05 1.1712e-05 3.6422e-06 0.20374 -3.4578e-06 7.6231e-05 -9.4506e-06 -7.2032e-05 -6.7265e-07 0.00019634 -0.21038 -7.9085e-06 -7.7009e-06 -0.00012396 0.00075467 -0.0002973 -0.00010128 0.00011246 -0.00033114 -0.29935 0.00027758 -0.00023123 -9.3739e-05 0.0010311 -6.7866e-06 0.0030086 0.21 -0.033951 4.0257e-05
2.4722e-05 1.5638e-05 -6.1848e-07 -4.0555e-06 -0.1711 -0.27015 -0.00042161 -0.17117 -0.00020613 -0.12535 -2.3453e-05 -1.2346e-06 0.00014857 0.0001458 5.3974e-06 -4.2086e-05 -5.3928e-05 -0.26904 -2.4192e-05 -0.085175 -9.4446e-06 3.3774e-05 -7.6621e-05 3.7944e-05 3.3752e-05 2.6906e-07 0.00010161 -6.7643e-06 -7.2646e-06 2.5975e-05 5.0388e-05 -0.00018982 -1.8918e-06 -1.1632e-05 -1.2723e-05 -0.2012 -2.396e-06 -2.4309e-05 -3.2307e-05 -0.0001766 0.00014849 9.1861e-05 -9.7571e-05 -0.00087755 -2.8259e-06 3.5902e-06 5.0312e-05 0.0013632 -0.0029589 5.2276e-06
-2.8999e-05 0.00012324 0.0001009 8.0098e-07 3.5079e-05 -0.0021931 -5.5779e-05 -4.81e-05 -1.1592e-05 -0.00011719 0.00043866 7.3056e-06 1.1849e-06 -0.00048636 -2.5558e-05 -6.0002e-06 7.662e-05 1.9217e-05 0.33048 -0.00011977 -1.4373e-05 -2.2888e-05 -1.0974e-06 2.6433e-05 0.00016669 3.9169e-07 -6.5922e-06 -1.5452e-06 -0.00034925 1.3556e-06 -8.0674e-07 -0.0011326 -2.1883e-05 2.0178e-06 0.43466 -0.00041084 -8.7983e-06 0.00013029 -0.00044129 -0.00024575 -0.0012024 -0.00013595 0.0004985 -0.0001156 1.2067e-05 7.6092e-07 -0.00011822 0.00057668 -6.5644e-05 -4.0606e-08
2.8454e-05 4.9558e-05 -1.433e-05 -6.0018e-07 -0.14354 5.2776e-07 0.00071899 2.218e-05 -3.9526e-06 -0.10693 -5.1733e-06 -5.247e-06 2.6834e-06 3.3975e-05 1.7107e-06 -3.1594e-06 1.359e-06 4.4061e-06 -1.2469e-05 -0.072636 1.8252e-06 -1.7341e-05 -1.2689e-06 -1.2592e-05 -1.2872e-05 -8.5032e-08 2.0555e-06 1.2086e-05 -1.6588e-05 6.4534e-08 7.8786e-06 -3.5503e-06 8.3969e-06 -1.0525e-05 -5.0168e-06 -0.00048333 0.00015717 -3.8213e-06 5.2764e-06 -0.00015055 -0.0029046 2.1322e-05 1.4569e-05 -3.2715e-05 0.005603 -7.1789e-07 1.3979e-06 3.0217e-05 0.00038758 -1.0379e-06
5.9607e-06 1.7681e-05 -1.8298e-06 0.23494 2.9026e-05 -5.1975e-05 -8.5302e-05 -6.9438e-07 -6.1583e-05 -2.3974e-05 -4.6401e-05 8.0282e-07 2.1747e-05 5.0576e-05 3.8208e-06 7.5854e-06 0.4801 0.00010869 7.378e-05 -2.2484e-05 -0.00011419 -0.47656 -0.22677 1.9271e-05 0.14265 -7.4605e-07 -0.31134 1.3546e-06 -4.8668e-06 9.3443e-05 -2.3854e-05 -0.00072702 -2.5685e-06 1.9924e-07 2.0589e-06 0.00020706 4.0039e-05 -0.1234 0.00053356 0.2892 -0.00018375 0.00070553 -0.00015291 -0.00011564 -1.3252e-06 1.3442e-05 0.0019414 0.0034462 0.0004626 -6.2168e-07
1.2174e-05 -1.7053e-06 2.4149e-07 -7.0373e-07 -0.00021384 -7.0146e-05 0.00010024 1.1326e-05 0.00014424 0.00014621 3.4465e-05 3.8473e-06 -0.0019479 7.7272e-06 -2.0934e-05 -1.5065e-05 0.00023555 1.5496e-05 1.3106e-05 0.00010109 0.0032259 -6.9969e-05 -0.00010619 -2.9298e-05 0.00019428 -3.0747e-07 -0.00013571 2.1359e-06 -7.9469e-06 1.0927e-06 1.376e-05 -0.0021006 8.2572e-05 0.00037409 0.00011495 -0.00034409 1.5379e-05 -0.00065284 0.010122 0.00016738 1.2009e-05 -0.00010985 -0.00015831 0.016132 -2.5123e-06 -8.8801e-06 -5.4178e-05 0.0029294 -0.0012504 -9.9634e-08
-1.5145e-06 0.37611 2.8244e-05 -4.1988e-07 -2.7245e-05 -1.7529e-05 1.7026e-05 -0.15652 0.00029323 2.3852e-05 0.00031952 1.4792e-07 1.1603e-06 7.5931e-06 -5.3999e-06 -5.5692e-05 3.1798e-08 -1.337e-05 0.0005618 -6.2725e-06 1.6379e-06 -3.2956e-06 4.4097e-06 -5.1138e-06 2.6238e-05 8.6152e-08 1.9639e-05 7.4366e-05 -2.9907e-06 0.00012273 2.7003e-06 -0.00022086 -3.1979e-05 4.1979e-06 0.24766 -0.00047838 4.8559e-06 -8.0586e-05 -7.9343e-05 0.00031998 -0.00085736 -0.00099525 -0.00011798 0.0019791 2.1865e-05 -4.9771e-10 1.7452e-05 0.0010518 -0.00023475 3.9686e-06
1.326e-06 0.24752 -2.0303e-05 1.3456e-05 4.708e-05 -3.7725e-06 6.7642e-05 3.4847e-06 -5.8035e-05 -0.00010173 -7.5618e-06 4.1092e-06 -9.6923e-06 -0.00019916 0.0001452 -3.4929e-05 -7.1501e-05 2.0067e-05 1.0773e-05 -9.4619e-05 -2.2305e-05 2.7019e-05 -0.28273 -9.9481e-06 -2.78e-05 -8.6651e-08 -3.0334e-05 -1.6899e-07 -7.9774e-07 -6.5616e-06 5.2684e-05 -9.1921e-05 5.0406e-05 -5.7878e-06 1.904e-05 -0.0004517 5.5608e-06 -0.1527 -3.8336e-05 1.3513e-05 -0.00010868 -0.00017067 0.00065439 0.0023483 3.2423e-05 -1.5447e-06 -0.00012913 5.5519e-05 -9.0301e-05 2.4022e-07
7.4416e-06 -1.7315e-07 -2.1161e-06 6.1748e-06 -1.3198e-05 -5.3231e-06 0.00017945 6.2279e-06 0.0025808 7.441e-06 -7.9997e-06 -1.1585e-06 5.8016e-06 -5.2039e-07 -6.1103e-06 3.8536e-06 0.000663 6.9371e-06 -4.0688e-06 2.5009e-06 -3.0938e-05 -0.0010756 7.1306e-05 -6.8803e-07 9.7361e-05 5.9198e-08 5.292e-05 -2.2147e-05 -0.87936 -5.2229e-07 -6.2458e-06 -0.0004581 3.7894e-05 1.2043e-06 5.0424e-06 -0.015919 1.0305e-05 5.3297e-05 -7.0919e-05 8.6423e-07 -0.0010763 -6.8375e-06 4.6957e-06 0.0059417 6.4216e-06 8.1049e-06 2.408e-05 0.00043974 0.0011287 5.9226e-07
0.23629 -1.6397e-08 -2.0331e-07 1.334e-06 -0.15367 1.0413e-05 0.00022609 -3.0595e-06 1.0293e-06 -0.11496 0.25356 -0.48889 1.6478e-05 -0.20037 -1.5707e-06 0.32422 8.9169e-06 -8.7417e-05 -1.5682e-06 -0.0782 3.9587e-06 -4.7866e-07 -3.7909e-06 0.36237 -0.00068602 -7.167e-11 4.4671e-05 -2.9949e-06 -3.7098e-07 -2.3445e-07 9.976e-07 4.3551e-05 3.1606e-06 -2.8048e-05 1.0553e-06 2.6936e-06 9.2256e-06 -0.15285 1.4489e-05 -5.3997e-05 -3.1603e-05 2.2239e-05 0.24623 -2.2403e-05 -4.3116e-06 2.9047e-06 0.48409 7.5748e-06 -0.00022865 4.5904e-06
6.0641e-06 -1.8872e-06 0.00016913 5.4419e-06 -1.4523e-05 -0.00010996 0.00012212 -0.00062397 0.0017214 1.4117e-05 -4.7368e-06 -3.7698e-07 1.7231e-06 -1.5484e-05 0.00042016 3.8689e-06 0.00043737 7.9159e-07 1.9431e-05 6.8455e-06 -3.895e-05 -0.00072375 4.9012e-05 -2.3309e-06 0.00011678 -3.9619e-09 1.4996e-05 -1.3935e-05 -0.30352 -6.2237e-07 -0.00018951 -0.00035758 2.3949e-05 3.0166e-08 -3.8797e-06 -0.010752 7.2748e-06 3.9965e-05 -4.6115e-05 -4.0607e-06 -0.00082224 -8.1299e-06 -2.1058e-07 0.0038013 3.3426e-05 -7.3263e-06 1.5347e-05 0.00081569 0.00069358 -9.0853e-05
-2.7379e-06 1.5748e-07 6.7904e-07 -3.0957e-07 1.1542e-07 -4.5685e-06 -7.0872e-05 -3.8252e-05 0.28193 -3.0261e-06 0.00016658 1.8178e-06 -4.4364e-06 -1.0068e-05 -2.1048e-05 -3.5121e-05 -6.6426e-05 -9.0492e-06 -7.1394e-06 -3.0896e-06 -2.1823e-06 2.664e-05 -3.0579e-06 1.1684e-06 -0.00019251 -2.134e-06 3.0827e-05 2.6416e-06 -1.4373e-06 1.8948e-05 -1.7678e-05 -0.15071 -3.0649e-06 -1.9031e-06 0.00037571 0.00033748 -8.8393e-06 0.00010187 2.6562e-05 -7.8457e-05 -5.7075e-05 -0.00011698 4.6796e-05 0.00015976 3.4811e-06 -1.415e-05 4.0739e-05 0.15093 9.2199e-05 -1.0796e-06
0.24686 -3.7089e-07 -1.4771e-07 -9.3109e-07 -0.16055 1.4644e-05 0.00023001 -5.7332e-06 -3.3517e-06 -0.1201 0.26491 -0.51078 1.7207e-05 -0.20937 -5.0516e-06 0.33899 8.8966e-06 -9.2156e-05 1.9142e-06 -0.081698 9.1946e-06 -1.2834e-06 -4.5335e-06 0.37882 0.18557 -1.0936e-06 1.8751e-05 -5.4778e-06 -8.4215e-07 6.6016e-08 -9.8838e-06 0.00010981 4.3336e-06 -3.4291e-05 -4.2574e-06 1.1642e-05 8.7023e-05 -0.15968 2.3781e-05 -6.1982e-05 -5.2026e-06 4.1209e-05 0.2579 -2.6909e-05 -4.3655e-06 -5.3026e-06 0.0036031 2.199e-06 -0.00023452 5.0538e-06
6.9881e-06 -1.3503e-07 -1.5616e-06 -7.6481e-06 -4.6781e-06 1.6921e-05 -8.4398e-05 7.2696e-08 -3.091e-06 -8.4801e-06 0.35602 4.7553e-06 2.6323e-05 1.1063e-05 -5.4548e-06 0.44675 2.2392e-07 -2.1947e-05 0.50364 -5.6731e-06 -6.8673e-06 -4.3998e-06 -4.2435e-06 0.00095181 0.24742 -1.1184e-06 4.8699e-05 -8.3052e-06 -2.02e-06 4.2455e-06 -3.9725e-05 -0.0015154 6.0381e-06 -1.4097e-05 1.6926e-06 0.00016601 -8.9908e-05 -0.21274 -6.177e-05 -3.1825e-05 4.4797e-05 9.5654e-05 -0.0016863 6.1483e-07 1.2083e-07 1.4934e-05 0.0036549 0.0012365 -0.00029432 9.6039e-07
-8.0123e-07 0.41622 -0.0015103 1.3053e-08 2.4497e-05 2.7871e-06 0.09045 2.3083e-06 -1.7633e-06 -6.2262e-05 5.257e-07 6.1815e-06 -2.1194e-08 -3.1337e-06 -5.444e-06 3.6431e-07 -2.5888e-06 4.1484e-07 1.4858e-05 -8.6049e-05 1.4541e-05 -2.5186e-05 3.4194e-06 3.9872e-07 -0.00016793 2.9399e-07 1.8827e-06 1.2368e-05 1.284e-06 -3.6095e-08 -6.6797e-06 -0.0023686 -3.2768e-06 -7.0271e-06 -4.6226e-05 -4.8179e-05 5.7235e-05 3.036e-05 -0.00019801 -6.597e-05 1.1346e-05 -1.4492e-05 2.2361e-05 3.0017e-05 0.99998 -2.7881e-06 -7.5612e-07 0.00042238 -0.00537 6.763e-06
8.534e-05 -5.2106e-06 -1.9965e-07 -2.1069e-05 0.00021448 5.4119e-05 0.39115 -0.00064111 0.32089 -0.00054004 0.00010286 -0.012879 7.3596e-06 0.00018702 -0.00021649 5.6784e-05 -2.1399e-05 -1.0109e-05 4.5087e-05 -0.00058029 -9.1397e-05 3.2777e-05 -9.9832e-06 1.2743e-05 0.16594 9.6598e-07 3.4274e-05 0.0014406 3.7712e-06 8.3066e-06 6.7682e-05 -0.00093371 0.00043532 -5.5192e-05 -2.7733e-05 0.00082711 -0.00047531 -0.14103 -9.575e-06 0.00090671 -0.0064394 0.00028372 -0.00031431 0.00011839 4.2736e-05 2.8407e-05 0.0026554 0.00010464 -0.69372 3.7792e-05
6.5468e-06 -4.0943e-06 6.7534e-07 0.19343 4.7923e-05 -0.15912 -8.6488e-05 1.9278e-06 -3.998e-05 -9.4344e-06 -4.2331e-05 6.585e-07 1.4953e-05 6.5075e-06 -0.00014345 1.386e-05 0.39706 8.265e-05 4.051e-05 2.5355e-05 -0.00016343 -0.39274 -0.18697 -5.9085e-06 0.11755 -1.3337e-06 -0.25794 -2.0703e-06 -5.1575e-06 7.8174e-05 1.1035e-05 -0.13091 -1.7356e-05 -4.1074e-07 -5.0131e-07 0.00037219 3.0053e-05 -0.10198 0.3299 0.24103 -2.8197e-05 0.00059657 -1.6878e-05 -4.1127e-05 1.5106e-06 2.6727e-05 0.0017506 0.1283 0.00028432 -8.5798e-07
-4.3605e-05 0.28297 -2.1692e-05 -5.7268e-06 0.067716 -7.5372e-06 -0.0001822 1.5944e-05 6.0577e-05 -0.3497 -4.2026e-05 -1.4225e-06 0.00016642 -2.8012e-05 7.1062e-05 4.2571e-06 -5.2372e-05 -0.00014401 -4.3766e-06 0.60205 -5.9864e-05 0.00025063 -3.3013e-05 -1.8675e-06 -0.00012921 -2.1722e-06 0.001574 4.1573e-05 -6.9155e-06 1.6471e-05 -3.4143e-05 -0.21297 0.56045 4.1484e-06 0.00012692 0.00055217 3.5284e-05 -9.4499e-06 0.00028879 2.7507e-06 9.1878e-05 -0.56616 0.00012217 -0.00045861 2.0742e-05 -7.1399e-06 4.4448e-05 0.21015 -0.00029219 -9.1719e-07
-1.0322e-05 2.7215e-07 2.9635e-06 -3.6256e-06 3.1653e-05 -3.575e-05 0.00050708 8.5432e-06 -0.00012859 -2.5978e-06 7.2044e-05 -6.7926e-06 2.8572e-06 4.1556e-07 0.00058804 5.2383e-06 7.6003e-06 -1.3075e-06 -7.0698e-05 2.195e-05 0.00021472 -3.5835e-05 -1.5274e-05 1.2485e-08 0.0026005 8.3478e-06 4.0475e-05 4.9924e-06 -6.3877e-07 3.4069e-06 0.00013978 -0.0065858 9.5731e-05 -9.2424e-06 1.4006e-06 -0.0074742 4.1148e-05 0.00021408 0.0098615 4.5225e-05 -1.1276e-05 -0.0030252 -0.00015333 0.0024944 -2.3924e-06 -3.4245e-05 0.00024363 0.0099478 -0.0013549 1.4353e-06
-1.0947e-06 1.5766e-05 -2.6089e-06 0.44068 2.0353e-05 7.284e-06 3.1467e-06 8.5338e-07 -8.8071e-06 -2.9817e-05 -3.3864e-06 -2.6818e-06 -1.2315e-05 -1.5996e-05 -3.6187e-06 4.6847e-06 2.6436e-06 2.8169e-05 0.00018178 -1.6431e-05 -2.7716e-06 9.5871e-06 -0.42489 2.2552e-06 1.4953e-05 1.2781e-07 -3.3672e-05 -8.9634e-08 6.9692e-07 -2.5088e-05 -3.3123e-06 -4.717e-05 -7.4179e-06 8.1197e-07 -1.5472e-05 6.651e-06 -5.2626e-07 1.2573e-05 1.834e-05 -1.5123e-06 -6.1356e-06 -6.4902e-05 -6.9207e-06 1.3414e-05 1.1706e-06 -3.7786e-06 9.1773e-05 5.7839e-06 -2.1849e-05 1.0473e-07
0.0001009 -6.1023e-06 1.1768e-06 -6.3988e-06 -0.3314 -0.51967 -5.7034e-05 8.4547e-06 3.3336e-06 -0.24651 -2.6288e-05 7.5992e-07 -4.9843e-06 1.246e-05 -1.5433e-05 1.5097e-05 -8.9351e-05 4.7148e-06 -7.1801e-05 -0.16719 8.5954e-05 2.5077e-05 3.5236e-05 1.0911e-05 -8.4919e-05 -4.64e-06 0.00011059 -1.9796e-06 -6.8386e-06 8.8252e-07 -3.75e-05 -0.39743 8.6724e-06 -2.0571e-05 -4.5609e-05 1.2977e-05 -4.6546e-06 0.00010939 0.00036637 9.305e-06 4.2611e-05 5.5782e-05 0.00016179 6.5702e-05 1.7154e-06 -8.7773e-06 0.00013986 0.3973 0.00014245 -4.1692e-07
2.6766e-07 -2.8302e-08 8.2671e-08 -1.4951e-07 -1.7807e-07 -4.2037e-07 1.6243e-05 4.8515e-06 -2.0078e-06 2.9087e-07 -1.5881e-07 -2.61e-07 -1.8733e-08 -6.4067e-08 5.2421e-07 2.99e-07 -8.452e-08 -8.6764e-08 -8.0889e-08 2.9915e-07 5.4404e-08 1.2993e-08 -7.4475e-07 2.4835e-07 -1.4127e-06 -2.066e-09 -2.843e-07 7.7235e-07 -4.9203e-07 1.732e-08 1.8955e-06 7.9161e-07 5.2543e-07 4.853e-08 -7.1222e-08 1.3233e-06 -2.7641e-05 1.6035e-06 1.6758e-06 -2.8634e-06 -0.00010816 1.176e-06 2.3337e-06 2.3481e-06 1.5102e-07 -7.9662e-08 8.9612e-07 3.968e-07 -6.6444e-05 -0.99986
2.4487e-06 0.00029566 -1.977e-06 0.00032466 -3.6225e-05 -1.5899e-05 -2.3927e-05 -0.00010881 0.0004466 -4.6329e-07 -1.0058e-05 9.0031e-07 1.5644e-06 3.5306e-05 -5.9517e-05 -4.003e-07 0.0003237 -2.0225e-05 0.00010864 -1.7894e-05 -0.00019917 -0.00014808 -0.00050676 -2.8387e-05 0.00023965 -2.0992e-06 2.7948e-05 0.00032594 -1.5721e-05 0.57735 6.5019e-06 -0.16424 3.6601e-06 -1.6257e-06 0.0012666 -0.00077111 2.9606e-06 -0.00095243 -6.8528e-05 0.0015928 -0.0014723 -3.6107e-06 9.6216e-05 0.0038157 -9.6741e-05 1.0835e-05 3.8843e-05 0.16678 -0.00015945 2.3364e-06
5.6694e-06 0.38561 -2.9843e-05 -4.8723e-06 -3.4247e-05 -1.9448e-06 -0.00042639 -5.5254e-05 0.00035371 2.824e-05 3.8885e-06 -1.5872e-05 -1.8827e-06 3.8182e-05 -8.4551e-06 8.5855e-06 -2.8831e-06 3.4671e-05 -9.369e-06 -4.6872e-05 -8.9305e-06 -1.7793e-05 1.218e-05 -1.4031e-05 0.00018315 8.7681e-07 -5.7637e-05 0.7071 8.3981e-06 0.00014893 2.7104e-05 1.5871e-06 0.38187 4.0051e-06 0.0010264 -0.00042302 -0.00040998 -0.11869 -9.634e-05 0.28118 -0.40201 -0.0017164 -1.1157e-05 0.0027976 -1.3847e-05 4.3159e-06 6.2359e-05 0.0012201 -0.032993 5.3152e-05
0.25151 -1.1894e-09 6.8054e-08 1.0025e-06 -0.1639 -3.1731e-05 3.7922e-05 -1.8405e-06 8.2967e-06 -0.12174 0.26979 -7.8644e-05 1.7315e-05 -0.21331 -1.6823e-06 0.34501 8.5556e-06 -8.6618e-05 -3.0703e-06 -0.082544 4.3013e-06 -9.5225e-07 5.0098e-06 0.38572 -0.00079931 6.4496e-08 5.2621e-05 4.1901e-06 6.9466e-07 -1.1791e-07 -3.1048e-06 3.461e-05 -5.0555e-06 -3.3814e-06 -1.4553e-06 -3.3216e-06 -0.50716 -0.16271 2.1675e-05 -4.6461e-05 -3.0654e-05 6.4724e-05 0.26226 -1.3426e-05 -3.3148e-06 9.0136e-07 0.51531 2.1069e-05 -0.00095624 1.2182e-05
2.475e-05 3.7304e-05 -1.5552e-06 0.00024243 -0.10003 -5.8743e-05 4.6377e-05 -0.00029094 0.00045714 -0.073664 1.191e-05 5.2557e-06 -0.0002315 0.00010508 -2.0162e-06 -6.3126e-05 0.0015969 -0.0018805 0.0001082 -0.050148 -8.9287e-05 -0.0010468 -0.00014166 -2.597e-05 0.00034731 -1.0743e-07 -0.0016279 0.00013733 -0.28361 0.00019109 5.9098e-05 -0.00069149 -1.9433e-06 0.00038044 0.00025308 -0.0010007 5.1548e-06 -0.0010267 0.00010643 0.0011045 -0.35102 -3.7988e-05 -0.00026209 0.00245 -2.5307e-07 1.469e-05 3.2036e-05 0.0037449 0.0013947 5.808e-05
-5.806e-06 4.9951e-06 -1.2927e-07 -2.9293e-06 -0.087042 -0.13746 5.8204e-05 -0.00011634 0.0015652 -0.064483 -1.4324e-05 7.1809e-06 -4.2332e-06 -0.00030676 -1.8152e-05 2.3469e-05 0.17543 9.5383e-06 0.00013505 -0.043861 8.8252e-06 -0.16918 0.0005624 -2.0402e-06 1.7648e-06 -2.3284e-06 6.0677e-05 -1.3105e-05 -0.00036028 1.4833e-05 4.7003e-07 -0.20863 2.5668e-05 0.00032925 0.0012858 -0.0089371 7.0874e-06 0.00016693 7.2207e-05 -8.7447e-05 -0.00080032 1.7816e-05 0.00053614 0.0031458 3.3208e-06 7.7652e-07 -1.3895e-05 0.20911 0.00067459 5.7831e-07
4.6292e-06 1.2662e-05 -2.5484e-06 -2.2607e-06 -3.4771e-05 -6.9372e-05 0.26319 5.8829e-07 0.00015128 -3.9495e-06 6.1328e-05 1.5989e-05 4.2001e-05 6.6382e-05 0.00047489 -1.9846e-05 0.00011001 -0.00031692 0.0027786 -2.4269e-05 -7.5166e-05 5.481e-05 1.5373e-05 9.2747e-06 0.0014147 1.6322e-07 1.494e-05 -3.0674e-06 -2.3625e-05 -3.8466e-06 -1.1522e-05 -0.11491 -1.0132e-05 0.00069792 0.00029646 -0.43428 0.0001927 -0.0007022 -0.00016298 -0.00031614 0.00022715 0.00027736 4.1765e-05 -0.00094502 3.288e-06 5.7467e-05 0.00011752 0.1172 -0.020779 -0.00013871
2.7897e-05 -2.8436e-07 4.5015e-07 2.0556e-05 -0.00011249 -0.00010756 -2.2478e-05 -1.4259e-05 -5.6432e-05 -0.00018981 0.0009923 3.886e-06 -0.37817 -7.0297e-06 3.6011e-06 -0.00011074 4.4379e-05 -0.60097 5.2774e-05 0.00018238 7.3849e-06 2.9601e-05 -0.00041714 -3.543e-05 7.8084e-05 4.1124e-07 -0.49102 4.1464e-06 -2.3182e-05 -2.8975e-06 4.4191e-05 5.6892e-05 1.1311e-05 1.1953e-06 -1.4825e-05 -0.0013907 5.1164e-06 -0.0013716 3.0916e-05 0.00072725 -0.0059673 -0.012693 -0.0011122 3.3058e-05 2.7013e-07 -1.2663e-05 7.0917e-06 9.4975e-05 -0.00045638 2.6037e-06
-3.3839e-06 3.08e-06 2.171e-06 -7.6737e-06 3.6642e-05 -1.0601e-05 0.25291 9.3789e-06 -5.3608e-05 -2.8372e-05 0.0015503 2.2904e-05 -2.5285e-06 -5.4951e-05 0.00082834 3.9438e-05 -8.7623e-05 -4.2142e-07 -1.888e-05 -1.8656e-05 0.0028694 -1.0124e-05 -1.5287e-05 -2.6926e-05 0.0017254 4.3992e-06 0.00018289 4.4252e-06 -4.0033e-06 7.3127e-06 0.00014579 -0.22434 3.0835e-05 -1.7427e-05 -1.7517e-06 -0.0049095 6.7928e-05 -0.00012294 -0.0013025 -0.00031249 8.0854e-05 -0.0022011 -0.00023554 0.0020379 1.1637e-05 -3.0126e-05 0.00016423 0.22605 -0.015325 1.2467e-05
