-1.6107e-06 -2.1764e-07 3.6469e-05 -1.6053e-08 2.1169e-06 -2.5855e-06 0.00031743 -3.5089e-06 -5.1296e-05 -2.4203e-07 -1.0966e-06 2.0986e-07 2.3229e-06 5.647e-06 -1.064e-07 -1.1656e-06 -1.6387e-06 5.3976e-06 -3.4218e-06 7.534e-05 -2.3139e-05 2.8614e-07 -3.1035e-05 0.00097513 -2.312e-05 3.5457e-06 2.0125e-06 2.955e-06 2.3938e-06 6.1652e-06
4.1071e-06 8.525e-07 0.00029933 1.1759e-06 0.00032115 3.2021e-05 0.00013732 0.00017692 -4.464e-06 2.7336e-06 1.0331e-06 2.0894e-06 -2.1397e-05 -3.0061e-05 1.2723e-06 -1.5678e-06 0.00019308 0.00031718 -2.4026e-06 0.00053191 0.00052324 3.7308e-05 0.00063101 -6.8614e-06 -1.7702e-05 0.00058014 0.00025921 -1.9262e-05 0.00056745 -2.3146e-05
0.00011262 1.702e-05 1.7476e-05 -1.2875e-06 -5.1346e-06 2.9339e-05 0.16219 -6.3156e-06 -0.00045814 3.4105e-05 0.00012642 -1.3217e-05 0.00066676 4.1202e-06 -1.3994e-05 -1.6224e-05 -4.2966e-05 -0.00012707 -1.2446e-05 0.00017683 6.3154e-05 0.0013401 7.1773e-05 0.26824 -6.6051e-05 9.5046e-05 0.001142 9.9589e-06 0.00030591 -7.0383e-06
3.7982e-07 -2.3411e-06 1.9145e-05 4.0297e-07 1.7336e-06 3.8558e-05 0.00044951 6.5431e-05 -8.0983e-06 -1.2248e-07 -6.4832e-07 4.6965e-08 -3.923e-07 1.1851e-06 1.0825e-06 -3.7153e-07 5.7955e-05 1.7959e-05 3.0289e-06 4.0011e-06 -2.0519e-05 2.9304e-06 -2.4767e-06 0.00044596 3.4929e-06 -4.4674e-06 0.0011655 1.4899e-06 0.00096154 -2.8425e-05
1.9368e-05 -5.5162e-06 9.2566e-06 1.4174e-06 5.0971e-06 1.312e-05 0.21561 -7.5345e-07 -4.8279e-05 -8.2242e-06 1.2892e-07 -1.8788e-05 0.00016889 0.00013818 -3.8092e-05 -2.5537e-06 0.00051824 0.00010641 -4.9317e-05 0.00053764 -1.9739e-05 -1.4185e-05 9.8921e-05 -8.6146e-05 -0.00019692 0.00016994 8.9631e-05 0.0011437 0.00040011 -1.674e-06
4.1364e-06 7.9051e-07 -3.1055e-06 -4.4363e-07 -2.5103e-06 -1.8315e-07 0.26686 4.5253e-05 -0.00033345 -3.0738e-06 -1.8209e-05 -1.9696e-05 2.8328e-06 1.012e-05 7.75e-06 -1.6935e-05 -1.677e-06 -0.00010184 -3.1621e-06 4.9157e-06 2.281e-06 1.5242e-05 -9.8256e-05 0.2188 -0.00010821 9.0305e-07 -7.1379e-05 5.8867e-05 1.994e-05 -3.2792e-07
8.9996e-06 -1.0791e-05 0.00037923 1.874e-07 0.18196 0.00085727 0.26583 7.4425e-05 -9.8981e-05 -1.1674e-06 -6.5403e-06 -1.9819e-05 -5.5959e-05 4.4381e-05 1.3762e-05 -1.469e-05 0.18631 0.18438 8.1298e-06 0.35028 0.0018096 0.0049695 0.00065737 -0.00043262 -0.00063612 7.2211e-05 0.0014411 -0.00015557 -6.9513e-05 -2.5809e-05
-8.4408e-07 -3.4576e-07 -1.3939e-09 -2.9801e-05 -6.1935e-07 -1.5375e-06 2.3263e-06 -8.356e-06 5.9718e-08 9.6864e-06 1.5409e-06 -1.0491e-05 -1.7079e-05 -0.00011407 -1.9192e-05 -1.4615e-05 -3.3412e-05 4.6348e-05 -2.6681e-05 0.33319 -3.8628e-05 2.8549e-05 -0.00010423 1.1662e-06 -9.1224e-06 0.17977 2.461e-06 -2.1527e-05 0.00043849 0.70329
1.5447e-06 1.0566e-06 -2.4724e-06 1.5786e-08 0.47954 -3.9102e-07 -7.9245e-05 1.4472e-05 0.56526 -1.0416e-06 4.5342e-06 1.6306e-07 1.3875e-06 -4.5959e-05 -6.7341e-06 8.7025e-06 -2.4052e-05 -8.4348e-05 -5.4386e-07 2.3396e-05 3.4224e-05 4.4913e-05 4.8933e-06 -0.00038025 -8.7234e-05 -2.4253e-06 -0.00018014 -6.6648e-05 -5.6684e-05 -1.6271e-06
1.757e-07 9.0685e-06 3.4796e-06 4.4381e-08 -5.4443e-06 -9.6444e-06 -2.6e-07 0.47894 -1.3341e-05 0.00012583 1.1775e-05 -4.0006e-08 -3.7126e-06 1.4961e-05 1.1124e-05 0.0010903 -6.739e-05 -3.6016e-06 5.0902e-06 3.0528e-05 -4.2736e-06 0.001292 -2.9398e-05 0.00092257 2.0639e-06 7.1694e-06 -0.00011909 -0.00018321 -1.5943e-05 -1.2794e-05
0.1313 3.8917e-05 7.1229e-06 7.0906e-06 -1.3659e-05 3.6552e-05 0.18472 1.0637e-05 6.9911e-05 0.0001568 -0.0001124 -2.7333e-05 0.48922 4.2301e-05 1.7883e-05 2.0577e-05 -3.1479e-05 0.0001111 1.6307e-09 0.00018604 0.15355 -0.00019672 0.15577 -0.00033168 -0.00016812 0.13257 -7.3419e-05 0.00098366 0.00039086 -3.3165e-05
1.0053e-05 9.8848e-07 0.00040836 1.1008e-05 0.19345 0.16006 0.00022237 -1.3862e-05 -5.5711e-05 4e-06 -7.5948e-05 -1.8762e-06 -0.00034244 0.00010965 3.786e-05 -7.368e-05 0.39735 0.39258 -1.4269e-05 0.18715 0.12218 0.26279 0.13847 -0.00070603 -5.3402e-05 0.10204 0.00016473 -0.00021962 -0.00047464 -3.048e-05
-2.4598e-06 7.5628e-07 -3.1911e-07 5.8463e-07 -2.8651e-06 3.2337e-06 -2.1266e-05 0.0002708 6.5705e-05 3.3638e-05 -1.6535e-06 1.9942e-06 -2.0623e-05 3.7194e-05 2.1452e-06 -3.1424e-05 1.7478e-05 -1.3765e-05 8.7196e-06 2.2597e-06 -6.9735e-05 -2.9245e-05 0.00065239 -9.1066e-05 -3.2456e-06 -0.00015215 0.42972 5.8727e-05 2.399e-05 1.6705e-05
-3.5761e-05 1.6493e-05 0.00010823 -8.5132e-06 -3.7179e-06 0.26201 0.00023272 -7.2691e-06 -3.2017e-05 0.00018401 -7.5541e-06 1.2625e-06 0.00036494 2.4475e-06 5.3244e-06 5.4617e-06 -2.315e-05 -5.2391e-06 1.0949e-06 -9.8051e-06 0.00011687 0.00037735 0.0002354 -1.9521e-06 -2.2955e-05 -8.2367e-07 -1.484e-05 -1.0609e-05 0.0027477 -5.2238e-05
0.12666 -2.0175e-05 -4.0395e-06 -1.7615e-07 4.0843e-06 -2.7424e-05 0.00020214 0.00017608 -7.5683e-05 7.0374e-05 -3.0085e-05 1.4056e-07 0.00011356 -3.9223e-07 -3.351e-05 -7.2831e-07 0.00010095 2.7376e-05 7.0383e-06 2.4893e-06 3.0149e-05 -1.6905e-05 2.4833e-05 0.0025543 -5.8032e-05 -8.3534e-06 0.0020557 5.9498e-05 1.6388e-06 2.0291e-08
1.1957e-05 1.844e-06 1.7402e-05 -1.3792e-06 -3.2665e-06 -1.351e-05 0.2894 -4.2934e-06 -0.00026322 2.6764e-06 0.17123 -2.4866e-05 0.00087704 0.00058697 -0.00055769 1.2051e-05 -6.1043e-06 -7.1413e-05 -0.00012868 3.3306e-05 0.23936 -0.00028447 0.12625 0.23997 -0.00042998 0.00073192 -3.8642e-05 0.0015126 -0.00015168 1.0272e-06
-4.5236e-06 3.9043e-06 1.0803e-06 0.0002706 3.7155e-06 0.00018621 0.00037657 -3.0681e-06 -5.7722e-05 -3.9881e-07 0.00016563 -1.7161e-06 0.61565 3.6364e-05 -3.8797e-06 5.8358e-06 4.9068e-06 1.3129e-06 1.2897e-06 2.8279e-07 3.9276e-05 0.00017886 -0.00042998 0.0018567 -3.1729e-05 -0.00022476 0.00014187 0.00012931 -5.1693e-05 -8.4766e-05
1.7153e-05 -2.1531e-06 5.5626e-05 -2.4156e-06 -5.2659e-07 -2.7654e-06 0.00036978 0.00033586 -6.8304e-05 -7.6938e-06 1.7683e-05 9.1143e-07 -1.206e-05 -4.8826e-05 -4.5346e-06 -1.5816e-06 -1.7629e-06 3.3462e-05 9.0386e-06 1.9213e-06 0.0012063 -3.4702e-05 0.00062465 0.0018677 -0.00011005 -5.379e-05 0.0022105 -5.9981e-05 0.0030439 -4.7755e-05
0.19079 6.7916e-05 1.4511e-05 2.7446e-06 -1.0768e-06 -2.6866e-05 -3.6528e-05 9.4542e-06 -0.00012465 0.00019002 2.3471e-05 -1.4242e-05 -1.0367e-05 -0.00020525 -3.1983e-05 0.0037501 -4.6463e-05 -0.00019745 -0.00010192 -0.00018547 -9.3521e-05 0.0010118 0.0025153 0.0050533 -4.7562e-06 0.19314 0.0062225 -0.00071242 0.00037876 -6.2597e-05
-4.1378e-06 -6.6184e-07 -3.8189e-06 -2.3582e-07 -7.4018e-07 -4.4185e-06 0.14845 0.00065618 -0.00011637 1.1659e-05 0.00012761 -1.1231e-05 -1.501e-05 -2.5817e-05 8.3376e-06 -1.3594e-05 -7.4269e-07 -2.2926e-06 -1.2658e-05 1.6485e-05 0.00084056 -4.386e-05 4.2736e-05 0.0020016 -0.00018301 -3.9869e-05 0.17951 -6.8459e-05 7.8811e-07 5.1994e-06
-7.6181e-06 4.1268e-05 8.0139e-05 -1.905e-06 6.212e-06 0.00023277 0.00056973 0.00019824 -6.8828e-05 0.00038142 0.001063 2.6844e-05 0.00032988 5.4949e-07 -9.6941e-05 0.007747 -0.00017967 6.9916e-06 -8.3284e-05 0.00050852 0.00027313 0.010462 8.7007e-05 0.00097079 0.0012611 0.00010465 0.0020341 -0.00056982 0.00082168 -7.3254e-05
0.1313 3.8917e-05 7.1229e-06 7.0906e-06 -1.3659e-05 3.6552e-05 0.18472 1.0637e-05 6.9911e-05 0.0001568 -0.0001124 -2.7333e-05 0.48922 4.2301e-05 1.7883e-05 2.0577e-05 -3.1479e-05 0.0001111 1.6307e-09 0.00018604 0.15355 -0.00019672 0.15577 -0.00033168 -0.00016812 0.13257 -7.3419e-05 0.00098366 0.00039086 -3.3165e-05
0.15222 0.23643 -1.4158e-06 1.6661e-07 2.3636e-05 4.4293e-06 0.0002507 4.1558e-06 1.7086e-05 0.00014366 0.25361 0.48894 -5.7645e-06 0.20316 0.32587 0.00012494 9.929e-06 7.0545e-06 0.36306 -4.9791e-07 -0.0059706 4.7891e-05 2.0012e-05 1.9378e-05 0.00047332 0.15378 3.0454e-05 0.25612 1.894e-05 -9.7045e-06
0.00010974 -2.288e-05 0.00054497 5.2285e-06 -1.0868e-08 -3.3646e-06 0.0010278 -2.6937e-05 0.0012483 0.0011332 -3.3002e-05 6.9335e-06 0.0012428 1.896e-05 -1.6771e-05 -9.8211e-06 5.5949e-05 0.00089716 -1.3742e-05 0.00016842 0.0017291 -0.00013175 0.097901 0.012038 -0.00015432 -0.00028081 0.13007 0.0004101 -1.4448e-05 8.4376e-06
3.8641e-05 -3.1276e-05 2.5404e-07 -1.4308e-07 -4.4526e-06 -3.4887e-06 -2.0272e-06 1.3133e-06 0.00029625 -2.74e-05 2.2403e-06 -2.3287e-05 1.0193e-06 -1.0669e-05 4.5753e-06 2.3208e-06 0.00024206 0.00048289 -2.3994e-06 -3.9236e-05 0.00014141 -9.6706e-06 -3.2837e-05 6.4897e-06 -4.3143e-05 0.00011236 -8.815e-06 -4.6736e-05 5.5189e-06 -5.8734e-07
-2.3165e-06 -2.123e-06 -8.1862e-05 0.62322 1.1946e-06 -1.1414e-05 3.3296e-06 4.1784e-05 8.4933e-05 -1.5417e-06 3.6669e-05 -8.113e-07 9.0143e-06 1.9909e-05 -1.9123e-05 -4.433e-06 2.986e-06 3.2987e-06 -5.2822e-06 -5.9746e-06 -0.00011158 -3.4411e-06 7.4273e-05 -4.7908e-05 -1.0291e-07 -1.7946e-05 0.00012933 3.2984e-05 0.49125 0.7109
6.0633e-06 3.9524e-06 8.0881e-06 1.903e-05 6.7935e-05 0.28017 -5.8693e-05 -8.4427e-06 5.5169e-05 1.7799e-05 -5.1916e-05 -9.9966e-06 -0.00051023 -0.00022713 3.2993e-05 2.6357e-05 0.0039331 0.0029729 -2.9847e-05 0.00080748 0.0072992 0.0074396 0.24184 -0.00047298 2.3874e-06 0.002328 -0.00010193 -0.0021 -0.00058931 -2.896e-05
5.3024e-06 -1.5697e-07 5.5212e-05 7.7873e-06 1.1601e-05 -1.4107e-05 0.22774 5.9327e-05 0.36942 1.9325e-05 -8.7117e-05 -3.1977e-06 0.0006001 0.00047907 5.6657e-05 -3.865e-05 0.00010759 0.0019586 4.2685e-05 -6.584e-05 0.18962 -0.00086607 0.20114 0.41584 -0.00043949 -0.00055473 0.0020727 0.001225 0.00065552 -1.3341e-05
5.0004e-06 -2.9415e-07 -1.4818e-05 -4.8147e-07 -9.7998e-07 5.9377e-06 0.42481 0.00012644 0.34492 -1.5201e-07 -3.4662e-05 -1.8661e-05 -5.0297e-05 0.00035379 2.7212e-05 1.5649e-05 -1.9684e-05 -5.9336e-05 -0.00020799 3.7348e-06 0.17417 -4.0187e-05 -0.00026538 -0.002696 0.47451 0.15075 0.0019081 0.0011231 -5.865e-05 -1.2572e-05
1.7482e-05 -2.8959e-06 -1.2369e-07 -4.2049e-07 1.1911e-06 1.1955e-06 4.7666e-05 0.50799 1.5275e-05 -7.1922e-06 2.7695e-06 1.0729e-07 7.8915e-05 1.2755e-05 -1.32e-06 -1.3349e-06 4.3397e-05 7.4321e-05 9.0937e-07 -9.6931e-06 2.9228e-05 -6.6306e-06 4.4455e-05 8.3549e-06 -5.6736e-06 -3.5854e-05 0.0036627 3.5226e-05 -5.214e-05 -1.1038e-05
1.7577e-05 -1.8667e-05 0.00089978 -2.1861e-07 0.43606 0.0020315 0.00059424 -1.069e-05 -6.368e-05 3.5443e-06 -5.5479e-05 -6.7956e-06 -0.00015919 0.0004423 4.5081e-05 -1.1453e-05 0.00029219 0.0017238 1.8311e-05 0.41977 0.26626 0.011704 0.0012257 -0.00043004 -0.00012593 0.22783 0.00026814 0.0019379 -0.00033114 -5.0223e-05
1.2659e-05 -1.9901e-05 2.0983e-05 2.3134e-05 1.2842e-05 -2.5608e-05 1.8862e-05 1.6975e-05 2.6325e-05 1.6497e-05 -5.3853e-05 2.1579e-05 0.001048 0.17042 4.3795e-06 5.6434e-06 -8.9245e-06 -1.0157e-05 -0.00023405 -3.799e-05 -0.0018249 -0.00022342 0.17351 -2.112e-05 -5.5527e-05 0.13059 -4.9821e-05 0.009205 3.492e-06 -0.00011018
3.1519e-05 -6.7111e-06 2.6141e-05 3.0401e-05 3.17e-06 2.2496e-05 -1.304e-05 1.1991e-05 8.6559e-06 4.641e-06 -0.00022269 1.7215e-06 0.00012735 2.329e-05 -3.6322e-05 -5.3332e-06 -4.9569e-05 9.9204e-05 -2.0928e-05 0.00039173 -1.3046e-05 -0.0002474 0.18017 8.1495e-05 -2.2441e-07 -0.00024802 4.1764e-05 0.0011932 0.41098 0.00015877
0.38526 0.29892 -1.4309e-05 -1.6392e-06 -5.2179e-06 -2.9101e-05 2.402e-05 -6.4168e-06 -0.00048357 0.00043591 2.4841e-05 -1.5485e-06 -1.1073e-05 0.00013496 -2.338e-05 -4.4903e-05 -3.6858e-05 -0.00020166 -5.3376e-05 -6.3579e-05 -6.911e-05 0.0021617 -0.00012619 0.44266 9.3347e-05 0.0012793 0.0019862 -0.00033225 -5.442e-05 -2.7026e-05
0.1603 -7.826e-05 -6.0433e-06 -2.3444e-06 -8.17e-06 0.25664 -5.2506e-06 -1.6448e-05 -3.431e-07 8.5541e-05 0.000163 -3.0559e-05 0.000193 0.20887 -2.5088e-05 4.2828e-05 -4.0684e-06 -2.0828e-05 0.00022591 0.00039149 0.0009016 0.00013055 0.0001493 -0.00017944 -0.00010294 0.00051695 0.00013641 0.26092 0.0014964 -4.7304e-05
1.6276e-05 -1.3783e-06 0.00033769 2.2963e-06 0.0003357 5.258e-05 3.5478e-05 0.00011545 0.00051536 1.6188e-05 -3.5358e-06 -7.9489e-07 -4.3907e-05 -0.00011409 -5.3022e-06 2.1219e-05 0.00018497 0.00040395 -2.7135e-05 0.00052754 0.00028386 -0.00013948 0.15979 0.0014284 -1.3446e-05 0.00070519 0.0015952 4.4413e-05 0.00095998 -5.1707e-05
5.3024e-06 -1.5697e-07 5.5212e-05 7.7873e-06 1.1601e-05 -1.4107e-05 0.22774 5.9327e-05 0.36942 1.9325e-05 -8.7117e-05 -3.1977e-06 0.0006001 0.00047907 5.6657e-05 -3.865e-05 0.00010759 0.0019586 4.2685e-05 -6.584e-05 0.18962 -0.00086607 0.20114 0.41584 -0.00043949 -0.00055473 0.0020727 0.001225 0.00065552 -1.3341e-05
0.00013545 -5.3624e-06 0.00048601 5.1177e-07 8.9982e-06 2.7165e-05 0.00026372 0.00010294 0.0034925 0.0010138 5.0793e-05 1.4999e-06 1.3343e-05 -7.382e-05 5.2606e-06 -4.7437e-06 0.00017098 0.0026601 3.683e-06 -3.2888e-05 0.00011225 -0.00016868 0.081946 0.024999 -3.6329e-05 -0.00016736 0.0021462 -1.8039e-05 0.000125 2.6063e-06
0.080191 5.1016e-06 3.6251e-05 -1.3108e-06 0.00020577 3.2569e-05 0.00011325 0.0002195 0.0017365 0.00010058 4.1416e-06 1.23e-06 -1.0187e-05 1.1821e-05 -4.8852e-05 -2.2241e-05 0.00056473 0.15587 2.8576e-06 9.2889e-05 0.00037268 0.00084974 0.00079852 0.010408 -3.4491e-05 0.00022196 0.28544 5.8438e-05 0.00035197 3.5922e-06
-7.0003e-30 2.3749e-29 1.1457e-30 -5.347e-29 2.5115e-29 -3.7964e-30 -3.2405e-30 1.5903e-31 -2.4673e-30 -1.4628e-29 4.9604e-30 -4.9825e-31 -3.8759e-30 9.1036e-30 -1.0687e-30 2.7261e-29 1.5118e-28 3.9559e-30 -2.2217e-31 1.4467e-28 1.1511e-28 -2.2378e-26 1.4205e-28 1.4294e-28 -3.0934e-30 -2.3156e-29 2.8279e-29 5.6713e-29 3.8943e-31 5.6113e-29
0.28875 0.44803 -4.9021e-06 -2.7044e-07 -3.5236e-07 1.1485e-06 -1.0366e-05 4.7892e-06 1.7117e-06 0.00029406 8.0192e-06 -5.0101e-06 -3.4356e-05 0.38093 -0.00010094 -9.7481e-06 -3.2403e-06 1.0946e-05 -0.00016922 -2.8615e-06 -0.00017114 1.5575e-05 -0.00027869 -2.1903e-05 6.4883e-05 0.28929 2.7282e-05 0.021964 -1.0516e-05 -2.1342e-05
0.28875 0.44803 -4.9021e-06 -2.7044e-07 -3.5236e-07 1.1485e-06 -1.0366e-05 4.7892e-06 1.7117e-06 0.00029406 8.0192e-06 -5.0101e-06 -3.4356e-05 0.38093 -0.00010094 -9.7481e-06 -3.2403e-06 1.0946e-05 -0.00016922 -2.8615e-06 -0.00017114 1.5575e-05 -0.00027869 -2.1903e-05 6.4883e-05 0.28929 2.7282e-05 0.021964 -1.0516e-05 -2.1342e-05
0.1603 -7.826e-05 -6.0433e-06 -2.3444e-06 -8.17e-06 0.25664 -5.2506e-06 -1.6448e-05 -3.431e-07 8.5541e-05 0.000163 -3.0559e-05 0.000193 0.20887 -2.5088e-05 4.2828e-05 -4.0684e-06 -2.0828e-05 0.00022591 0.00039149 0.0009016 0.00013055 0.0001493 -0.00017944 -0.00010294 0.00051695 0.00013641 0.26092 0.0014964 -4.7304e-05
8.0102e-05 1.0289e-05 0.00036877 -4.4205e-05 9.5804e-07 1.3117e-05 7.3104e-08 0.23581 4.7821e-05 -8.9472e-06 0.19464 -9.761e-06 8.311e-06 3.1656e-05 -0.00081674 0.0023007 -4.2419e-05 -9.8592e-06 -0.00011382 1.9279e-05 5.9871e-06 0.00069195 0.00019889 9.2887e-05 1.4783e-05 0.0011045 0.0037622 -0.00065842 0.37622 0.00025234
4.236e-05 4.9605e-05 8.8232e-06 0.00024153 1.0907e-05 0.22914 0.00018585 -9.0206e-06 -7.1906e-05 0.0003279 0.24114 -4.1564e-06 0.0010448 3.224e-05 -0.00090747 0.0075626 -0.00022173 3.3652e-06 -0.00020812 0.00083628 0.00019531 0.011541 0.00018736 0.0039078 1.1588e-05 0.14491 0.0017902 0.00043994 0.00025651 -0.00012197
7.1654e-06 1.2583e-06 0.00079504 -0.00010166 -8.6965e-06 -2.0448e-05 -0.00010995 0.00051319 0.00019026 -5.0447e-06 0.00012371 -2.6437e-06 -4.0181e-06 -6.2377e-05 4.812e-05 2.0949e-05 0.0001982 0.00036273 4.0993e-05 -3.5002e-05 0.0023082 -1.8854e-05 7.383e-05 -1.5483e-05 -4.4786e-05 -3.69e-06 -7.1775e-05 -0.0006433 0.098017 -0.00068505
0.2094 4.5967e-05 -2.4517e-05 -3.1607e-08 3.5553e-06 8.9051e-05 1.2857e-05 2.3244e-05 -0.00033065 0.77021 0.00057946 -1.6799e-06 2.5871e-05 4.6398e-05 -5.7318e-05 0.0078632 -9.6402e-05 -0.00010102 -3.8756e-05 0.00025902 -0.00014137 0.27467 -0.0003045 0.24239 4.2672e-05 0.00084636 0.0044441 -0.00074737 0.00018923 -3.6271e-05
3.3505e-05 -6.2718e-06 0.00050826 -4.3011e-06 2.7523e-06 1.4214e-05 1.6625e-05 0.00041066 -1.1558e-07 4.8038e-06 9.4902e-06 -1.0394e-05 -2.6804e-05 4.686e-06 3.93e-06 0.0030577 -4.405e-05 2.185e-06 -9.0808e-05 -0.00019999 -5.6953e-06 0.00094191 7.5197e-06 0.00019501 -3.7932e-07 0.0018405 0.0084458 -0.00046016 0.00092834 -0.00013105
0 0 0 0 0 0 0 0 0 0 0 0 0 0 0 0 0 0 0 0 0 0 0 0 0 0 0 0 0 0
2.119e-05 -7.5618e-07 0.24472 4.1487e-07 0.00041357 4.0424e-05 0.0001992 8.5941e-06 -4.9689e-05 -3.9323e-05 0.0001418 4.1923e-06 -2.4167e-05 0.00033373 9.0591e-05 6.7336e-06 0.0080232 0.00081416 6.2169e-05 0.00073025 0.17725 -0.00045535 0.18035 0.0010975 -0.00018844 0.00026912 0.00025581 0.00085444 0.0075362 -2.701e-05
0.10551 -1.4081e-05 0.00031541 -2.0651e-06 -6.5599e-06 -4.113e-05 -3.4013e-06 0.00043319 -2.9424e-05 4.76e-05 3.7494e-05 -3.9649e-06 -1.3996e-05 -4.3358e-05 5.149e-05 0.0020757 -1.4238e-05 9.9589e-07 2.9486e-06 -9.415e-05 0.0016445 0.00057901 0.00080878 0.00014075 -5.2674e-05 0.00065737 0.0033807 -0.00073889 0.0057125 -3.6909e-05
-6.6894e-06 -2.0014e-06 -6.7021e-06 2.6167e-06 -3.6683e-06 -4.1112e-05 0.00079365 -7.3018e-06 -1.1466e-05 5.4315e-06 -2.4238e-05 9.4009e-06 0.0005548 4.6143e-05 7.4124e-06 2.4469e-06 -8.4618e-06 -2.29e-06 7.6049e-06 2.2257e-05 0.0031713 -0.00036093 0.0092195 0.0049167 -5.9256e-05 -0.00040362 -1.7935e-05 -0.00037345 -8.1856e-05 3.4686e-06
0.00014411 -4.6211e-05 0.38704 -2.9486e-06 -1.5974e-06 0.0010242 0.00064415 8.9129e-05 0.00036049 0.001709 -1.3247e-05 2.7035e-05 -6.3858e-05 -0.0001547 -5.3407e-06 -2.2895e-05 1.7677e-05 0.00082855 -7.5056e-05 -2.4093e-05 0.0022899 0.0059308 0.0011037 0.00063179 0.0009301 0.11962 0.4046 -0.00018463 0.00032355 -2.1786e-05
1.963e-05 5.1996e-06 2.3856e-05 5.1129e-06 -1.189e-06 2.5253e-05 0.00031299 -1.4605e-05 0.32389 8.1871e-06 1.7097e-05 -1.1988e-06 0.00070891 -0.00015061 4.7772e-06 8.3909e-06 0.00015317 0.00038441 3.5832e-06 -1.2618e-05 0.00033188 -0.00017677 0.16922 0.00031558 -0.00012524 0.00089111 0.0025241 -5.0939e-05 1.378e-05 -2.1273e-07
1.7482e-05 -2.8959e-06 -1.2369e-07 -4.2049e-07 1.1911e-06 1.1955e-06 4.7666e-05 0.50799 1.5275e-05 -7.1922e-06 2.7695e-06 1.0729e-07 7.8915e-05 1.2755e-05 -1.32e-06 -1.3349e-06 4.3397e-05 7.4321e-05 9.0937e-07 -9.6931e-06 2.9228e-05 -6.6306e-06 4.4455e-05 8.3549e-06 -5.6736e-06 -3.5854e-05 0.0036627 3.5226e-05 -5.214e-05 -1.1038e-05
1.2782e-05 8.9912e-06 0.1593 -3.7451e-06 0.00025625 -3.4843e-06 -0.0002046 -2.1538e-07 -4.1951e-05 -2.6184e-05 0.0032388 -9.1561e-06 -4.0518e-05 0.00039 0.0001626 -4.9751e-06 9.8365e-05 0.00028884 6.0007e-05 0.00079869 0.22996 -0.00030142 0.11764 -1.5994e-05 -5.1879e-05 0.00050702 0.00012111 0.00034892 0.013005 -9.4956e-05
-1.0128e-06 1.2908e-05 1.2507e-06 1.1997e-07 -9.5721e-06 -1.8219e-06 0.00010052 6.4273e-05 -1.8844e-05 0.00020425 5.3568e-05 -8.6134e-08 -7.0159e-06 -6.8204e-06 1.2407e-05 0.001778 -0.00011438 -1.3155e-06 -4.027e-05 4.6242e-05 0.00017835 0.0022529 0.00012719 0.0023923 4.4564e-06 0.00014198 -1.026e-05 -0.00051333 -1.0717e-05 -3.037e-06
-2.6096e-05 1.8916e-05 0.40063 1.1769e-06 -1.0491e-06 0.38956 -3.0306e-06 -9.4244e-06 -3.6319e-06 -1.6559e-05 8.8786e-06 -8.7528e-06 -2.2932e-05 -0.0002642 -5.2717e-05 2.2087e-06 -2.2129e-06 -1.5766e-05 -7.1892e-05 2.4879e-05 -9.1548e-05 2.8676e-05 -6.8652e-05 -6.0699e-05 -5.0095e-06 0.24608 -2.4218e-05 0.00013259 -0.00030386 -2.3117e-05
-5.5712e-06 -1.0201e-07 -5.0767e-06 -8.9769e-07 1.84e-06 -4.7106e-06 0.00062398 -2.2996e-07 -0.00011175 2.1756e-08 4.9559e-05 1.7227e-07 -7.3375e-06 -5.1107e-05 -3.0065e-06 -1.7352e-06 -4.9421e-07 -4.0481e-06 -4.0193e-06 7.7814e-06 0.001644 -2.5713e-05 3.4127e-07 0.0028634 -0.0001963 3.1244e-05 3.1905e-05 -0.00010399 5.0245e-06 3.5626e-07
6.0633e-06 3.9524e-06 8.0881e-06 1.903e-05 6.7935e-05 0.28017 -5.8693e-05 -8.4427e-06 5.5169e-05 1.7799e-05 -5.1916e-05 -9.9966e-06 -0.00051023 -0.00022713 3.2993e-05 2.6357e-05 0.0039331 0.0029729 -2.9847e-05 0.00080748 0.0072992 0.0074396 0.24184 -0.00047298 2.3874e-06 0.002328 -0.00010193 -0.0021 -0.00058931 -2.896e-05
3.3019e-05 -7.248e-06 -4.6229e-06 1.6642e-06 -1.6198e-06 -8.7073e-06 0.00053722 -4.2858e-06 -7.5027e-06 3.4443e-06 -2.5699e-05 1.0151e-06 0.00033103 2.7202e-05 8.7775e-06 1.5327e-06 0.00066211 0.00089343 -8.8776e-06 -0.00012277 0.0019154 -0.00010334 0.0074258 0.0030228 -4.5507e-05 0.00078686 -3.0882e-05 -0.0003326 -6.3812e-05 -4.0799e-06
6.8861e-05 8.2183e-06 -2.5195e-06 6.2782e-07 -9.1533e-07 5.7054e-05 0.00022071 -4.043e-06 0.00016481 -1.4117e-05 3.0699e-05 -3.9608e-06 -5.6598e-05 5.7009e-05 1.6026e-05 1.5375e-05 0.00012447 0.00025392 -7.136e-05 0.00010714 0.00039949 0.00053343 0.0025841 0.0009953 -1.4304e-05 0.00082308 -1.4643e-05 -0.00036637 0.00023977 -1.9169e-05
3.1183e-06 1.7492e-05 -1.5599e-05 1.6397e-07 -3.0613e-06 -8.0259e-06 -2.8392e-06 7.8447e-06 -8.9048e-06 6.0838e-06 0.35926 -3.0792e-06 -2.7299e-05 0.28172 -0.00075715 0.00016566 1.2448e-05 6.6417e-07 0.00047655 2.0446e-05 0.25048 -9.6524e-05 -0.00019401 -3.0685e-05 5.0644e-05 0.21601 -2.0325e-05 0.3457 -0.00010787 6.1061e-06
-3.7951e-07 7.0471e-06 -1.745e-05 8.1322e-08 -7.7187e-06 -9.5637e-06 -1.8908e-06 7.8157e-06 -1.1549e-06 -5.041e-06 0.00037065 -3.1892e-06 -3.2701e-05 0.31218 0.00039817 0.75189 1.1559e-05 4.4596e-06 0.00059424 -5.1595e-05 0.27759 -0.00028649 -0.00016119 -6.4115e-05 3.3775e-05 0.23935 -0.00011453 0.38347 -0.0001373 1.2643e-05
-2.4144e-06 -2.2199e-07 -7.6403e-05 0.51843 -4.5751e-07 -1.2613e-05 -8.2619e-06 6.1902e-06 3.8296e-05 1.7566e-05 2.4504e-05 -8.6835e-07 1.0049e-05 2.3354e-05 -1.4451e-05 -2.3961e-05 7.8427e-07 1.6916e-06 -1.2348e-06 1.1836e-05 -0.00013219 -7.1807e-06 6.773e-05 -0.00014151 -5.4937e-06 -5.6184e-05 0.25766 5.3445e-05 0.41019 0.0010989
3.2941e-06 -3.6227e-06 9.7087e-05 -3.4772e-07 -1.4386e-06 3.8411e-05 0.10203 0.14798 0.00027251 -1.4419e-06 6.631e-05 3.8614e-06 -9.9339e-06 -2.0991e-08 -4.1339e-07 2.7164e-06 2.5775e-05 4.097e-05 -2.6608e-05 -3.035e-06 0.00011081 -9.316e-06 0.00050397 0.00069593 0.00052932 7.0074e-05 0.0030826 -2.6058e-05 0.0091544 0.00026501
0.00010301 3.1711e-06 -9.8054e-07 8.1172e-07 -7.9662e-06 -2.7518e-06 0.00032125 1.7426e-06 -3.2846e-05 3.7217e-05 -8.361e-05 -5.3266e-06 0.00929 -6.3029e-05 -7.5006e-06 3.7031e-06 -6.8241e-06 1.8239e-05 -2.0399e-06 -1.7778e-06 0.0010409 -7.1237e-05 -6.6283e-05 0.00016427 3.9789e-06 0.00045886 -2.5684e-05 -0.00029668 3.078e-05 -9.604e-06
0.16606 -2.124e-05 0.0018635 3.7601e-06 4.0546e-06 0.0014739 0.0004259 -3.1806e-05 -3.6287e-05 0.0026366 -2.2667e-05 5.6134e-06 -2.9175e-05 -0.00013183 -3.9267e-06 -8.8749e-06 2.8806e-05 0.001305 3.263e-06 2.5258e-05 0.0028439 0.008164 0.1987 -0.00027704 -0.00012532 -0.00025837 0.28131 -0.00021505 -0.00027661 8.6686e-06
1.0053e-05 9.8848e-07 0.00040836 1.1008e-05 0.19345 0.16006 0.00022237 -1.3862e-05 -5.5711e-05 4e-06 -7.5948e-05 -1.8762e-06 -0.00034244 0.00010965 3.786e-05 -7.368e-05 0.39735 0.39258 -1.4269e-05 0.18715 0.12218 0.26279 0.13847 -0.00070603 -5.3402e-05 0.10204 0.00016473 -0.00021962 -0.00047464 -3.048e-05
1.6403e-05 -1.7479e-05 6.5588e-05 1.3904e-05 -1.0918e-06 -1.9986e-05 0.14196 0.00065474 -4.5794e-05 9.5786e-05 -5.2011e-05 5.1319e-06 0.3771 0.0024539 2.7868e-05 8.6064e-06 -3.3582e-05 -3.0656e-06 -4.5771e-05 0.00026312 0.11803 -0.00023699 0.13516 0.0040951 -0.00021539 0.0011961 0.0007136 0.0013939 0.00019299 -3.2193e-05
6.2494e-06 5.452e-07 0.00041269 -4.6308e-06 -6.9631e-06 -2.2403e-05 -0.00012654 -2.8172e-06 -1.7758e-05 -4.7729e-06 3.7863e-05 3.0846e-07 2.7073e-06 -6.0854e-05 6.4973e-05 1.3291e-06 1.2885e-05 4.152e-06 3.984e-05 2.2177e-08 0.002241 -2.5817e-05 5.4488e-05 -5.5656e-06 -3.7218e-05 -2.6127e-07 -1.81e-05 -0.00057864 0.0071327 -3.1954e-05
-3.0315e-08 5.7718e-08 3.6899e-08 -1.1532e-06 5.6244e-09 -1.3466e-06 4.5778e-05 0.0007132 4.9634e-07 3.4024e-08 -4.212e-07 -1.3448e-07 -1.6823e-07 -8.2939e-08 7.5077e-07 6.3321e-07 -7.9406e-08 -1.1896e-08 2.4933e-07 -7.6814e-09 -4.5549e-08 3.2334e-06 -1.2123e-05 -6.8143e-06 -7.7191e-06 1.4794e-05 5.2475e-05 -1.7077e-05 0.00014403 -6.264e-05
0.15903 0.24684 -1.6778e-05 -3.1906e-07 -2.8673e-06 -9.3011e-06 0.00026732 7.3177e-06 -1.5367e-06 0.00015485 0.26511 0.51074 -7.6856e-06 0.2076 0.33791 0.00012196 1.1184e-05 1.1164e-06 0.37753 2.5433e-05 0.18466 -5.8048e-05 -0.00017687 -4.2818e-05 -3.3961e-05 0.15905 2.7138e-07 0.25332 -5.1795e-05 8.8579e-06
1.6276e-05 -1.3783e-06 0.00033769 2.2963e-06 0.0003357 5.258e-05 3.5478e-05 0.00011545 0.00051536 1.6188e-05 -3.5358e-06 -7.9489e-07 -4.3907e-05 -0.00011409 -5.3022e-06 2.1219e-05 0.00018497 0.00040395 -2.7135e-05 0.00052754 0.00028386 -0.00013948 0.15979 0.0014284 -1.3446e-05 0.00070519 0.0015952 4.4413e-05 0.00095998 -5.1707e-05
0.16415 0.25468 -1.7387e-05 2.1695e-08 -3.2555e-06 -6.3545e-06 -1.6792e-05 7.4965e-06 -3.0277e-05 0.00016796 0.27344 -1.0618e-05 -1.6473e-05 0.21429 0.34879 0.0001233 9.3029e-06 1.4034e-06 0.38974 1.7419e-05 0.19055 -6.4974e-05 -0.00016006 -5.8925e-07 0.51215 0.16414 -1.0915e-05 0.26141 -6.9721e-05 6.7675e-06
-5.4191e-07 2.2997e-06 0.00044363 -0.00010505 0.00050822 4.8719e-05 -1.5471e-05 9.318e-05 -1.2474e-05 1.1978e-07 0.00016961 -6.1394e-07 -3.4172e-05 -4.5083e-05 -3.2929e-05 -3.6917e-06 0.00030546 0.00049696 -1.3632e-05 0.00084054 0.00080122 6.5831e-05 0.0009819 -1.1935e-05 -4.3302e-10 0.00090576 0.00028662 -9.7862e-05 0.12214 -0.0008437
7.5968e-06 -2.2737e-06 0.00049037 6.6599e-08 0.23494 0.0011758 0.00031184 -1.0871e-05 -0.00010618 -7.1108e-06 -6.4416e-05 -1.0323e-06 -6.2757e-05 0.00028153 2.7182e-05 -0.0001076 0.48006 0.47463 8.4297e-06 0.22682 0.1436 0.3139 0.0013881 -0.00052675 -6.8176e-05 0.12311 0.00026362 0.001089 -0.00016965 -2.5335e-05
0.17208 -5.1593e-05 -2.6777e-05 -8.4138e-07 -1.3874e-05 0.00051598 0.00040402 3.3346e-06 0.00015859 7.3645e-05 -8.8455e-05 -2.2686e-05 0.00082199 0.0003191 -0.0003215 -6.1677e-06 -1.6057e-06 -2.6028e-05 -7.0899e-05 2.2055e-05 0.19979 -5.3874e-05 0.00018773 -9.7279e-05 -0.00017184 0.1737 -7.1915e-05 0.0055363 4.5462e-07 -1.7059e-05
0.13212 0.20497 8.4445e-06 -3.043e-07 0.2549 0.00017982 -1.5347e-05 -3.592e-06 -2.7964e-05 0.00032201 0.00072427 -8.8595e-08 5.5647e-05 6.1419e-05 -5.8778e-05 0.0066831 -0.00021369 0.00059334 -2.305e-05 0.24656 0.00037566 0.37599 0.00032899 0.00076178 -6.3073e-06 0.00085071 0.00012845 -0.00032337 0.00038461 -8.985e-05
0.13212 0.20496 8.3059e-06 -4.9916e-07 0.25488 0.00016958 -1.4018e-05 -3.4336e-06 -2.8447e-05 0.00032234 0.00071563 -6.2157e-06 5.7069e-05 5.2363e-05 -5.4497e-05 0.0066832 -0.00015039 0.00034554 -1.7434e-05 0.24659 0.00061057 0.37577 0.0003202 0.00076688 -8.1032e-06 0.0016781 0.00012108 -0.00042394 0.00038512 -9.8834e-05
3.1183e-06 1.7492e-05 -1.5599e-05 1.6397e-07 -3.0613e-06 -8.0259e-06 -2.8392e-06 7.8447e-06 -8.9048e-06 6.0838e-06 0.35926 -3.0792e-06 -2.7299e-05 0.28172 -0.00075715 0.00016566 1.2448e-05 6.6417e-07 0.00047655 2.0446e-05 0.25048 -9.6524e-05 -0.00019401 -3.0685e-05 5.0644e-05 0.21601 -2.0325e-05 0.3457 -0.00010787 6.1061e-06
0.16209 0.25164 -1.5744e-06 5.2401e-07 2.4876e-05 7.9218e-06 -2.2074e-05 4.3688e-06 -1.0136e-05 0.00016099 0.26984 7.4202e-05 -1.457e-05 0.21632 0.34698 0.00013048 8.3591e-06 7.7596e-06 0.38664 -9.2516e-06 -0.0064237 4.6004e-05 4.3529e-05 6.3691e-05 0.50622 0.16371 2.1375e-05 0.27265 4.1157e-06 -1.2679e-05
0.20886 2.5787e-05 -2.6985e-05 3.4852e-07 -5.2378e-05 -2.9581e-05 -3.6071e-05 6.0798e-06 -2.889e-05 0.000175 -3.4116e-05 1.9837e-06 -6.6202e-06 0.00064106 7.8609e-05 1.3016e-05 2.3592e-06 3.2477e-06 5.148e-05 -1.5972e-06 0.24687 -8.3579e-05 -0.00064078 -1.2121e-05 9.7261e-06 1.4835e-05 -7.9818e-05 0.0018237 -6.7233e-05 6.5254e-06
1.2659e-05 -1.9901e-05 2.0983e-05 2.3134e-05 1.2842e-05 -2.5608e-05 1.8862e-05 1.6975e-05 2.6325e-05 1.6497e-05 -5.3853e-05 2.1579e-05 0.001048 0.17042 4.3795e-06 5.6434e-06 -8.9245e-06 -1.0157e-05 -0.00023405 -3.799e-05 -0.0018249 -0.00022342 0.17351 -2.112e-05 -5.5527e-05 0.13059 -4.9821e-05 0.009205 3.492e-06 -0.00011018
1.2586e-05 6.1658e-06 1.4053e-05 0.58551 -1.5483e-05 0.00022815 2.5953e-06 0.35099 0.0016654 2.9503e-05 -4.2581e-05 2.0838e-06 0.00058609 0.0003355 5.7914e-05 -6.258e-06 -2.4635e-05 0.00010505 3.6829e-05 1.8354e-05 0.20201 -0.00039481 0.20552 -0.00049556 1.6023e-05 -1.2581e-05 0.29861 0.0013632 0.00014908 4.5512e-05
0.1682 -6.6303e-05 1.1716e-05 -8.8986e-07 -4.5026e-06 0.26992 2.8004e-06 0.17116 -0.00021073 0.000104 -1.099e-05 2.5928e-06 6.0797e-06 8.871e-06 -1.3994e-05 0.26887 -3.3989e-05 -8.4152e-05 -3.3204e-06 7.6625e-05 1.0873e-05 -1.7231e-05 9.4811e-05 0.19749 2.474e-05 1.9518e-05 -0.0001892 -7.3062e-05 0.00017292 -8.3365e-06
4.5253e-05 -2.3016e-05 0.00070301 -5.736e-05 -4.7122e-06 0.0021896 -0.00012219 7.9764e-05 -5.066e-05 -2.0319e-05 8.2222e-05 -1.7126e-05 -2.9829e-05 0.00026497 0.00011693 -2.7294e-05 0.00010065 2.5399e-05 1.9296e-05 -3.1436e-06 0.0024369 -4.0585e-05 0.0010224 0.00045623 -3.8211e-05 -0.00014894 0.00080271 0.00044058 0.43901 -0.00038069
0.14202 1.1516e-05 4.9901e-05 -1.5222e-07 -5.2103e-07 -1.6686e-05 0.00073009 -2.099e-05 -8.0628e-06 8.7191e-05 -3.8102e-06 3.541e-08 1.1184e-07 3.3737e-06 -9.7136e-06 -6.7559e-07 2.3297e-07 1.2354e-05 -1.6469e-05 -9.1505e-08 -2.9333e-05 -2.7004e-06 -1.2186e-05 0.00039945 -0.00015713 -1.2717e-05 0.0028194 7.7614e-06 -2.0087e-05 1.0295e-06
7.5968e-06 -2.2737e-06 0.00049037 6.6599e-08 0.23494 0.0011758 0.00031184 -1.0871e-05 -0.00010618 -7.1108e-06 -6.4416e-05 -1.0323e-06 -6.2757e-05 0.00028153 2.7182e-05 -0.0001076 0.48006 0.47463 8.4297e-06 0.22682 0.1436 0.3139 0.0013881 -0.00052675 -6.8176e-05 0.12311 0.00026362 0.001089 -0.00016965 -2.5335e-05
6.8861e-05 8.2183e-06 -2.5195e-06 6.2782e-07 -9.1533e-07 5.7054e-05 0.00022071 -4.043e-06 0.00016481 -1.4117e-05 3.0699e-05 -3.9608e-06 -5.6598e-05 5.7009e-05 1.6026e-05 1.5375e-05 0.00012447 0.00025392 -7.136e-05 0.00010714 0.00039949 0.00053343 0.0025841 0.0009953 -1.4304e-05 0.00082308 -1.4643e-05 -0.00036637 0.00023977 -1.9169e-05
-5.0884e-06 1.4935e-07 0.37527 -2.4203e-05 -7.7867e-08 1.4856e-05 4.5697e-05 0.15653 0.00031107 -5.3234e-05 7.9497e-05 -2.1273e-06 5.7204e-06 7.8598e-06 -2.2632e-05 6.0571e-06 -1.5233e-08 -1.5158e-05 -1.102e-05 -4.0876e-06 -7.7931e-05 -5.5673e-05 3.4482e-05 0.0007289 -7.0559e-06 9.0538e-05 0.00058018 -3.8953e-05 0.24901 0.00017176
1.375e-05 4.7212e-06 0.2469 2.6194e-06 2.3207e-06 -5.6846e-07 8.1739e-05 -4.8797e-06 -3.442e-05 -3.3103e-05 -6.0897e-06 -5.6846e-06 0.00015593 4.4331e-05 -5.7014e-05 -2.0252e-05 -0.00011354 2.1944e-05 -0.00010894 0.28276 -9.5393e-05 -1.1228e-05 -2.462e-06 0.000762 -1.0796e-05 0.15225 9.3866e-05 0.0011074 0.0002415 -6.6177e-05
3.8083e-06 3.4917e-06 -2.1174e-07 -1.0016e-06 6.3959e-06 5.7624e-06 0.00019958 -7.0722e-06 0.0026156 6.572e-08 -8.8812e-06 1.0362e-06 -1.0887e-05 -1.2846e-05 -6.8236e-07 -7.5494e-06 0.00013576 0.0019944 6.3909e-06 -8.8569e-05 9.4888e-05 -6.341e-05 0.00056102 0.01798 -2.7631e-05 -6.1243e-05 0.0015856 4.9284e-06 -3.3669e-05 4.7568e-06
0.15222 0.23643 -1.4158e-06 1.6661e-07 2.3636e-05 4.4293e-06 0.0002507 4.1558e-06 1.7086e-05 0.00014366 0.25361 0.48894 -5.7645e-06 0.20316 0.32587 0.00012494 9.929e-06 7.0545e-06 0.36306 -4.9791e-07 -0.0059706 4.7891e-05 2.0012e-05 1.9378e-05 0.00047332 0.15378 3.0454e-05 0.25612 1.894e-05 -9.7045e-06
7.3105e-07 2.7296e-06 -9.9013e-07 0.00016891 5.633e-06 0.00011222 0.00013599 0.00062314 0.0017435 2.2424e-07 -5.4306e-06 2.3839e-07 0.00047436 4.1106e-06 6.9171e-07 -1.6517e-06 8.691e-05 0.0013316 2.9758e-06 -6.0857e-05 0.0001209 -2.5436e-05 0.00039151 0.012169 -1.9707e-05 -3.304e-05 0.00097195 1.9384e-06 -4.9427e-05 -5.2658e-05
1.1969e-05 -2.7195e-06 2.2463e-05 6.7532e-06 2.9895e-06 2.4558e-05 -3.7028e-05 5.3909e-05 0.28128 7.6012e-06 0.00011658 -1.6155e-06 1.2898e-05 -7.5087e-05 -3.1137e-05 1.057e-05 -1.75e-05 3.9816e-05 -2.985e-06 1.8883e-05 -0.00026117 -0.00016404 0.14711 -0.00017937 -5.1565e-05 -0.00030737 2.0997e-05 1.1471e-05 0.012842 0.00058195
0.15903 0.24684 -1.6778e-05 -3.1906e-07 -2.8673e-06 -9.3011e-06 0.00026732 7.3177e-06 -1.5367e-06 0.00015485 0.26511 0.51074 -7.6856e-06 0.2076 0.33791 0.00012196 1.1184e-05 1.1164e-06 0.37753 2.5433e-05 0.18466 -5.8048e-05 -0.00017687 -4.2818e-05 -3.3961e-05 0.15905 2.7138e-07 0.25332 -5.1795e-05 8.8579e-06
1.6095e-05 1.038e-05 0.00062325 -6.1579e-06 -1.4892e-05 -5.3192e-05 -0.00019637 -3.9721e-06 -3.2724e-05 -8.0179e-07 0.35622 -1.9912e-05 -3.598e-05 0.00044951 0.44362 3.1161e-05 2.5422e-05 2.7009e-07 0.020915 1.2803e-05 0.24885 -0.00021059 0.0011428 -0.00013792 -0.00010388 0.21229 -9.7539e-05 -0.0021621 0.010887 -6.074e-05
1.3644e-05 1.2607e-06 0.41523 1.8312e-06 -2.5627e-07 -7.1688e-06 0.089699 -2.6956e-06 -1.7097e-05 -8.11e-05 -2.2849e-06 -7.8177e-06 -7.3241e-06 2.8049e-06 -6.6096e-06 -7.2777e-07 -9.8754e-07 -1.729e-06 -4.4827e-06 -3.1842e-06 -0.00026133 -7.4983e-05 0.0018716 -5.5103e-05 -0.00012949 -3.8871e-05 -2.0911e-05 3.561e-05 -0.00029961 1.5071e-06
6.3446e-06 0.00010388 -1.9411e-05 -6.2523e-07 -1.4996e-05 1.6689e-05 0.39671 0.00073094 0.32326 -7.6451e-06 7.0296e-05 0.012901 -0.00024619 0.0001785 3.619e-05 1.5829e-05 -2.1422e-05 -5.8857e-05 -0.00012428 1.2662e-05 0.16484 -0.00015572 0.00073239 -0.0030519 0.0048937 0.14103 0.0081451 0.00076106 -9.4153e-05 -1.1814e-05
1.0053e-05 9.8848e-07 0.00040836 1.1008e-05 0.19345 0.16006 0.00022237 -1.3862e-05 -5.5711e-05 4e-06 -7.5948e-05 -1.8762e-06 -0.00034244 0.00010965 3.786e-05 -7.368e-05 0.39735 0.39258 -1.4269e-05 0.18715 0.12218 0.26279 0.13847 -0.00070603 -5.3402e-05 0.10204 0.00016473 -0.00021962 -0.00047464 -3.048e-05
0.00019442 -5.8628e-05 0.28358 3.985e-06 -3.3874e-06 6.9774e-05 0.00020684 7.2651e-06 -4.2779e-06 0.63778 1.6978e-06 2.5078e-06 0.00047579 -9.254e-05 -1.2655e-05 1.9829e-06 -2.1906e-05 -0.00010351 6.7079e-06 1.1004e-05 -0.00019341 3.6977e-05 0.20877 0.00025524 -2.2619e-05 -9.0947e-05 0.0015718 -5.3043e-05 -0.00020622 -7.3029e-07
-9.3921e-06 -3.527e-06 -5.1344e-06 1.6083e-06 -3.6053e-06 1.2695e-05 0.0007027 -9.5232e-06 -0.00012746 1.6817e-06 6.9875e-05 6.3154e-06 0.0005962 -4.7958e-07 1.393e-05 1.0071e-06 2.1562e-05 5.401e-06 -3.7233e-06 1.7396e-05 0.0027718 7.976e-05 0.0088734 0.0076594 -3.9164e-05 -0.00020271 7.4837e-06 -0.00045469 -0.00013636 2.7539e-06
-9.774e-07 -2.3049e-07 1.6634e-05 3.0031e-07 0.44067 -2.504e-06 1.4773e-06 -6.4657e-07 -1.6035e-05 7.1766e-06 -2.7846e-06 2.1021e-06 -2.2765e-06 5.9183e-05 1.0185e-05 -2.6334e-05 -1.8508e-05 3.8129e-05 4.0623e-06 0.42493 9.8944e-05 2.5001e-05 5.9385e-05 -9.2646e-06 5.0201e-07 -1.5632e-05 6.8208e-06 -3.5726e-05 8.86e-07 -3.1855e-05
0.32778 5.4097e-05 5.5378e-05 1.1521e-05 3.858e-07 0.51938 2.8547e-05 1.7168e-05 5.0382e-05 0.0003475 -3.3534e-06 -1.2459e-06 8.157e-05 -0.00019582 -1.3224e-05 7.5428e-06 -2.2389e-05 0.00022322 -1.8504e-05 -7.1622e-06 -0.00025954 -0.00030191 0.38863 0.00026684 -3.2576e-06 -0.00068063 0.00011203 6.2221e-05 -5.617e-05 9.4922e-06
-4.3137e-08 1.2833e-07 -3.9715e-09 6.9124e-08 -1.9295e-07 2.5376e-07 4.3183e-05 -1.8054e-06 -2.6249e-06 2.0265e-08 -2.3078e-08 3.9149e-08 -2.1468e-07 5.6755e-08 2.6029e-07 -6.5858e-08 -1.056e-07 1.4455e-08 4.6007e-07 9.0782e-07 -1.5323e-06 -2.2429e-07 -2.0515e-06 -7.0027e-06 -3.931e-06 -3.0645e-06 0.0002199 2.6301e-06 -2.6112e-06 6.0284e-07
1.6276e-05 -1.3783e-06 0.00033769 2.2963e-06 0.0003357 5.258e-05 3.5478e-05 0.00011545 0.00051536 1.6188e-05 -3.5358e-06 -7.9489e-07 -4.3907e-05 -0.00011409 -5.3022e-06 2.1219e-05 0.00018497 0.00040395 -2.7135e-05 0.00052754 0.00028386 -0.00013948 0.15979 0.0014284 -1.3446e-05 0.00070519 0.0015952 4.4413e-05 0.00095998 -5.1707e-05
0.00014411 -4.6211e-05 0.38704 -2.9486e-06 -1.5974e-06 0.0010242 0.00064415 8.9129e-05 0.00036049 0.001709 -1.3247e-05 2.7035e-05 -6.3858e-05 -0.0001547 -5.3407e-06 -2.2895e-05 1.7677e-05 0.00082855 -7.5056e-05 -2.4093e-05 0.0022899 0.0059308 0.0011037 0.00063179 0.0009301 0.11962 0.4046 -0.00018463 0.00032355 -2.1786e-05
0.16209 0.25164 -1.5744e-06 5.2401e-07 2.4876e-05 7.9218e-06 -2.2074e-05 4.3688e-06 -1.0136e-05 0.00016099 0.26984 7.4202e-05 -1.457e-05 0.21632 0.34698 0.00013048 8.3591e-06 7.7596e-06 0.38664 -9.2516e-06 -0.0064237 4.6004e-05 4.3529e-05 6.3691e-05 0.50622 0.16371 2.1375e-05 0.27265 4.1157e-06 -1.2679e-05
0.0984 1.6021e-06 4.6791e-05 5.9213e-07 0.00024208 4.0989e-05 7.1027e-06 0.00029172 0.00045655 0.00013408 1.8461e-05 -2.344e-06 -8.9863e-06 7.1159e-06 -3.9075e-05 0.0019041 0.00082806 0.0020424 -2.4451e-05 8.4848e-05 0.00040044 0.0016295 0.00043688 0.0013267 -1.7535e-05 0.001008 0.34966 -0.00028273 0.0006652 -1.4657e-05
0.085911 -1.9182e-05 3.7886e-05 4.3093e-06 4.8055e-07 0.13739 0.00012642 0.0001314 0.0015986 6.8584e-05 -1.8182e-06 -1.0394e-05 3.6053e-05 0.00012308 2.1328e-05 -9.295e-06 0.17496 0.16955 -1.8944e-05 -0.00055547 -0.00010421 -0.0001949 0.2043 0.010231 -2.4251e-05 -0.0004776 0.00084043 0.00070869 0.00054584 -1.3948e-05
3.1907e-05 3.3449e-06 2.9591e-05 1.1823e-06 -1.6455e-06 9.6529e-05 0.26148 8.0906e-06 7.1275e-05 -3.5618e-06 7.7351e-05 -1.7314e-05 0.00043131 -8.1607e-05 6.1089e-07 0.0003093 9.9651e-05 8.1033e-05 -1.0286e-05 -4.0327e-06 0.0016418 -6.0394e-05 0.11214 0.42583 -0.00031717 0.00053995 -0.00024834 -3.2353e-05 0.00051696 -3.5237e-06
9.3266e-06 5.0303e-05 -1.5882e-05 2.0725e-06 1.6356e-05 0.00014475 -2.9117e-05 4.7073e-05 -7.5333e-05 0.00039317 0.0010568 -4.8052e-06 5.0062e-05 3.8672e-05 -7.6364e-05 0.60172 -6.4656e-05 1.9856e-05 -8.7124e-05 0.00039831 -0.00015596 0.4869 -0.00047187 0.0023767 -3.9668e-06 0.0013652 0.0057412 -0.0012211 0.0003717 -5.8559e-05
4.4833e-06 -8.4987e-07 3.7309e-05 8.5562e-06 -3.5035e-06 3.9135e-05 0.25046 8.5814e-06 -7.2591e-05 1.3292e-05 0.0015752 -2.6596e-05 0.00093593 2.0839e-05 7.7329e-06 2.8864e-06 -2.1278e-05 0.00011696 -5.0333e-05 3.7882e-05 0.001612 -0.00045934 0.22075 0.0050313 -0.00017583 -0.00010811 -1.5392e-05 -0.00037485 -1.9517e-05 -7.8651e-07
