9.3792e-06 -2.1479e-07 6.9098e-07 1.0049e-05 3.2679e-06 -1.9362e-07 7.3515e-07 2.0381e-05 1.9548e-07 -1.5145e-05 -2.1246e-07 2.216e-06 -5.4595e-06 1.3584e-05 6.943e-06 -0.00020701 -1.0513e-05 -6.2961e-06 9.7556e-07 -4.9999e-05 -1.6578e-05 1.4845e-08 -7.8778e-06 -2.216e-06 -2.2525e-06 -5.6177e-06 -5.8577e-06 -0.0002251 -2.1179e-06 1.1964e-05 -1.285e-06 6.2145e-06 4.117e-06 -1.2568e-05 -1.4717e-05 3.8145e-06 0.00012531 -7.7365e-06 -4.0827e-07 -2.4353e-06 -1.0059e-05 5.4603e-06 1.7352e-06 1.5148e-05 -1.491e-06 3.6511e-06 4.5068e-06 -6.2114e-06 0.00019836 0.00084593 -3.7293e-06 -6.8757e-06 2.462e-05 8.8691e-06 -2.509e-06 3.4515e-08 1.0281e-05 2.9632e-08 7.8294e-06 -3.9182e-06 0.00064711 2.4997e-05 0.43409 -6.0684e-06 3.3099e-05 1.3241e-05 6.2246e-05 1.4924e-07 -2.7229e-05 -1.7128e-05
8.0605e-06 4.5128e-06 0.17667 -2.2529e-05 8.538e-06 1.2046e-06 9.4619e-06 1.8759e-05 2.8004e-06 -4.4491e-06 6.0101e-05 -4.937e-05 1.0086e-05 2.6036e-05 3.3361e-06 0.12925 0.25002 7.7768e-05 5.658e-06 -1.3197e-05 -1.6723e-05 8.0116e-06 0.00013887 -1.0935e-05 1.7607e-05 1.8399e-05 -4.6639e-05 0.010375 0.00025436 -0.00011594 0.00037 0.00012702 6.3943e-05 -7.9199e-06 8.206e-07 -3.2829e-06 -5.4217e-06 0.0013015 1.0263e-05 -0.00020383 -7.1453e-06 6.8721e-06 8.4914e-06 -0.00015078 3.8238e-05 9.7437e-06 -0.00010327 -8.9249e-06 -0.00020886 0.12502 7.0445e-06 4.6024e-05 7.6617e-05 -4.1795e-06 2.3405e-05 4.5096e-07 4.5076e-05 -8.2611e-05 -0.00013715 3.4579e-05 7.9206e-06 0.002497 0.48586 1.0206e-06 -0.00056345 2.7592e-05 0.00037632 -3.9493e-07 1.9627e-05 -5.8577e-05
3.3898e-06 4.2742e-05 -3.7422e-05 0.31647 -3.3983e-05 1.1519e-05 0.00059118 0.00078648 1.5484e-05 0.00063927 1.3226e-05 0.00018887 0.00013457 9.4443e-06 -5.9466e-06 0.0030418 -2.8474e-05 0.00013532 -3.4339e-05 -0.00053654 -0.00050331 -6.7577e-07 1.9996e-06 -3.3772e-05 0.0002826 7.7575e-05 4.2157e-05 1.5394e-05 0.00026071 -6.2963e-05 -5.7025e-06 -0.00067899 -8.9119e-06 -9.1069e-05 0.00042253 0.0016438 0.33169 -6.9361e-05 -2.256e-06 -9.7742e-05 -0.00043259 -0.00023466 1.0071e-05 5.3809e-05 0.0019391 0.00031987 0.0019311 0.00020104 0.00036123 -0.0015104 3.1826e-05 0.00011153 -3.661e-05 0.00043895 -0.00013045 -8.8095e-05 -3.1518e-05 -4.1397e-06 2.8818e-05 9.1232e-05 2.9303e-05 -3.304e-05 8.2977e-05 0.031491 -2.1667e-05 3.3821e-05 0.00017344 6.586e-07 -0.00056686 0.0023856
1.7043e-07 2.0193e-06 -4.2821e-06 3.5532e-06 -1.2982e-05 1.6609e-07 -1.2315e-06 1.9904e-05 -3.6502e-05 5.0697e-06 1.3208e-05 3.9151e-06 -2.2255e-06 7.5739e-07 5.2233e-07 0.00069492 -8.2982e-06 2.0249e-05 6.5095e-06 -4.4126e-06 -5.9426e-06 -1.1608e-05 4.9927e-05 2.7273e-06 2.8544e-05 -2.3026e-06 2.0248e-05 0.32134 -1.4501e-05 5.4503e-05 4.7436e-05 -2.8173e-05 -1.1398e-07 -3.8683e-06 -2.0825e-06 -4.9601e-06 -4.5122e-05 3.918e-05 1.6534e-06 -6.5575e-06 -1.4998e-05 -2.5175e-05 -1.4128e-05 3.0107e-06 -1.6798e-05 -7.8819e-06 -9.1975e-05 2.1289e-05 -3.2218e-05 -0.00068648 -3.2327e-05 2.0221e-05 -1.0377e-05 0.0045873 -2.073e-06 6.3906e-07 -3.547e-06 -6.8804e-05 2.4414e-05 1.963e-05 1.0614e-06 0.49746 -0.0004034 -1.3649e-05 5.0373e-05 -6.0374e-06 -2.3743e-05 -2.8338e-06 -2.0848e-05 -8.9819e-05
2.517e-05 1.739e-05 -2.8787e-05 7.1732e-06 2.6928e-06 2.8932e-06 0.00059185 4.8153e-05 3.1546e-05 0.00068197 -1.8496e-07 0.00015301 5.4231e-05 3.0059e-06 -9.4126e-06 0.0017084 -5.3031e-05 -9.7726e-07 9.7907e-05 -3.3306e-06 -9.0428e-05 -3.873e-06 3.9746e-05 -2.9381e-05 2.4861e-05 5.0865e-05 0.0010653 0.00076952 0.00026258 1.8243e-05 -4.3203e-05 -5.5565e-06 -1.4624e-05 -3.4371e-05 0.00042259 0.00012303 0.00010375 -2.7921e-05 4.2141e-06 -0.00010778 -2.9124e-05 -0.00029988 -7.3336e-06 4.9819e-05 3.082e-06 0.00042648 0.00024521 0.00024369 0.00020578 -0.0016956 5.6603e-05 -0.00052488 -8.2586e-05 0.00038729 -3.6058e-05 -4.1569e-05 5.4667e-06 0.00043998 -4.8581e-05 0.00016824 0.70648 0.00014431 0.4364 0.0001927 3.2854e-05 5.2218e-05 0.002226 1.5582e-06 -0.0004502 0.00202
4.5475e-06 1.1191e-05 -3.0546e-05 8.4039e-06 9.5653e-05 -7.42e-07 0.00058149 -7.1387e-06 1.9279e-05 0.00066463 1.9522e-05 0.00010442 -1.9001e-05 -1.4947e-06 -1.1502e-05 0.0021178 -1.6628e-05 4.4446e-06 -6.0325e-06 5.5589e-08 -1.3144e-05 -5.6317e-06 1.7806e-05 -2.4866e-05 4.4529e-05 1.9065e-07 0.00011583 0.00016189 0.00034973 5.1559e-06 3.3114e-05 -3.0844e-05 -1.442e-05 -2.3009e-05 0.00042154 -2.4907e-07 0.33517 -0.0001792 1.3874e-05 -0.00011308 -2.725e-05 -0.00027947 -6.5725e-06 0.00082734 -7.5766e-06 0.0002878 -4.0542e-05 0.000247 5.2608e-05 -0.0022329 5.2462e-05 5.2113e-05 -2.7045e-05 0.0011219 -5.0989e-05 -1.2496e-07 -3.7309e-06 1.6183e-05 -2.7526e-05 0.00015921 1.8519e-05 0.0011075 0.00011656 -0.00021807 0.0074051 3.9176e-05 0.00034468 3.3605e-06 -0.00044857 0.0023751
0.28874 2.3975e-05 -2.8544e-05 -1.3394e-05 3.5973e-06 -3.2771e-06 0.00059364 2.0911e-05 4.5129e-05 0.00064679 -7.2305e-06 6.5736e-05 3.4107e-05 -5.0391e-06 -1.0983e-05 0.1306 -0.0003931 2.8773e-05 -3.6417e-05 4.8493e-05 -7.6378e-05 1.2916e-05 -6.923e-05 -7.3201e-06 -2.867e-05 0.3551 0.30263 0.32733 0.00026093 0.31702 -8.0668e-05 0.0001124 4.2869e-05 -3.4601e-06 0.00041758 5.469e-05 0.00013483 -1.1843e-05 3.9057e-06 -0.0009226 4.7278e-05 -0.00063211 2.6656e-06 0.00010136 3.7795e-05 0.00028882 -2.6546e-05 0.00055439 -0.00016155 0.12323 6.621e-05 0.00032187 0.00025085 0.00024952 0.00015099 -2.3582e-06 0.00013719 -2.3356e-05 0.00020707 0.00033401 0.0054636 0.00035934 -0.00023448 0.00020876 0.00015268 3.5159e-05 0.3876 7.7392e-07 -0.00057172 0.0022165
0.28871 0.17408 0.17664 -9.8735e-07 3.9883e-07 -2.9926e-07 1.1052e-05 -2.3194e-05 2.7978e-06 -8.3556e-06 1.6865e-05 -3.3896e-05 5.4705e-06 -1.402e-06 2.2095e-06 0.12967 3.3114e-05 3.9434e-05 9.574e-06 4.2469e-05 1.1361e-05 1.7863e-05 4.972e-06 4.0464e-06 9.9024e-07 5.6683e-05 2.6312e-05 2.6924e-05 3.0052e-06 5.7365e-06 2.4538e-05 0.0001359 6.8725e-05 -4.4253e-07 9.5331e-06 1.3413e-05 5.2094e-06 3.715e-05 5.5565e-06 2.4002e-05 4.9516e-05 -2.7885e-05 1.0066e-05 9.7296e-07 2.9809e-05 -1.628e-06 -3.2025e-05 1.9258e-05 -4.744e-06 0.12299 8.5606e-06 -1.2089e-05 -6.7034e-06 -2.4684e-05 1.0539e-05 -2.2986e-06 -6.1137e-06 -3.0668e-05 0.00010403 5.0686e-05 -7.2617e-06 9.8563e-07 3.0441e-05 -6.6807e-06 -1.6663e-05 -4.4075e-06 7.3078e-05 -1.6965e-07 7.6367e-05 -0.00012558
-4.0078e-05 8.6486e-07 1.746e-07 -1.0609e-05 7.1889e-07 -3.8909e-06 -3.3234e-06 1.98e-05 3.523e-07 -1.0149e-05 -1.0214e-05 4.8256e-06 7.6481e-07 -2.7777e-07 2.9435e-06 3.9091e-05 -1.3311e-05 3.1274e-06 9.2749e-07 -4.0572e-05 -7.0599e-06 -1.9607e-06 1.6824e-05 -1.0419e-06 1.443e-06 1.4553e-05 0.30095 2.5954e-05 -3.4438e-06 1.1168e-06 -2.8613e-07 -1.0874e-06 6.343e-07 6.9281e-07 0.37692 4.0241e-06 1.4146e-05 -1.6092e-06 3.6353e-07 -8.4512e-06 -2.157e-05 2.8011e-05 7.2798e-07 2.7327e-07 -1.6402e-06 3.7123e-05 -4.5836e-07 -4.6948e-05 1.0256e-05 -6.0997e-05 5.2338e-06 2.904e-06 2.399e-05 1.1672e-05 -2.021e-05 3.554e-07 -9.2317e-07 5.1104e-06 -7.189e-06 3.1751e-05 1.5937e-05 -3.2679e-06 -1.6134e-05 1.3158e-05 4.6613e-05 2.0105e-06 8.5123e-05 8.0215e-08 -0.00019416 -2.7173e-05
5.106e-06 1.935e-06 3.2554e-06 1.1749e-05 0.35349 -4.3011e-06 -5.8923e-05 1.8773e-05 1.8399e-06 -3.9518e-06 6.2532e-06 3.7633e-06 3.6188e-08 4.0558e-07 3.2934e-06 -1.2779e-05 8.0816e-06 1.7878e-06 -7.4091e-08 -2.5958e-05 -3.7398e-05 -2.9654e-07 -2.035e-06 -2.0488e-06 -5.2041e-06 7.3299e-06 -4.2215e-06 1.8914e-05 -4.2857e-06 9.4007e-06 -1.0408e-05 2.5344e-05 -5.6072e-07 -6.7504e-05 4.0888e-06 5.6282e-06 0.00011937 6.6789e-05 -8.7495e-08 0.0060204 -7.0527e-06 -5.6847e-07 1.835e-06 -3.2788e-06 2.092e-06 -5.5036e-07 0.00032269 1.814e-06 1.7866e-05 -1.1434e-05 1.2992e-06 -1.2961e-05 0.001853 -3.2348e-05 0.0001257 -3.2632e-08 1.0228e-05 -3.8686e-06 -1.3781e-05 -9.5087e-07 -8.5712e-07 -3.2985e-05 -1.0311e-06 -9.4285e-06 1.4087e-06 -1.618e-06 -0.00079739 -1.2532e-06 -0.00012734 2.9832e-06
3.3976e-06 0.17406 0.00024012 0.31614 -1.5451e-05 -1.6437e-06 0.19676 1.9361e-06 3.9106e-05 0.18249 0.18566 0.18246 3.0251e-06 1.0767e-05 -4.7031e-05 0.0014414 -1.3495e-05 -3.5245e-06 -3.6465e-05 -5.0515e-07 -1.4015e-06 4.1278e-06 0.22805 -7.8079e-05 1.2218e-05 -5.6212e-05 7.7954e-05 6.1219e-06 0.00027596 1.2932e-05 -2.0895e-05 -5.0223e-05 -9.1231e-06 -3.5238e-06 0.00037746 -8.296e-06 -6.7348e-05 -0.00011024 2.8217e-06 -1.7817e-05 -1.6837e-05 -0.00032109 -1.8356e-05 6.019e-05 -2.33e-05 0.50127 5.4347e-06 0.00028863 0.00016156 -7.4232e-05 6.8861e-05 8.984e-06 6.3701e-05 0.00026416 -6.7012e-05 7.7532e-06 8.9809e-06 0.00013999 0.00022749 0.00017221 1.3748e-05 0.00018121 8.7979e-05 0.39469 8.0563e-06 0.00020107 0.00024825 1.2548e-06 -0.00049722 0.0020818
0.28866 0.17404 0.17659 -6.757e-06 1.1926e-06 2.3049e-06 0.19588 -0.017382 7.4912e-06 0.1817 1.6071e-05 0.18224 1.561e-05 1.5935e-05 1.0504e-06 0.12903 0.2497 4.4583e-05 5.7818e-06 0.44755 0.44726 1.4789e-05 -1.7689e-05 1.5529e-05 7.6932e-05 0.3524 0.30085 3.2625e-05 -5.4599e-06 0.31585 7.5027e-05 0.00017331 5.8913e-05 0.41184 -9.6888e-06 0.00050941 2.1485e-05 3.624e-05 3.1857e-06 0.33043 0.44731 -7.5255e-05 1.7565e-05 1.9202e-05 8.5992e-05 5.8595e-05 -3.1799e-05 5.179e-05 -4.9826e-05 0.1237 1.0118e-05 9.7594e-05 0.33159 -9.2363e-05 0.4473 -9.2429e-07 0.49977 -2.4577e-05 0.00019858 0.00013266 1.5784e-05 2.999e-05 1.6777e-05 4.8704e-05 -7.5843e-06 1.6564e-05 0.374 3.3283e-07 0.00015672 0.0001228
8.4472e-07 -3.5653e-06 -2.0637e-05 -3.2021e-05 -5.6347e-06 -9.3762e-08 -3.5546e-06 3.5234e-05 4.8644e-06 0.00084262 3.1683e-05 2.1063e-06 -6.8037e-06 8.4439e-06 -2.4204e-06 6.7167e-05 -2.8122e-05 6.9854e-05 1.0263e-06 -2.88e-05 -2.2255e-05 -1.961e-05 0.0040794 -2.663e-05 0.31031 0.00081343 -7.145e-06 0.00082776 -9.1741e-06 3.7127e-05 -0.00012095 -5.9616e-06 3.4359e-05 6.0133e-06 6.5575e-07 -0.00023064 -3.7575e-05 -0.0001462 7.8342e-06 -2.8557e-05 -9.4019e-05 -1.4909e-05 -7.1218e-06 6.5992e-05 -1.9084e-05 -1.2227e-05 -4.806e-05 8.099e-06 0.002013 -5.427e-05 -8.9006e-05 -2.1915e-06 -4.3521e-05 0.0050494 -7.6979e-05 2.4104e-06 -4.1188e-06 -0.00023425 -0.0016957 5.3238e-06 -1.009e-06 -0.00094581 -5.213e-05 0.00047896 -0.00038921 1.3107e-07 0.00048032 4.1489e-07 3.0074e-05 -3.3648e-05
-5.6793e-06 -5.4729e-07 1.2877e-06 -6.536e-07 -6.8902e-06 3.2694e-07 -9.1646e-07 0.35303 -3.181e-05 -1.1144e-05 -1.5038e-05 -7.5754e-06 7.8859e-06 3.7151e-06 1.6767e-07 -2.5122e-05 -9.2836e-06 -4.7073e-06 5.5448e-06 -0.0012871 0.001365 5.0587e-07 0.00014796 1.0216e-05 -0.0001199 1.5074e-05 -3.0686e-08 0.0001191 -3.9284e-07 1.6905e-05 0.00014211 1.5937e-05 2.4054e-05 -7.9894e-06 3.8543e-06 1.3226e-06 -8.3718e-05 3.2678e-06 1.3483e-06 -2.8427e-06 0.00019924 -6.6458e-06 5.7021e-06 -1.3269e-05 0.00021357 -9.361e-05 0.00083103 9.9808e-06 -9.2968e-05 5.5685e-06 -3.9657e-05 -0.0004925 -7.7884e-05 -0.00016939 -3.8418e-05 -2.9701e-06 2.8231e-06 0.5071 0.0001038 -1.7083e-06 -0.0001151 0.49386 1.1146e-05 1.7809e-05 -5.9227e-05 -7.0404e-05 3.7014e-05 -1.9692e-06 -4.6706e-06 -0.00015935
-6.2976e-07 -3.0327e-05 2.9113e-06 8.9331e-06 0.00031445 -2.0101e-06 1.2561e-05 0.00028753 7.7252e-06 0.0002848 0.18667 1.2445e-05 -4.5788e-05 -2.1401e-06 -1.3339e-07 0.0006803 5.0969e-05 -2.7297e-06 2.0706e-05 -0.0001598 -0.00016717 2.7176e-06 0.00056436 1.8803e-05 0.00022203 -6.6658e-06 -4.8194e-05 0.33171 -9.0316e-05 -0.0001824 6.909e-05 -3.4543e-05 1.6474e-05 3.4282e-07 -2.2392e-05 -8.6631e-05 0.0011521 9.2664e-05 -7.1287e-07 6.0666e-06 -0.00018703 2.2994e-06 -2.8016e-06 -0.00016895 5.1012e-05 0.00033806 -8.8817e-05 -5.7434e-06 -0.00015167 -0.00069969 -6.7616e-07 3.5149e-05 -2.8991e-05 -1.2774e-05 5.0936e-05 2.982e-05 1.7857e-05 0.00074499 -0.00040716 -2.2312e-05 -0.00046943 2.5593e-05 0.026419 -2.1413e-05 -7.4513e-05 1.2452e-05 -0.00020641 -1.8752e-07 -0.00038065 7.5758e-05
7.7612e-06 -4.2191e-05 -3.7422e-05 7.2584e-06 5.2183e-06 -1.1456e-05 0.19673 -8.0979e-05 8.202e-06 0.18499 2.0399e-05 0.18271 0.27793 3.9172e-05 3.1274e-06 0.0016374 0.00012555 -5.0945e-05 -5.4401e-05 3.1942e-05 5.6388e-05 -3.6598e-05 0.00012288 -3.4133e-05 0.00094071 -0.00011014 6.0514e-05 -2.6012e-05 0.00026311 1.9662e-05 -1.3357e-05 -9.4768e-05 -2.1005e-06 2.3395e-06 0.0003885 -6.3879e-05 0.33536 -9.2414e-05 -5.9938e-05 -0.0001663 -7.1707e-06 -0.00026465 -4.2009e-05 1.8231e-05 4.8518e-06 0.00015366 -1.1683e-05 0.00016611 0.0085239 -0.00078793 4.9344e-05 0.00017016 -8.2546e-05 0.0012731 -5.2412e-06 -5.4927e-05 -1.2257e-05 -6.3332e-06 1.0006e-05 0.00023017 2.8999e-05 6.8657e-05 -2.4382e-05 0.44934 -5.4779e-06 6.7631e-05 0.0003334 9.8729e-08 -0.00039777 0.0024471
-7.3689e-06 3.4847e-05 5.434e-06 2.037e-05 2.486e-05 -1.1619e-05 5.6326e-06 0.00069613 1.492e-06 4.256e-06 2.7397e-06 9.7962e-05 0.00021064 6.722e-06 -1.0229e-06 -0.00014623 -1.9134e-05 -4.081e-05 -8.946e-06 -0.00044262 -0.00042635 1.1108e-05 8.6649e-05 -2.0593e-06 -2.7776e-06 1.2252e-05 1.553e-06 -1.6708e-05 -7.2839e-07 3.5355e-06 -2.0126e-05 -0.00063967 7.0094e-06 -1.5666e-05 2.2387e-05 -9.1527e-06 0.0024145 -2.0956e-06 3.6469e-06 -0.00052199 -0.00036135 3.9403e-06 1.0158e-05 3.1137e-05 0.0018226 0.49689 0.0013839 2.3472e-05 -0.00023497 0.0010001 -2.2604e-06 7.4752e-05 0.00020882 8.2199e-05 -1.5801e-05 -0.00013732 -2.2659e-05 0.00011953 6.1375e-05 -5.5414e-05 -5.6069e-06 -2.2019e-05 7.4118e-06 0.031498 -3.4701e-07 0.00011403 9.3505e-05 -1.9166e-07 6.3582e-06 0.0003811
1.0138e-05 -2.4114e-05 -2.0769e-05 -8.047e-06 9.4268e-06 3.2859e-06 7.9106e-05 -3.0233e-05 -1.9006e-05 0.00062514 1.2253e-05 0.00022429 -1.485e-05 6.5453e-05 7.808e-05 0.13239 7.2436e-05 0.00017978 -8.8282e-05 3.0394e-05 -5.5213e-06 -2.673e-05 0.001342 0.00034125 0.0010221 -0.00015663 -6.5388e-05 0.00056043 -4.2379e-05 -7.7389e-05 0.00058655 -4.8355e-06 -4.7469e-05 -0.00023954 7.9657e-06 0.0073081 0.00077176 7.5643e-05 -2.0154e-07 1.0683e-05 -3.4539e-05 -1.1016e-05 -4.1539e-05 0.0013753 0.0023446 0.0011446 -7.1433e-05 -1.8422e-05 0.0095467 0.12298 -8.4397e-06 -0.00092449 -0.00017659 0.01054 6.524e-05 3.6369e-05 7.1343e-05 -9.0438e-05 -0.0017582 2.4177e-06 -5.9519e-06 -0.00048667 -0.00017763 -5.3722e-05 -3.8773e-05 -9.0169e-06 -0.00019389 -2.8638e-06 3.5182e-05 -0.00015295
1.496e-05 0.17409 0.00027172 1.7823e-05 -1.3666e-05 0.00015209 0.00027207 -4.7185e-05 6.1723e-06 0.00028327 0.18574 0.00018317 2.7194e-05 0.00023408 -3.2301e-05 0.12894 4.3473e-05 1.1607e-05 -4.3132e-05 1.8584e-05 5.5895e-05 1.6152e-05 0.00026339 -4.0438e-06 0.00023994 -6.3683e-05 -2.5364e-05 0.00021615 7.0172e-05 -7.2273e-07 2.0865e-05 0.00012327 8.0934e-05 -1.7514e-05 -5.8843e-05 0.00031544 0.00047831 -0.00011569 2.201e-05 6.3065e-05 6.5272e-05 -2.4428e-05 -3.8537e-06 0.00049183 -1.7038e-05 0.00016083 0.0020473 1.6034e-05 0.0011373 0.1267 -6.8532e-06 -3.9916e-06 0.00015122 -4.9343e-05 -2.6254e-05 -1.2138e-05 2.5209e-05 5.6526e-05 -0.0001022 1.4695e-05 4.8413e-06 -6.7952e-05 -2.0482e-05 2.0748e-05 4.6152e-06 -1.976e-06 1.9147e-05 1.9487e-07 0.00011244 -4.4495e-05
1.6607e-05 4.9641e-06 -3.0043e-05 -8.3886e-06 6.7955e-05 -4.0789e-06 0.0005879 -6.653e-05 2.7719e-05 0.0010684 4.3721e-05 9.5023e-05 0.00025529 3.2328e-05 -2.491e-06 0.13244 -1.513e-05 -5.6711e-05 -2.3885e-05 8.9818e-05 1.3958e-05 -4.8465e-05 9.7755e-05 -3.6186e-05 0.31273 -0.00017431 0.00012067 0.0011895 0.00023972 -3.6991e-05 -5.2307e-05 2.3041e-05 -2.0549e-06 5.9486e-06 0.00043061 -0.00031577 0.0029105 -9.481e-06 -1.0161e-05 2.1313e-05 2.7174e-05 -0.00028915 -2.0844e-05 5.1545e-05 5.8671e-05 0.00020495 -1.861e-05 0.00021488 0.008628 0.12295 -5.1501e-05 0.00026104 -8.4657e-05 0.50355 1.734e-05 3.9757e-05 -4.0071e-06 -0.00073672 0.00017335 0.00023668 3.8772e-05 0.00040017 -2.5649e-05 0.00017781 -0.00029755 3.659e-05 0.00039238 5.3446e-07 -0.0003297 0.0017029
-4.5151e-06 -7.892e-06 6.6008e-06 1.2549e-05 2.9516e-05 -1.0371e-05 2.3694e-05 -3.2692e-05 1.2731e-05 -1.0917e-05 -3.0871e-05 -2.8118e-05 1.5005e-05 8.0231e-05 -3.5975e-06 0.00012122 -3.4032e-05 2.2963e-05 -5.1047e-06 4.031e-05 2.3274e-05 2.6676e-06 -4.107e-05 1.232e-05 0.0024456 -1.6191e-05 3.5943e-06 -6.7549e-05 0.00035827 2.2432e-05 0.00088322 -4.4282e-06 -4.9148e-05 1.2288e-05 6.1899e-05 -0.00013397 -4.2859e-05 1.654e-05 -0.00010234 -3.906e-05 3.6167e-05 -0.00035759 6.5106e-06 -4.5299e-05 0.00021642 -7.6763e-05 0.40685 0.00038851 -0.00024323 -0.00023256 0.0013804 -2.3971e-05 -0.00010522 -0.00019655 -1.4763e-05 1.0218e-05 1.0826e-05 0.51123 0.00026678 8.7435e-05 -0.00014004 0.0022684 -2.699e-06 -2.6118e-05 0.0062117 -6.764e-05 0.00016119 -3.0193e-06 2.5196e-05 0.010582
3.3976e-06 0.17406 0.00024012 0.31614 -1.5451e-05 -1.6437e-06 0.19676 1.9361e-06 3.9106e-05 0.18249 0.18566 0.18246 3.0251e-06 1.0767e-05 -4.7031e-05 0.0014414 -1.3495e-05 -3.5245e-06 -3.6465e-05 -5.0515e-07 -1.4015e-06 4.1278e-06 0.22805 -7.8079e-05 1.2218e-05 -5.6212e-05 7.7954e-05 6.1219e-06 0.00027596 1.2932e-05 -2.0895e-05 -5.0223e-05 -9.1231e-06 -3.5238e-06 0.00037746 -8.296e-06 -6.7348e-05 -0.00011024 2.8217e-06 -1.7817e-05 -1.6837e-05 -0.00032109 -1.8356e-05 6.019e-05 -2.33e-05 0.50127 5.4347e-06 0.00028863 0.00016156 -7.4232e-05 6.8861e-05 8.984e-06 6.3701e-05 0.00026416 -6.7012e-05 7.7532e-06 8.9809e-06 0.00013999 0.00022749 0.00017221 1.3748e-05 0.00018121 8.7979e-05 0.39469 8.0563e-06 0.00020107 0.00024825 1.2548e-06 -0.00049722 0.0020818
1.0264e-05 0.17404 0.17659 -3.2524e-08 6.8388e-07 0.28862 1.2799e-05 -6.6607e-06 2.8866e-06 1.6591e-05 0.18555 -3.2301e-05 0.27706 4.8214e-06 1.8604e-06 0.12935 2.7437e-05 2.461e-05 0.24994 3.6918e-05 1.8694e-05 1.6408e-05 7.6715e-06 2.8163e-05 1.0073e-05 5.7944e-05 9.1822e-06 5.5597e-06 4.3419e-06 1.9024e-05 1.5923e-06 0.28866 0.35373 4.3397e-06 3.053e-06 2.394e-05 -4.1084e-07 2.4218e-05 0.37801 1.6069e-06 4.2562e-05 0.49273 0.5 -1.1195e-07 3.2118e-05 4.4717e-06 -2.8728e-05 0.49007 4.7715e-05 0.12374 6.5115e-05 -0.00018757 -1.2033e-05 -7.3954e-06 2.1433e-06 4.8205e-05 1.5569e-05 -1.1543e-05 0.00012002 0.41292 -2.6609e-05 2.9079e-06 2.7959e-05 -4.913e-05 2.5035e-06 6.049e-06 1.453e-05 -7.9804e-08 9.5759e-05 1.348e-05
3.3308e-05 1.9867e-06 -2.1137e-05 8.5359e-06 -5.351e-06 3.2478e-07 9.07e-05 7.7971e-05 7.7951e-06 0.18413 0.0010563 0.18283 -1.5197e-05 0.00037722 -7.9005e-06 0.13026 -5.5449e-05 0.00010738 6.9546e-05 -8.9684e-05 -5.4345e-05 5.5156e-06 0.0017037 -8.3276e-05 0.31322 -9.9104e-05 1.7043e-05 -0.00011854 -0.00015117 5.8295e-05 -4.5978e-05 5.9671e-05 1.0989e-05 3.441e-05 1.5671e-05 0.00012473 0.00026393 -9.1356e-05 -1.5667e-05 -1.1415e-05 -0.00014239 -3.8008e-05 -5.8588e-06 3.2508e-05 0.0022872 0.0014819 0.00017781 -3.0098e-05 -0.00031957 0.12555 -9.9545e-05 -0.00041647 -0.00011464 -0.00014294 -6.286e-05 -3.0856e-07 3.3864e-05 0.0048936 -0.0011524 8.3458e-05 0.0015238 -0.0003986 3.0423e-05 -7.5825e-05 -0.0003582 -0.00012668 0.00021214 8.4333e-07 -0.0002116 -5.944e-05
3.5196e-07 4.3235e-05 7.9252e-07 -9.9127e-06 8.0363e-07 -1.1351e-06 1.5733e-05 1.5763e-06 2.2054e-06 -5.8041e-06 1.5109e-05 -2.5014e-06 -5.4713e-06 2.8339e-08 1.2845e-06 0.00054975 -2.0916e-05 -3.734e-07 -3.9822e-06 2.0694e-05 -8.0321e-06 1.2632e-06 4.7702e-05 5.4604e-07 1.0178e-05 -5.2901e-05 -1.3342e-06 -5.0332e-05 -2.9966e-06 -1.0838e-05 7.3433e-05 -2.4582e-06 2.074e-06 6.8379e-06 1.48e-06 -2.3359e-05 -2.8617e-06 -1.6975e-05 -1.0356e-05 1.7055e-06 4.9248e-06 -2.8202e-06 -6.2137e-06 2.6316e-06 -1.8868e-05 -1.591e-05 -9.7488e-05 1.0963e-05 0.32523 -0.00054539 4.4571e-06 -1.0036e-05 -8.6567e-06 -3.0426e-05 -2.1387e-05 3.9668e-06 -1.3302e-06 2.6841e-06 4.0206e-05 -1.6723e-05 1.7912e-05 3.1886e-05 -0.0001045 0.0041853 -4.6473e-05 -1.1861e-05 0.00015579 -3.0889e-07 -8.5792e-05 1.4826e-06
7.6663e-06 1.183e-05 9.1245e-06 3.2982e-05 8.8013e-05 -1.1206e-07 7.5581e-06 -1.9639e-05 -0.00012056 0.0002274 -3.0446e-06 0.00029495 3.196e-05 1.622e-05 -6.8577e-06 0.00021559 -0.00011932 1.0903e-05 -3.9691e-06 -3.1811e-06 1.0882e-05 -3.4621e-06 0.00077135 0.00044821 0.0012977 -1.4797e-05 -1.9395e-07 0.00034471 0.40771 -2.8773e-05 0.0084507 -7.2503e-05 -1.5198e-05 1.5765e-06 -9.8078e-06 -2.9055e-05 -2.0757e-05 0.0001167 -4.7041e-06 2.5916e-05 2.9055e-05 9.489e-06 -2.0663e-06 4.2647e-05 -2.1881e-05 -3.0468e-06 -6.8041e-06 -1.2021e-05 -0.00017889 -0.00014135 -1.4358e-06 -0.0016132 -1.16e-05 -2.2861e-05 -3.3332e-05 -1.9246e-05 -4.7952e-06 -7.5563e-05 -0.0006556 -1.6507e-05 -2.3633e-06 0.0013681 1.0768e-05 -1.5741e-05 -0.00013313 -1.5979e-05 -6.0687e-05 -6.1447e-06 3.4771e-05 -0.00018762
2.3705e-06 3.2667e-06 0.17657 5.2067e-06 8.9946e-07 1.6256e-06 4.5487e-06 -0.017038 -5.8724e-08 0.1817 2.9128e-06 0.18227 -2.7831e-06 2.6744e-06 8.226e-07 0.00011443 5.3709e-05 -4.6029e-06 7.564e-06 0.44665 0.44709 6.2625e-07 1.1106e-05 -4.3087e-06 -3.8309e-06 3.1957e-05 5.1617e-05 -1.2278e-05 -1.4354e-05 5.3548e-05 -4.9272e-06 3.2925e-06 4.2303e-06 0.41174 -6.3322e-06 0.0005178 -2.7358e-06 2.3684e-05 -1.9947e-06 -4.1131e-05 0.44707 -1.4984e-05 1.9779e-06 -2.2554e-06 4.4633e-05 5.8369e-05 2.4995e-06 -2.0813e-05 1.4099e-05 -0.00020694 6.541e-07 2.296e-06 7.9596e-05 -3.3249e-05 0.44707 4.3483e-07 0.00010708 -1.1351e-05 1.4042e-05 8.6072e-05 -2.0142e-06 -9.907e-06 -3.454e-05 5.4553e-06 -1.4495e-05 8.6459e-06 0.00013984 1.4667e-07 3.1257e-05 1.0564e-05
1.8379e-05 3.9296e-06 -2.1864e-05 9.1402e-06 3.5935e-06 6.1398e-06 0.19647 -2.5884e-05 1.973e-05 0.1824 2.835e-06 0.18243 -3.0861e-05 -3.6483e-06 -5.7198e-06 0.13028 -1.1986e-05 0.29995 -2.4474e-05 2.5648e-05 3.232e-05 9.5889e-06 0.00036044 -5.2261e-05 0.0012228 1.4438e-05 0.00012381 1.3358e-05 0.0002199 1.2834e-05 2.2054e-05 8.0543e-05 -6.8984e-06 1.4268e-05 0.37736 0.00064916 0.33225 -3.4741e-05 -6.0928e-06 7.3764e-06 -3.6916e-05 -0.00027072 1.6851e-05 3.7091e-05 0.00046058 0.00039943 -7.5751e-05 0.00020045 -7.2992e-05 0.1249 5.8351e-05 6.0857e-05 6.8366e-05 0.00032307 -3.2407e-05 2.9229e-06 5.888e-05 0.0025657 -0.00030325 0.00022193 0.00062617 -7.8025e-05 0.00010395 3.9258e-06 -5.5946e-06 2.6116e-05 0.00035523 1.107e-06 -0.00032208 0.0020117
4.4255e-06 0.17404 -2.5174e-05 4.6995e-06 2.2188e-05 -1.337e-05 0.19648 1.2389e-05 4.44e-05 0.00065703 5.101e-06 8.512e-05 3.1757e-05 7.9552e-05 -1.1817e-05 0.0017028 -2.8198e-05 4.5424e-05 -2.5896e-05 -7.0249e-06 -3.538e-05 -6.1895e-06 8.3005e-06 -2.8726e-05 0.0025106 -2.2806e-05 0.00011817 5.1883e-05 0.00029886 1.7001e-05 -2.0415e-06 -7.968e-06 -8.5461e-05 -5.4507e-06 0.37894 1.3949e-05 0.00010561 -3.706e-05 -0.00013066 2.6194e-05 -2.6188e-05 -0.002933 -3.3351e-07 4.7994e-05 -1.3651e-05 0.00032373 0.00027043 0.0026746 -2.8117e-05 -0.001711 0.50106 1.6729e-05 2.6564e-05 0.00039069 -4.0458e-05 -5.0482e-06 1.8246e-06 0.0019136 2.1329e-05 0.0027476 2.3469e-05 0.0014542 9.6926e-05 0.00020726 0.006276 5.7985e-05 0.0003198 -2.509e-06 -0.0003736 0.013222
-3.0976e-06 2.3644e-06 -2.2469e-05 8.7276e-06 0.35359 -3.952e-07 -9.7839e-06 8.0059e-05 2.2082e-05 0.00061039 3.2655e-05 7.3038e-05 -8.0101e-06 -1.8158e-05 6.869e-07 0.00015592 -5.3609e-05 0.00022576 -5.4604e-06 0.00010274 -5.9352e-05 -1.2898e-05 0.0036557 1.1621e-05 0.00083206 0.00079854 -4.0246e-05 0.36046 -6.6295e-05 -0.00017712 -0.00027251 -2.9216e-05 2.0857e-05 -0.0002324 -1.723e-05 0.0072293 -2.298e-06 -8.3398e-05 -1.9754e-07 4.4624e-05 -0.00034257 1.0515e-05 -1.0968e-05 0.44981 0.00047327 8.0506e-05 -5.1914e-05 -1.1614e-05 0.0013708 0.00053592 -8.2743e-07 5.5779e-05 -2.7824e-06 0.50671 -0.00010799 -1.4863e-06 8.6057e-05 0.0011784 -0.0016089 -2.8529e-05 3.0451e-05 -0.0016131 -0.00048848 -2.1546e-05 -0.0014023 5.4602e-06 0.00011485 1.2804e-07 0.00011384 6.676e-05
0.28863 0.17403 2.4821e-07 -7.6337e-06 -3.2302e-07 -2.8157e-06 0.19588 -2.0221e-05 1.0573e-06 6.5243e-07 -1.4884e-05 2.0887e-06 9.2955e-06 -6.1168e-06 -1.096e-07 -3.2331e-05 6.8705e-05 5.3098e-06 -1.9329e-07 7.0249e-05 -2.7278e-06 -4.8353e-06 4.9256e-07 2.442e-07 -3.8091e-05 5.4139e-05 0.3007 4.7395e-05 2.1773e-05 0.31562 -5.4088e-06 1.4941e-05 -8.8045e-06 1.0364e-05 -6.083e-06 1.553e-05 3.3401e-06 2.6459e-09 6.8301e-07 2.9381e-05 1.895e-05 -4.6064e-05 -3.064e-06 4.3586e-06 -1.9932e-06 1.3067e-05 7.8395e-06 5.5815e-05 8.4615e-07 -5.7221e-05 -2.8308e-06 3.8287e-06 0.00011036 -7.1546e-06 1.636e-05 1.0177e-06 -1.3351e-05 1.265e-05 -3.3673e-06 -1.2886e-06 1.1019e-05 2.2282e-05 9.9286e-06 4.4263e-05 2.3141e-05 1.214e-05 4.3851e-05 8.1999e-09 0.49951 0.0001686
-6.0821e-05 0.17408 0.17657 1.4324e-05 1.1422e-06 1.6654e-06 -2.5839e-05 7.4245e-05 3.8266e-06 0.18184 -3.0625e-05 0.18313 1.4283e-05 1.3018e-05 8.1827e-06 0.13189 -2.1974e-05 -0.0001565 0.25021 -0.00014453 -4.9488e-05 -7.3974e-05 0.2281 -4.5156e-06 -8.8044e-06 -0.00017043 -6.2796e-05 -0.00018898 -6.295e-06 -5.0213e-05 -0.00011091 -0.00044426 -0.0001654 5.5865e-06 -5.7082e-05 -0.00018656 -4.6975e-05 8.2475e-05 1.8517e-05 1.4412e-05 -8.2404e-05 -2.2941e-05 -0.00010985 -3.0966e-05 -0.00017469 0.0019592 -1.0165e-05 -1.1348e-05 -4.1934e-05 0.18392 -1.4657e-05 6.8374e-05 2.0725e-06 -0.00017664 6.4233e-05 -1.4366e-05 -3.8713e-05 0.00076811 9.5972e-05 1.1875e-05 -3.719e-05 0.00018661 0.00037277 3.568e-05 -2.0374e-05 0.70711 2.348e-05 5.4903e-07 -0.00031555 -3.7506e-05
2.7874e-05 -3.9173e-05 8.811e-06 3.9228e-05 7.9587e-05 1.6256e-06 2.7675e-05 -4.7638e-05 -0.00012267 0.1833 5.7475e-06 0.18282 5.272e-05 8.3121e-05 6.8769e-05 0.13044 2.3369e-05 3.3862e-05 7.7208e-05 2.2208e-05 4.5683e-05 -7.832e-06 0.23022 0.00077975 0.0010755 -9.8793e-05 -9.5727e-05 0.00091209 0.0019079 -0.00010891 0.0093749 7.6224e-05 6.4164e-05 -2.2364e-06 2.6126e-05 -7.5337e-05 -1.5845e-05 0.00022897 -1.2803e-05 3.9061e-06 2.9494e-05 1.2345e-05 9.5601e-06 -1.2428e-05 3.2114e-05 0.00019771 0.00017813 -4.2307e-05 -0.00049736 0.12368 2.0895e-05 -0.0031908 -3.496e-05 -0.00017748 2.1497e-05 -3.819e-05 -1.315e-05 0.00039688 -0.0023016 4.4214e-05 0.00090959 0.00096537 2.1464e-05 -8.2519e-05 -0.00022892 -3.8496e-05 -6.5208e-05 -7.7923e-06 6.1307e-05 -0.00023545
6.8912e-06 4.4858e-05 8.6805e-06 7.0317e-06 2.1325e-06 0.28881 1.878e-05 4.2762e-05 -8.3383e-06 -3.9523e-06 0.18556 -4.1348e-05 2.4597e-05 -4.3975e-06 3.8087e-06 0.13025 2.9048e-05 0.00020017 -3.9755e-06 -3.0087e-05 -2.36e-05 1.2458e-05 -3.5335e-06 -9.3977e-06 0.00022274 7.5649e-05 1.4102e-05 1.6568e-05 -1.6367e-05 -2.4465e-06 4.8432e-05 0.00011422 7.1867e-05 -6.6045e-05 1.11e-05 0.0016567 0.32939 -5.3174e-06 2.2159e-05 0.00043036 6.0814e-07 -1.2439e-05 1.44e-05 5.8932e-06 2.9367e-05 4.457e-06 0.0015374 1.9693e-05 0.00051457 0.12304 9.0672e-06 2.5459e-05 3.1088e-05 -1.1885e-05 -6.4121e-05 -2.1011e-05 2.7461e-05 -4.906e-05 0.00012902 4.1001e-05 4.2044e-06 -8.7113e-05 -2.3651e-06 -0.00026603 -4.6304e-05 -4.9406e-05 -0.00013165 -5.7451e-07 5.8913e-06 2.5334e-06
3.4477e-05 1.8192e-05 0.17673 -4.6838e-06 -7.1222e-07 -4.3228e-06 1.9088e-05 0.3532 4.4042e-06 -1.0227e-05 0.18556 -1.5156e-05 3.3187e-05 1.9824e-06 1.0241e-05 0.12895 2.0557e-05 1.4985e-05 0.25019 -0.0013507 0.0012712 1.4943e-05 4.2756e-05 -0.00019749 -3.2727e-05 5.1565e-05 -3.5851e-08 3.1788e-05 2.4785e-06 -1.9606e-05 0.00011637 0.28885 6.7813e-05 -4.6265e-06 6.0026e-06 -4.0112e-06 -3.5426e-05 1.4428e-05 -1.4217e-05 2.3144e-06 0.00012104 -8.485e-06 1.9531e-05 3.7758e-06 2.9145e-05 0.00015397 0.00020698 3.0348e-05 0.00017373 0.12605 1.9892e-05 -0.49884 -4.149e-05 6.5469e-06 -2.3138e-05 -3.0969e-05 2.5075e-05 0.000519 8.6201e-05 2.7848e-05 0.00091215 1.1626e-05 5.2983e-05 0.005026 -1.2602e-05 -5.0849e-05 -0.00012803 -9.1072e-08 8.2095e-05 -9.1927e-06
7.0573e-06 -1.3838e-05 0.17663 1.6062e-05 1.988e-05 -2.8782e-07 -4.0807e-07 7.7738e-06 9.502e-05 0.18194 8.5066e-06 0.18244 1.245e-05 0.00024422 2.6515e-06 0.1309 0.25003 0.30052 -2.5802e-05 -9.7697e-06 3.3351e-05 0.57735 0.22928 5.7271e-05 9.1748e-05 5.2311e-05 1.9944e-05 -2.472e-05 0.00028891 2.7806e-05 0.0004595 7.9794e-05 5.8315e-05 1.87e-05 1.3581e-05 1.0166e-05 3.149e-05 0.40692 4.017e-06 -0.0001778 -3.649e-05 -7.2945e-06 1.0185e-05 -2.915e-05 3.3881e-05 6.752e-05 2.5825e-05 -1.9552e-05 -5.4918e-05 0.12293 1.3345e-05 3.8088e-05 9.3037e-06 -9.7366e-05 6.6314e-05 -1.5844e-06 1.2726e-05 -7.9183e-05 0.57733 0.00010443 2.1991e-05 -6.1765e-05 -8.8194e-06 -1.1843e-05 -4.5491e-05 1.7472e-05 0.00016386 9.1596e-06 -0.00012624 0.00053291
1.8379e-05 3.9296e-06 -2.1864e-05 9.1402e-06 3.5935e-06 6.1398e-06 0.19647 -2.5884e-05 1.973e-05 0.1824 2.835e-06 0.18243 -3.0861e-05 -3.6483e-06 -5.7198e-06 0.13028 -1.1986e-05 0.29995 -2.4474e-05 2.5648e-05 3.232e-05 9.5889e-06 0.00036044 -5.2261e-05 0.0012228 1.4438e-05 0.00012381 1.3358e-05 0.0002199 1.2834e-05 2.2054e-05 8.0543e-05 -6.8984e-06 1.4268e-05 0.37736 0.00064916 0.33225 -3.4741e-05 -6.0928e-06 7.3764e-06 -3.6916e-05 -0.00027072 1.6851e-05 3.7091e-05 0.00046058 0.00039943 -7.5751e-05 0.00020045 -7.2992e-05 0.1249 5.8351e-05 6.0857e-05 6.8366e-05 0.00032307 -3.2407e-05 2.9229e-06 5.888e-05 0.0025657 -0.00030325 0.00022193 0.00062617 -7.8025e-05 0.00010395 3.9258e-06 -5.5946e-06 2.6116e-05 0.00035523 1.107e-06 -0.00032208 0.0020117
9.9984e-06 1.6069e-05 -3.3569e-05 0.31624 -1.1726e-06 -1.0423e-05 3.9647e-05 1.7358e-05 6.3273e-06 0.18233 3.6534e-05 0.18329 0.00020178 9.4523e-05 -8.6014e-06 0.13071 -6.5917e-05 -5.6766e-06 -8.6696e-05 -2.6386e-05 2.3025e-05 1.6123e-05 0.23574 -4.4828e-05 0.00090536 0.00085753 -3.0164e-05 0.00089407 -6.3738e-05 0.00012283 -0.00014965 -7.532e-05 -1.7587e-05 -3.0695e-05 -5.687e-05 -4.5313e-05 0.0026613 -0.00015606 -4.9378e-06 -0.00019002 -0.00013941 4.4879e-05 -1.1391e-06 4.4348e-05 -6.7636e-05 -2.826e-06 -0.00014292 -0.00010781 0.0011736 0.12484 2.7138e-05 -6.3618e-05 -0.00013316 0.0052123 -4.4635e-05 5.6838e-05 -3.4493e-06 9.0265e-05 -0.0036888 3.6384e-05 -3.4407e-05 -0.0014807 -7.0431e-05 -0.00038537 -8.5699e-05 -0.00013362 0.00056123 7.307e-07 0.00012685 -9.5455e-05
-1.1662e-05 -7.2502e-05 -2.5051e-05 1.3927e-05 -1.5426e-05 2.6908e-05 1.502e-05 0.00061443 0.00043329 -0.00017356 0.18607 -5.6417e-05 1.5091e-05 -5.9729e-05 -9.0438e-06 0.13336 0.25057 0.30673 -8.9265e-05 -0.0008515 -0.00056896 2.5449e-05 -0.00028661 -2.9858e-06 0.33754 0.35619 -0.00019205 0.32554 -8.9353e-05 6.1327e-05 0.00013107 -1.3747e-05 9.8697e-05 -0.0029251 -6.5112e-05 0.5063 -3.0547e-05 0.00012439 -7.0117e-06 0.00038404 -0.00044211 -1.5998e-05 -5.053e-06 0.44742 -9.1449e-05 1.8192e-06 0.0011378 2.1034e-05 0.33374 0.12201 -0.00012313 2.9721e-06 0.00011116 0.0002593 -0.00036348 -4.2931e-06 0.0001365 -0.00021827 -0.00028849 -4.4608e-05 -0.00022712 0.00018943 -0.001295 0.00012188 -0.00035749 3.2529e-05 -0.0033237 -1.485e-05 -0.00016192 -0.0011325
9.8163e-06 2.0559e-06 1.4424e-05 1.3975e-07 -4.2924e-07 2.0046e-07 7.3392e-06 -3.0669e-05 2.7466e-06 -6.1981e-06 1.4058e-05 -3.6664e-05 8.7799e-06 -1.9189e-06 2.8095e-06 0.12938 2.2523e-05 4.1066e-05 -1.0283e-06 5.7115e-05 2.3116e-05 1.5932e-05 -8.1644e-06 4.1501e-06 -8.4509e-06 5.0186e-05 1.6292e-05 3.2277e-05 -1.2968e-05 5.2587e-06 2.6248e-05 0.00015727 6.6608e-05 -2.9329e-06 6.0046e-06 1.4183e-05 4.239e-06 9.3823e-06 3.5971e-06 3.5957e-05 3.3664e-05 -7.283e-06 1.8885e-05 3.7632e-08 3.3875e-05 -5.3328e-06 -4.2219e-05 2.8454e-06 -1.5438e-05 0.12316 9.9004e-06 -1.9084e-05 6.7917e-06 -2.4042e-05 3.9344e-06 -1.7931e-06 -1.9657e-06 -2.8657e-05 0.00012343 3.9023e-05 3.8422e-06 -1.3526e-06 2.0217e-05 -8.763e-06 -3.4137e-05 -7.3216e-06 2.5906e-05 -1.216e-07 0.00012157 -4.5946e-05
1.2111e-05 0.17403 0.17659 -4.2716e-07 7.4128e-07 0.28863 1.1176e-05 -3.4863e-05 3.1797e-06 -2.9797e-06 0.18554 -3.2173e-05 3.2945e-05 1.7547e-06 3.3615e-06 0.12944 3.2076e-05 3.864e-05 0.24993 6.1208e-05 2.6723e-05 1.8276e-05 3.6062e-06 2.8476e-06 -1.3184e-06 6.7288e-05 8.9806e-06 2.7634e-05 1.9017e-06 2.0342e-05 2.7758e-05 0.00017606 6.6622e-05 1.0007e-06 7.8711e-06 2.6028e-05 2.1797e-05 3.029e-05 -2.7082e-07 5.539e-05 4.7882e-05 -3.0879e-05 2.4152e-05 -3.2248e-07 3.5452e-05 3.5783e-06 -5.2233e-05 2.3853e-05 7.8491e-06 0.12318 2.5496e-05 -2.0198e-05 2.0817e-06 -2.0033e-05 3.3856e-06 -5.9829e-06 1.4182e-05 -3.6602e-05 0.00014267 5.0063e-05 -2.3091e-05 4.3676e-06 3.9571e-05 1.3495e-05 -5.7161e-06 2.5578e-06 1.6599e-05 -1.3497e-08 0.00011103 -3.6303e-05
1.2111e-05 0.17403 0.17659 -4.2716e-07 7.4128e-07 0.28863 1.1176e-05 -3.4863e-05 3.1797e-06 -2.9797e-06 0.18554 -3.2173e-05 3.2945e-05 1.7547e-06 3.3615e-06 0.12944 3.2076e-05 3.864e-05 0.24993 6.1208e-05 2.6723e-05 1.8276e-05 3.6062e-06 2.8476e-06 -1.3184e-06 6.7288e-05 8.9806e-06 2.7634e-05 1.9017e-06 2.0342e-05 2.7758e-05 0.00017606 6.6622e-05 1.0007e-06 7.8711e-06 2.6028e-05 2.1797e-05 3.029e-05 -2.7082e-07 5.539e-05 4.7882e-05 -3.0879e-05 2.4152e-05 -3.2248e-07 3.5452e-05 3.5783e-06 -5.2233e-05 2.3853e-05 7.8491e-06 0.12318 2.5496e-05 -2.0198e-05 2.0817e-06 -2.0033e-05 3.3856e-06 -5.9829e-06 1.4182e-05 -3.6602e-05 0.00014267 5.0063e-05 -2.3091e-05 4.3676e-06 3.9571e-05 1.3495e-05 -5.7161e-06 2.5578e-06 1.6599e-05 -1.3497e-08 0.00011103 -3.6303e-05
3.4477e-05 1.8192e-05 0.17673 -4.6838e-06 -7.1222e-07 -4.3228e-06 1.9088e-05 0.3532 4.4042e-06 -1.0227e-05 0.18556 -1.5156e-05 3.3187e-05 1.9824e-06 1.0241e-05 0.12895 2.0557e-05 1.4985e-05 0.25019 -0.0013507 0.0012712 1.4943e-05 4.2756e-05 -0.00019749 -3.2727e-05 5.1565e-05 -3.5851e-08 3.1788e-05 2.4785e-06 -1.9606e-05 0.00011637 0.28885 6.7813e-05 -4.6265e-06 6.0026e-06 -4.0112e-06 -3.5426e-05 1.4428e-05 -1.4217e-05 2.3144e-06 0.00012104 -8.485e-06 1.9531e-05 3.7758e-06 2.9145e-05 0.00015397 0.00020698 3.0348e-05 0.00017373 0.12605 1.9892e-05 -0.49884 -4.149e-05 6.5469e-06 -2.3138e-05 -3.0969e-05 2.5075e-05 0.000519 8.6201e-05 2.7848e-05 0.00091215 1.1626e-05 5.2983e-05 0.005026 -1.2602e-05 -5.0849e-05 -0.00012803 -9.1072e-08 8.2095e-05 -9.1927e-06
-2.1224e-06 -5.2932e-05 -1.7235e-06 0.31601 0.35343 -1.6678e-06 1.3076e-05 -6.8955e-05 3.4388e-05 0.00014089 3.6429e-05 0.00027781 0.27991 0.00012587 -6.0085e-06 0.00028645 -4.2709e-05 0.00014807 -6.0603e-05 2.0832e-05 6.4746e-05 -4.1984e-06 0.00069241 0.000494 0.0013524 -9.6011e-06 -6.4625e-05 0.00050091 0.40824 -1.3672e-05 0.44423 -7.6278e-05 -0.00013733 -1.2419e-05 2.7296e-06 0.00030025 -0.00010878 0.00019026 -4.6159e-05 -6.0674e-05 5.9316e-05 3.8365e-05 -0.00010048 0.00051799 -1.3542e-05 1.2479e-05 0.0022753 -6.2261e-05 0.0010867 0.00074827 -2.8906e-06 -0.0015985 9.7339e-05 -1.9664e-05 -4.9786e-05 -0.00056164 2.8063e-05 -1.3003e-05 -0.00013437 -9.2389e-05 -7.3444e-06 0.0012329 -9.6447e-05 -0.00018545 -4.8715e-05 1.8539e-05 -0.00023248 3.9523e-06 2.5415e-05 0.0004243
9.5801e-06 0.1741 2.8023e-06 1.0573e-05 2.2748e-05 2.4062e-05 1.1191e-05 0.35367 4.0927e-06 1.4257e-05 5.2839e-06 4.5283e-05 0.2772 8.2379e-06 6.871e-07 0.0011634 -1.5434e-05 0.00013881 0.00012956 -0.0017144 0.00095517 1.211e-06 0.22787 -9.5121e-06 0.00021459 5.4041e-05 2.2424e-06 -3.3579e-05 1.7058e-06 -1.609e-06 -6.3091e-05 -0.00063955 2.2029e-05 -6.4802e-05 1.9592e-05 0.0014846 0.00035481 2.1166e-05 8.0279e-06 -2.8272e-05 -0.0001271 -2.526e-05 -4.8242e-07 -1.9103e-05 0.0018079 0.00025868 0.40859 1.7371e-05 0.00030537 -0.00058751 -1.6636e-05 -0.00048788 0.00025877 3.6414e-05 -0.00011874 -6.6797e-05 1.2335e-05 0.00056357 0.00031745 1.6589e-05 0.00091736 6.1157e-05 -2.4816e-05 0.00036293 -2.2012e-05 -3.7298e-05 -6.4378e-05 2.1747e-08 -8.4476e-05 2.718e-05
1.1279e-05 -1.3037e-05 1.3628e-05 -5.191e-06 -8.1465e-06 -8.579e-07 1.7818e-06 -1.8218e-05 0.49947 -1.5591e-05 9.9094e-06 -4.2534e-05 6.1577e-06 -6.3641e-05 1.036e-05 0.13156 5.9672e-05 3.8984e-05 -6.4921e-06 6.463e-05 4.666e-06 1.4507e-05 -2.7798e-05 0.37433 1.2845e-05 5.7206e-06 2.5013e-05 -2.2233e-06 0.00046802 -2.7934e-05 0.43495 0.00016353 0.00022549 1.5552e-05 2.2372e-06 -3.6041e-05 3.0913e-05 0.40673 0.00013313 6.8668e-06 1.094e-05 -3.7634e-05 1.4321e-05 6.7626e-06 1.9518e-05 -2.1084e-06 -0.00014192 3.3127e-05 0.32651 0.12074 1.3075e-05 0.00018751 2.7678e-06 -1.9477e-05 -6.5067e-06 1.0752e-05 -6.8916e-06 -2.9713e-05 0.00026578 4.9661e-05 1.6609e-05 0.00025114 -0.00018858 7.1798e-05 -3.4315e-05 -1.5652e-05 0.00020001 5.4397e-06 -3.437e-05 0.00010916
4.4184e-06 4.2098e-06 -1.2299e-06 -1.0195e-05 1.5983e-05 1.4645e-05 -5.5194e-05 0.00015136 -1.4e-05 -3.7099e-05 0.18577 -7.0317e-06 1.8143e-06 0.00025614 -3.8377e-06 0.0013126 2.9223e-05 0.00018089 -1.414e-05 -0.00029541 -0.00010995 -7.4913e-06 2.1374e-05 8.3299e-06 0.00047227 6.9483e-05 -5.9381e-05 0.0001834 6.2798e-05 5.3522e-06 6.1159e-06 -2.7661e-05 -3.5043e-06 -0.00014948 1.5552e-07 0.0017573 0.33109 -5.4612e-05 6.1679e-06 0.34011 -9.184e-05 1.2973e-05 3.8675e-06 0.00047125 -1.0916e-05 -1.2196e-05 0.41061 -2.4323e-05 0.0015097 -0.00079859 -2.7545e-05 -1.0317e-05 0.33443 -7.4728e-07 0.0001194 -6.8383e-06 3.8581e-05 -4.816e-06 -2.0181e-05 -3.415e-05 -8.3563e-06 -0.00018453 -4.6187e-05 -0.00039772 -5.5964e-05 3.748e-06 -0.00048574 -3.2492e-07 -0.00073599 1.3849e-05
-3.4214e-06 -2.2383e-05 -2.867e-05 2.7167e-05 2.4256e-05 1.5524e-06 -2.9906e-06 -1.0632e-05 0.49949 -2.7147e-05 8.7539e-05 5.5888e-06 8.4125e-06 0.00019878 -2.1431e-06 0.00045008 7.4342e-05 0.00050543 -2.9986e-05 -1.6811e-05 1.6636e-05 8.2871e-07 5.3858e-06 9.5029e-05 0.00056945 2.7841e-05 -4.7149e-05 0.00018533 0.00038313 -9.3745e-06 0.00051608 -9.5266e-06 1.4337e-05 -1.6101e-05 -3.5289e-05 0.00061683 -5.2006e-05 0.00020365 -5.9194e-06 1.5717e-05 -8.8759e-06 2.7324e-05 1.0846e-05 0.0011702 -1.0127e-06 7.3916e-06 0.002057 -4.1439e-05 0.0028858 0.00082942 -1.5529e-05 4.5122e-05 0.00015877 -1.8372e-05 1.6403e-05 -3.049e-06 2.5899e-05 -8.32e-06 0.00037232 -3.9308e-05 2.0617e-05 -0.00019111 -0.00010085 3.0474e-05 -5.5833e-05 -2.8464e-06 -8.9045e-05 -4.8735e-07 -0.00011434 0.00061014
1.0837e-05 2.6653e-06 1.3e-05 3.1495e-07 -4.2462e-07 1.0073e-07 8.1125e-06 -3.2698e-05 3.1301e-06 -6.1407e-06 1.7575e-05 -3.5964e-05 9.4257e-06 -1.5035e-06 2.6394e-06 0.1293 2.4133e-05 3.9719e-05 -2.4536e-06 5.9769e-05 2.4573e-05 1.8296e-05 -8.3059e-06 5.2577e-06 -8.5958e-06 5.0733e-05 1.7218e-05 3.6023e-05 -1.2779e-05 1.0896e-05 2.8037e-05 0.0001643 6.6689e-05 -2.4866e-06 5.1803e-06 1.4623e-05 7.1058e-06 8.6472e-06 3.6248e-06 3.7884e-05 3.7959e-05 -8.1803e-06 1.9423e-05 -1.6437e-07 4.1574e-05 -7.4171e-06 -4.2825e-05 3.1841e-06 -1.5232e-05 0.12325 1.2004e-05 -1.7428e-05 6.7708e-06 -2.3833e-05 2.9433e-06 -2.3895e-06 -2.5428e-07 -2.7666e-05 0.00012897 4.3566e-05 4.5621e-06 -1.6795e-06 2.0373e-05 -8.6036e-06 -3.3885e-05 -7.5142e-06 2.5299e-05 -6.6018e-08 0.00012141 -4.507e-05
1.9474e-05 -2.0397e-06 5.0558e-06 1.8832e-05 -5.0994e-07 3.17e-07 0.19591 7.6877e-05 1.4693e-05 0.18491 1.0557e-08 0.18269 3.224e-05 0.33263 0.57681 -0.00023147 0.24984 1.0348e-05 -2.2855e-06 -9.7079e-05 -3.0156e-06 1.4686e-07 0.22801 0.3755 -3.0834e-05 2.4761e-05 6.8554e-05 -6.4507e-05 -3.1865e-05 3.3438e-05 -9.368e-05 9.8113e-06 0.00018398 4.4768e-06 -1.8575e-05 9.9302e-05 0.00022385 0.00016953 0.00013396 -6.3065e-06 -0.0002112 -3.1694e-05 -1.4948e-05 -9.3148e-06 1.3039e-05 -3.2774e-05 -1.0895e-06 1.7736e-05 -2.6785e-05 -0.00012255 5.9255e-06 4.6874e-05 4.5608e-05 -0.00012798 -0.00033915 -5.0057e-06 1.3897e-05 -3.9307e-06 -4.8685e-05 8.1344e-05 9.9066e-06 9.9897e-05 -2.4937e-06 0.00029397 -5.09e-05 3.5704e-06 0.0012277 1.3539e-06 -0.00014284 3.1241e-05
8.6151e-06 -2.0003e-05 -2.3377e-05 2.3668e-06 6.9162e-05 2.3106e-06 5.5433e-06 -7.631e-05 0.00046759 1.4026e-05 0.18573 -5.9245e-05 -1.1377e-05 -1.5227e-06 -0.00025896 0.12935 4.9824e-05 0.00058189 -5.7901e-05 4.3129e-05 7.0737e-05 -8.0132e-06 -0.00020971 0.38475 0.00016765 -3.1829e-05 -5.038e-05 0.0010791 0.0017726 -7.7255e-05 -5.2452e-05 0.0001256 -7.6091e-05 -9.0446e-06 -5.9662e-06 0.00021809 0.003463 -0.0002666 0.00013618 3.5548e-05 4.1417e-05 -1.5501e-06 4.9221e-05 0.0019821 2.4084e-05 3.3636e-06 0.0020215 -1.7085e-05 0.0018582 0.1267 -1.7649e-05 0.0011936 0.00018171 -8.3763e-05 3.3013e-05 3.4537e-06 1.7507e-05 -9.5692e-05 0.00018354 1.6847e-06 -1.0622e-05 0.0057059 -6.2613e-05 2.4212e-05 0.064021 -5.9309e-06 6.7222e-05 -1.1987e-05 5.1658e-05 0.0013057
1.3595e-05 -1.8279e-06 4.3858e-06 -2.4093e-06 -6.5264e-07 1.7068e-06 1.5863e-05 -7.6841e-06 3.6054e-07 2.5441e-05 -3.9797e-06 -1.3707e-05 7.8125e-07 -4.2528e-06 3.6284e-06 0.12878 -1.3778e-06 5.7032e-05 -2.7951e-07 6.1424e-06 9.9662e-06 -7.3415e-06 0.00031431 -2.4218e-05 0.0011082 -3.8946e-06 1.2519e-05 -2.6036e-05 -2.0074e-05 1.1931e-06 1.2024e-05 8.6102e-05 7.0497e-07 3.4572e-05 2.3986e-05 0.00065216 0.00026675 -1.099e-05 -1.1874e-05 -5.3206e-06 -7.957e-07 -2.8052e-05 1.3148e-05 2.0171e-06 0.00046801 3.7616e-05 -3.8426e-05 1.8252e-05 -0.00014217 0.12674 -3.7251e-06 1.2125e-06 2.9051e-07 -4.9596e-05 3.8358e-06 4.5167e-06 4.8188e-05 0.002566 -0.00025984 7.8298e-06 0.00059867 -7.2879e-05 -5.8699e-06 1.0117e-05 -2.9965e-05 -2.2758e-05 2.1681e-05 1.0331e-07 8.1004e-05 -0.00011181
1.6837e-05 0.17416 0.17905 3.5429e-05 4.2696e-05 -1.4904e-05 4.8037e-05 3.8365e-05 0.00010146 3.392e-05 1.3501e-05 5.0852e-05 4.5389e-06 0.33413 -1.252e-05 0.13009 -5.6846e-05 0.30014 -0.00012145 1.316e-05 -5.0254e-05 3.248e-05 0.00079662 -3.7598e-05 0.31147 -0.00012021 1.4177e-05 -8.7186e-05 0.0003326 0.31727 0.00023062 0.0001427 1.6764e-05 -5.944e-05 5.5404e-05 -0.00020758 -8.2448e-07 -0.00044222 -7.453e-05 -8.9085e-05 -0.00013401 -0.0003886 -6.242e-05 1.6524e-05 5.1509e-06 -6.4358e-06 0.00024583 0.00042874 -0.00013882 0.1226 0.0012784 0.0001391 -9.0824e-05 -1.2068e-05 3.9503e-05 4.1082e-06 -3.1148e-05 0.0022053 0.00048524 0.00017394 -2.2426e-05 0.001296 2.546e-05 -0.00015484 0.0060463 -0.00021143 4.505e-05 5.2315e-06 -9.2535e-05 0.01116
1.727e-06 3.231e-06 3.8837e-06 -2.2134e-05 -3.9313e-06 1.4331e-06 -4.7252e-06 4.5694e-05 4.8864e-06 0.18307 2.0785e-05 0.18236 -4.1236e-05 1.9748e-05 -2.0657e-06 4.0167e-05 -5.4672e-05 -9.6275e-07 4.0666e-06 -4.1159e-05 -5.8606e-05 -2.24e-05 0.22852 -3.3079e-05 0.001553 -0.0001044 -2.5403e-05 -0.00011118 -1.1185e-05 2.6096e-06 4.0047e-05 7.95e-06 2.062e-05 1.3195e-05 0.37849 -0.00011413 8.3471e-05 -2.5885e-05 9.1148e-06 3.2183e-05 -3.9582e-06 2.7263e-05 9.9565e-07 2.7661e-06 -4.535e-06 -9.4839e-05 -7.8647e-05 -8.4021e-05 0.32603 -0.00035523 1.8111e-05 -3.2345e-05 -0.0001229 -0.00016356 2.1328e-05 3.124e-05 -3.3203e-06 -3.5575e-05 0.00017794 0.00012579 1.949e-05 0.00011503 -0.00019612 0.3977 -3.3424e-06 -1.2321e-05 0.00012202 -2.6152e-07 -8.0685e-06 5.3029e-05
-3.0976e-06 2.3644e-06 -2.2469e-05 8.7276e-06 0.35359 -3.952e-07 -9.7839e-06 8.0059e-05 2.2082e-05 0.00061039 3.2655e-05 7.3038e-05 -8.0101e-06 -1.8158e-05 6.869e-07 0.00015592 -5.3609e-05 0.00022576 -5.4604e-06 0.00010274 -5.9352e-05 -1.2898e-05 0.0036557 1.1621e-05 0.00083206 0.00079854 -4.0246e-05 0.36046 -6.6295e-05 -0.00017712 -0.00027251 -2.9216e-05 2.0857e-05 -0.0002324 -1.723e-05 0.0072293 -2.298e-06 -8.3398e-05 -1.9754e-07 4.4624e-05 -0.00034257 1.0515e-05 -1.0968e-05 0.44981 0.00047327 8.0506e-05 -5.1914e-05 -1.1614e-05 0.0013708 0.00053592 -8.2743e-07 5.5779e-05 -2.7824e-06 0.50671 -0.00010799 -1.4863e-06 8.6057e-05 0.0011784 -0.0016089 -2.8529e-05 3.0451e-05 -0.0016131 -0.00048848 -2.1546e-05 -0.0014023 5.4602e-06 0.00011485 1.2804e-07 0.00011384 6.676e-05
1.6051e-05 -1.528e-05 -3.4283e-06 -9.2491e-06 1.2727e-06 8.7321e-07 0.19602 0.00013535 -2.8252e-05 0.18311 -2.0141e-05 0.18263 -1.8077e-05 0.33272 0.57853 0.00099532 0.25066 5.9373e-06 -5.9296e-05 -0.00023715 -6.1848e-05 -3.235e-05 0.2298 0.37909 -0.00010422 -0.00019639 6.1642e-06 0.0004683 -4.221e-05 -7.0008e-05 0.0005097 -3.5689e-06 0.00011398 1.3754e-05 8.238e-06 -9.9527e-05 -2.5411e-05 3.0463e-05 0.00014782 -0.0002579 -0.00029856 2.667e-05 -2.105e-05 -1.6852e-05 1.6033e-05 7.5606e-05 -0.00012425 -5.2514e-05 -0.00051974 -0.0011457 2.0264e-05 -0.00032671 -9.5276e-05 -0.00013194 -0.00026586 2.0142e-05 1.6513e-05 -9.0307e-05 -0.0034341 4.8286e-06 -1.7228e-06 -0.00058795 -5.9544e-05 -0.00011518 -0.00012138 9.4716e-06 -9.7488e-05 -3.0808e-06 -0.00031999 3.2704e-05
5.1703e-06 1.871e-06 1.9762e-06 1.0882e-06 7.8703e-06 -4.5619e-06 -5.9633e-05 2.1659e-05 -6.2115e-08 -3.4406e-06 5.9908e-06 2.0573e-06 1.763e-07 3.1206e-06 1.9718e-06 -1.4256e-05 7.229e-06 2.5178e-06 -9.8685e-08 -2.8359e-05 -3.9486e-05 4.3553e-07 8.371e-07 -6.7586e-07 1.8771e-07 4.5316e-06 -4.6141e-06 5.1504e-06 -2.1347e-07 1.0413e-05 2.6677e-06 2.5494e-05 -1.0747e-06 -6.749e-05 -2.3571e-07 -9.973e-06 0.00010428 -5.8986e-06 -9.6656e-08 0.0060159 -8.8178e-06 -2.0153e-06 2.1964e-06 1.3185e-07 2.5411e-06 -1.5365e-06 0.00032026 2.7379e-06 6.6297e-06 -7.6207e-06 1.5422e-06 -1.0202e-05 0.0018534 3.4806e-08 0.00012554 -1.1718e-07 7.0412e-06 4.3707e-07 -1.6639e-05 1.142e-07 -6.2845e-07 1.2354e-06 -2.5148e-07 -9.5603e-06 -1.9398e-06 -1.6217e-06 -0.00079276 1.7229e-10 -0.00012247 -1.4252e-06
4.2637e-05 0.17415 8.5911e-06 3.6487e-07 -2.3691e-06 -1.3375e-06 1.727e-06 0.35285 2.7076e-06 -5.5285e-05 3.231e-05 -8.5401e-05 7.1445e-06 0.33284 -1.786e-05 0.12791 2.3725e-06 2.9425e-05 9.1469e-06 -0.0011373 0.0014604 -1.9085e-05 1.4502e-05 -7.5442e-06 4.49e-07 3.3957e-05 1.7599e-05 5.1183e-05 -1.0088e-06 7.8811e-06 -4.9588e-05 8.3123e-05 -4.0779e-05 -4.0226e-06 7.8401e-06 -3.9341e-05 -3.6032e-06 4.1929e-08 3.8871e-06 3.258e-05 0.00032452 -2.9946e-05 2.1265e-05 -1.3951e-06 -3.9787e-05 -1.833e-05 -5.0134e-05 2.2132e-05 6.3595e-05 0.12921 4.8992e-06 -2.798e-05 -4.2036e-06 -2.9122e-05 -1.4146e-05 5.8989e-06 3.866e-06 -1.9209e-05 0.00013474 2.1651e-05 9.6096e-06 4.6137e-05 1.5138e-05 1.885e-05 -3.9619e-05 0.00015564 7.2211e-06 -7.2575e-08 0.00012448 -0.00013422
2.2785e-06 5.5303e-07 -9.3596e-06 -1.359e-05 -6.8058e-07 1.1408e-06 1.3549e-06 -2.4032e-05 -1.0121e-05 0.0004015 4.9694e-06 3.7081e-05 1.1213e-05 6.8734e-06 3.3531e-06 0.00049633 2.8015e-05 -1.5295e-05 -3.1924e-06 3.6241e-05 -6.3574e-06 -1.4709e-05 -1.1601e-06 7.0691e-06 0.00067746 -0.00013703 1.931e-06 -3.3835e-05 1.2003e-06 6.7509e-06 5.0227e-06 -2.0009e-06 -1.4369e-05 1.3403e-05 -4.1222e-07 -1.2815e-06 0.00013819 -9.2424e-06 -3.565e-06 9.7703e-06 2.9274e-07 -4.4711e-05 -8.6113e-06 -2.4857e-05 5.6689e-06 -2.7728e-05 8.2463e-06 2.6303e-05 0.0086324 -0.00028409 -1.0832e-05 5.7814e-05 -3.0366e-05 0.00088096 7.2738e-05 4.2278e-06 2.0438e-06 8.2348e-06 1.8488e-05 5.3083e-05 1.336e-05 9.4987e-05 -0.00015774 3.4418e-06 4.327e-05 1.6725e-05 -3.0929e-05 -9.9516e-07 2.8383e-05 -3.9715e-05
2.3705e-06 3.2667e-06 0.17657 5.2067e-06 8.9946e-07 1.6256e-06 4.5487e-06 -0.017038 -5.8724e-08 0.1817 2.9128e-06 0.18227 -2.7831e-06 2.6744e-06 8.226e-07 0.00011443 5.3709e-05 -4.6029e-06 7.564e-06 0.44665 0.44709 6.2625e-07 1.1106e-05 -4.3087e-06 -3.8309e-06 3.1957e-05 5.1617e-05 -1.2278e-05 -1.4354e-05 5.3548e-05 -4.9272e-06 3.2925e-06 4.2303e-06 0.41174 -6.3322e-06 0.0005178 -2.7358e-06 2.3684e-05 -1.9947e-06 -4.1131e-05 0.44707 -1.4984e-05 1.9779e-06 -2.2554e-06 4.4633e-05 5.8369e-05 2.4995e-06 -2.0813e-05 1.4099e-05 -0.00020694 6.541e-07 2.296e-06 7.9596e-05 -3.3249e-05 0.44707 4.3483e-07 0.00010708 -1.1351e-05 1.4042e-05 8.6072e-05 -2.0142e-06 -9.907e-06 -3.454e-05 5.4553e-06 -1.4495e-05 8.6459e-06 0.00013984 1.4667e-07 3.1257e-05 1.0564e-05
1.4891e-05 4.4179e-06 5.5869e-06 -2.4776e-06 -7.7835e-06 2.3413e-06 1.3497e-05 -0.0066532 -9.6125e-07 1.1142e-05 -3.0076e-05 -2.762e-05 -2.7223e-08 -5.1483e-06 2.738e-06 0.12951 -7.3855e-05 4.4643e-05 -2.7653e-05 0.0087208 0.0086172 1.9177e-06 0.00025339 -2.6657e-05 0.00096907 -5.4378e-05 2.1448e-06 -0.00013871 -1.8094e-05 3.4803e-05 6.5218e-06 9.3255e-05 -9.5602e-06 0.38997 2.2583e-05 0.477 0.00022988 -1.2031e-05 -1.1286e-05 2.5959e-05 0.0033976 -2.6714e-05 1.8219e-05 -1.7344e-05 0.00049337 1.8894e-05 -0.00023404 2.2987e-05 -0.00042577 0.12536 -2.8952e-06 -8.5324e-06 -4.1472e-05 -9.0866e-05 0.0046642 4.9818e-06 2.3092e-05 0.0024539 -0.00016286 -1.6953e-06 0.7077 1.2298e-05 -0.0013935 -1.2672e-05 5.6803e-05 -1.9306e-05 -0.00024 1.7604e-07 4.8977e-05 -0.00020301
-6.0495e-05 -5.6455e-06 -3.8041e-05 0.31598 1.7051e-06 -2.5682e-06 -4.8614e-05 -1.1548e-05 -2.3843e-05 6.1908e-05 -0.00010622 0.00039683 -7.4352e-06 -2.7101e-06 5.8443e-06 0.1348 -0.00011853 -0.00016622 1.1187e-05 -8.8195e-05 -4.1002e-05 -9.9344e-05 -0.00011562 4.0768e-06 1.1843e-06 -0.00020468 -9.645e-05 -0.00068596 -3.0829e-05 -4.5219e-05 -9.7113e-05 -0.00067426 -0.0001615 7.8596e-07 -6.3321e-05 -0.00045367 -0.00017069 -2.7418e-07 2.0993e-05 -0.00014346 -6.5402e-05 1.7453e-05 -0.00011264 -0.00010983 -0.00024819 6.8341e-06 -8.3795e-05 -1.1372e-05 0.34459 0.18132 -2.06e-05 0.00034012 3.4673e-05 -5.8386e-05 1.6309e-05 -1.2716e-05 -3.4223e-05 -0.00019188 2.0278e-05 -0.00011961 0.0002322 0.00028272 0.43838 -0.00029043 -4.2168e-05 4.761e-05 5.0645e-06 -1.557e-06 -0.00043435 -2.8605e-05
-2.1881e-07 0.17404 0.17658 1.7582e-06 7.1313e-07 1.7403e-06 0.19587 2.6603e-05 1.9373e-06 6.0259e-06 3.013e-06 2.9146e-06 0.27704 2.9343e-07 9.2988e-08 0.00015446 1.8427e-06 -6.3144e-06 0.24994 -1.7571e-05 -1.1503e-05 -1.1346e-06 1.4998e-05 -1.9201e-06 9.7453e-06 1.0803e-05 7.6955e-06 -1.828e-05 2.1829e-05 8.1475e-06 -2.8515e-05 0.28851 5.8419e-06 1.1049e-05 -2.2036e-06 2.8082e-06 -2.3486e-05 1.8944e-05 9.2205e-06 -2.9648e-05 4.2688e-06 -3.6868e-05 2.9389e-06 4.8691e-06 -3.0622e-06 9.77e-07 2.5805e-05 5.9989e-05 4.2149e-05 0.00014287 -2.2978e-06 -0.00017146 5.3781e-06 -1.1326e-05 3.9944e-06 0.70711 3.3121e-06 1.7814e-05 8.2314e-06 1.1801e-05 -2.8572e-05 7.3969e-06 1.7006e-05 -5.2201e-06 1.4664e-05 1.2774e-05 -8.5638e-06 -3.2224e-08 2.36e-05 4.5458e-05
-3.671e-06 0.17408 0.17658 4.1051e-05 4.2412e-05 -2.5075e-05 0.19588 0.00020686 2.1545e-06 5.9012e-06 2.0272e-05 6.5524e-06 6.746e-07 -1.9754e-07 2.7379e-06 0.00012191 -7.6361e-06 -7.338e-06 0.24993 -0.0001335 -0.00012374 1.5796e-06 1.0955e-05 -3.0839e-05 1.6602e-05 1.7661e-05 8.0693e-06 -7.1191e-06 2.1993e-05 9.9418e-06 -1.631e-05 0.28871 -1.129e-05 -5.9008e-06 2.0599e-06 8.253e-06 0.0048372 0.00045173 4.0307e-05 0.00029891 -0.00011437 -2.3042e-05 1.797e-06 4.1188e-06 -3.4323e-06 1.4455e-06 0.0011444 3.5445e-05 -3.5936e-05 0.00016307 -1.3971e-05 -0.00010903 1.6007e-05 -8.5256e-06 7.0856e-05 2.3718e-06 1.3896e-05 9.9912e-06 2.5316e-05 -1.18e-05 -2.49e-05 -5.2907e-06 2.0958e-05 -5.3983e-05 2.467e-05 -1.7975e-05 -0.00015481 2.3399e-08 2.6086e-05 -3.0968e-05
6.6814e-07 -5.5912e-06 5.5218e-06 3.7813e-05 8.5386e-05 7.7895e-07 9.8481e-06 -3.394e-05 -0.00011462 0.00022898 -3.8235e-06 0.00029492 3.8319e-05 2.4357e-05 -5.8788e-06 8.8149e-05 -0.00011444 5.9478e-05 -4.2152e-06 2.335e-05 2.2277e-05 -2.0556e-06 0.0007463 0.00043595 0.31101 -6.3922e-05 -2.8659e-07 0.00027054 0.40775 2.0823e-05 0.0084279 -5.434e-05 1.1697e-06 1.3347e-05 -1.2401e-05 -0.0002611 -2.1529e-05 0.00011582 -5.7856e-07 4.4807e-05 3.616e-05 -6.4879e-06 1.5005e-06 7.5366e-05 -1.4012e-05 -1.0535e-05 -6.6342e-06 2.1011e-06 -0.00026119 -9.9888e-05 -0.00010265 -0.0015317 -1.2076e-05 1.8056e-05 -3.3339e-05 -1.8557e-05 -9.2511e-06 -0.00021832 -0.00062576 -2.2593e-06 -7.5956e-06 0.0013016 1.4487e-05 -1.1285e-05 -0.0004526 -1.2417e-05 1.3442e-05 -5.575e-06 3.4251e-05 -0.00024146
5.0223e-06 1.6007e-06 -4.2897e-05 4.0973e-06 0.35376 -1.0941e-05 0.00062789 -4.2251e-06 0.50208 0.00072177 3.7087e-05 8.9993e-05 -2.7173e-05 6.8693e-05 -9.1142e-06 0.0019099 -3.1142e-05 0.3007 -3.3462e-05 -8.2827e-06 -1.1962e-05 -2.689e-06 -0.00014011 7.5353e-05 0.0023744 -1.244e-05 0.00011673 0.32394 0.40806 -1.5515e-05 0.0001937 -5.1339e-05 -8.2037e-05 -2.8055e-05 0.00051146 -1.5935e-05 0.0042327 0.00019148 -8.2521e-05 1.1636e-06 -2.2729e-05 -0.00052242 -1.0883e-05 0.44187 -1.8923e-05 0.00033705 1.9037e-05 0.00046572 0.00058939 -0.0015613 0.0012259 7.3537e-05 -4.4143e-06 0.00027469 -6.3942e-05 9.9513e-06 3.8991e-06 0.0017614 0.00016677 0.00029268 5.4917e-05 0.5049 -0.00026759 0.00028704 0.99782 4.8352e-05 0.00035485 0.00012902 -0.0004397 0.012743
-1.5448e-06 4.09e-06 3.411e-06 0.00028054 -2.0044e-06 -4.7014e-07 4.3574e-05 -7.6252e-07 3.1172e-07 3.0872e-06 2.3859e-06 -7.0906e-09 7.2591e-06 8.5606e-07 -4.0046e-06 -3.8344e-05 -5.0939e-07 7.1807e-07 -1.4862e-06 1.9147e-06 1.716e-06 2.6718e-06 2.1517e-05 1.5887e-05 -1.4402e-06 8.3791e-07 -6.9108e-06 -1.058e-06 8.4175e-07 4.0373e-06 4.7165e-06 -1.4693e-05 -4.0509e-06 -9.4105e-08 2.3402e-06 -1.4846e-07 5.2483e-05 9.7367e-06 -4.0684e-06 -1.5544e-05 6.0491e-06 -7.1818e-06 2.157e-06 2.3782e-08 5.3558e-06 0.0056452 -1.3855e-05 1.0095e-05 3.3029e-05 3.4176e-05 -4.5178e-07 -2.7545e-06 1.2919e-05 1.3846e-05 -1.3577e-06 -4.0803e-06 -2.0029e-06 -1.8478e-05 1.0193e-05 -2.577e-06 3.6979e-07 5.4255e-07 -4.1013e-05 2.4268e-05 0.00018048 8.3969e-06 2.8641e-05 -1.7905e-09 -5.0381e-05 0.00022386
1.9245e-05 4.1459e-05 0.17685 2.7335e-05 -1.7952e-05 -3.6439e-07 0.00027081 -5.121e-05 8.7237e-06 0.18192 0.18571 0.18245 9.9035e-06 0.00013616 -3.0819e-05 0.1298 3.7984e-05 8.814e-05 -3.5197e-05 0.00011506 5.7397e-05 1.8259e-05 0.0010273 -5.0758e-05 0.30798 -2.9288e-05 -6.2595e-06 -2.5485e-05 -2.3656e-05 0.31593 -1.4735e-05 0.00013096 9.304e-05 2.7927e-06 -8.4158e-05 -0.00019101 1.8939e-06 -0.00012616 4.0854e-06 -3.5592e-06 -5.5652e-06 -5.7925e-05 2.2669e-06 9.3382e-06 3.0222e-07 0.00018735 -6.1299e-05 7.4704e-06 -5.2037e-05 0.12382 -7.4866e-05 8.0492e-05 0.00012552 -3.6866e-05 -2.6823e-05 -3.0315e-06 -1.0318e-05 0.00027235 -0.00022501 0.00013579 -5.5785e-06 -0.00021545 5.0203e-05 -7.5605e-05 -0.00033523 -6.5132e-05 0.00016967 6.7193e-07 0.00015809 0.00023573
0.28866 0.17404 0.17659 -6.757e-06 1.1926e-06 2.3049e-06 0.19588 -0.017382 7.4912e-06 0.1817 1.6071e-05 0.18224 1.561e-05 1.5935e-05 1.0504e-06 0.12903 0.2497 4.4583e-05 5.7818e-06 0.44755 0.44726 1.4789e-05 -1.7689e-05 1.5529e-05 7.6932e-05 0.3524 0.30085 3.2625e-05 -5.4599e-06 0.31585 7.5027e-05 0.00017331 5.8913e-05 0.41184 -9.6888e-06 0.00050941 2.1485e-05 3.624e-05 3.1857e-06 0.33043 0.44731 -7.5255e-05 1.7565e-05 1.9202e-05 8.5992e-05 5.8595e-05 -3.1799e-05 5.179e-05 -4.9826e-05 0.1237 1.0118e-05 9.7594e-05 0.33159 -9.2363e-05 0.4473 -9.2429e-07 0.49977 -2.4577e-05 0.00019858 0.00013266 1.5784e-05 2.999e-05 1.6777e-05 4.8704e-05 -7.5843e-06 1.6564e-05 0.374 3.3283e-07 0.00015672 0.0001228
3.4222e-05 -1.857e-06 -4.439e-05 6.0304e-06 1.2736e-05 4.4315e-06 0.19673 7.6626e-05 3.2852e-05 0.18364 0.0010411 0.18293 1.4893e-05 5.5376e-06 -8.7257e-06 0.13236 -3.747e-05 5.9411e-05 5.7088e-05 -9.5665e-05 -4.8105e-05 -4.0762e-06 0.22925 -7.1481e-05 0.0019119 -3.3626e-05 0.0001199 3.2733e-05 0.00012036 -0.00016046 -5.6367e-05 -8.8353e-06 1.348e-05 5.1637e-05 0.0004614 0.00041704 0.00095371 -4.9036e-05 -2.5386e-05 9.7042e-07 -0.00015776 -0.00032023 -4.4184e-06 0.0010047 0.70818 0.50051 0.00018068 0.00028512 0.00079983 0.12315 3.5401e-05 -0.00048334 -0.00020635 0.0095672 -8.2211e-06 -9.1832e-06 3.933e-05 0.49525 -0.00092602 0.00014507 0.00142 -7.7153e-05 0.00015203 0.00038343 -5.8097e-05 0.0016053 0.00029805 1.3006e-06 -0.00072523 0.0019208
1.3256e-06 -1.7038e-06 0.17691 2.657e-06 -1.1765e-07 -3.0475e-07 -4.6689e-06 -4.6779e-06 1.0808e-05 -4.2096e-06 -1.8027e-06 3.2164e-06 7.2764e-07 1.1504e-06 -8.8725e-05 5.2773e-05 1.2025e-05 9.7618e-08 1.2445e-05 2.8888e-06 4.7314e-06 -4.7518e-07 -2.1153e-05 0.37719 -3.553e-06 -1.5189e-06 7.582e-06 -2.9464e-05 4.7253e-07 9.0591e-06 -1.2264e-06 2.079e-05 9.061e-05 -1.8873e-06 6.8425e-06 -1.9727e-06 -1.2304e-05 -3.9544e-05 0.00013219 -1.5076e-06 -2.4574e-06 -6.3271e-08 -5.2434e-06 -6.179e-07 3.6284e-06 6.2602e-06 1.5106e-06 -3.885e-06 5.4786e-06 -0.00015693 -2.1438e-06 0.00029005 -4.3204e-06 2.2259e-05 -1.5528e-05 5.5111e-07 8.3694e-06 2.3536e-06 2.7801e-05 2.1686e-06 -6.0899e-07 2.1423e-06 1.7117e-05 -8.2762e-05 -4.3226e-05 2.5366e-06 5.5662e-05 -1.0449e-06 6.3643e-08 7.0594e-06
-1.875e-07 6.1389e-09 -1.3691e-07 -8.862e-08 1.4861e-06 3.9016e-08 6.4469e-06 9.0551e-07 0.49896 -1.4335e-06 2.8774e-07 2.5492e-06 -1.0725e-06 6.0271e-07 9.4161e-07 9.3456e-06 1.4373e-06 -1.202e-08 -2.8678e-07 -1.2361e-06 -7.569e-07 6.9516e-07 9.3756e-06 6.51e-05 2.334e-05 4.0109e-06 4.0345e-07 1.0491e-06 -1.1454e-05 -2.5409e-06 0.00015251 5.6311e-08 8.3123e-07 1.7027e-06 1.1675e-06 -1.1791e-05 -4.9688e-05 6.3875e-07 -1.2881e-06 7.5396e-10 -6.3467e-07 -9.3283e-06 1.7985e-07 3.2317e-05 -3.3396e-07 7.5731e-06 8.8115e-07 7.6684e-06 4.711e-05 -2.069e-05 3.5404e-06 -3.375e-06 -7.871e-07 7.5758e-06 -8.6109e-07 4.1175e-07 -6.8405e-08 -6.4309e-07 1.7366e-05 3.6889e-06 2.9521e-07 -0.00011878 3.2534e-06 -9.0392e-07 9.5063e-06 -1.297e-07 1.3345e-06 1 -3.535e-06 0.00012223
1.0368e-05 0.17404 0.17659 1.6838e-06 6.3194e-07 0.28862 0.19588 -6.7716e-06 4.9743e-06 2.0883e-05 0.18555 -3.3049e-05 0.27706 2.2377e-06 2.4142e-06 0.12937 2.7908e-05 2.9219e-05 0.24993 4.1812e-05 1.5338e-05 1.526e-05 7.8072e-06 3.4877e-05 9.3831e-06 5.7825e-05 1.3019e-05 7.2414e-06 9.0076e-06 1.921e-05 2.0758e-06 0.28867 0.3537 1.0457e-05 -3.2038e-06 2.3721e-05 -4.7237e-06 2.3986e-05 0.37795 1.9605e-05 4.075e-05 0.4927 3.3896e-05 3.0811e-06 3.8516e-05 5.8067e-06 -3.1649e-05 0.49012 4.482e-05 0.12363 6.3721e-05 -0.00018789 1.3585e-05 -3.0617e-05 6.1462e-06 4.9695e-05 1.9752e-05 -3.2008e-06 0.00012024 0.41289 -2.5557e-05 1.0448e-05 3.5666e-05 -3.3335e-05 -3.0348e-06 5.6831e-06 1.4465e-05 -7.1271e-08 0.00010759 3.8404e-05
7.0573e-06 -1.3838e-05 0.17663 1.6062e-05 1.988e-05 -2.8782e-07 -4.0807e-07 7.7738e-06 9.502e-05 0.18194 8.5066e-06 0.18244 1.245e-05 0.00024422 2.6515e-06 0.1309 0.25003 0.30052 -2.5802e-05 -9.7697e-06 3.3351e-05 0.57735 0.22928 5.7271e-05 9.1748e-05 5.2311e-05 1.9944e-05 -2.472e-05 0.00028891 2.7806e-05 0.0004595 7.9794e-05 5.8315e-05 1.87e-05 1.3581e-05 1.0166e-05 3.149e-05 0.40692 4.017e-06 -0.0001778 -3.649e-05 -7.2945e-06 1.0185e-05 -2.915e-05 3.3881e-05 6.752e-05 2.5825e-05 -1.9552e-05 -5.4918e-05 0.12293 1.3345e-05 3.8088e-05 9.3037e-06 -9.7366e-05 6.6314e-05 -1.5844e-06 1.2726e-05 -7.9183e-05 0.57733 0.00010443 2.1991e-05 -6.1765e-05 -8.8194e-06 -1.1843e-05 -4.5491e-05 1.7472e-05 0.00016386 9.1596e-06 -0.00012624 0.00053291
1.0106e-05 0.17404 0.17659 1.9854e-06 4.5912e-07 0.28862 0.19588 -5.3414e-06 5.9167e-06 7.0311e-06 0.18555 -3.1356e-05 0.27705 1.4004e-06 2.457e-06 0.12937 2.8179e-05 2.9884e-05 0.24994 4.023e-05 1.4116e-05 1.5989e-05 8.409e-06 2.9604e-05 -4.2689e-05 5.7541e-05 1.3065e-05 8.66e-06 9.1651e-06 1.9539e-05 1.938e-06 0.28868 0.35371 9.7553e-06 1.4548e-06 2.6535e-05 -8.0894e-06 2.3732e-05 0.3779 1.65e-05 3.8495e-05 -7.8084e-05 3.0945e-05 2.9921e-06 3.8031e-05 5.4634e-06 -3.4216e-05 7.2073e-05 4.8174e-05 0.12361 0.49964 -0.00019 1.1959e-05 -2.3687e-05 5.1245e-06 5.0452e-05 1.6249e-05 -2.3462e-05 0.00012218 0.00010634 -2.5037e-05 -2.4891e-05 3.4759e-05 -2.7774e-05 -0.00013648 4.1265e-06 1.6003e-05 -7.0603e-08 0.00010991 2.2831e-05
1.2731e-05 -8.1762e-06 1.2663e-05 -3.8028e-06 -1.1919e-05 2.8756e-07 3.7033e-06 -3.9922e-05 7.4703e-05 2.046e-05 1.5293e-05 -2.346e-05 8.2808e-06 -6.3456e-05 -6.2845e-07 0.12969 0.24973 -1.715e-06 2.6773e-06 7.8313e-05 3.6528e-05 1.7866e-05 -4.358e-05 2.1084e-05 -2.1057e-05 2.5601e-05 4.2538e-05 2.2167e-05 -4.3901e-05 2.7304e-05 0.43697 0.00015119 6.8588e-05 -1.1416e-06 7.2604e-07 -3.2897e-05 4.8338e-05 -5.6933e-05 3.4643e-06 -0.0003084 2.8324e-05 -1.8091e-05 2.0276e-05 3.6866e-06 4.4654e-05 -9.584e-06 -6.9928e-05 1.9065e-05 4.4129e-05 0.12301 1.0864e-05 0.00020999 6.9227e-05 -1.8358e-05 3.6594e-06 -3.8958e-06 1.1547e-05 -3.4432e-05 0.00019688 3.8361e-05 1.3414e-05 -0.00012678 6.3784e-06 2.1136e-05 1.4948e-05 -9.3537e-06 0.00042943 1.5016e-06 6.739e-05 -1.6974e-05
0.28865 0.17404 1.7376e-05 -1.3101e-05 6.0342e-08 -2.9596e-06 0.19589 -0.00019401 7.2016e-06 -1.984e-08 6.9712e-06 -3.1919e-05 1.7063e-05 1.3517e-05 2.6752e-07 0.12914 0.24967 4.9524e-05 -1.7027e-06 0.00043016 0.00011143 1.3948e-05 -2.881e-05 2.0421e-05 8.1407e-05 0.35236 0.30083 4.5583e-05 1.231e-05 0.31582 7.3022e-05 0.00017035 5.1335e-05 8.5662e-05 -2.9379e-06 3.351e-05 2.4078e-05 1.1633e-05 5.0586e-06 0.33052 0.00018481 -5.8076e-05 1.5521e-05 2.1897e-05 4.1481e-05 -5.295e-07 -3.4425e-05 6.9214e-05 -6.9374e-05 0.12357 1.1544e-05 9.3571e-05 0.33147 -5.8013e-05 0.00021364 -7.0547e-07 7.9848e-05 -1.2065e-05 0.00018238 4.0388e-05 1.3945e-05 4.2613e-05 5.1859e-05 3.3263e-05 7.127e-06 8.362e-06 0.37367 1.9056e-07 0.49954 0.00012243
1.1457e-05 0.17408 2.9406e-05 -6.7634e-06 -8.9363e-08 9.6778e-07 0.1959 -3.009e-05 4.5297e-06 -1.9272e-06 0.18556 -4.9412e-05 -5.0253e-05 -2.3096e-06 5.0059e-06 0.1299 2.4074e-05 4.0878e-05 0.00011617 6.9616e-05 1.5292e-05 1.7695e-05 -6.8672e-06 -1.7709e-05 -2.8177e-05 2.5745e-05 8.8471e-06 7.4431e-06 7.3088e-06 -2.4767e-05 4.0024e-05 0.00018183 5.9393e-05 -5.2919e-06 4.6149e-06 1.5294e-05 -0.00017899 -1.355e-05 -2.0984e-05 8.3339e-05 4.0156e-05 -4.5581e-05 1.9636e-05 -1.1979e-06 4.4684e-05 -2.0367e-06 -4.538e-05 7.1971e-05 0.0014668 0.12287 1.13e-05 -7.4771e-05 1.79e-05 -3.226e-05 -1.0713e-06 2.811e-05 1.2241e-05 -1.3039e-05 0.00016093 1.6802e-05 -6.0097e-06 1.4635e-05 -3.1583e-06 0.40336 -3.1321e-05 -6.6711e-05 -2.1921e-05 -6.7519e-07 5.6611e-05 -5.4867e-05
0.28867 -1.3623e-05 4.8554e-06 0.31661 -7.6099e-06 0.28885 -1.0007e-05 9.8515e-05 2.1173e-06 -3.3883e-05 0.18595 -1.3177e-05 -5.5487e-05 6.3382e-06 5.2382e-06 -0.00013318 0.24999 2.3671e-06 -7.7934e-06 -5.4894e-05 -3.7481e-05 -7.8162e-06 -2.1693e-05 2.5845e-06 5.0831e-05 -0.00011556 0.30364 1.9469e-05 8.4145e-07 -2.7256e-05 8.9526e-06 1.4422e-05 2.5067e-05 -0.00015413 -4.3909e-06 -0.00021128 -9.5437e-05 -6.883e-07 -4.122e-07 0.3354 -0.00014975 -2.2959e-05 -2.6699e-05 -4.9321e-05 -1.1095e-05 2.2932e-05 0.40726 5.2065e-05 -9.4327e-05 0.00024294 -4.2859e-06 -5.2825e-05 0.33725 4.2745e-05 9.8923e-05 2.9888e-05 0.50069 -8.2866e-06 -3.3336e-05 1.254e-05 4.2718e-05 -5.0537e-05 -0.00010053 -0.00011267 -4.1757e-05 1.8319e-05 -2.5117e-05 4.4774e-07 0.0019778 1.7342e-05
0.28865 -1.0832e-05 4.3344e-06 0.31661 -7.8427e-06 0.28884 6.1082e-06 0.00024904 1.7689e-06 -3.3623e-05 0.18594 -1.3406e-05 -5.6817e-05 6.5946e-06 5.2779e-06 9.1569e-05 0.25001 2.706e-06 -7.7139e-06 -0.00053213 -9.4892e-05 -8.0305e-06 -2.1708e-05 3.1685e-06 5.1476e-05 -0.00011762 0.30367 2.0148e-05 4.2573e-06 -3.9434e-06 2.0209e-06 1.4762e-05 2.172e-05 -0.00016421 -3.9723e-06 -0.00016937 -9.558e-05 -1.6115e-06 -5.34e-07 0.33545 -0.00020718 -2.0763e-05 -2.6764e-05 -4.8881e-05 -1.0972e-05 2.2177e-05 0.40726 4.8675e-05 -9.9776e-05 -9.5585e-05 -2.2061e-06 -5.4551e-05 0.33721 4.3847e-05 8.0988e-05 3.0542e-05 0.0011132 -7.125e-06 -3.549e-05 6.337e-06 3.8864e-05 -4.7821e-05 -9.9988e-05 -0.00012266 -4.154e-05 1.8763e-05 -0.00021402 4.5213e-07 0.50139 2.7533e-05
-2.1881e-07 0.17404 0.17658 1.7582e-06 7.1313e-07 1.7403e-06 0.19587 2.6603e-05 1.9373e-06 6.0259e-06 3.013e-06 2.9146e-06 0.27704 2.9343e-07 9.2988e-08 0.00015446 1.8427e-06 -6.3144e-06 0.24994 -1.7571e-05 -1.1503e-05 -1.1346e-06 1.4998e-05 -1.9201e-06 9.7453e-06 1.0803e-05 7.6955e-06 -1.828e-05 2.1829e-05 8.1475e-06 -2.8515e-05 0.28851 5.8419e-06 1.1049e-05 -2.2036e-06 2.8082e-06 -2.3486e-05 1.8944e-05 9.2205e-06 -2.9648e-05 4.2688e-06 -3.6868e-05 2.9389e-06 4.8691e-06 -3.0622e-06 9.77e-07 2.5805e-05 5.9989e-05 4.2149e-05 0.00014287 -2.2978e-06 -0.00017146 5.3781e-06 -1.1326e-05 3.9944e-06 0.70711 3.3121e-06 1.7814e-05 8.2314e-06 1.1801e-05 -2.8572e-05 7.3969e-06 1.7006e-05 -5.2201e-06 1.4664e-05 1.2774e-05 -8.5638e-06 -3.2224e-08 2.36e-05 4.5458e-05
1.0001e-05 0.17404 0.17659 2.6912e-07 5.1106e-07 0.28862 1.0679e-05 -5.2305e-06 3.829e-06 2.7395e-06 0.18555 -3.0609e-05 0.27705 3.9841e-06 1.9032e-06 0.12935 2.7708e-05 2.5276e-05 0.24994 3.5336e-05 1.7472e-05 1.7138e-05 8.2733e-06 2.2891e-05 -4.1999e-05 5.766e-05 9.2284e-06 6.9782e-06 4.4994e-06 1.9353e-05 1.4546e-06 0.28867 0.35374 3.6379e-06 7.7116e-06 2.6755e-05 -3.7766e-06 2.3964e-05 0.37796 -1.498e-06 4.0307e-05 -5.5303e-05 0.5 -2.0096e-07 3.1632e-05 4.1284e-06 -3.1295e-05 2.7525e-05 5.1068e-05 0.12371 0.49964 -0.00018968 -1.366e-05 -4.6508e-07 1.1216e-06 4.8963e-05 1.2066e-05 -3.1804e-05 0.00012196 0.00013356 -2.6089e-05 -3.2431e-05 2.7052e-05 -4.357e-05 -0.00013094 4.4924e-06 1.6068e-05 -7.9135e-08 9.8075e-05 -2.0928e-06
1.0805e-05 4.0715e-06 0.17659 2.3904e-06 3.9968e-07 -1.5076e-07 0.19589 -3.3533e-05 5.3387e-06 6.4272e-07 0.18554 -3.0754e-05 1.265e-05 -2.252e-06 3.0936e-06 0.12944 2.7785e-05 4.1105e-05 7.0682e-06 6.5847e-05 2.4523e-05 1.6421e-05 -1.8036e-09 -7.079e-07 -4.3952e-06 5.5534e-05 1.1989e-05 2.7874e-05 -4.3278e-06 1.4492e-05 2.8059e-05 0.00016836 6.2217e-05 6.8216e-06 1.1316e-06 1.8713e-05 2.0567e-06 2.3206e-05 4.9347e-06 6.1776e-05 3.6552e-05 -3.4639e-05 2.2997e-05 1.5066e-06 4.6625e-05 1.0494e-05 -5.4995e-05 5.4466e-05 7.6237e-07 0.12307 9.5007e-06 -1.5751e-05 2.2415e-05 -3.1703e-05 6.3108e-06 -6.584e-06 4.0843e-06 -2.706e-05 0.0001306 3.5168e-05 3.3374e-06 3.9776e-06 4.705e-05 9.7552e-06 -3.9588e-05 -5.5869e-06 4.2763e-05 -6.3813e-09 9.9421e-05 -2.0415e-05
-6.0821e-05 0.17408 0.17657 1.4324e-05 1.1422e-06 1.6654e-06 -2.5839e-05 7.4245e-05 3.8266e-06 0.18184 -3.0625e-05 0.18313 1.4283e-05 1.3018e-05 8.1827e-06 0.13189 -2.1974e-05 -0.0001565 0.25021 -0.00014453 -4.9488e-05 -7.3974e-05 0.2281 -4.5156e-06 -8.8044e-06 -0.00017043 -6.2796e-05 -0.00018898 -6.295e-06 -5.0213e-05 -0.00011091 -0.00044426 -0.0001654 5.5865e-06 -5.7082e-05 -0.00018656 -4.6975e-05 8.2475e-05 1.8517e-05 1.4412e-05 -8.2404e-05 -2.2941e-05 -0.00010985 -3.0966e-05 -0.00017469 0.0019592 -1.0165e-05 -1.1348e-05 -4.1934e-05 0.18392 -1.4657e-05 6.8374e-05 2.0725e-06 -0.00017664 6.4233e-05 -1.4366e-05 -3.8713e-05 0.00076811 9.5972e-05 1.1875e-05 -3.719e-05 0.00018661 0.00037277 3.568e-05 -2.0374e-05 0.70711 2.348e-05 5.4903e-07 -0.00031555 -3.7506e-05
-4.3685e-07 -5.5784e-06 0.17658 1.176e-05 0.35333 1.8478e-06 0.19589 -2.9566e-05 1.8429e-05 0.18176 4.8468e-06 0.18228 0.00012341 -9.0447e-07 4.1768e-06 -2.7567e-05 1.2372e-05 7.0038e-05 7.8151e-06 4.3393e-05 3.1643e-05 6.5344e-06 6.0577e-05 -1.8195e-05 0.30804 -1.6891e-05 7.7703e-06 -4.2507e-05 0.00046925 6.4724e-05 -3.6812e-05 2.2805e-05 1.9217e-05 2.4438e-05 -3.4243e-05 -0.00020931 4.3732e-05 8.182e-05 1.8628e-05 -7.7512e-05 3.16e-05 -0.00010427 3.9418e-06 1.5073e-05 1.9277e-05 0.00015862 0.00098392 6.2763e-05 -3.8561e-06 -0.00024693 -9.7301e-05 7.6861e-05 0.0001439 8.0292e-05 4.5289e-05 -7.3428e-05 7.4453e-06 -0.00018646 0.00012851 0.00012337 -2.9521e-07 -0.00020616 3.696e-06 -3.2513e-06 -0.0011194 8.7952e-06 7.528e-05 1.8035e-08 6.212e-05 0.69468
-4.3785e-06 4.5465e-05 -1.2274e-05 0.31609 0.35375 -2.2484e-05 2.0219e-05 0.35384 -1.1845e-05 0.00011716 0.18571 1.1642e-05 -5.4261e-05 1.3172e-05 8.2323e-06 9.5823e-05 1.9269e-05 3.6624e-06 3.7268e-07 -0.001785 0.00087772 4.0068e-06 0.2283 -0.0001859 -1.1302e-05 -1.2165e-05 -3.786e-05 -8.3208e-06 -1.0753e-05 8.5668e-06 -3.0021e-05 0.00013911 9.4692e-06 -2.4204e-05 9.3868e-06 -1.543e-05 0.33613 0.41305 3.9504e-05 0.00020841 -0.00025766 1.984e-06 -5.8953e-06 -3.7031e-06 -3.9805e-05 1.9109e-05 0.001083 1.2236e-06 0.00036953 -0.000167 -8.9736e-06 2.4323e-06 -8.9864e-05 -1.4474e-05 1.3502e-05 -5.3814e-06 3.6778e-06 -4.8308e-05 8.5653e-05 2.7449e-06 -2.8795e-05 -6.121e-05 6.4846e-05 0.001179 3.911e-05 -1.9121e-05 -0.00014034 -2.8183e-07 -4.1189e-05 3.2036e-05
7.4363e-06 -1.6959e-05 -4.9605e-06 1.4766e-05 7.3357e-05 2.8589e-06 2.7085e-05 -0.0001161 -5.9378e-05 0.00022769 1.6121e-06 0.00029049 -1.6736e-06 -9.881e-06 1.3039e-05 0.13031 3.4113e-06 2.3661e-05 -5.5936e-05 6.8076e-05 8.9244e-05 -1.3148e-05 0.0019796 0.38055 0.0011068 -2.8071e-05 -5.1168e-05 0.32195 0.0019207 -4.3998e-05 0.44426 0.00018859 6.7653e-05 -8.1778e-06 1.2416e-05 -1.948e-05 0.0010262 8.0115e-05 0.0001366 1.7244e-06 8.4385e-05 1.0841e-05 9.5797e-06 1.5317e-05 3.9446e-05 -1.1842e-05 -9.2719e-05 -2.0619e-05 -5.1849e-05 0.12334 2.5517e-05 -0.50257 1.0997e-05 -5.7974e-05 2.3222e-05 1.9811e-06 6.4904e-06 0.0001153 -0.0022432 -2.8658e-05 -2.1759e-05 0.0012938 -0.00040787 0.0017995 -0.00012694 -2.7662e-05 -0.00067983 -6.7928e-06 7.5575e-05 -0.00012436
-1.7091e-06 -2.1005e-05 -2.8763e-05 9.614e-07 -9.4925e-06 9.7998e-07 -7.2149e-06 7.8769e-06 0.00039279 -2.7278e-05 0.18558 5.9905e-06 -5.2804e-06 2.0052e-06 -3.9993e-06 0.00084575 2.4656e-05 0.00034625 -1.1819e-05 -5.0952e-06 -3.3086e-06 -5.6046e-06 -1.6796e-05 1.5321e-05 0.00028998 2.6566e-05 -2.7697e-05 8.7275e-05 5.0455e-06 2.2711e-05 3.561e-06 -2.9441e-05 5.5444e-06 -1.0294e-05 -3.6244e-05 0.00033294 2.653e-05 7.5774e-05 -3.3091e-06 1.9837e-05 -1.755e-05 6.8391e-06 -7.4572e-06 0.0006489 -1.1637e-06 8.711e-06 -2.2558e-05 -8.1782e-06 0.0017448 -0.00021809 -1.3567e-05 1.0702e-05 7.3877e-06 0.00073923 -1.2505e-05 -2.2361e-07 3.4498e-06 -1.9011e-05 -2.7828e-05 3.1397e-06 1.9618e-05 0.00020167 -6.5298e-05 4.3464e-05 -4.3932e-05 -9.4075e-06 3.9008e-05 -1.5267e-05 -0.00010741 0.00050395
0.28865 0.17404 1.7376e-05 -1.3101e-05 6.0342e-08 -2.9596e-06 0.19589 -0.00019401 7.2016e-06 -1.984e-08 6.9712e-06 -3.1919e-05 1.7063e-05 1.3517e-05 2.6752e-07 0.12914 0.24967 4.9524e-05 -1.7027e-06 0.00043016 0.00011143 1.3948e-05 -2.881e-05 2.0421e-05 8.1407e-05 0.35236 0.30083 4.5583e-05 1.231e-05 0.31582 7.3022e-05 0.00017035 5.1335e-05 8.5662e-05 -2.9379e-06 3.351e-05 2.4078e-05 1.1633e-05 5.0586e-06 0.33052 0.00018481 -5.8076e-05 1.5521e-05 2.1897e-05 4.1481e-05 -5.295e-07 -3.4425e-05 6.9214e-05 -6.9374e-05 0.12357 1.1544e-05 9.3571e-05 0.33147 -5.8013e-05 0.00021364 -7.0547e-07 7.9848e-05 -1.2065e-05 0.00018238 4.0388e-05 1.3945e-05 4.2613e-05 5.1859e-05 3.3263e-05 7.127e-06 8.362e-06 0.37367 1.9056e-07 0.49954 0.00012243
-6.0495e-05 -5.6455e-06 -3.8041e-05 0.31598 1.7051e-06 -2.5682e-06 -4.8614e-05 -1.1548e-05 -2.3843e-05 6.1908e-05 -0.00010622 0.00039683 -7.4352e-06 -2.7101e-06 5.8443e-06 0.1348 -0.00011853 -0.00016622 1.1187e-05 -8.8195e-05 -4.1002e-05 -9.9344e-05 -0.00011562 4.0768e-06 1.1843e-06 -0.00020468 -9.645e-05 -0.00068596 -3.0829e-05 -4.5219e-05 -9.7113e-05 -0.00067426 -0.0001615 7.8596e-07 -6.3321e-05 -0.00045367 -0.00017069 -2.7418e-07 2.0993e-05 -0.00014346 -6.5402e-05 1.7453e-05 -0.00011264 -0.00010983 -0.00024819 6.8341e-06 -8.3795e-05 -1.1372e-05 0.34459 0.18132 -2.06e-05 0.00034012 3.4673e-05 -5.8386e-05 1.6309e-05 -1.2716e-05 -3.4223e-05 -0.00019188 2.0278e-05 -0.00011961 0.0002322 0.00028272 0.43838 -0.00029043 -4.2168e-05 4.761e-05 5.0645e-06 -1.557e-06 -0.00043435 -2.8605e-05
-1.5213e-07 -7.784e-06 2.3464e-05 3.6995e-05 0.35349 1.3399e-06 5.4803e-06 -1.7099e-05 -0.00010123 0.00012807 -4.6893e-06 0.00026436 1.2497e-05 0.33451 8.3168e-06 0.00026466 -0.00022516 0.30066 -3.0979e-06 1.0539e-06 1.5929e-05 -5.8492e-08 0.22889 0.00047435 0.0010241 -1.1743e-06 2.2934e-05 2.5633e-05 0.40947 -4.314e-05 0.47428 8.5049e-06 -2.0295e-05 -7.0467e-06 1.5069e-05 -1.7445e-05 1.7178e-06 0.40891 5.5878e-08 0.00010877 -1.9851e-05 3.118e-05 -6.9143e-06 0.00012484 4.3904e-06 1.4333e-05 -8.468e-05 -2.7034e-05 -0.00038967 -0.00027966 -2.826e-05 -0.0006301 -3.1899e-05 -3.9903e-05 -3.46e-05 -2.27e-05 3.8114e-07 -0.00018431 -0.00031963 -2.2312e-05 -5.9019e-05 0.50361 0.00029101 5.4064e-05 -0.00037544 2.6132e-06 8.8236e-05 -3.5164e-05 1.3505e-05 -0.00037045
0.28878 0.1745 6.8579e-06 2.9665e-06 1.254e-06 -1.2967e-06 5.3075e-06 7.8755e-05 3.5041e-06 -9.6228e-05 2.63e-05 -3.0405e-05 -2.1384e-05 0.33288 -1.6535e-05 0.12827 -5.6052e-06 2.4712e-05 0.00012392 -4.7747e-05 -7.3871e-05 -2.349e-05 3.9914e-05 -1.3877e-05 8.1656e-06 2.014e-05 -1.3369e-05 3.6655e-06 -1.3571e-05 -0.00010389 -6.4718e-05 6.5477e-05 -3.842e-05 -1.8479e-05 1.4132e-06 -4.8542e-05 0.00013452 1.9484e-06 -2.1533e-06 -2.0183e-06 -8.8331e-05 -1.9935e-05 1.5137e-05 1.381e-08 -2.1106e-05 0.00012158 0.00019827 5.4558e-06 7.8e-07 0.12975 -6.4023e-06 -0.00054659 2.9086e-05 -2.3179e-05 7.5755e-06 -3.0581e-05 2.502e-05 0.00050358 6.979e-05 -5.3441e-06 0.000927 -2.5742e-06 4.3866e-05 -1.7944e-05 -4.3758e-05 0.00014838 3.8864e-05 -3.1462e-08 -0.00019519 -0.00017455
-1.7401e-07 4.5632e-07 3.2681e-07 -1.807e-06 2.8127e-06 -3.1931e-08 -2.5961e-06 3.1108e-06 9.7386e-07 -2.2688e-06 7.9011e-05 -1.3906e-07 -3.7531e-06 -4.7138e-05 -1.2697e-07 7.8015e-05 4.1697e-05 0.0052994 -4.76e-06 -1.1587e-05 -4.3889e-06 1.1086e-05 -4.2226e-05 2.0627e-06 0.00016825 1.7939e-06 -4.1581e-06 0.00015164 9.048e-06 1.2484e-06 -6.3804e-05 -1.5544e-06 -3.3522e-07 -0.00012604 -1.2214e-05 0.0030952 -4.0997e-05 1.6693e-05 -3.6767e-06 -1.5465e-05 1.6114e-05 -2.0564e-05 6.772e-06 1.1979e-06 -3.7835e-06 -5.3595e-06 -1.7376e-06 2.5074e-05 0.00065184 -4.6623e-05 1.9844e-07 -8.9208e-06 3.0789e-05 0.00024937 -1.0768e-06 1.9438e-06 4.4595e-05 3.9654e-07 -2.312e-05 1.7469e-06 -7.0818e-05 1.3178e-06 1.1565e-05 -1.4193e-05 3.2545e-06 -1.8072e-07 -0.00028444 -1.4464e-07 1.745e-05 -5.7234e-05
1.0264e-05 0.17404 0.17659 -3.2524e-08 6.8388e-07 0.28862 1.2799e-05 -6.6607e-06 2.8866e-06 1.6591e-05 0.18555 -3.2301e-05 0.27706 4.8214e-06 1.8604e-06 0.12935 2.7437e-05 2.461e-05 0.24994 3.6918e-05 1.8694e-05 1.6408e-05 7.6715e-06 2.8163e-05 1.0073e-05 5.7944e-05 9.1822e-06 5.5597e-06 4.3419e-06 1.9024e-05 1.5923e-06 0.28866 0.35373 4.3397e-06 3.053e-06 2.394e-05 -4.1084e-07 2.4218e-05 0.37801 1.6069e-06 4.2562e-05 0.49273 0.5 -1.1195e-07 3.2118e-05 4.4717e-06 -2.8728e-05 0.49007 4.7715e-05 0.12374 6.5115e-05 -0.00018757 -1.2033e-05 -7.3954e-06 2.1433e-06 4.8205e-05 1.5569e-05 -1.1543e-05 0.00012002 0.41292 -2.6609e-05 2.9079e-06 2.7959e-05 -4.913e-05 2.5035e-06 6.049e-06 1.453e-05 -7.9804e-08 9.5759e-05 1.348e-05
-1.1968e-06 2.2096e-06 3.3199e-06 -4.2154e-06 2.9675e-05 1.2728e-06 4.1329e-06 1.2342e-07 1.9647e-06 -1.2165e-05 7.8638e-05 8.4244e-07 0.00011254 -4.2178e-05 -1.8013e-06 0.00011747 3.2397e-05 0.0053203 -3.2391e-06 -1.0857e-05 1.6024e-06 1.3166e-05 -1.077e-05 2.5247e-05 8.4787e-05 -6.8571e-07 -3.4702e-06 0.00011709 8.6172e-06 2.0139e-06 -5.6742e-05 -1.7622e-05 7.7193e-06 -0.00012726 -1.7412e-06 0.0031068 -2.1546e-05 3.159e-05 2.9159e-06 -0.00013446 1.6914e-05 -2.5907e-05 2.3371e-05 2.5935e-05 4.6679e-05 5.5099e-05 0.0010148 3.879e-05 0.00061341 -0.00019479 6.0373e-06 3.5288e-05 0.00012871 0.48232 -6.6207e-07 -6.9287e-05 4.8888e-05 -0.00048686 3.1462e-05 -2.5584e-06 -7.3592e-05 1.7005e-05 1.4756e-05 9.1554e-05 1.5776e-05 -1.8963e-07 -0.00032813 -7.3507e-08 3.0247e-05 -2.668e-05
8.1148e-06 -2.0358e-05 1.4512e-05 8.2316e-07 -2.7734e-06 1.1291e-06 1.193e-05 -2.8014e-05 9.851e-06 0.18209 1.2262e-05 0.18233 3.9354e-06 2.8988e-06 3.9812e-07 0.12944 3.0892e-05 3.7821e-05 -3.373e-05 2.8955e-05 3.8403e-05 1.2612e-05 0.22985 -2.7545e-05 -8.6024e-05 1.51e-05 -2.2167e-05 -1.0329e-05 0.40824 -5.1676e-05 -4.6809e-05 0.0001633 9.5146e-05 -2.434e-06 0.37772 5.3918e-06 8.3996e-06 -2.1417e-05 -1.2574e-06 2.8075e-05 2.8503e-05 3.7412e-05 1.8571e-05 2.1977e-05 4.819e-05 6.6024e-05 -5.6542e-05 -9.445e-05 -0.00022217 0.1239 3.3831e-05 -2.8241e-05 -1.3428e-05 -0.00013619 -4.2453e-05 8.8362e-06 1.96e-06 -8.3765e-05 -0.0013285 0.00012698 -2.5178e-05 -0.00045224 1.7484e-05 -2.6858e-05 5.7076e-05 -1.2303e-05 9.6199e-05 7.6963e-07 0.00012799 0.00011267
1.0368e-05 0.17404 0.17659 1.6838e-06 6.3194e-07 0.28862 0.19588 -6.7716e-06 4.9743e-06 2.0883e-05 0.18555 -3.3049e-05 0.27706 2.2377e-06 2.4142e-06 0.12937 2.7908e-05 2.9219e-05 0.24993 4.1812e-05 1.5338e-05 1.526e-05 7.8072e-06 3.4877e-05 9.3831e-06 5.7825e-05 1.3019e-05 7.2414e-06 9.0076e-06 1.921e-05 2.0758e-06 0.28867 0.3537 1.0457e-05 -3.2038e-06 2.3721e-05 -4.7237e-06 2.3986e-05 0.37795 1.9605e-05 4.075e-05 0.4927 3.3896e-05 3.0811e-06 3.8516e-05 5.8067e-06 -3.1649e-05 0.49012 4.482e-05 0.12363 6.3721e-05 -0.00018789 1.3585e-05 -3.0617e-05 6.1462e-06 4.9695e-05 1.9752e-05 -3.2008e-06 0.00012024 0.41289 -2.5557e-05 1.0448e-05 3.5666e-05 -3.3335e-05 -3.0348e-06 5.6831e-06 1.4465e-05 -7.1271e-08 0.00010759 3.8404e-05
1.3267e-05 0.17405 7.1495e-06 3.4346e-06 -9.8225e-07 2.7901e-06 0.19595 -2.0525e-05 2.5821e-05 6.9921e-05 1.7651e-05 -2.5353e-05 0.27704 4.3873e-05 4.549e-05 0.12922 4.0368e-05 4.3934e-05 -3.7814e-06 4.8284e-05 1.32e-05 1.478e-05 -1.7292e-06 0.37421 -3.3442e-06 5.5229e-05 1.6437e-05 1.4909e-05 -1.0463e-06 2.5927e-05 1.4848e-05 0.00017183 0.35238 7.7542e-06 1.4108e-06 1.7715e-05 -2.8032e-05 0.00010556 -4.5225e-05 5.4301e-05 4.6668e-05 -5.2946e-05 -6.7326e-05 1.6672e-06 4.1223e-05 -1.6785e-05 -1.363e-05 5.5295e-05 2.088e-05 0.12359 2.1774e-05 0.00024559 1.351e-05 -2.6259e-05 5.4404e-06 4.7478e-05 1.1317e-06 3.5342e-06 0.00017163 5.6184e-05 -1.7504e-06 9.8285e-06 1.4334e-05 -0.00010154 -4.5384e-05 -6.2778e-06 3.9384e-05 5.5741e-07 0.00010177 1.2573e-05
7.689e-06 9.3912e-06 -1.7715e-05 3.941e-06 1.2256e-07 2.7192e-07 0.00058892 1.5617e-06 3.618e-05 0.00064086 4.8731e-05 5.8337e-05 3.0306e-05 0.33306 -4.5692e-06 0.1309 4.8168e-05 4.5203e-05 -1.1477e-05 2.0602e-05 -1.9545e-05 1.0657e-05 5.6066e-05 -2.3515e-05 4.3869e-05 3.8082e-05 0.00012412 8.146e-05 0.00025317 1.201e-05 -8.6414e-05 0.00011638 2.809e-05 -1.4978e-05 0.00042573 -1.005e-05 0.00011646 -1.9619e-05 5.0078e-06 2.6258e-05 -7.7157e-06 -0.00022633 1.3873e-05 4.2928e-05 4.1573e-05 0.00028459 -3.7637e-05 0.00019331 3.4135e-06 0.12212 5.6357e-05 -4.0804e-06 1.9872e-05 0.00036123 -4.1936e-05 -8.2377e-06 -4.2481e-06 -1.4718e-05 9.6753e-05 0.00016549 3.2474e-05 7.0917e-05 0.00012209 0.00019454 -7.05e-05 3.4224e-05 0.0003129 6.3432e-07 -0.00032878 0.0023858
5.0256e-06 0.17416 -2.3032e-05 4.5631e-06 2.1458e-05 -1.164e-05 0.19649 2.8743e-05 5.2879e-05 0.00075911 2.1277e-06 7.9547e-05 -3.0468e-05 5.8628e-05 -9.9082e-06 0.0016358 -2.9155e-05 5.6442e-05 -1.9318e-05 -1.9197e-05 -4.6167e-05 -6.8867e-06 7.915e-06 -2.1249e-05 0.0024253 -3.9802e-05 0.00013567 7.1231e-05 0.00029452 1.1357e-05 7.0654e-06 -2.4834e-05 -8.8583e-05 2.9334e-06 0.37895 -1.6997e-05 0.0001465 -3.6946e-05 -0.00013236 1.6772e-05 -6.6455e-05 -0.17006 -1.5804e-05 4.2712e-05 -1.4559e-05 0.00031872 0.00025752 0.19805 -2.4094e-05 -0.0015971 0.0014886 9.1646e-06 2.5942e-05 0.00036944 -3.3762e-05 -4.8692e-06 5.0892e-06 0.0019103 4.1881e-05 0.56394 1.8107e-05 0.001367 7.6448e-05 5.8616e-05 0.0056745 -5.4161e-05 0.00028521 -2.166e-06 -0.00040354 0.71878
0.28866 0.17404 0.17659 -6.757e-06 1.1926e-06 2.3049e-06 0.19588 -0.017382 7.4912e-06 0.1817 1.6071e-05 0.18224 1.561e-05 1.5935e-05 1.0504e-06 0.12903 0.2497 4.4583e-05 5.7818e-06 0.44755 0.44726 1.4789e-05 -1.7689e-05 1.5529e-05 7.6932e-05 0.3524 0.30085 3.2625e-05 -5.4599e-06 0.31585 7.5027e-05 0.00017331 5.8913e-05 0.41184 -9.6888e-06 0.00050941 2.1485e-05 3.624e-05 3.1857e-06 0.33043 0.44731 -7.5255e-05 1.7565e-05 1.9202e-05 8.5992e-05 5.8595e-05 -3.1799e-05 5.179e-05 -4.9826e-05 0.1237 1.0118e-05 9.7594e-05 0.33159 -9.2363e-05 0.4473 -9.2429e-07 0.49977 -2.4577e-05 0.00019858 0.00013266 1.5784e-05 2.999e-05 1.6777e-05 4.8704e-05 -7.5843e-06 1.6564e-05 0.374 3.3283e-07 0.00015672 0.0001228
3.1515e-06 3.1886e-05 8.6956e-06 2.1615e-05 -4.2553e-06 -5.3645e-06 -8.0135e-07 2.0842e-05 2.5418e-06 0.18184 6.2143e-05 0.18254 -1.3945e-05 0.3331 -4.4212e-06 0.00045532 -3.0399e-05 -1.0895e-05 -1.2551e-05 -5.1724e-05 1.1886e-05 2.2572e-06 0.22863 -7.452e-06 -5.0339e-05 -2.2416e-05 -4.3221e-06 -1.8717e-05 -1.4196e-05 0.00013786 -0.00013802 -7.6052e-06 2.5211e-05 -3.6335e-05 5.1836e-06 -7.0734e-06 0.0010429 -9.345e-06 5.2623e-06 0.0030457 -1.3574e-05 7.8108e-06 2.6117e-06 -2.7742e-05 0.00011844 0.00012304 3.926e-05 -4.6976e-05 -0.0001116 -0.00066366 -3.4749e-06 -3.6202e-05 0.00015552 -0.00030193 8.4007e-05 6.4437e-06 8.6363e-06 0.48593 0.00012932 7.5863e-05 -0.00012201 -1.5658e-05 3.5347e-06 -0.00019079 -7.9616e-05 -0.00011154 -0.00099598 6.1922e-07 -9.3614e-05 -4.5243e-05
8.0326e-06 4.2904e-05 3.8155e-06 0.00023872 -1.2106e-06 1.6062e-07 3.2531e-05 0.00069471 3.6649e-08 0.00012365 -9.6814e-07 -3.4405e-06 -3.9872e-07 -1.8241e-06 3.9938e-06 0.12909 -4.1548e-06 2.7043e-05 -1.3766e-05 -0.00043537 -0.00041983 3.1162e-06 0.0005681 -2.6138e-05 0.0011117 7.8319e-06 -8.298e-06 -3.6143e-05 -3.2558e-05 -5.5602e-05 -9.5694e-06 -0.00049497 7.1195e-06 5.3596e-05 2.3619e-05 0.00063689 0.00056146 -2.2659e-05 -1.563e-05 -0.00034654 -0.00039588 -1.3832e-05 1.6509e-05 -1.5056e-05 0.70601 8.6335e-05 0.00030678 4.0512e-06 -0.00024359 0.12693 -1.8963e-05 7.5166e-05 -4.1756e-05 6.0485e-05 -3.1304e-05 2.6838e-06 3.888e-05 0.0040221 -0.00046677 -5.1995e-06 0.00059818 -0.00013738 -1.5115e-06 0.00025932 -2.3845e-05 -7.1824e-05 4.3688e-05 9.462e-08 8.7906e-05 -0.00010435
0.28864 7.5136e-07 -8.6762e-07 -9.8372e-06 1.1321e-06 -2.7941e-06 2.7773e-05 0.00010016 -6.3043e-06 0.00095118 -1.4765e-05 0.00030218 1.2935e-07 3.55e-05 0.57671 -0.0001099 0.00024639 2.8506e-06 -3.9839e-06 -0.00011692 -5.7549e-05 -5.6237e-06 5.4211e-05 0.00030531 -1.5265e-05 3.3819e-05 0.30079 3.6022e-05 -2.8969e-06 -7.2116e-06 1.5844e-06 -9.301e-06 1.7992e-05 -4.7227e-06 -6.0665e-06 -8.1353e-06 9.7151e-06 4.0607e-07 -1.5575e-06 -2.7471e-05 -0.00023776 -7.5636e-06 -8.6446e-06 -2.3456e-06 2.0016e-07 3.7342e-05 7.5165e-06 3.4654e-07 3.8856e-06 6.5762e-05 -1.6543e-06 -3.148e-06 3.7778e-05 -8.0898e-07 -0.00031272 -8.2106e-07 -4.4811e-06 -8.3379e-06 -0.00019533 1.6395e-05 1.8887e-05 -1.3002e-05 -1.2177e-05 2.7589e-06 2.3886e-06 2.1314e-05 -6.8379e-06 -3.6769e-07 -7.921e-05 6.7682e-06
1.0766e-05 3.3376e-06 1.6389e-05 1.57e-06 -8.1649e-07 -4.5668e-07 1.135e-05 0.3528 3.7446e-06 0.18165 0.18554 0.18222 2.0823e-05 5.1016e-07 3.8575e-06 0.12925 2.5651e-05 3.9136e-05 -1.6072e-06 -0.0010915 0.0015133 1.9227e-05 -7.0712e-06 5.6478e-06 -1.1319e-05 4.6782e-05 8.396e-06 6.4303e-05 -2.6011e-05 1.1663e-05 2.3678e-05 0.00017457 7.1195e-05 -5.152e-07 -4.0621e-06 3.3532e-05 -7.316e-06 1.404e-05 3.14e-06 3.9667e-05 0.00035474 -2.0862e-05 2.1523e-05 -9.3341e-06 2.4687e-05 5.0871e-05 -4.6998e-05 -1.8684e-05 8.4467e-05 0.12324 2.1632e-05 -3.4153e-05 4.1261e-05 -6.8008e-05 -3.599e-06 -7.7878e-06 3.6173e-06 -2.7407e-05 0.00018565 0.00013074 2.0234e-05 3.5454e-05 2.1122e-05 1.5361e-05 -2.9955e-05 -1.6948e-06 2.6692e-05 8.2149e-08 0.00011516 -3.5123e-05
-3.914e-08 -5.1027e-07 -3.4127e-06 -9.9287e-07 -3.4367e-06 9.4453e-08 -4.6064e-07 -5.7847e-06 -7.4367e-07 -2.4711e-05 2.0467e-06 -4.555e-06 -1.5612e-06 1.6995e-05 1.9058e-07 0.00026758 -2.2323e-05 -3.6219e-05 -2.1283e-06 7.5591e-06 6.548e-06 -1.4649e-06 6.3453e-07 -4.9838e-06 0.0024567 -2.5182e-05 -1.072e-06 5.4426e-06 -6.8884e-06 -7.8814e-05 -6.2697e-07 -9.4608e-06 -2.6172e-07 1.3691e-06 -3.0736e-07 -7.8996e-05 2.1205e-06 2.1203e-06 -9.685e-06 6.4876e-06 6.5528e-06 1.9031e-06 -4.0465e-06 1.9333e-05 -1.1984e-07 9.2793e-06 1.7413e-06 -1.9021e-07 -8.1569e-06 -0.00029575 -5.0574e-06 2.1585e-06 9.8836e-06 0.00025375 5.2342e-06 -1.1267e-06 -4.6238e-06 -1.5119e-05 -1.4463e-05 -1.3343e-05 -4.5259e-06 1.2815e-06 2.0551e-06 1.3496e-06 -2.8909e-06 5.3079e-06 8.5522e-05 -1.2584e-07 -1.7135e-05 -0.00018805
7.0573e-06 -1.3838e-05 0.17663 1.6062e-05 1.988e-05 -2.8782e-07 -4.0807e-07 7.7738e-06 9.502e-05 0.18194 8.5066e-06 0.18244 1.245e-05 0.00024422 2.6515e-06 0.1309 0.25003 0.30052 -2.5802e-05 -9.7697e-06 3.3351e-05 0.57735 0.22928 5.7271e-05 9.1748e-05 5.2311e-05 1.9944e-05 -2.472e-05 0.00028891 2.7806e-05 0.0004595 7.9794e-05 5.8315e-05 1.87e-05 1.3581e-05 1.0166e-05 3.149e-05 0.40692 4.017e-06 -0.0001778 -3.649e-05 -7.2945e-06 1.0185e-05 -2.915e-05 3.3881e-05 6.752e-05 2.5825e-05 -1.9552e-05 -5.4918e-05 0.12293 1.3345e-05 3.8088e-05 9.3037e-06 -9.7366e-05 6.6314e-05 -1.5844e-06 1.2726e-05 -7.9183e-05 0.57733 0.00010443 2.1991e-05 -6.1765e-05 -8.8194e-06 -1.1843e-05 -4.5491e-05 1.7472e-05 0.00016386 9.1596e-06 -0.00012624 0.00053291
1.6837e-05 0.17416 0.17905 3.5429e-05 4.2696e-05 -1.4904e-05 4.8037e-05 3.8365e-05 0.00010146 3.392e-05 1.3501e-05 5.0852e-05 4.5389e-06 0.33413 -1.252e-05 0.13009 -5.6846e-05 0.30014 -0.00012145 1.316e-05 -5.0254e-05 3.248e-05 0.00079662 -3.7598e-05 0.31147 -0.00012021 1.4177e-05 -8.7186e-05 0.0003326 0.31727 0.00023062 0.0001427 1.6764e-05 -5.944e-05 5.5404e-05 -0.00020758 -8.2448e-07 -0.00044222 -7.453e-05 -8.9085e-05 -0.00013401 -0.0003886 -6.242e-05 1.6524e-05 5.1509e-06 -6.4358e-06 0.00024583 0.00042874 -0.00013882 0.1226 0.0012784 0.0001391 -9.0824e-05 -1.2068e-05 3.9503e-05 4.1082e-06 -3.1148e-05 0.0022053 0.00048524 0.00017394 -2.2426e-05 0.001296 2.546e-05 -0.00015484 0.0060463 -0.00021143 4.505e-05 5.2315e-06 -9.2535e-05 0.01116
1.0001e-05 0.17404 0.17659 2.6912e-07 5.1106e-07 0.28862 1.0679e-05 -5.2305e-06 3.829e-06 2.7395e-06 0.18555 -3.0609e-05 0.27705 3.9841e-06 1.9032e-06 0.12935 2.7708e-05 2.5276e-05 0.24994 3.5336e-05 1.7472e-05 1.7138e-05 8.2733e-06 2.2891e-05 -4.1999e-05 5.766e-05 9.2284e-06 6.9782e-06 4.4994e-06 1.9353e-05 1.4546e-06 0.28867 0.35374 3.6379e-06 7.7116e-06 2.6755e-05 -3.7766e-06 2.3964e-05 0.37796 -1.498e-06 4.0307e-05 -5.5303e-05 0.5 -2.0096e-07 3.1632e-05 4.1284e-06 -3.1295e-05 2.7525e-05 5.1068e-05 0.12371 0.49964 -0.00018968 -1.366e-05 -4.6508e-07 1.1216e-06 4.8963e-05 1.2066e-05 -3.1804e-05 0.00012196 0.00013356 -2.6089e-05 -3.2431e-05 2.7052e-05 -4.357e-05 -0.00013094 4.4924e-06 1.6068e-05 -7.9135e-08 9.8075e-05 -2.0928e-06
-1.8139e-06 -4.0456e-05 -1.4579e-05 2.528e-05 -1.0034e-05 2.4327e-05 5.3837e-06 0.00050351 0.00043328 -0.0002082 0.186 -5.5663e-05 2.7655e-05 -6.7181e-05 -9.0649e-06 0.1328 0.25066 0.30657 -5.7784e-05 -0.00069593 -0.00048147 2.1859e-05 -0.00018712 2.1692e-05 0.33663 0.00074221 -0.00013615 0.32406 -1.1389e-05 9.1822e-05 0.00016576 1.1417e-05 8.5681e-05 -0.0029596 -5.5977e-05 0.50607 1.5688e-05 0.00010972 -3.8643e-06 0.00045085 -0.00033735 -5.2071e-06 -8.3976e-06 0.44709 -6.7878e-05 -4.6451e-06 0.0031918 -3.2666e-06 0.33318 0.1229 -0.00013261 1.0286e-05 0.0002709 0.00029443 -0.00020779 -1.4301e-05 9.5077e-05 -0.00022412 -0.00032301 -6.6028e-05 -0.00018979 0.00021316 -0.0010041 0.00020428 -0.00019998 1.1627e-05 -0.001811 -1.445e-05 -0.00013638 -0.0010254
-1.4151e-06 8.0156e-06 -5.5025e-05 1.3188e-06 -1.6131e-05 7.3935e-06 2.9799e-05 0.35368 5.2058e-06 0.18239 0.18568 0.1827 1.464e-05 4.6094e-05 8.5681e-05 0.00011662 -0.00027091 5.6544e-07 1.9329e-05 -0.0020696 0.00079113 -2.6388e-05 0.23339 0.00069083 0.00052867 0.35519 0.00010285 0.0006212 -3.7325e-05 0.0001057 -0.00027911 -0.00044855 2.8027e-05 -0.0036669 -2.4117e-05 0.50974 -3.2721e-05 -8.304e-05 8.6487e-06 -0.00068916 -0.00030016 -3.7483e-05 -1.853e-05 -5.1512e-06 -8.0035e-05 -9.7029e-06 -0.00035436 1.3402e-05 0.32731 -0.00083637 3.1812e-05 -0.49971 0.00011841 0.0049399 -0.0004871 -3.241e-06 -0.00037508 -0.00014412 -0.0016782 9.7135e-05 1.3234e-05 -0.00082371 -4.9534e-05 -1.7629e-05 5.8129e-05 2.3965e-05 0.38838 2.1237e-06 -0.00014906 -0.00019526
7.4121e-06 9.2291e-06 -4.7703e-05 4.1957e-05 2.858e-05 1.1848e-05 0.0006917 -1.1606e-05 0.00032184 0.18558 8.6873e-05 0.18284 -2.2588e-05 3.649e-05 1.7669e-05 0.0026763 8.4522e-05 0.00036171 -2.4865e-05 -1.5603e-05 -1.8653e-05 -5.2305e-05 0.00019682 0.0025297 0.00069105 -0.00019878 1.6735e-05 0.00071041 0.0011474 -1.6554e-05 0.00033905 -6.9849e-05 -7.3116e-05 1.1806e-05 0.0014255 -0.00011395 0.33642 -0.00015573 1.7031e-05 -7.43e-05 -4.7094e-05 -0.00033651 -1.0409e-05 1.6461e-05 0.0023046 0.0012015 -0.00010749 0.0002501 0.33758 -0.0028523 5.8898e-05 -0.0022437 -0.00025411 0.001227 1.8468e-05 3.4799e-05 1.3321e-06 1.9002e-05 0.00011887 0.00031712 5.1748e-05 0.0050669 -0.00023884 0.40284 0.0029932 2.4214e-05 0.00029296 -9.8255e-06 -0.00051711 0.002174
8.7748e-06 5.2724e-05 8.5095e-06 4.5036e-05 5.389e-05 -2.8334e-05 -4.8336e-05 0.00017444 3.8036e-07 -3.621e-05 8.7053e-05 -9.7287e-06 3.182e-06 -8.1639e-06 5.1148e-06 -4.2992e-05 0.00011172 3.6136e-06 -1.3654e-05 -0.00011321 -0.00013309 -1.6858e-06 1.7461e-06 -6.3747e-06 0.00022494 8.35e-06 -1.7097e-05 0.00018615 6.6869e-05 7.6798e-05 -1.2488e-05 0.00022133 -1.1639e-05 -6.8803e-05 1.0603e-06 0.00013005 0.0049431 0.00041938 3.5549e-05 0.33643 -0.00011387 3.6938e-05 8.0034e-06 0.00046488 2.622e-06 -6.8998e-06 0.40886 -6.0692e-05 0.00095598 0.00069369 -2.7347e-05 4.821e-05 0.33331 -1.4468e-05 0.00026069 -3.7485e-06 3.2086e-05 -1.9587e-06 -2.4714e-05 -2.7799e-05 -4.2842e-06 -0.00010756 -3.7359e-05 -0.00012803 -2.771e-05 -3.3314e-05 0.00057293 3.0226e-07 -0.00020423 -0.00010321
-6.2619e-05 5.8552e-05 -5.2084e-05 3.281e-05 4.6195e-07 -1.1389e-05 0.00061443 0.0008314 3.4993e-05 0.18263 -5.4017e-05 0.18294 0.00011217 4.2989e-05 2.9054e-05 0.13143 -9.4774e-05 -0.00018575 0.0001055 -0.00068992 -0.0005279 -0.00010101 0.00029881 -6.6913e-05 0.0011506 -0.00022842 1.5109e-05 -0.0001617 0.00024162 1.2711e-05 -0.00016053 -0.0012324 -0.00021876 1.4751e-05 0.00037325 0.00044751 0.0027266 -3.8798e-05 4.5776e-06 -0.00045131 -0.00052243 -0.00024689 -0.00014111 2.2128e-05 0.0020406 0.00039605 0.00038693 0.00015273 -0.00038345 0.18996 1.5083e-05 0.00019931 0.00010774 0.00025451 -4.6744e-05 -0.0001008 8.3398e-06 0.0024056 -0.00048089 6.5306e-05 0.00062596 5.6704e-06 0.00039037 0.036365 -4.887e-05 1.2701e-05 0.00036434 1.5418e-06 -0.00087138 0.0025398
