8.4703e-06 -4.2858e-06 1.0249e-05 3.0532e-06 0.00013478 -1.0443e-06 2.4793e-07 -3.5736e-07 8.5374e-07 0.00014309
3.9643e-06 -0.00010576 0.17551 0.12906 0.00014061 5.3926e-06 4.1205e-05 -1.3471e-05 4.6217e-05 0.23829
1.2109e-05 5.9295e-05 -3.2096e-05 0.00054079 0.31567 0.00027873 0.00059897 0.0007283 9.6534e-05 1.0295e-05
4.1144e-06 -6.7021e-06 6.3305e-06 0.00019536 -1.2311e-06 2.2785e-07 -5.7216e-07 -9.103e-07 5.8809e-05 0.00055512
2.3953e-05 3.5122e-06 -2.3473e-05 0.00033162 0.00013628 -1.8678e-07 0.00058345 0.00073982 4.6002e-06 0.00014831
2.5622e-06 3.7918e-06 -2.915e-05 0.00030493 8.2632e-05 0.00025724 0.00058349 0.00074435 8.7036e-05 -4.688e-06
0.28876 0.0013335 0.00056055 0.13123 0.00016342 0.00018478 0.00072542 0.0009454 0.00053021 0.013699
0.28814 0.17153 0.17547 0.12889 1.3504e-05 -3.1356e-05 2.8518e-06 1.3253e-05 -4.1411e-05 -5.0101e-05
0.00015684 3.5442e-05 0.00016583 0.00021461 0.00016064 0.00024125 0.00015234 0.00026172 0.00046839 0.0038801
2.0846e-06 7.7545e-07 0.00027941 6.9103e-06 0.0015336 -9.9772e-06 0.00012629 1.1601e-05 5.863e-06 -5.8352e-06
2.2605e-05 0.17186 0.00076383 0.0011048 0.31585 -3.925e-05 0.19594 0.18334 0.18405 7.472e-06
0.28897 0.17458 0.17658 0.13191 0.0011675 0.00045429 0.19663 0.18234 0.00064057 0.26148
-2.7091e-06 2.8815e-05 1.9227e-05 4.1229e-05 1.9491e-06 -1.4645e-06 1.99e-05 0.00095142 4.1415e-05 0.00053379
0.00011329 5.8318e-05 0.00027803 -1.7935e-07 4.4926e-06 2.6751e-05 0.0005351 0.0010856 0.00013084 6.2042e-05
7.8555e-06 -6.9503e-05 3.0004e-05 0.00016569 1.3376e-06 -4.0814e-06 1.9368e-05 0.0001581 0.18487 0.00065275
-5.6578e-07 0.005515 0.00011214 0.001148 0.00035176 0.0003666 0.19597 0.18146 0.0045751 -8.0526e-05
2.3314e-07 0.00015054 6.2478e-06 0.00016249 5.2148e-05 1.4247e-06 3.1815e-05 0.00044982 0.00015648 -3.1961e-05
6.2647e-06 -2.8134e-05 1.7015e-05 0.12922 2.0182e-05 1.0216e-06 0.00012282 0.00063872 1.5042e-05 9.7043e-05
1.5246e-05 0.17152 0.00031096 0.12896 2.9847e-05 0.00010543 0.00028017 0.00055745 0.18385 -5.9146e-07
5.7787e-06 3.1552e-05 1.9883e-05 0.12952 2.2377e-05 -1.1856e-06 0.00063929 0.0013796 2.8609e-05 0.00051277
0.00012485 0.00011995 6.2318e-06 1.0846e-05 0.00018673 -4.992e-07 6.4909e-05 0.00017125 0.00042009 0.00095632
2.2605e-05 0.17186 0.00076383 0.0011048 0.31585 -3.925e-05 0.19594 0.18334 0.18405 7.472e-06
4.3112e-06 0.17782 0.17703 0.13096 9.8674e-06 0.29064 0.0025722 0.00024809 0.19077 -0.00045455
3.5364e-05 0.00014578 0.00018052 0.13015 0.00019711 -1.2083e-06 0.00020155 0.18187 0.0010309 0.00053558
-5.6147e-06 3.758e-05 3.8711e-06 0.00019779 0.00027457 -5.8864e-06 1.6856e-05 1.7912e-07 0.00012507 0.00066811
6.3746e-06 2.27e-05 -1.113e-05 0.00045452 3.7596e-05 -1.7308e-07 5.006e-06 0.00068706 -7.4664e-06 3.294e-05
0.0002331 0.0016292 0.17594 0.00089982 0.00015649 3.0575e-05 0.00092076 0.18188 0.00010608 0.005623
2.0317e-05 0.00018097 0.00014603 0.13051 0.00027412 0.00025742 0.19585 0.18018 0.00010893 8.0818e-05
5.0504e-07 0.17162 8.1686e-05 0.00015835 1.2942e-06 0.00040336 0.19554 0.00084553 6.603e-05 -5.3605e-05
5.2118e-06 -7.0078e-06 0.00028438 0.00015604 0.0015404 -1.0053e-05 0.00011994 0.00067387 0.0002413 0.00059353
0.28868 0.17261 0.00023262 0.0017171 0.00015272 0.00020609 0.19514 0.00016355 0.00054744 0.0073456
1.6711e-05 0.17215 0.17726 0.13167 0.0005728 -4.6242e-05 0.00014686 0.1833 0.00024496 -6.2229e-07
3.8874e-05 0.00011099 0.00052767 0.13002 0.00060301 5.4657e-06 0.00011451 0.18304 -1.5057e-05 0.00030655
1.1538e-05 -3.1776e-05 2.0823e-05 0.1291 9.8335e-05 0.28734 3.2891e-05 -4.5607e-06 0.18382 4.1887e-05
0.00013083 0.00032757 0.17713 0.1306 1.453e-05 0.00063295 0.0019039 0.0011546 0.18435 -4.441e-05
1.3449e-05 -4.0375e-05 0.17818 0.13065 0.00076541 4.8105e-07 0.00034108 0.18519 6.256e-05 0.24508
2.0317e-05 0.00018097 0.00014603 0.13051 0.00027412 0.00025742 0.19585 0.18018 0.00010893 8.0818e-05
2.1082e-05 0.00017225 0.00052156 0.13013 0.31593 2.849e-06 0.00012707 0.18328 3.5828e-05 8.2548e-05
1.4093e-05 0.00034169 0.00027266 0.13084 0.00029355 -3.3659e-05 0.00030226 0.00044119 0.18545 0.24605
7.0587e-06 -8.7105e-06 3.0934e-05 0.1289 1.1063e-05 3.9685e-07 1.0371e-05 -7.856e-07 -5.4091e-06 -2.7568e-08
8.5612e-06 0.17144 0.17668 0.13047 1.0866e-05 0.28688 3.838e-05 0.00022218 0.18398 -4.2098e-05
8.5612e-06 0.17144 0.17668 0.13047 1.0866e-05 0.28688 3.838e-05 0.00022218 0.18398 -4.2098e-05
0.00013083 0.00032757 0.17713 0.1306 1.453e-05 0.00063295 0.0019039 0.0011546 0.18435 -4.441e-05
-1.3362e-05 0.0052614 0.00025974 0.00059643 0.31669 0.00011136 0.00016166 0.00062985 0.0044387 0.002176
0.00024838 0.17702 0.00063976 0.00035085 0.00057448 0.00013982 0.00055225 0.003932 0.0048393 0.00077085
9.8616e-06 6.6954e-05 0.0021694 0.13057 0.00051999 -1.3283e-05 0.00016989 0.00039273 0.00017212 0.0031237
0.00018588 0.00021006 -3.1777e-06 0.00016722 0.00098726 0.00034134 0.00059588 0.00021425 0.18453 0.0066838
1.1335e-05 -2.4974e-05 -2.6761e-05 0.0011794 2.4238e-05 1.441e-06 -2.2973e-05 3.0246e-05 9.9072e-05 0.00014128
5.9496e-06 -8.0866e-06 2.995e-05 0.12889 1.1201e-05 2.4742e-07 1.0795e-05 -6.5848e-07 -3.5246e-06 6.2214e-07
0.00053611 0.00029177 0.00055438 0.00083712 0.00056157 -2.0532e-06 0.19694 0.18509 9.9754e-05 0.24817
1.7586e-05 5.6726e-05 6.4008e-05 0.12915 1.8889e-05 -4.3943e-06 0.00020017 0.00027715 0.18398 9.5588e-05
6.3872e-06 -1.2138e-05 2.737e-05 0.12897 1.1317e-05 7.3655e-07 1.7525e-05 0.0001096 -1.0067e-05 -5.0592e-06
0.00078683 0.17253 0.17788 0.13086 2.5371e-05 -4.5465e-05 0.0005675 0.00071312 -2.618e-05 0.012402
3.1466e-06 0.00026519 0.00049598 0.00090871 0.00089079 -9.3287e-06 0.00019903 0.18305 0.00027029 0.00075513
5.2118e-06 -7.0078e-06 0.00028438 0.00015604 0.0015404 -1.0053e-05 0.00011994 0.00067387 0.0002413 0.00059353
0.00053199 0.00027638 0.00055435 0.00099041 0.00054991 -2.6114e-06 0.19707 0.184 9.0507e-05 0.24922
1.5722e-07 -3.5705e-08 -4.4548e-08 2.16e-07 1.8511e-08 9.6571e-08 4.0163e-06 -5.0574e-09 4.9399e-06 1.2506e-08
0.00058122 0.17175 0.00031901 0.12893 2.9618e-06 -6.7129e-06 0.00076136 0.00099319 7.8287e-05 0.0092785
-5.6806e-08 1.068e-06 7.6111e-07 3.2426e-05 8.7974e-07 2.9984e-07 5.3351e-07 0.0003295 4.1638e-07 -6.9223e-06
0.0002331 0.0016292 0.17594 0.00089982 0.00015649 3.0575e-05 0.00092076 0.18188 0.00010608 0.005623
2.6669e-05 -1.7038e-06 6.8087e-05 0.12919 9.1426e-06 1.0599e-06 0.00027052 0.00028309 0.00078359 0.0017082
5.2665e-06 -2.311e-05 2.9148e-05 0.12965 0.31551 -3.4464e-06 1.3102e-06 0.00090788 8.6705e-05 0.00080346
-2.3087e-05 0.17711 0.17665 0.0017284 4.2688e-07 0.00069366 0.19632 0.00024263 0.0049818 -0.00039103
-1.4023e-05 0.17188 0.17666 0.0015964 5.0079e-05 0.00057119 0.19626 0.00023392 0.00039313 -0.00015403
-4.5909e-06 3.4244e-05 6.1494e-06 0.00046773 3.9456e-05 -9.5895e-07 2.6284e-05 0.00095628 3.0557e-07 0.00056733
2.2126e-05 -9.9557e-07 0.00023494 0.0021953 0.0015541 -1.0634e-05 0.00095976 0.0011089 0.00024213 0.00062666
-1.1881e-06 2.1672e-06 3.1143e-06 -6.3423e-06 0.00027444 -1.4811e-06 4.4236e-05 5.3616e-07 6.9169e-07 -5.6283e-06
0.00037689 0.00092665 0.17591 0.13105 0.00020731 -9.0487e-06 0.00041701 0.17972 0.18386 0.0031321
0.28897 0.17458 0.17658 0.13191 0.0011675 0.00045429 0.19663 0.18234 0.00064057 0.26148
4.5553e-05 0.00025635 0.00047288 0.1307 0.00058396 5.8891e-06 0.19622 0.18465 0.0011727 2.2928e-05
5.2676e-06 9.5873e-05 0.17576 -5.1296e-05 1.7386e-06 -2.3004e-06 0.00019384 0.00021085 7.1421e-05 4.3001e-05
1.1738e-05 -3.3062e-06 -7.028e-06 0.00094409 9.4303e-07 7.0944e-07 -1.7493e-05 -2.2441e-06 -1.2664e-05 1.3016e-05
7.5281e-06 0.17786 0.17699 0.13096 6.0539e-06 0.29063 0.19746 0.00025065 0.19019 -0.00042625
1.3449e-05 -4.0375e-05 0.17818 0.13065 0.00076541 4.8105e-07 0.00034108 0.18519 6.256e-05 0.24508
-1.3704e-05 0.17722 0.17689 0.13096 9.2417e-06 0.28843 0.19662 0.00023905 0.18859 -0.00036482
1.9214e-06 -0.00011267 4.0744e-05 0.129 5.1049e-05 6.9683e-06 2.5332e-05 -6.5081e-06 -9.3881e-07 0.24
0.28878 0.17321 0.00059506 0.13103 0.00087579 0.00022215 0.19576 0.00041307 0.00057671 0.25685
9.1304e-06 0.17164 5.6381e-05 0.12907 6.8193e-05 -4.721e-05 0.19499 -7.2255e-06 0.18381 -5.518e-05
0.2885 0.0001218 0.00022879 0.00035921 0.31697 0.28765 0.00080666 0.00034552 0.18527 0.2486
0.28855 0.00038734 0.00018231 0.00038719 0.31683 0.28745 0.00085748 0.00030566 0.18531 0.2496
-2.3087e-05 0.17711 0.17665 0.0017284 4.2688e-07 0.00069366 0.19632 0.00024263 0.0049818 -0.00039103
-1.6921e-05 0.17718 0.17693 0.13096 1.3055e-05 0.28844 0.0017301 0.0002365 0.18917 -0.00039312
1.1591e-05 -3.618e-06 0.17541 0.12884 1.2702e-05 -7.5038e-06 0.19494 8.0995e-06 0.18371 2.7729e-05
1.6711e-05 0.17215 0.17726 0.13167 0.0005728 -4.6242e-05 0.00014686 0.1833 0.00024496 -6.2229e-07
1.0996e-05 0.000309 0.17584 0.00073282 0.0017116 -1.4262e-05 0.19516 0.1793 1.7572e-05 0.00060378
0.00011879 0.00010404 0.0030168 0.00012469 0.31739 0.00026283 0.00064179 0.004232 0.18413 0.00025063
7.1049e-06 6.5774e-05 0.00011554 0.12912 8.8199e-05 -7.2935e-07 0.00020529 0.00084069 0.00016911 0.002998
5.8612e-06 -4.8027e-05 -2.1893e-05 0.00037207 1.7062e-06 -3.5068e-06 -8.255e-07 -1.6257e-05 0.18378 3.2447e-05
0.28878 0.17321 0.00059506 0.13103 0.00087579 0.00022215 0.19576 0.00041307 0.00057671 0.25685
5.2665e-06 -2.311e-05 2.9148e-05 0.12965 0.31551 -3.4464e-06 1.3102e-06 0.00090788 8.6705e-05 0.00080346
0.00041939 0.00010765 0.0027355 0.0011247 0.0021791 -1.7637e-05 0.00063249 0.0040674 6.518e-05 0.012083
0.28864 0.17202 4.8144e-05 0.12914 4.442e-06 -3.1772e-05 0.00025772 8.7712e-05 -2.766e-05 0.0092333
-6.1291e-07 1.9691e-06 1.0033e-07 5.5124e-06 -4.5463e-07 3.5145e-09 -4.2594e-07 6.1316e-07 5.8338e-05 8.5434e-05
4.3112e-06 0.17782 0.17703 0.13096 9.8674e-06 0.29064 0.0025722 0.00024809 0.19077 -0.00045455
-4.1606e-07 7.0421e-06 2.2426e-06 1.1816e-05 5.7493e-06 3.8552e-07 1.3966e-05 3.6008e-06 5.8524e-05 8.868e-05
1.6321e-05 0.00016072 0.00050038 0.13035 0.000579 5.2383e-06 0.00013144 0.1826 -6.7747e-06 8.8815e-05
7.5281e-06 0.17786 0.17699 0.13096 6.0539e-06 0.29063 0.19746 0.00025065 0.19019 -0.00042625
-5.2033e-08 0.17706 0.00017804 0.12942 2.1725e-05 0.00015674 0.19532 0.00026881 0.0043689 -0.00024017
0.00043178 7.8953e-05 3.0709e-06 0.12909 3.4087e-06 -1.2828e-06 0.00084799 0.00081677 4.8635e-05 0.0092905
1.9069e-06 0.17189 0.00016461 0.00015233 3.6859e-06 -3.453e-05 0.19613 0.00086166 0.0013963 -5.8989e-05
0.28897 0.17458 0.17658 0.13191 0.0011675 0.00045429 0.19663 0.18234 0.00064057 0.26148
0.00043519 0.00026616 0.00050943 0.0009142 0.00056495 -4.8975e-07 0.00038278 0.18261 8.1039e-05 0.0093942
7.9492e-06 3.6983e-05 1.5126e-05 0.12928 0.00026173 -1.1228e-06 0.00036033 0.00037926 -1.5225e-06 -3.1024e-05
0.28835 -2.8636e-06 0.0001714 0.00020482 0.00017825 0.00023445 0.001612 0.001432 0.00049206 0.0050233
0.00013751 0.00014215 0.00045979 0.12962 0.00019368 2.4718e-05 0.00060666 0.17981 0.18384 0.00010621
6.0077e-08 -5.3043e-07 -1.4709e-06 3.0414e-05 -8.65e-07 1.3399e-07 -1.9303e-07 -4.3441e-08 6.9872e-07 -3.8891e-08
1.3449e-05 -4.0375e-05 0.17818 0.13065 0.00076541 4.8105e-07 0.00034108 0.18519 6.256e-05 0.24508
0.00078683 0.17253 0.17788 0.13086 2.5371e-05 -4.5465e-05 0.0005675 0.00071312 -2.618e-05 0.012402
-1.6921e-05 0.17718 0.17693 0.13096 1.3055e-05 0.28844 0.0017301 0.0002365 0.18917 -0.00039312
7.7449e-06 -0.00015697 5.6572e-05 0.1303 0.00029806 2.1916e-05 0.00029135 0.0004188 0.18542 0.2422
0.00016762 0.00071404 0.0011301 0.0013375 0.00084779 -3.3011e-05 0.00061887 0.18371 0.18506 0.0087001
5.489e-06 0.00020821 0.00010147 0.0011184 0.0006476 0.00024532 0.00087397 0.18173 0.00040192 0.00080515
0.00018017 0.00029126 4.4655e-06 5.1154e-05 0.00094762 6.2227e-05 0.00058857 0.00021312 0.00056642 0.0066225
2.6292e-05 0.00019038 0.00015615 0.13016 0.00023312 -1.8139e-07 0.00077463 0.18086 1.2418e-05 1.2329e-05
