3.5902e-05 1.7813e-07 -0.00069979 -9.2727e-06 -0.016366 -6.0457e-06 0.00031176 -3.5275e-06 0.021097 4.275e-06 -4.6145e-05 1.3929e-06 5.2871e-05 -1.1017e-06 1.3795e-05 3.4843e-06 -3.8859e-07 -1.406e-05 -3.8463e-06 -1.9213e-06 -3.23e-06 6.8845e-06 6.5753e-05 -1.1041e-06 -5.4561e-06 -0.064381 -2.8142e-07 -6.2486e-06 -6.3973e-06 4.9882e-06 1.5181e-07 -4.2886e-06 -1.0555e-05 4.923e-06 -2.2817e-05 -3.0881e-07 2.0585e-05 1.0852e-06 0.00099921 -1.0437e-05 4.6961e-06 -4.0921e-07 -1.1588e-05 -0.00015513 3.5471e-06 -2.7679e-07 -1.0918e-05 -1.2106e-05 -0.00046947 1.6443e-06 0.0063977 -7.4837e-06 0.00010802 3.4976e-07 -5.1819e-05 -2.9959e-05 6.1296e-06 5.1755e-06 -1.8161e-06 2.0149e-06 7.658e-06 2.6873e-06 1.3951e-05 0.00060198 -7.0053e-05 2.5374e-05 -0.00012489 3.5277e-07 -2.5766e-07 -7.6589e-06
0.00027153 7.3421e-07 -0.00031231 -2.5214e-05 -0.0080728 -9.007e-06 0.0001409 0.00017716 0.010558 1.4491e-05 1.5083e-06 -3.0144e-05 -0.00015173 -7.7239e-06 2.2995e-05 6.2398e-07 2.2606e-05 -3.0615e-05 3.4097e-06 1.3041e-06 -3.8017e-06 4.3616e-06 1.066e-05 1.7232e-05 -1.4719e-05 -0.031403 8.9215e-06 -5.0014e-06 -1.1869e-05 0.00012815 8.844e-06 3.1625e-06 -5.8152e-06 -3.4701e-05 -8.5157e-05 8.555e-07 7.686e-08 0.00044835 -7.6178e-05 8.8982e-07 -1.588e-05 3.0541e-06 -8.9136e-05 -0.0050635 -1.6454e-05 1.4158e-06 -1.2838e-06 -1.346e-05 -4.849e-05 -0.0001201 0.0031558 -7.1443e-05 0.25771 0.00034321 -7.9917e-06 -3.7226e-05 -1.2873e-05 -0.0001245 -1.4435e-05 -0.00012891 5.5148e-05 2.9816e-05 -1.3001e-05 0.00074603 -1.7813e-05 2.5139e-05 -5.7503e-05 -0.00012588 4.8919e-08 -1.0606e-05
1.8436e-05 -9.0369e-07 2.8649e-07 0.00013597 0.00015038 2.3574e-05 0.16255 -8.0836e-06 5.9744e-05 6.5242e-05 -0.00033136 0.00012095 4.1987e-05 1.3055e-06 1.0133e-05 0.00063522 -1.1774e-05 -2.2417e-05 -5.2249e-05 5.9587e-06 -4.4456e-05 -0.00011352 0.00017183 7.1899e-06 4.523e-05 7.9039e-05 3.3828e-06 0.00090711 -4.5156e-06 -6.4377e-05 -1.5402e-06 -0.00010728 4.772e-05 1.5554e-05 -4.2486e-05 2.5081e-06 0.0018208 1.9521e-05 0.27699 -7.879e-05 7.8637e-05 1.5949e-05 -8.6322e-05 -0.0022464 0.0011387 -2.8437e-05 -0.00032669 -4.0545e-05 -0.00055704 -2.6317e-05 0.00025825 -0.00013238 7.1716e-05 0.00029679 8.9202e-05 0.001318 -5.5432e-06 -5.1583e-05 -8.1187e-06 0.0017158 0.0021602 -2.9619e-05 0.00016254 0.0015272 -0.00028138 1.0573e-05 -8.9816e-05 -0.00029123 -1.3556e-05 -0.00010025
1.7524e-05 2.0249e-07 1.9688e-05 7.4285e-06 5.525e-05 3.8507e-05 0.000443 6.5237e-05 1.6002e-05 -2.8884e-06 -7.6532e-06 -1.3815e-07 -1.0939e-06 2.167e-06 -3.6348e-06 -2.3937e-06 8.0941e-07 9.8108e-07 -6.9925e-06 -3.0365e-06 5.7326e-05 1.6032e-05 4.6947e-06 5.3954e-06 -1.1895e-05 1.2084e-05 4.2895e-06 1.148e-05 9.4074e-07 -8.816e-06 2.3423e-06 -1.1065e-05 8.7369e-06 -7.4166e-06 -7.0196e-06 1.0235e-06 -0.00018638 0.00018193 0.00049338 -9.1386e-07 -8.0879e-06 -2.7244e-06 -5.576e-05 -6.6091e-05 0.0011228 -1.1095e-05 0.0022035 -6.9626e-06 -3.6645e-06 -3.8432e-07 0.00014678 -1.734e-05 0.00010317 0.00080605 -1.2832e-05 -0.00014589 -1.8677e-05 -0.00025487 7.8396e-05 -3.4936e-05 0.0019341 1.0299e-05 2.8563e-06 4.2524e-06 0.00052823 -1.5964e-05 -3.2806e-05 -6.7786e-06 2.6755e-05 -5.7131e-05
9.7337e-06 1.33e-06 -0.00028487 -1.0649e-05 -0.0081593 7.5572e-07 0.21605 -3.5216e-07 0.010679 1.8759e-05 -4.5336e-05 3.6991e-06 5.1682e-05 -2.2952e-06 0.00024868 0.00014833 -4.4468e-05 -7.161e-05 -3.4158e-06 2.1268e-05 0.00055416 9.5318e-05 0.00053913 -1.4673e-05 -5.5962e-05 -0.032434 2.9907e-06 -2.1249e-05 4.036e-06 7.8657e-06 -3.328e-08 -6.5754e-05 3.1454e-05 1.9804e-05 -0.00011994 -5.0634e-06 -2.5229e-05 -1.9021e-05 -2.5433e-05 -0.0001744 0.00017418 0.00049137 -3.5335e-05 -0.00039858 0.00012578 -4.1585e-08 6.82e-05 -0.00012751 -8.3836e-05 0.00085011 0.0033956 -3.3053e-05 0.00010777 0.00042119 -5.7819e-05 0.0011128 -1.7008e-06 7.6478e-05 1.1828e-05 0.00021974 -3.7274e-06 -0.00016114 1.105e-06 0.0011189 -0.00023805 2.37e-05 4.0965e-06 0.0025182 -1.4801e-05 -7.3614e-05
-4.9274e-07 -3.7996e-08 -4.0858e-06 -5.758e-06 9.1105e-06 -1.0216e-05 0.26743 4.2256e-05 2.3878e-05 -7.7136e-06 -0.00023428 -9.2649e-06 -8.6169e-06 1.6848e-06 1.956e-05 -0.00011502 1.1976e-05 1.6512e-05 -6.0234e-06 2.0335e-05 -1.3819e-05 -8.8972e-05 8.0657e-06 4.8347e-07 -4.6056e-05 -3.3158e-06 9.1155e-06 1.3667e-05 -7.6979e-06 -2.2781e-05 -1.1893e-06 0.0022416 -4.9795e-06 -6.0136e-07 1.9881e-05 -9.9664e-07 -3.1955e-05 -9.9919e-06 0.22625 -9.914e-05 -1.2047e-05 1.1555e-05 -1.3985e-05 2.4027e-05 1.2073e-05 4.8501e-06 -6.645e-06 2.7371e-05 -0.00022963 3.3047e-05 3.0791e-05 -7.3959e-05 9.3368e-06 3.3337e-05 -1.039e-05 -8.779e-05 -2.52e-07 -0.00024965 0.00014926 -7.8711e-05 1.0627e-05 1.6059e-06 0.00011803 -1.9807e-05 0.0004524 7.8308e-06 -0.00026728 1.4461e-05 -1.0423e-06 3.2747e-06
1.0375e-05 7.7228e-08 0.18111 2.3962e-06 0.07189 -3.1217e-05 0.26611 7.9438e-05 0.016468 -2.9723e-06 -7.2978e-05 1.9006e-06 -2.1616e-06 1.3772e-05 3.1642e-05 -1.9699e-06 1.8105e-06 8.4862e-06 -1.2517e-05 3.1052e-05 0.18686 0.18452 0.35065 3.4018e-06 -2.422e-05 0.0068306 3.5391e-07 -6.2229e-05 7.2937e-06 8.931e-06 4.1832e-06 -9.76e-06 5.4829e-06 -1.1845e-05 3.7548e-05 2.5264e-06 -4.9416e-05 4.3527e-06 -0.00017302 -0.00055347 6.4671e-06 1.7507e-05 0.22834 6.1278e-06 0.0012587 -1.7724e-05 -4.1371e-06 8.7592e-06 -0.00020099 -2.5425e-05 0.17084 -1.9128e-05 0.00017561 3.7344e-05 -2.1923e-05 -3.2399e-05 -2.5302e-05 7.4229e-05 2.9781e-05 5.0826e-05 0.0024872 1.8456e-05 -5.1317e-06 -5.076e-05 -0.0002314 3.7926e-06 -2.7199e-05 -0.00020729 -2.4879e-05 -0.00041088
-3.9661e-07 -2.999e-05 7.2374e-06 -4.4164e-06 1.8079e-05 -3.1005e-06 1.7479e-06 -1.1044e-05 3.049e-06 3.2228e-06 1.592e-07 -2.1696e-06 -4.4939e-07 -6.0365e-06 1.2137e-06 1.4702e-07 2.9196e-06 -9.4017e-06 3.2055e-06 -1.7417e-06 -0.0001035 2.4557e-05 0.33367 8.7917e-06 -6.6322e-05 8.0342e-06 1.9628e-06 -1.7946e-05 -1.109e-06 1.5947e-05 4.0411e-07 9.5551e-07 1.2229e-05 2.5712e-06 -8.6804e-06 -1.253e-06 -3.3543e-05 -9.8959e-06 9.1609e-06 -4.3161e-06 0.18057 5.9578e-06 -1.9486e-07 2.0284e-06 1.8238e-05 -3.2304e-07 -5.2592e-06 7.6635e-06 2.0457e-06 -0.00019739 6.4471e-05 1.013e-06 -2.0084e-05 -1.7608e-06 -9.7442e-06 -4.9645e-06 0.7034 4.6482e-05 1.1412e-05 1.2766e-05 5.5481e-05 -8.5804e-05 -1.5065e-05 -1.8212e-06 1.2658e-05 -3.3994e-05 -4.1312e-05 1.8896e-05 1.2232e-07 -3.241e-05
-1.1848e-06 -2.5412e-07 0.47704 6.804e-06 0.18805 -4.2478e-06 -6.6968e-05 -3.2114e-06 0.042726 -6.2996e-06 0.56592 6.5422e-06 2.2076e-06 2.0552e-07 -2.2243e-06 4.4342e-07 8.7605e-07 5.1109e-06 3.9587e-06 3.546e-06 -9.9832e-06 -8.5238e-05 -3.3488e-05 7.6671e-06 2.1237e-05 0.018198 -2.2342e-06 -2.6262e-05 1.0142e-06 -0.00010258 1.0988e-05 3.0172e-06 1.9451e-05 -3.1691e-06 1.379e-05 -1.1607e-05 9.3528e-06 -1.1441e-05 -0.00056969 -5.1425e-05 -9.8527e-06 -1.7333e-06 8.6783e-05 1.9941e-05 -8.388e-05 1.0999e-06 1.8744e-05 1.378e-05 4.1345e-05 8.4798e-06 0.44602 6.6767e-06 4.9368e-05 -4.6741e-05 4.1091e-05 7.0491e-06 -2.9748e-07 5.1586e-05 -8.152e-07 -3.4581e-06 -3.7148e-05 9.695e-06 -0.00042526 -3.8779e-05 -7.741e-05 2.1168e-06 6.7354e-05 9.6899e-06 1.0253e-06 1.1699e-05
-9.3786e-07 -4.7128e-07 6.8065e-08 2.4603e-07 1.1111e-05 -6.5441e-06 2.4854e-07 0.47906 -2.5947e-06 -1.5546e-06 -2.6479e-07 4.0539e-08 0.47367 7.4518e-10 2.6201e-06 -2.8934e-06 9.4814e-07 7.315e-08 5.3363e-06 -3.5142e-07 -7.5521e-07 -2.7955e-06 -1.3911e-06 -4.2632e-07 1.3043e-06 1.0201e-05 3.3219e-07 3.0548e-05 -3.0297e-06 -3.7535e-06 -7.176e-08 1.3301e-06 3.5034e-06 -1.5704e-06 -4.329e-06 -5.7439e-07 3.8016e-05 -2.8045e-05 -3.5001e-05 -2.3866e-06 6.0343e-07 3.3816e-07 -1.3687e-06 -0.00017746 -4.1323e-05 -0.0001059 -8.7857e-06 -2.7895e-06 -4.5391e-06 -1.6226e-07 1.5559e-06 1.6161e-06 7.8069e-07 8.3739e-06 1.7857e-06 -1.4545e-05 -1.8106e-05 1.1743e-07 -0.0003121 1.0363e-05 1.4941e-05 -1.3175e-06 6.357e-05 3.3956e-06 -6.2237e-05 1.4193e-06 2.1684e-05 -6.9069e-07 -6.202e-06 8.0301e-06
-3.2706e-06 -4.1636e-07 4.7954e-06 0.13067 -3.4538e-05 4.5313e-05 0.18435 6.7043e-08 0.00014212 0.049137 -1.4684e-05 -7.2251e-06 -1.7147e-06 2.0277e-06 -5.0874e-06 0.48153 4.8614e-06 -0.11085 1.1199e-06 1.6366e-05 -2.0144e-05 7.0697e-06 0.00016423 1.4205e-05 0.15333 -0.00017239 -0.0001311 2.9711e-05 -4.1751e-07 8.8541e-06 1.2937e-05 0.64375 0.16228 2.1052e-05 -2.7732e-05 -1.6348e-05 0.00030877 4.4383e-05 -5.0842e-05 -7.0021e-05 0.13172 1.2283e-05 -1.4271e-05 4.1445e-05 -2.1094e-06 3.7847e-05 -2.1462e-06 1.4363e-05 1.7154e-05 1.8494e-05 0.00015875 -2.0698e-05 1.3299e-05 0.00033438 0.40692 2.5396e-05 -1.0206e-05 7.9998e-05 2.738e-05 0.16269 1.2774e-05 2.4275e-05 -0.00030246 0.00090813 -9.7698e-05 -0.00032792 1.9842e-06 -0.000188 -9.9363e-06 -3.681e-05
-4.7558e-06 -8.9489e-07 0.19217 7.013e-06 0.075857 0.1591 5.3466e-07 -3.6521e-06 0.01719 -1.1094e-05 -5.5099e-05 1.7672e-06 1.2441e-05 -2.7765e-06 1.2281e-05 1.4865e-05 3.336e-07 4.3234e-05 1.9165e-05 -1.5956e-05 0.39617 0.39178 0.18652 7.6408e-06 0.11724 0.007376 -4.8531e-05 0.26208 -7.1475e-06 0.00013097 2.7391e-06 1.131e-06 0.12418 -8.5523e-07 0.32978 8.4238e-06 -9.4704e-05 -1.6723e-05 -0.00020087 2.032e-05 0.10094 -9.5344e-05 0.23954 -4.4425e-05 -2.2058e-05 -2.1312e-06 7.9657e-05 0.32983 -0.00020908 -1.0185e-05 0.1798 -1.0308e-05 0.1996 6.447e-06 -2.824e-06 -2.9492e-05 -9.754e-06 1.6805e-05 -1.1796e-06 0.12442 0.00014245 4.2801e-05 2.7132e-05 0.27573 0.00011492 -1.7051e-05 -3.0465e-05 0.32197 3.8165e-07 -2.0454e-05
2.1591e-07 8.4088e-08 2.435e-07 -4.8627e-06 -3.3445e-06 1.9899e-05 1.7418e-06 0.00028304 -8.2273e-06 9.5911e-06 -2.5891e-05 -6.1165e-07 -9.2621e-07 -6.4212e-07 3.2997e-07 -5.7689e-06 1.1918e-06 -3.7432e-05 4.2913e-06 1.5133e-06 1.7057e-05 5.6888e-06 -1.0008e-05 -2.1031e-06 -2.7755e-06 -3.778e-06 2.5126e-06 -4.4668e-06 8.623e-06 -1.0694e-05 -3.516e-07 3.5278e-07 9.652e-05 8.0592e-06 -1.2636e-05 3.7589e-05 -1.1935e-05 -5.2566e-06 -0.00011273 7.38e-08 2.1061e-05 1.6977e-06 -4.7202e-06 2.6714e-05 0.42984 0.87114 -7.7797e-06 7.4816e-06 -0.00019897 -4.6956e-06 -8.15e-06 -1.7587e-06 5.8875e-06 -1.526e-06 8.3624e-05 -4.1781e-05 1.0643e-05 1.8168e-05 -6.1695e-05 0.00015415 -0.00073101 -9.0079e-07 0.00032781 -1.4716e-05 0.0002689 3.4244e-06 9.5551e-06 1.1851e-05 -4.5686e-05 -2.2833e-06
-1.2905e-07 -1.0162e-06 4.1083e-06 2.7403e-05 3.3407e-05 0.2623 4.5701e-05 -2.031e-05 6.0018e-05 -5.3198e-05 9.5149e-06 -1.5829e-05 1.8484e-05 -1.0399e-06 2.4416e-06 7.0108e-05 6.4358e-07 7.6681e-05 -6.6034e-06 0.00055191 -1.5586e-05 2.4833e-06 -1.3651e-05 2.3079e-07 -1.1229e-05 1.6574e-05 0.00014673 0.00021393 -2.0815e-05 6.1573e-06 4.1295e-07 -2.1849e-06 -1.1156e-05 -0.00016944 -4.4786e-06 -1.1432e-05 8.8578e-05 0.0069261 -2.9454e-05 1.7584e-05 3.6849e-06 -9.1721e-05 -5.6217e-05 -1.4142e-05 -1.5236e-05 -3.567e-06 0.55592 -2.1886e-06 4.4429e-05 -6.9749e-06 2.3688e-05 2.5921e-06 5.3059e-05 0.0010302 -5.4121e-06 -0.00023934 -2.3546e-05 5.6023e-06 -8.6856e-05 7.0424e-06 -2.9631e-06 -5.3835e-07 5.9728e-05 -3.487e-05 0.0013483 0.00063366 0.00018411 -1.1595e-05 4.5016e-08 2.3896e-05
2.0545e-07 -3.1265e-08 3.0004e-05 0.12615 0.00014259 -3.754e-05 0.00018988 0.00017463 -0.00024804 0.047544 -6.8843e-05 -2.6612e-05 -8.2569e-06 9.2869e-06 -1.1771e-05 0.00013714 -4.9573e-05 -0.10738 -2.2513e-05 -8.858e-08 0.00010012 3.3925e-05 5.1041e-06 2.1761e-05 4.4923e-05 5.0847e-05 -1.9077e-06 -1.4822e-05 -4.3076e-07 -1.0252e-05 1.0012e-05 -1.702e-06 2.2618e-05 6.8879e-06 -1.2902e-05 -1.346e-05 -3.7319e-05 -2.5902e-06 0.0025971 -8.6175e-05 -3.581e-06 -5.8856e-05 -3.2334e-05 7.1775e-06 0.0019701 -1.2241e-05 0.00090168 -1.1304e-05 -5.4878e-05 9.5052e-05 0.00024669 -5.1479e-05 0.0022749 4.0981e-06 7.9792e-06 -2.9744e-05 -9.2237e-07 7.4324e-06 3.5793e-05 -8.2835e-05 0.003368 9.6696e-06 -2.7524e-05 0.00054825 -0.00021431 0.00010926 -0.00034603 -9.6823e-05 -1.3652e-06 -0.00020609
2.5809e-05 -4.5676e-06 -5.195e-06 -1.8366e-05 -5.753e-05 -1.4299e-05 0.2894 -5.6934e-07 1.1144e-05 -1.071e-06 -0.00023084 0.17114 1.157e-05 1.9309e-06 -8.9743e-06 0.00045066 -5.1575e-05 -4.1018e-06 -1.0252e-06 0.0029561 -1.538e-05 -8.2988e-05 1.44e-05 -1.1913e-05 0.24143 0.0001212 -3.6156e-05 4.207e-05 -1.3364e-06 -3.336e-05 -6.3349e-07 -6.8011e-05 0.12797 3.9555e-07 -5.2568e-05 -8.4722e-07 -4.5095e-05 -1.3637e-05 0.24338 -0.00031021 -3.1472e-05 1.3763e-05 -0.000242 -0.26742 3.0989e-05 -3.2544e-06 -1.8454e-06 5.9118e-05 -0.00017534 -7.4198e-05 -2.6829e-05 0.99999 -4.9907e-06 -8.3388e-05 0.31964 -0.00039941 8.3432e-06 0.00010827 -1.3506e-05 0.12743 -9.7491e-05 0.00013137 -8.1982e-07 -1.0508e-05 -0.00033938 -0.00011432 -0.00022862 -6.9381e-05 0.00020315 -0.00027156
-3.761e-06 0.00026798 3.4208e-06 -2.2021e-05 7.2996e-05 0.00018197 0.00040274 -3.5605e-06 -0.00014839 3.2253e-06 -6.6515e-05 0.00015151 -5.4177e-05 -5.0109e-06 3.0369e-05 0.62533 -6.0902e-06 3.9358e-06 -2.7739e-05 3.7636e-06 2.4338e-06 -1.8907e-06 -8.5878e-06 -1.1486e-06 0.0001506 0.00034813 -0.00031041 -8.9661e-05 1.576e-06 -1.1702e-05 1.4197e-06 -0.00051228 -0.00044771 -9.4507e-06 5.0036e-05 7.6118e-07 0.00093738 -4.3331e-07 0.0019523 -2.0786e-05 -2.5688e-05 -1.0561e-05 -4.3373e-07 -0.0031116 4.6065e-05 1.7566e-05 -0.00073723 5.8246e-05 -7.9829e-05 2.6881e-05 -7.2173e-05 -2.0838e-05 7.625e-06 -3.4749e-05 -0.00037505 -0.00037702 -8.3493e-05 -1.6687e-06 -1.7827e-06 0.0015191 -8.9822e-05 3.5302e-06 0.0038367 0.00081534 -0.00041314 -0.00037236 -5.6056e-05 -6.009e-05 -3.3105e-08 -0.00015209
4.9742e-05 -2.2616e-06 -2.1858e-06 -5.4344e-05 3.9228e-05 -7.5108e-06 0.00036792 0.00033679 -0.00010542 1.545e-05 -6.3051e-05 1.5224e-05 6.9885e-07 2.3854e-06 -5.4267e-05 8.2675e-06 -4.59e-06 -0.00016032 1.2461e-06 0.00012525 5.2342e-06 3.938e-05 -8.1321e-06 7.3915e-06 0.0011212 0.00019573 6.1599e-06 -1.5655e-05 -0.00045784 -2.0106e-05 1.683e-06 -1.6155e-05 0.00041959 0.001976 -0.0001657 -2.7187e-06 -5.6241e-05 0.00011698 0.0019132 -0.00010064 -5.5528e-05 5.1081e-07 -0.00016907 -0.0030035 0.0021246 -2.0018e-05 7.4146e-05 -0.00011736 -5.108e-05 -2.1956e-05 -6.8826e-05 0.00029598 0.00040942 0.0028966 3.9655e-05 -0.00017986 -3.8289e-05 -3.2545e-06 -1.2209e-05 0.0014272 0.00033006 4.6611e-05 -0.00022359 -7.6759e-05 -0.00020031 -4.2106e-06 -0.00013152 -0.00028797 0.00016695 -0.00017549
2.4468e-05 -9.9069e-08 -3.6108e-06 0.18999 -6.3422e-05 3.9716e-06 -1.0623e-05 -4.6307e-06 -8.7849e-06 0.071606 2.3739e-06 5.6676e-06 -3.0132e-06 2.0413e-06 -2.4781e-06 2.4983e-05 5.9357e-06 -0.16146 4.6728e-05 1.1945e-06 -1.3421e-05 -0.00022398 8.2123e-06 3.2749e-06 -3.9762e-05 -5.634e-05 -5.7246e-05 4.779e-05 -1.6433e-05 -0.00014918 2.7727e-06 -6.0197e-06 0.0020315 0.00073385 1.5226e-05 8.1401e-07 0.00022546 -5.9787e-07 0.000254 4.0395e-06 0.19176 9.1021e-06 6.5111e-06 9.7711e-05 -0.00064029 -2.8196e-05 0.0020019 -1.6712e-05 7.3072e-06 -5.6514e-06 -1.9182e-06 -2.8353e-05 -0.00016621 -5.6949e-05 -4.5105e-05 -6.4334e-05 -2.3518e-06 9.7274e-05 -0.00023621 0.0031121 0.5012 -3.1763e-06 -1.7579e-05 0.0002504 -0.0001961 -0.0001658 0.70382 -5.4493e-05 2.3812e-06 1.588e-05
-3.4651e-06 -7.1271e-07 -5.613e-08 -1.1188e-05 3.8483e-05 -7.634e-06 0.14876 0.00067321 -6.2587e-05 -1.0275e-07 -9.7443e-05 0.00011877 -2.8961e-06 2.3177e-06 -5.3615e-05 2.7115e-06 3.4386e-07 -3.5179e-06 5.4917e-06 2.4303e-05 1.9235e-06 -2.1724e-06 9.2262e-06 -3.922e-06 0.00079361 0.00018682 -3.7809e-06 -1.1462e-05 1.7033e-05 -9.4481e-06 -4.2409e-07 -2.9074e-05 4.0652e-05 9.2971e-06 -2.5852e-05 6.1495e-07 -4.7916e-05 -3.0638e-06 0.0021431 -0.00015518 3.0381e-06 -2.778e-06 -0.00019305 -0.0028698 0.18156 -2.6362e-05 1.7909e-05 -5.4372e-06 -0.00010807 -5.9789e-05 -3.2851e-05 0.0015274 -1.6168e-05 1.9737e-06 1.52e-05 -0.00039923 5.1463e-06 -0.00011829 -3.7552e-05 0.00041428 -0.00039393 5.4841e-05 -0.00011086 -1.7553e-05 -0.00024339 -1.2509e-05 -0.00012149 -4.6682e-05 0.013792 -0.00017659
-2.05e-05 -1.1713e-06 -2.3971e-05 -2.2405e-05 -0.00011628 0.00012227 -3.533e-05 7.5827e-05 7.3941e-06 -1.348e-05 6.7971e-06 0.00015572 -0.0001534 -7.2213e-06 -6.2332e-06 4.4683e-05 -3.5596e-05 -2.394e-06 -0.0003254 2.4646e-06 4.0295e-05 -6.4395e-06 -9.5386e-05 4.7332e-06 2.3636e-05 -8.5702e-05 0.00012463 -0.00086487 8.425e-06 0.0042547 -5.8446e-06 2.5993e-06 -6.4217e-06 -3.9971e-05 9.9952e-05 -1.0609e-06 0.44698 0.0017869 -8.2592e-05 -0.00012907 -2.9056e-05 -1.3567e-05 0.00021808 0.00023049 3.5877e-05 -2.797e-06 0.50291 6.6398e-05 -2.9858e-05 7.779e-05 -0.00011771 3.2321e-05 4.1763e-05 0.00017207 7.6624e-07 -0.00026431 1.4808e-07 4.4798e-05 -9.6992e-05 -9.5858e-05 -0.0014447 1.0156e-05 -0.00046718 -6.6829e-05 0.46966 0.00049622 0.00017167 -3.4825e-05 3.4865e-06 0.00014032
-3.2706e-06 -4.1636e-07 4.7954e-06 0.13067 -3.4538e-05 4.5313e-05 0.18435 6.7043e-08 0.00014212 0.049137 -1.4684e-05 -7.2251e-06 -1.7147e-06 2.0277e-06 -5.0874e-06 0.48153 4.8614e-06 -0.11085 1.1199e-06 1.6366e-05 -2.0144e-05 7.0697e-06 0.00016423 1.4205e-05 0.15333 -0.00017239 -0.0001311 2.9711e-05 -4.1751e-07 8.8541e-06 1.2937e-05 0.64375 0.16228 2.1052e-05 -2.7732e-05 -1.6348e-05 0.00030877 4.4383e-05 -5.0842e-05 -7.0021e-05 0.13172 1.2283e-05 -1.4271e-05 4.1445e-05 -2.1094e-06 3.7847e-05 -2.1462e-06 1.4363e-05 1.7154e-05 1.8494e-05 0.00015875 -2.0698e-05 1.3299e-05 0.00033438 0.40692 2.5396e-05 -1.0206e-05 7.9998e-05 2.738e-05 0.16269 1.2774e-05 2.4275e-05 -0.00030246 0.00090813 -9.7698e-05 -0.00032792 1.9842e-06 -0.000188 -9.9363e-06 -3.681e-05
-4.0146e-07 -1.1948e-07 0.010249 0.15154 0.19959 1.2368e-05 2.2432e-05 8.9143e-07 0.22045 0.057141 4.9033e-06 0.25352 6.7487e-08 0.48893 0.20047 -2.0319e-06 0.32353 -0.1289 1.2102e-05 3.9146e-06 4.2491e-06 6.2325e-08 -2.6829e-06 0.36242 -2.7432e-05 0.056878 5.7577e-07 -0.00012611 1.7995e-07 -1.2752e-05 8.3299e-09 1.9323e-06 -6.7178e-06 6.9541e-07 3.1462e-05 3.223e-06 -3.2799e-05 2.2148e-05 -2.1161e-05 0.00040107 0.15303 -1.5316e-05 2.0902e-05 5.8018e-05 1.3684e-05 4.7159e-07 -5.6893e-06 7.1985e-06 -8.6108e-06 0.24738 -0.10921 4.8489e-06 -4.1927e-07 -2.711e-05 1.4113e-06 -2.1618e-05 -1.3737e-07 0.00093843 6.9907e-06 -3.2629e-05 2.2152e-05 0.48406 5.6932e-05 -7.3216e-05 9.6915e-06 3.6038e-05 -5.3448e-06 2.8147e-05 2.6175e-06 0.44477
1.6325e-05 9.6329e-07 1.0279e-05 -2.6673e-07 8.4094e-05 -6.5718e-06 0.00054494 -1.4491e-05 -0.00010343 1.1488e-05 0.0012276 9.5529e-06 5.893e-06 6.9115e-07 7.7352e-05 0.00082078 -2.0731e-05 -9.1871e-05 -4.4153e-06 -1.3155e-07 7.008e-05 0.00085552 0.00014518 -6.5175e-06 7.698e-05 0.00020939 0.00061715 1.4486e-05 2.8097e-05 -2.2661e-05 3.0269e-06 -0.00020971 0.094057 0.24101 -5.6604e-05 8.7531e-07 -0.00011581 -1.4009e-05 0.0066495 -6.3098e-05 6.9959e-06 0.00024371 -0.00011912 -5.4673e-05 0.13088 8.5714e-06 0.0039634 5.7796e-05 0.0034519 0.00055752 -3.458e-05 -5.9314e-05 -5.6567e-05 9.5594e-05 -4.9116e-05 0.23349 9.4308e-06 7.0772e-06 -2.4108e-05 0.094179 -0.0002887 -5.5784e-05 -0.00026614 0.20768 -0.00097455 -4.928e-05 4.1219e-05 -0.00023442 -1.9204e-05 4.6495e-06
4.0447e-07 -9.3369e-08 -3.9402e-06 2.3327e-05 1.4245e-05 5.4074e-06 2.9712e-07 -3.6038e-07 2.1731e-05 4.4612e-06 0.00028255 -2.9942e-07 -6.5516e-06 -1.1865e-05 -1.6317e-05 3.1378e-07 3.5124e-06 -1.5329e-05 -5.2709e-06 3.5723e-05 0.00025569 0.00046228 -3.1354e-05 -1.5728e-07 4.2399e-05 -2.162e-05 2.1505e-07 -5.178e-06 1.4872e-08 -1.7816e-06 3.2377e-06 -5.0837e-06 8.3489e-07 -1.3215e-06 2.4067e-05 0.75123 -5.5577e-06 0.00014934 1.2132e-05 2.8954e-06 3.2607e-05 0.0023703 -1.119e-05 -0.0001744 -1.3992e-06 4.7297e-05 4.7441e-07 1.4802e-05 4.3569e-06 6.437e-06 7.8213e-05 3.5529e-06 0.00024845 -5.3435e-06 0.001633 9.4338e-06 1.7471e-06 1.1548e-05 0.00022122 0.00019964 0.00024424 -1.0249e-06 -4.5342e-06 0.00030359 -3.4686e-06 -8.8396e-06 -2.3517e-05 -6.5482e-05 -8.0297e-10 -1.6026e-05
-1.6219e-06 0.62322 2.3717e-06 -4.6409e-06 2.5623e-06 -4.1635e-06 1.5722e-06 5.1273e-05 -6.1669e-07 8.4648e-07 8.0059e-05 0.00014062 -1.6951e-06 -1.5959e-06 1.6692e-06 6.3555e-06 -2.2251e-05 -3.2531e-06 -7.5778e-06 2.7035e-06 4.3773e-07 6.4526e-07 -1.6644e-05 -5.62e-07 -3.0679e-05 3.7491e-06 -7.29e-07 -6.1007e-07 4.4274e-07 0.00027164 -4.2867e-06 -1.3199e-05 -1.2395e-05 -5.5471e-08 1.6198e-05 -2.172e-07 -3.8832e-05 0.00088523 -8.7931e-06 1.9075e-06 -4.2002e-05 -5.8657e-05 1.3313e-05 2.4094e-05 0.00016514 -3.9903e-06 -7.8629e-05 -2.7848e-05 -5.0753e-05 -3.2616e-05 1.7612e-05 5.5985e-06 -5.254e-05 0.53579 -1.0163e-05 -2.0695e-05 0.7108 -5.8192e-06 4.973e-05 0.0011577 0.00021739 1.2163e-05 1.3461e-05 -2.3975e-05 -2.3744e-06 7.5418e-06 1.3953e-06 -3.2959e-05 1.7453e-07 -1.3776e-05
-1.3212e-05 -2.0651e-06 4.4558e-05 1.0816e-05 0.00013493 0.28019 -4.3063e-06 -4.7764e-06 7.6938e-05 -1.4636e-05 4.2083e-06 -5.767e-06 -3.3087e-06 1.7356e-06 -1.7619e-05 2.0275e-05 1.5298e-06 6.2166e-05 4.7283e-06 -2.7763e-05 -3.8384e-06 0.00023928 0.00037408 1.4552e-05 0.00012778 7.7166e-05 -8.7106e-05 0.00040143 -1.1857e-05 -1.0943e-05 4.4155e-08 -6.5177e-06 0.21859 7.2995e-06 0.5804 1.1626e-05 -7.7052e-05 -2.2624e-05 -1.5662e-06 -1.5294e-06 0.00042989 -0.00018803 0.0024359 -0.00010783 5.7021e-06 -7.6553e-06 -2.6199e-05 0.58035 4.7814e-06 -2.5021e-05 3.4808e-05 -2.6002e-05 3.3751e-05 1.7754e-05 -9.3526e-06 2.3873e-05 9.3403e-06 4.3989e-06 2.0056e-06 0.21895 -7.7482e-06 3.5756e-05 4.3647e-06 0.48463 -0.00015099 -2.5356e-05 2.2769e-06 0.5658 9.2241e-08 1.1679e-06
3.8416e-05 -3.053e-07 3.9603e-06 6.6999e-05 -6.6832e-06 -6.6677e-06 0.22669 4.0019e-05 9.6332e-05 -7.0133e-07 0.3692 -3.2692e-05 -1.0039e-05 7.6618e-08 2.0006e-05 -1.8141e-05 4.4575e-06 1.1986e-05 -5.9773e-06 -1.4152e-05 0.0001411 0.0018145 -0.0001042 3.5436e-06 0.18843 -3.4283e-05 -0.00014405 1.6674e-05 0.000108 0.00069353 0.00013166 -1.5735e-06 0.19981 4.3725e-05 0.00011008 -6.5145e-06 -9.2855e-05 0.00015973 0.39361 -0.00012288 9.6351e-05 7.8684e-06 0.00050986 0.00010403 0.0018049 -3.9791e-06 -0.00030562 4.8728e-05 0.70698 -2.9786e-05 4.1691e-05 -9.496e-05 0.00032571 0.00048138 4.1685e-05 0.46218 -3.6469e-06 5.8703e-05 3.9214e-05 0.19864 0.00036016 5.287e-05 -0.00047177 6.1397e-05 0.00054906 0.00024426 -0.00051095 0.00016595 -1.2256e-05 1.5241e-05
-1.9165e-06 -6.2376e-07 -6.7118e-06 1.1326e-05 -2.5693e-05 -8.4103e-08 0.42508 -2.5938e-05 -0.00026684 2.38e-06 0.34513 -1.213e-05 5.6474e-06 -7.0696e-06 3.8729e-05 9.1337e-09 -1.8493e-05 -5.9622e-06 3.0706e-07 4.5556e-05 -1.7041e-05 -6.6754e-05 -2.2207e-06 -3.4577e-05 0.17581 0.00010254 5.7102e-07 9.5161e-05 -5.0669e-05 -0.00014099 4.4193e-06 -6.3777e-05 7.7458e-06 2.9345e-05 4.1556e-05 -7.0654e-06 -1.9381e-05 -4.1454e-05 -0.0020118 0.47294 0.15143 1.013e-05 -0.000568 3.4106e-05 -0.00077343 1.3966e-05 -0.00099825 2.7565e-05 -0.00067224 -0.00036248 -0.00013329 -7.5364e-05 1.1065e-05 -2.2619e-05 -6.3891e-05 -0.00029841 -1.0568e-05 0.028947 -3.6213e-05 2.6767e-05 -3.9844e-05 4.3134e-07 0.0092704 4.8616e-05 0.48869 -5.1699e-06 0.00019256 1.8441e-05 -1.3808e-05 0.00010033
-2.8278e-06 -2.0021e-07 9.2608e-06 -2.6936e-05 2.3969e-05 -2.1693e-06 4.6204e-05 0.50816 -2.1243e-05 3.9047e-05 3.4749e-07 2.7666e-06 -1.3e-06 7.0928e-07 -2.6392e-07 6.5642e-05 -7.7001e-07 -0.00013128 -3.3221e-06 9.4484e-07 5.1109e-05 7.4905e-05 -1.4956e-05 2.5494e-07 2.1767e-05 2.8426e-06 1.3067e-06 -8.1996e-06 -8.3674e-07 -2.1546e-05 3.1543e-06 -2.8703e-05 4.4626e-05 8.2731e-06 -1.2615e-05 -8.8114e-07 -3.8107e-06 -2.9152e-05 -9.3105e-06 -7.6259e-06 -3.8047e-05 -1.5554e-06 -1.0538e-05 -3.9216e-05 0.0036282 0.0015956 0.00029813 -1.1244e-05 -5.1602e-06 1.6052e-05 5.0146e-05 -1.5665e-06 0.000288 -2.911e-05 -1.1423e-05 2.8503e-05 -1.6155e-05 -4.3894e-07 -0.00036988 0.00014447 0.0021169 2.8999e-06 -3.0488e-05 -4.5759e-06 -0.00022164 4.5478e-06 -8.0362e-05 -3.4821e-06 6.031e-05 -1.1716e-05
7.0785e-06 -7.9181e-10 0.43385 2.6532e-06 0.17133 -5.5495e-06 7.8595e-06 -1.6117e-06 0.038945 -1.6872e-06 -9.8306e-06 -1.2467e-05 9.9013e-07 -9.3517e-06 -3.3039e-05 3.8722e-06 2.4293e-06 6.493e-06 3.3191e-06 3.9028e-06 0.00015789 4.526e-05 0.42032 1.2841e-05 0.26489 0.016579 -1.4752e-05 0.00078313 8.1702e-06 7.8671e-06 3.744e-06 3.1411e-07 9.7743e-05 2.0781e-06 1.1198e-05 -4.8357e-06 -1.2715e-05 1.1966e-05 -4.1993e-05 1.8697e-05 0.22875 3.754e-05 0.53626 5.3551e-06 1.9455e-05 1.7192e-06 -8.3777e-06 -3.5087e-06 -0.00013368 -9.3273e-05 0.40645 2.7738e-06 0.00014008 1.5285e-05 -5.2171e-05 -2.4067e-05 -5.0911e-05 4.9258e-05 1.1686e-05 2.4675e-05 3.6296e-05 -8.6752e-05 1.0179e-05 -3.0562e-07 0.00048763 -3.7581e-05 3.7259e-05 -0.00013612 3.0925e-07 -8.0296e-05
-1.6805e-06 6.8779e-07 -2.3307e-06 3.9636e-05 -2.2496e-05 1.866e-05 2.4205e-05 1.1537e-06 1.94e-05 -2.0352e-05 -2.2138e-06 -9.4805e-06 -2.2029e-05 -8.2133e-07 0.16503 2.453e-05 1.1056e-05 5.5975e-05 1.3059e-07 -4.9936e-06 1.0114e-06 1.1062e-05 1.0732e-05 -2.8416e-05 -0.00037262 -3.987e-05 0.68136 -1.3202e-06 -1.2189e-05 5.9189e-06 1.3647e-05 1.0744e-05 0.15754 6.1375e-06 -0.0001366 -2.3937e-07 4.7368e-06 2.5088e-06 3.2486e-05 -2.525e-06 0.12649 -1.8982e-05 2.2434e-05 -0.0011336 6.873e-06 1.744e-05 -1.0525e-05 4.5937e-05 -5.5555e-06 -0.00020027 -3.919e-05 -9.6607e-05 -0.00012092 -7.6126e-06 -4.8103e-05 -0.00016731 -4.927e-06 3.2723e-05 4.9255e-06 0.15711 -5.3432e-06 -0.00032916 -2.0132e-05 0.00048926 1.3955e-05 0.70464 -2.7614e-05 -0.00033768 5.1628e-07 -3.4787e-06
5.5965e-05 -1.2985e-06 -1.2487e-05 -1.5068e-05 2.3317e-06 -5.4908e-07 -2.2688e-05 2.4585e-05 -5.0374e-05 2.4395e-05 -1.2956e-05 -0.00015181 4.0884e-06 2.3581e-06 0.00021973 9.2087e-05 -2.429e-05 -7.6604e-05 -4.1982e-08 -4.8155e-06 -6.7021e-05 7.8871e-06 0.00042018 2.4134e-06 0.00018005 2.3842e-05 -7.8496e-05 9.6729e-06 -6.6915e-06 -0.00031183 1.4657e-05 -2.2209e-05 0.1875 2.009e-05 -0.00039974 -4.8028e-06 2.9562e-05 0.0174 -1.5856e-05 2.106e-06 7.2479e-05 0.00041624 -0.00014201 -0.0001248 -7.4447e-06 1.546e-05 -2.3468e-05 -0.00015395 -5.1833e-05 0.00084616 -2.2611e-05 -9.4317e-05 0.0018949 0.43512 -1.7539e-05 0.00061127 2.9811e-05 -6.8566e-06 4.9148e-05 0.1845 -0.00020386 -0.00013916 -1.9456e-05 0.00054211 -2.8081e-05 -2.7422e-05 5.9039e-05 -0.00069818 9.0626e-07 -2.648e-06
-4.4538e-07 -3.1888e-07 0.012968 0.38351 0.25272 9.1833e-06 7.5325e-05 5.9971e-07 0.27895 0.14472 -0.00018573 4.1602e-05 0.0001323 8.7975e-08 2.7576e-05 7.123e-06 -1.7233e-05 -0.32626 -8.1909e-05 -1.8427e-05 -4.1665e-05 -0.00016653 -2.1468e-05 8.8935e-07 -1.8702e-05 0.072108 8.8253e-06 0.0014305 -7.3751e-06 -6.0987e-05 -1.2172e-06 -1.4277e-05 -7.9701e-06 -1.626e-05 3.043e-05 -2.3972e-06 0.0019791 -1.9973e-05 0.4527 0.00015071 9.1256e-05 2.8457e-05 -1.899e-05 -0.0026738 0.0019294 -3.7867e-05 -0.0001109 2.4624e-05 5.3931e-05 -4.1398e-05 -0.138 -7.3408e-05 9.95e-05 -1.4296e-05 2.49e-06 0.00020973 -1.3484e-06 0.00018837 9.5204e-05 -9.7565e-05 0.0043216 -4.3575e-05 9.7441e-05 -0.00010687 6.3635e-05 9.2169e-06 0.71037 -1.1049e-05 -4.7681e-06 2.9546e-05
3.378e-06 1.0048e-06 2.3267e-06 0.15946 -7.6957e-05 0.256 4.9344e-06 -2.5221e-05 -0.00010448 0.060043 4.618e-06 6.3004e-05 5.7994e-07 -3.6877e-05 0.21134 0.00014898 5.8569e-05 -0.1355 -1.3536e-05 7.6917e-05 -2.683e-06 -6.7955e-06 0.00040042 -2.2414e-05 -3.7307e-05 -1.5664e-06 6.7981e-06 9.4314e-06 -1.2154e-06 2.321e-06 2.3477e-08 -5.3414e-05 0.00010178 2.5328e-05 -6.5756e-05 -0.00077069 -1.6653e-06 0.0016442 -0.00013247 6.5386e-05 0.00028375 0.57737 -0.00023062 -0.00013272 0.00011802 -9.6666e-06 1.9286e-05 -9.2142e-06 -8.7205e-09 0.26126 -7.2413e-05 1.8587e-06 4.8874e-06 0.0005774 2.2112e-06 0.0010854 -1.1723e-05 8.6954e-05 -8.5144e-05 0.00051403 -9.2657e-06 -0.00020187 3.7268e-05 0.00074572 3.2064e-05 1.7815e-05 4.2614e-05 -0.00035304 2.7963e-07 0.00035425
4.8399e-05 -4.3233e-08 -1.542e-05 3.0471e-05 -4.6137e-06 -1.2179e-05 1.5504e-05 0.00010884 3.8468e-06 4.8999e-06 0.00042921 -1.2088e-05 1.1771e-06 1.0333e-07 5.5872e-06 -1.9959e-05 -1.521e-06 -2.3974e-06 2.5116e-05 -1.7967e-06 1.1839e-06 9.2575e-08 4.4378e-05 -1.4055e-06 -0.00019022 -2.969e-05 -7.7645e-05 1.0598e-05 0.00013052 0.3396 0.57735 -4.3867e-06 0.16476 -2.1732e-06 -9.0244e-05 3.9058e-06 5.168e-06 -1.1467e-05 0.00055951 -1.4529e-05 -6.7568e-06 7.6224e-07 0.00050529 1.5614e-05 0.00098254 8.5124e-06 -0.00016486 -4.7483e-05 0.0040666 3.7113e-05 3.4777e-05 -4.6776e-05 0.26261 0.00043633 -2.1805e-05 0.00088478 1.1034e-05 -7.5322e-06 -0.00013338 0.1672 0.0004346 1.0835e-05 -0.00013687 -0.00044293 0.00097645 -0.00027504 0.00012853 -0.00022611 -9.8893e-07 -1.1894e-05
3.8416e-05 -3.053e-07 3.9603e-06 6.6999e-05 -6.6832e-06 -6.6677e-06 0.22669 4.0019e-05 9.6332e-05 -7.0133e-07 0.3692 -3.2692e-05 -1.0039e-05 7.6618e-08 2.0006e-05 -1.8141e-05 4.4575e-06 1.1986e-05 -5.9773e-06 -1.4152e-05 0.0001411 0.0018145 -0.0001042 3.5436e-06 0.18843 -3.4283e-05 -0.00014405 1.6674e-05 0.000108 0.00069353 0.00013166 -1.5735e-06 0.19981 4.3725e-05 0.00011008 -6.5145e-06 -9.2855e-05 0.00015973 0.39361 -0.00012288 9.6351e-05 7.8684e-06 0.00050986 0.00010403 0.0018049 -3.9791e-06 -0.00030562 4.8728e-05 0.70698 -2.9786e-05 4.1691e-05 -9.496e-05 0.00032571 0.00048138 4.1685e-05 0.46218 -3.6469e-06 5.8703e-05 3.9214e-05 0.19864 0.00036016 5.287e-05 -0.00047177 6.1397e-05 0.00054906 0.00024426 -0.00051095 0.00016595 -1.2256e-05 1.5241e-05
-1.9619e-06 -6.7876e-07 5.4698e-06 9.8918e-05 -2.9271e-05 2.6807e-05 0.00021171 0.00010049 8.9989e-05 -6.1335e-05 0.003375 4.748e-05 -7.6927e-06 4.7187e-06 -2.1286e-05 6.1979e-06 7.2054e-06 -2.3855e-05 -1.843e-06 -7.7939e-06 0.00022403 0.0026627 -5.8236e-05 5.6598e-06 0.00022895 -0.00013162 -7.5302e-05 -4.6871e-05 -0.00067144 -2.8632e-06 5.9842e-06 5.0226e-05 0.08509 0.22163 -0.00012483 7.2888e-07 7.739e-05 2.7612e-05 0.020899 -2.2733e-05 -8.5751e-05 2.61e-06 1.0415e-05 -2.8069e-05 0.0016396 0.00068937 8.7232e-05 -0.00011296 0.010377 -3.1202e-06 5.8715e-05 0.00069093 -1.2306e-05 0.00012673 -5.8566e-06 2.7922e-05 4.9903e-06 -2.7911e-06 -1.9601e-06 0.084401 -3.4487e-05 3.4605e-05 -0.00042406 0.00063662 -0.00029188 -4.4067e-05 -0.0012337 -0.00029496 7.1564e-05 -8.6864e-05
1.5366e-05 -1.1878e-06 1.3996e-05 0.080169 8.9169e-05 2.9082e-05 0.00010178 0.0002347 -9.4275e-05 0.030086 0.0017012 -5.8575e-06 4.9651e-05 3.9914e-07 -5.3955e-05 3.5167e-06 -8.5103e-05 -0.067816 -0.00012374 5.1445e-06 0.0012644 0.15538 -0.00031349 7.354e-06 9.2997e-05 3.4265e-05 -9.5121e-06 0.00056883 0.00011771 0.00077094 6.6327e-05 -3.7009e-05 0.00047208 2.0143e-05 3.7289e-05 0.00032585 0.00060327 0.00016361 0.0084149 1.4817e-05 -0.00019776 -3.1845e-05 0.00028765 -0.0012102 0.28823 -0.00014754 -0.00016754 -2.2056e-05 0.0062959 0.00010684 0.00011086 -0.00010042 0.1606 0.00018915 0.00062755 0.00071042 1.4e-05 -0.0011371 0.0025662 0.00039936 0.013505 4.7881e-05 -0.00076326 8.9497e-05 0.0005486 5.6598e-06 -0.001045 -0.00013429 -4.8539e-05 -3.0121e-05
3.1527e-24 2.6648e-25 -4.6788e-25 7.564e-25 -4.7917e-26 -2.1918e-25 -1.9018e-25 -1.4943e-26 4.3804e-25 -4.9676e-27 2.5445e-25 -9.8186e-26 1.7493e-26 -1.6475e-25 -6.5478e-25 5.7919e-25 -7.2931e-26 8.8674e-26 -1.203e-24 -1.5304e-25 2.8742e-26 -1.3539e-24 -1.082e-25 -2.3356e-25 -4.9172e-24 -4.4119e-25 2.3963e-22 -1.7055e-24 3.4363e-24 -3.3484e-21 7.7829e-24 -3.8237e-25 1.391e-23 2.0452e-24 5.1864e-25 -6.011e-26 -8.1102e-25 9.6929e-24 -4.3029e-25 -3.8119e-25 -1.21e-23 -1.2579e-25 4.7889e-24 -1.3097e-25 3.56e-24 -5.5796e-23 1.2488e-23 1.3168e-24 6.7991e-24 2.745e-24 9.8805e-25 7.7092e-25 3.2995e-23 1.7529e-24 1.3018e-25 -1.7639e-24 -7.543e-25 -1.6281e-25 3.0723e-23 1.569e-22 -2.6675e-23 -1.6003e-24 -2.2204e-24 -5.6692e-24 1.4641e-23 -6.1133e-21 -1.0035e-23 -3.5543e-24 -1.2338e-27 -2.3119e-24
-3.3183e-07 8.053e-09 0.019439 0.28749 0.37863 1.9835e-05 -4.0527e-06 2.3556e-06 0.41822 0.10841 1.5647e-06 2.0273e-05 2.9475e-07 4.1032e-07 0.38025 -1.2417e-06 4.5146e-06 -0.24456 4.9554e-06 -2.3099e-06 4.3808e-06 1.8726e-06 1.0053e-05 6.9297e-06 2.5166e-05 0.10796 1.8098e-06 -0.00025031 -8.5894e-07 -2.0721e-05 4.8171e-07 3.2571e-06 2.83e-06 3.3018e-06 5.4666e-05 -4.3602e-06 -0.00012631 -1.0422e-05 -2.0391e-05 0.00019323 0.29011 -2.4586e-05 0.00010671 0.00011413 3.9976e-05 -2.7722e-08 9.4205e-08 1.2188e-05 -1.3578e-05 8.0753e-05 -0.20724 8.9927e-06 -1.224e-06 -6.1057e-06 9.7466e-06 -1.2992e-05 -1.4161e-05 0.00044298 2.447e-05 -2.3024e-05 4.2968e-05 5.3934e-05 -3.1828e-05 -0.00017969 1.1739e-05 0.00011021 -7.2981e-06 7.0397e-05 8.098e-07 3.6861e-05
-3.3183e-07 8.053e-09 0.019439 0.28749 0.37863 1.9835e-05 -4.0527e-06 2.3556e-06 0.41822 0.10841 1.5647e-06 2.0273e-05 2.9475e-07 4.1032e-07 0.38025 -1.2417e-06 4.5146e-06 -0.24456 4.9554e-06 -2.3099e-06 4.3808e-06 1.8726e-06 1.0053e-05 6.9297e-06 2.5166e-05 0.10796 1.8098e-06 -0.00025031 -8.5894e-07 -2.0721e-05 4.8171e-07 3.2571e-06 2.83e-06 3.3018e-06 5.4666e-05 -4.3602e-06 -0.00012631 -1.0422e-05 -2.0391e-05 0.00019323 0.29011 -2.4586e-05 0.00010671 0.00011413 3.9976e-05 -2.7722e-08 9.4205e-08 1.2188e-05 -1.3578e-05 8.0753e-05 -0.20724 8.9927e-06 -1.224e-06 -6.1057e-06 9.7466e-06 -1.2992e-05 -1.4161e-05 0.00044298 2.447e-05 -2.3024e-05 4.2968e-05 5.3934e-05 -3.1828e-05 -0.00017969 1.1739e-05 0.00011021 -7.2981e-06 7.0397e-05 8.098e-07 3.6861e-05
3.378e-06 1.0048e-06 2.3267e-06 0.15946 -7.6957e-05 0.256 4.9344e-06 -2.5221e-05 -0.00010448 0.060043 4.618e-06 6.3004e-05 5.7994e-07 -3.6877e-05 0.21134 0.00014898 5.8569e-05 -0.1355 -1.3536e-05 7.6917e-05 -2.683e-06 -6.7955e-06 0.00040042 -2.2414e-05 -3.7307e-05 -1.5664e-06 6.7981e-06 9.4314e-06 -1.2154e-06 2.321e-06 2.3477e-08 -5.3414e-05 0.00010178 2.5328e-05 -6.5756e-05 -0.00077069 -1.6653e-06 0.0016442 -0.00013247 6.5386e-05 0.00028375 0.57737 -0.00023062 -0.00013272 0.00011802 -9.6666e-06 1.9286e-05 -9.2142e-06 -8.7205e-09 0.26126 -7.2413e-05 1.8587e-06 4.8874e-06 0.0005774 2.2112e-06 0.0010854 -1.1723e-05 8.6954e-05 -8.5144e-05 0.00051403 -9.2657e-06 -0.00020187 3.7268e-05 0.00074572 3.2064e-05 1.7815e-05 4.2614e-05 -0.00035304 2.7963e-07 0.00035425
6.8752e-08 1.3174e-06 1.1218e-05 0.00015049 -3.2818e-05 1.2524e-05 4.5011e-06 0.23582 0.00015875 -2.2399e-05 2.2612e-05 0.19485 -1.2191e-05 3.8123e-07 -2.1283e-05 2.5775e-05 -0.00020937 3.7547e-05 -4.8353e-06 -5.9753e-05 -1.6379e-05 -1.021e-05 0.0001553 8.3277e-06 6.72e-05 -0.00016461 -6.1925e-08 2.9784e-06 1.321e-05 0.25539 -4.531e-06 3.5779e-05 1.7942e-05 6.3881e-06 -4.0167e-05 1.1603e-05 0.00010393 0.35576 -4.875e-05 2.2254e-05 2.738e-05 -0.00029654 1.024e-05 1.1379e-05 -0.00048219 -5.6838e-05 0.0015109 -5.7363e-05 -0.00019253 -0.0002074 9.4548e-05 -1.6042e-05 -2.6727e-05 0.34408 6.0357e-07 -9.4698e-05 0.00066627 8.0655e-05 -0.00071763 0.0017832 0.30771 8.8657e-06 7.217e-05 0.00085133 0.0003706 -5.6191e-05 -3.3164e-05 -0.00025276 -1.8145e-06 -0.00012393
8.97e-06 0.0002358 1.5188e-07 -4.9655e-05 2.2139e-05 0.22938 0.00012072 -5.4016e-06 -0.00012235 0.00013348 -5.1741e-05 0.24064 0.00017639 -4.3056e-06 0.00027026 0.00092542 -4.7494e-05 -0.0001224 0.00012646 -2.274e-05 -4.1671e-05 -9.7769e-06 0.00030151 -1.9929e-05 6.8122e-05 0.00032322 -3.1541e-05 0.00073635 3.6128e-06 -3.263e-05 1.447e-05 -0.00022864 7.7093e-05 2.8439e-05 6.7326e-05 1.7883e-05 0.40188 -3.9031e-06 0.0019772 -2.2967e-06 0.14542 0.00033595 -3.8717e-06 -0.37799 0.0016576 -1.0796e-05 -0.00089199 -2.8657e-06 -0.00010655 0.00083302 -6.4735e-05 -0.00011051 0.00010174 0.00030408 -9.3315e-06 0.00092021 -7.9183e-05 8.1223e-05 -9.8946e-06 0.0012124 0.0030189 -0.0001791 0.0029972 0.0014842 -0.00028592 -8.3496e-06 0.00057037 -0.00016638 -2.7678e-06 -0.00012052
2.255e-05 6.0066e-06 2.3522e-07 2.5282e-06 1.4817e-05 -1.3076e-05 -5.2447e-05 0.00024671 2.4084e-05 1.5588e-06 0.00021563 -0.00016717 -5.8623e-06 2.7145e-07 2.9112e-06 3.7964e-06 5.3308e-06 -4.7564e-06 9.9638e-06 0.34374 0.0002005 0.0003469 -2.7231e-05 5.2932e-06 -7.3285e-05 -2.7626e-05 -3.0248e-06 -1.0038e-05 -7.2438e-06 0.00011244 4.9391e-05 -5.1975e-07 -7.3797e-06 -1.0877e-05 3.0866e-05 0.00059339 -2.9096e-05 0.47781 -5.6089e-05 5.4805e-06 -4.1053e-05 -0.00042315 6.0546e-05 -6.2066e-05 -7.8293e-05 2.1625e-05 -0.00049008 1.9728e-05 -9.3893e-06 1.8512e-05 7.3977e-05 -2.332e-05 0.00044024 -0.0070829 0.0011194 3.5924e-05 7.5444e-06 4.3111e-05 0.24434 0.00073657 0.0007587 1.9295e-06 -2.4281e-06 0.0001834 0.00030767 -1.39e-05 -0.00019386 -5.4592e-05 1.9527e-08 -6.5515e-06
1.1521e-05 -1.6373e-06 -5.4229e-06 0.22773 1.6536e-05 1.1874e-05 4.3107e-05 -1.0685e-05 -0.00016819 0.74852 -0.00017674 1.2952e-05 0.21124 -1.6046e-05 -0.00011477 9.7095e-06 -2.4991e-05 0.35203 9.1007e-05 -8.8216e-06 2.0876e-05 -9.1929e-05 -1.6979e-05 1.0422e-05 9.3605e-06 6.5355e-05 1.0029e-05 0.27422 -3.1152e-05 -0.00015699 -1.0436e-06 -7.1412e-05 -6.5135e-06 0.00020847 0.00017909 1.0534e-05 0.29344 -1.4261e-05 0.24887 4.3009e-05 7.1365e-05 -3.0249e-06 0.00028813 -0.0014033 0.00055143 -1.83e-05 -0.00066291 0.00013782 -0.00028999 -1.6368e-06 -1.0534e-05 -0.00011018 0.0001406 -3.5202e-05 2.9521e-06 8.8873e-05 1.059e-05 3.7007e-05 -0.00024789 -7.6985e-05 0.27847 2.2392e-05 0.00010601 0.00050623 -4.093e-05 -6.4007e-06 0.00031039 -3.5738e-05 -1.6966e-06 6.9352e-05
1.9498e-05 6.4536e-07 -3.2076e-06 -1.1724e-05 -2.8465e-05 1.8868e-05 7.2563e-06 0.00014418 -1.1868e-05 2.8703e-05 -5.4825e-05 -6.6904e-06 -4.6368e-05 1.618e-06 -2.2384e-06 6.6806e-06 4.4926e-06 -0.00010983 -6.1343e-05 0.00011201 -8.7522e-06 2.3549e-05 1.3885e-05 -3.7526e-06 -8.2584e-06 -3.8451e-06 8.5205e-07 -1.8489e-05 4.4715e-05 0.67639 3.1596e-05 6.6986e-06 -2.3693e-05 -8.3657e-06 8.8336e-06 2.8947e-05 -0.00021362 0.00045957 -6.7039e-05 6.6729e-05 -8.4173e-05 -2.421e-06 -4.3656e-05 3.3395e-05 0.001698 -8.7196e-05 -0.00014145 2.3623e-05 -0.00035663 6.2227e-05 -7.7133e-05 -2.3101e-06 0.0010634 -0.00010035 9.9589e-06 -6.6139e-05 6.5056e-05 -0.0019058 0.26292 -0.00015356 0.42485 1.5346e-05 -1.6153e-05 -3.435e-06 9.2277e-05 2.9588e-05 -0.0017381 -9.2976e-06 -8.4106e-07 1.3082e-05
0 0 0 0 0 0 0 0 0 0 0 0 0 0 0 0 0 -0 0 0 0 0 0 0 0 0 0 0 0 0 -0 0 0 0 0 0 0 0 0 0 0 0 0 0 0 0 0 0 0 0 0 0 0 0 0 0 0 0 0 0 0 0 0 0 0 0 0 0 0 0
0.24487 -2.8632e-06 3.7713e-05 1.4918e-05 7.7207e-05 5.7221e-06 0.00027486 5.3731e-07 -2.5418e-05 -1.1133e-05 -3.4371e-05 9.4386e-05 -1.1408e-05 3.4925e-06 4.2776e-05 2.3336e-07 -3.7296e-05 1.1868e-06 -9.9025e-08 0.36081 0.0077263 0.00044259 0.00011598 6.0536e-06 0.1762 0.00010337 -4.1267e-05 -0.00011752 -8.6697e-06 0.00016883 1.1483e-05 8.4549e-06 0.18738 2.5286e-06 -7.5524e-05 -7.2007e-07 2.1514e-05 -3.8457e-05 0.00075412 -0.00013334 -0.00017552 -2.0301e-05 -0.00010774 -0.00081797 -2.3621e-05 2.8511e-05 1.4314e-05 -5.4504e-05 -0.00015492 -7.5299e-06 0.00017459 0.0021812 0.29685 -0.00012953 3.4132e-05 -0.00043725 1.2011e-05 -7.4304e-06 0.00026304 0.18496 -2.7377e-05 9.9971e-05 -3.8356e-08 -1.7278e-05 -9.9216e-05 -4.2338e-05 -0.00011498 -7.372e-05 5.1725e-06 -0.0001933
-2.1387e-07 -1.0948e-07 -8.5083e-06 0.10482 -4.6319e-05 -4.5125e-05 3.9914e-05 0.00040974 -5.9097e-05 0.039768 -8.3195e-06 1.209e-06 3.529e-06 3.6575e-06 2.1427e-05 1.8173e-06 1.8958e-06 -0.089914 -3.9068e-05 0.25144 -2.6361e-06 -2.6427e-06 3.6856e-06 5.885e-06 -8.1645e-05 -2.2073e-05 1.1588e-06 -3.3555e-05 -8.4205e-06 -0.00011665 1.1998e-06 3.3453e-06 0.00073899 -6.1816e-06 -5.0506e-05 -2.2739e-05 0.00012725 -5.7448e-05 2.253e-05 -7.6074e-05 -1.2788e-05 -3.7148e-05 -6.3983e-05 6.3934e-05 -0.00055702 1.7048e-05 -1.3255e-05 -3.9637e-05 -8.2798e-06 1.3858e-05 0.00011539 -4.3585e-05 2.3543e-05 -2.2757e-05 2.0763e-05 -0.00010586 5.94e-06 6.0517e-05 0.0028618 0.00036866 0.28295 -6.685e-06 -4.5917e-05 -1.7835e-05 0.0020361 -1.8622e-05 -0.00068042 -4.1041e-05 1.1546e-06 -0.00032429
-2.0306e-06 2.5929e-09 7.0578e-07 -6.7657e-07 5.2939e-06 2.6551e-06 3.525e-05 -3.4448e-06 -8.3957e-07 -3.7684e-07 4.4038e-06 -4.1248e-06 -2.7909e-07 6.5137e-07 -3.054e-06 -3.4267e-05 1.4392e-06 1.9188e-06 -1.6084e-06 7.2297e-06 -1.5737e-06 -5.6879e-06 -6.5414e-06 9.1347e-07 1.8354e-05 5.2084e-06 -5.84e-05 -1.8546e-05 -2.0465e-06 -2.2322e-05 4.8094e-06 -3.9587e-06 -0.00027979 1.0313e-05 4.3288e-05 1.0345e-06 -1.1774e-06 -7.6525e-06 0.00026673 2.3233e-06 -2.2031e-06 -8.2563e-06 -3.1794e-05 -1.175e-05 -2.4988e-05 5.9775e-06 -9.6185e-05 -1.4681e-05 4.261e-05 -5.0163e-05 1.9713e-06 3.6144e-05 -1.8956e-06 -1.7721e-05 8.162e-06 0.42809 4.8682e-07 -5.9638e-06 -4.3573e-06 2.2223e-05 -9.6346e-06 8.1273e-06 1.7116e-05 0.00015187 -3.6596e-05 0.0002312 1.2337e-05 0.00024649 2.1694e-06 -1.1764e-06
0.38548 1.17e-06 -1.1918e-06 2.5902e-05 5.8483e-06 2.9716e-06 -4.5544e-07 1.0524e-05 2.6785e-05 -2.3395e-05 0.00033626 -8.7494e-07 -2.6709e-06 -5.3355e-06 -6.7228e-06 -2.1231e-06 -1.0007e-06 -1.9657e-05 2.3545e-06 5.6069e-07 -2.1068e-06 1.9347e-06 4.4831e-06 3.7843e-06 0.00010642 -7.8752e-06 5.1978e-06 0.00021786 0.70711 0.25618 9.2171e-05 -8.0945e-06 0.00011452 0.38135 -4.1965e-06 -9.0985e-08 4.0822e-06 0.00022239 0.0004006 -0.00016461 0.11872 1.1125e-05 0.28024 1.6246e-05 0.40342 2.2484e-05 0.00010314 -2.096e-06 0.0029819 -3.7414e-05 1.424e-05 -5.7125e-06 0.00030957 0.00047916 1.4696e-06 0.00086802 7.1808e-06 8.8729e-05 -9.1816e-06 0.00040301 -0.00036196 7.7717e-06 -9.6914e-05 -5.8034e-05 0.37292 2.3545e-05 -7.7645e-05 -0.00010292 -4.3249e-05 -4.137e-05
-5.3923e-06 -6.9887e-07 1.7063e-06 1.1198e-05 1.4063e-05 3.5673e-06 -1.8293e-05 -4.76e-05 1.7942e-05 -6.6053e-07 0.32405 -8.2683e-06 -2.0581e-06 -3.7508e-07 -8.9176e-06 0.00010571 2.3525e-06 5.889e-06 -2.3443e-06 3.0341e-05 0.00017356 0.00030103 -2.6285e-05 2.976e-06 3.4283e-05 -2.5121e-05 -2.6475e-05 6.4739e-06 -2.5046e-06 -5.1879e-05 2.0486e-05 8.3496e-06 0.17599 4.9076e-06 4.7557e-05 0.00057409 9.2838e-08 9.1196e-05 -9.2892e-05 -5.3067e-05 -8.0558e-05 -2.8089e-05 2.563e-05 -8.1257e-05 -0.00010607 0.49102 3.3798e-05 2.6971e-05 -0.00018114 1.1109e-05 7.548e-05 -1.1165e-05 6.324e-05 -5.1044e-05 0.44456 5.7595e-05 6.7804e-06 -1.049e-05 0.00011495 0.17723 0.00015258 1.1475e-05 -0.00025832 0.00013783 -5.0037e-05 5.6996e-05 -0.00013267 -3.7266e-05 2.8375e-06 -1.5868e-05
-2.8278e-06 -2.0021e-07 9.2608e-06 -2.6936e-05 2.3969e-05 -2.1693e-06 4.6204e-05 0.50816 -2.1243e-05 3.9047e-05 3.4749e-07 2.7666e-06 -1.3e-06 7.0928e-07 -2.6392e-07 6.5642e-05 -7.7001e-07 -0.00013128 -3.3221e-06 9.4484e-07 5.1109e-05 7.4905e-05 -1.4956e-05 2.5494e-07 2.1767e-05 2.8426e-06 1.3067e-06 -8.1996e-06 -8.3674e-07 -2.1546e-05 3.1543e-06 -2.8703e-05 4.4626e-05 8.2731e-06 -1.2615e-05 -8.8114e-07 -3.8107e-06 -2.9152e-05 -9.3105e-06 -7.6259e-06 -3.8047e-05 -1.5554e-06 -1.0538e-05 -3.9216e-05 0.0036282 0.0015956 0.00029813 -1.1244e-05 -5.1602e-06 1.6052e-05 5.0146e-05 -1.5665e-06 0.000288 -2.911e-05 -1.1423e-05 2.8503e-05 -1.6155e-05 -4.3894e-07 -0.00036988 0.00014447 0.0021169 2.8999e-06 -3.0488e-05 -4.5759e-06 -0.00022164 4.5478e-06 -8.0362e-05 -3.4821e-06 6.031e-05 -1.1716e-05
0.1591 -1.5415e-06 1.2696e-05 -6.4634e-06 -2.4912e-05 -1.4602e-05 -8.5862e-05 -4.4185e-06 1.4141e-05 -2.1938e-06 -1.4631e-05 0.0031658 1.8957e-06 -1.6775e-05 -7.026e-05 1.8754e-06 4.8156e-05 -7.1263e-06 -1.2801e-05 0.46676 -4.2659e-05 4.8913e-06 0.00038953 -3.5222e-05 0.22875 -2.7346e-05 -3.6949e-05 -4.7691e-06 -9.5823e-06 7.3661e-05 6.942e-06 -1.9412e-05 0.12146 6.4653e-06 -0.00018431 -8.2267e-06 8.2106e-06 -0.00022603 -0.00014154 -3.4228e-06 0.00017333 -4.6834e-05 -0.00030979 3.5352e-05 -2.7624e-05 1.4928e-05 -1.6776e-05 -0.00017839 3.56e-06 -0.00068139 5.491e-05 -5.7897e-06 0.19307 0.0020504 4.8221e-06 0.00023305 -3.6091e-05 -5.8076e-06 0.0003864 0.12442 -4.3163e-05 6.3841e-05 -0.00019089 -0.00028203 -3.308e-05 -0.00028479 1.3003e-05 -0.00076704 8.6316e-09 3.746e-05
1.3861e-06 -4.3576e-06 -5.3376e-06 -4.3135e-07 -0.00017954 4.3517e-08 -2.5168e-06 2.1115e-06 0.00014263 -2.9997e-06 -7.8683e-07 2.1456e-06 0.76789 -2.3319e-08 -6.9096e-06 -3.0464e-05 9.5927e-07 1.6115e-07 1.125e-05 -1.7922e-05 -3.5269e-06 -6.7786e-08 -2.3366e-06 7.8076e-07 -1.6922e-06 -0.00019622 -2.5934e-05 3.43e-05 -8.7961e-07 7.5053e-07 -3.6737e-08 6.2835e-06 -2.6537e-06 -2.1664e-06 6.8594e-05 1.7698e-05 9.1828e-05 -4.0421e-06 -0.00012028 -2.7766e-06 -1.1757e-05 -9.5162e-06 1.4116e-05 -0.49132 -3.5673e-05 2.0399e-06 4.095e-05 2.5327e-05 8.0692e-06 8.4224e-06 2.8327e-05 0.00017698 3.7694e-06 -9.5607e-07 6.4195e-06 2.4439e-05 2.1601e-06 2.618e-06 -5.4795e-06 -4.2108e-05 -7.4103e-05 1.0386e-05 -5.0201e-05 7.6141e-05 4.8659e-06 -3.7332e-05 -4.4836e-05 5.4993e-05 -1.1866e-06 1.4701e-05
0.40168 3.6272e-08 4.7192e-07 -7.1499e-06 1.3746e-06 0.39007 3.3418e-06 -9.0172e-06 1.2409e-05 -2.5349e-06 -2.7343e-06 1.0861e-06 -1.6508e-06 -3.5683e-06 -2.6443e-06 -3.7198e-06 4.0332e-06 -8.38e-06 2.2011e-06 -2.0423e-05 -3.9002e-06 1.6254e-06 1.8313e-05 -1.8337e-05 -2.8786e-06 2.9146e-06 3.5431e-06 -3.0229e-07 -8.0324e-08 -3.3028e-05 4.8241e-07 -2.874e-07 2.4343e-05 -8.2887e-06 -1.1723e-06 9.7516e-06 6.0566e-06 -1.939e-05 -4.7252e-05 -4.4531e-06 0.24735 -0.00017628 1.6863e-05 3.8365e-06 1.1612e-05 -3.6334e-06 2.065e-05 6.5632e-06 1.9097e-05 -0.00013651 -2.7875e-05 8.6257e-06 -1.4431e-05 -1.2455e-05 3.7192e-07 -9.8636e-06 -2.7846e-05 0.00010676 9.3609e-06 4.7004e-05 1.1866e-05 7.3063e-06 1.8972e-05 8.5865e-07 1.1674e-05 1.7156e-05 -2.8575e-05 2.5203e-05 1.9909e-07 -3.6683e-05
-5.1168e-06 -1.2575e-06 2.2165e-06 -2.4934e-05 8.2073e-05 -1.0486e-05 0.00062136 2.5183e-07 -0.00014293 3.6016e-06 -0.00010487 4.4314e-05 4.2608e-07 2.5196e-06 -6.2391e-05 2.4903e-06 -8.2578e-06 -1.1211e-05 3.0926e-06 1.7137e-05 -3.8379e-07 -1.1726e-06 7.8646e-06 1.0888e-06 0.0015311 0.00035832 -5.7632e-07 -9.0255e-06 1.95e-06 -7.8585e-07 -8.4779e-08 -2.3111e-05 3.8374e-05 4.6926e-07 -2.7758e-05 -3.4727e-06 -4.8317e-05 -1.6911e-06 0.0030211 -0.0001763 2.798e-05 -6.7363e-06 -0.00029136 -0.0060502 2.3234e-05 -7.1709e-06 1.1289e-06 -2.3459e-06 -2.6417e-05 -5.0978e-05 -5.5492e-05 0.00055155 -1.5399e-05 4.3116e-06 -8.4927e-07 -0.00062165 3.751e-07 -6.5484e-06 -6.6045e-06 0.00058795 3.2604e-06 6.534e-05 -6.2907e-05 8.3238e-06 -0.00019479 -3.292e-06 -6.8673e-05 -7.5244e-05 0.00028585 -0.00033434
-1.3212e-05 -2.0651e-06 4.4558e-05 1.0816e-05 0.00013493 0.28019 -4.3063e-06 -4.7764e-06 7.6938e-05 -1.4636e-05 4.2083e-06 -5.767e-06 -3.3087e-06 1.7356e-06 -1.7619e-05 2.0275e-05 1.5298e-06 6.2166e-05 4.7283e-06 -2.7763e-05 -3.8384e-06 0.00023928 0.00037408 1.4552e-05 0.00012778 7.7166e-05 -8.7106e-05 0.00040143 -1.1857e-05 -1.0943e-05 4.4155e-08 -6.5177e-06 0.21859 7.2995e-06 0.5804 1.1626e-05 -7.7052e-05 -2.2624e-05 -1.5662e-06 -1.5294e-06 0.00042989 -0.00018803 0.0024359 -0.00010783 5.7021e-06 -7.6553e-06 -2.6199e-05 0.58035 4.7814e-06 -2.5021e-05 3.4808e-05 -2.6002e-05 3.3751e-05 1.7754e-05 -9.3526e-06 2.3873e-05 9.3403e-06 4.3989e-06 2.0056e-06 0.21895 -7.7482e-06 3.5756e-05 4.3647e-06 0.48463 -0.00015099 -2.5356e-05 2.2769e-06 0.5658 9.2241e-08 1.1679e-06
4.365e-07 -1.2816e-07 5.3145e-07 0.00017593 1.4304e-05 4.4216e-06 7.6627e-05 -1.8684e-06 9.026e-06 -2.4321e-05 2.893e-06 -8.8139e-06 -2.6398e-07 -3.3736e-07 -5.1646e-06 -1.5442e-05 3.8538e-06 7.7803e-05 -4.3516e-06 4.0102e-06 0.00053799 0.00092195 -0.00021503 -4.3174e-06 2.5599e-05 -8.5005e-06 -4.1906e-05 -0.00011208 -5.0078e-06 -2.1545e-05 2.9326e-06 -2.2213e-05 0.00036893 6.2595e-07 -0.0023609 1.1499e-06 -2.1479e-05 -3.2433e-06 0.00016632 -1.0875e-05 0.00019959 -4.7277e-06 -0.00023824 -1.2451e-05 -1.5423e-05 1.8651e-06 -0.00011381 0.0051535 7.3813e-06 -3.8071e-05 3.7385e-05 1.0104e-05 -4.9139e-05 -6.0883e-06 -2.7982e-05 0.25923 5.3756e-06 -7.8191e-06 -3.6757e-06 0.00080266 0.00033543 7.4118e-06 1.1514e-05 -0.00037086 -2.183e-05 0.00013442 -5.4765e-05 0.22078 1.109e-06 -4.0563e-05
-8.5745e-09 -1.933e-06 -0.0062942 8.729e-05 -0.17524 2.2426e-05 2.343e-05 1.6143e-06 0.22512 1.3593e-05 0.00014624 -7.8364e-05 -0.00014106 2.379e-05 5.8752e-05 -3.5885e-05 6.3885e-05 -7.2786e-05 -8.0709e-07 1.0657e-06 0.00011427 0.000212 0.0001027 1.0543e-05 -3.4682e-05 -0.68285 0.0033457 -7.6705e-05 -5.4053e-06 7.8685e-06 1.2071e-06 3.2569e-05 0.00021526 1.3945e-05 -7.0535e-05 0.00040249 3.074e-05 8.6306e-05 -0.00020201 0.00010903 0.00042456 -2.0402e-05 -6.9155e-06 -0.52158 -6.6181e-05 1.4346e-05 2.9502e-05 0.00022271 -7.9156e-06 -0.00026188 0.06382 -0.00057812 0.00027855 0.00023508 0.00068233 -0.00015523 -6.0163e-06 5.0729e-05 7.5915e-05 0.0030071 3.6428e-05 -1.9174e-05 -6.5796e-05 0.28234 3.3878e-05 0.00076685 -0.00015755 -0.00033489 6.1617e-07 0.00014358
-1.998e-07 1.6322e-07 2.2279e-07 1.6791e-05 -1.3294e-05 4.323e-06 1.4461e-06 6.0774e-07 2.5408e-05 -6.5264e-06 1.8145e-06 0.35954 -1.1775e-06 1.9417e-06 0.28435 -4.238e-06 3.786e-05 1.1014e-05 1.7121e-05 -9.3113e-06 -3.5393e-06 6.4871e-06 -3.9983e-06 1.5973e-05 0.25243 -3.2667e-05 -6.4695e-06 3.3017e-05 -4.8895e-07 -7.0438e-06 -5.7826e-08 1.1434e-05 3.4871e-05 -1.1379e-06 1.5306e-05 8.5141e-08 5.7557e-05 3.4956e-05 -7.6744e-06 6.6212e-05 0.21701 -4.3973e-05 -1.0243e-05 -5.9937e-07 1.0816e-05 -1.0111e-06 -7.9739e-06 8.7955e-06 2.4474e-06 0.35093 -1.2617e-05 2.67e-06 1.7962e-05 -5.2532e-05 9.3747e-06 -3.8164e-06 -2.5712e-06 0.00021936 8.7747e-06 -1.2417e-05 -1.2799e-06 6.5503e-05 3.1561e-05 -7.391e-06 -4.2653e-06 2.4959e-05 3.6189e-06 2.7774e-05 2.3172e-07 1.1272e-05
-7.2256e-07 8.7515e-08 -1.1863e-07 1.4047e-05 -7.2784e-06 4.9289e-06 1.5784e-06 3.8286e-07 1.8785e-05 -6.5633e-06 5.5732e-06 4.2364e-05 -9.6013e-07 2.3713e-06 0.31516 -4.5362e-06 3.6447e-05 9.1027e-06 0.75818 -2.5841e-05 -3.6871e-06 6.7857e-06 -2.162e-06 1.2828e-05 0.27978 -9.6354e-06 -8.2131e-06 5.635e-05 -1.9724e-07 -5.2887e-06 4.1467e-07 9.913e-06 6.0917e-05 -9.7e-08 1.5296e-05 5.9346e-07 2.9714e-05 -2.0392e-05 -1.6502e-05 4.3906e-05 0.24051 -4.7322e-05 -1.0934e-05 2.976e-05 2.4719e-05 -1.995e-06 -3.075e-05 1.6506e-05 2.2717e-05 0.38887 -1.4453e-05 -1.4316e-06 1.4881e-05 -2.8587e-05 1.5374e-05 4.2333e-06 -6.0415e-06 0.00015609 1.2064e-05 3.3558e-05 7.3108e-05 7.3395e-05 1.6928e-05 -2.2868e-05 -8.2554e-06 2.2549e-05 3.5459e-06 1.8536e-05 2.0733e-07 -4.2543e-06
-6.1502e-06 0.51842 1.8274e-06 -3.5616e-06 5.4935e-07 -4.1121e-06 3.7135e-06 3.6436e-05 1.4858e-08 -4.088e-07 5.137e-05 0.00011167 -6.6377e-07 -1.5765e-06 1.126e-06 4.9268e-06 -1.3699e-05 -4.7612e-06 -1.8239e-06 -6.7595e-06 -4.7942e-08 -1.0187e-06 4.5275e-06 -1.7915e-06 -2.5884e-05 2.327e-06 -1.2574e-06 -4.3281e-06 6.2309e-06 0.00020209 -4.1719e-06 -9.9517e-06 8.5146e-06 2.3999e-06 1.5223e-05 -5.4274e-07 -4.103e-05 0.00060416 -7.8714e-05 3.005e-06 -1.9238e-06 -4.8101e-05 1.1195e-05 3.926e-05 0.26052 8.4468e-06 -7.0479e-05 -1.706e-05 -0.000178 -3.5468e-05 8.707e-06 5.6205e-06 -4.1804e-05 0.44777 -8.6378e-06 -3.675e-05 0.00091527 1.1251e-05 3.1423e-06 0.00092827 -0.00030989 7.5741e-06 0.00014732 -3.1008e-05 0.00016404 7.7517e-06 1.7589e-05 -2.5345e-05 -2.8812e-05 -1.1258e-05
8.8277e-05 6.6594e-07 6.8175e-06 1.1756e-05 2.0752e-05 3.1275e-05 0.10198 0.14785 1.1753e-05 8.3855e-06 0.00024283 7.0542e-05 -7.8471e-06 5.4658e-06 -1.0292e-05 -8.4972e-06 -1.3926e-05 -3.2905e-05 -2.0727e-05 0.00017269 2.9301e-05 3.4061e-05 5.309e-06 6.4914e-06 -1.9024e-05 2.9429e-06 6.3522e-06 -9.2182e-06 6.2543e-05 0.00055691 5.3667e-05 -1.2526e-05 0.00057628 9.4098e-06 -3.1336e-05 7.5749e-06 -0.00021986 0.00091168 0.00044879 -0.00024875 4.3953e-05 -4.4651e-06 0.00018939 -2.4503e-06 0.0019635 -2.1467e-05 0.0020561 -5.6064e-05 0.0020765 2.2206e-06 6.5728e-05 -2.2692e-05 0.00022746 0.010186 -3.5416e-06 0.00043744 0.00030985 1.2715e-05 0.12472 0.00094738 0.003975 1.876e-05 -0.00047403 -7.1388e-05 0.23379 -2.5028e-05 -0.00042424 -0.00012163 -7.3644e-06 -0.00022611
6.5206e-07 -3.8503e-07 -3.3946e-07 1.7339e-05 9.9472e-06 -4.255e-06 3.2925e-05 -1.53e-07 4.9993e-07 -1.9757e-05 -3.2842e-06 3.1049e-06 -1.5221e-06 2.191e-06 3.2101e-05 2.2012e-05 3.975e-06 4.8442e-05 -3.6289e-07 3.4072e-05 7.5978e-07 1.089e-06 3.8143e-07 5.0187e-07 -5.7333e-05 4.8474e-06 1.0689e-05 -4.1739e-06 -3.5406e-07 1.4449e-06 -1.6265e-07 0.41372 1.8019e-05 -1.0329e-06 2.2601e-06 -4.1246e-06 2.0022e-06 -2.2216e-06 0.00040681 1.3435e-05 -5.3469e-05 3.3451e-06 2.3971e-05 -5.0604e-06 3.8695e-06 -3.4543e-06 1.3747e-05 8.7171e-07 -1.3962e-05 1.3495e-05 2.5586e-05 -2.538e-05 8.3572e-06 -7.8442e-06 4.7504e-05 -3.8572e-05 1.6592e-06 -3.9541e-06 -1.7035e-07 -3.5612e-05 -1.914e-07 -4.4369e-06 5.708e-05 1.3584e-05 4.4413e-05 1.784e-05 -0.00017504 1.2473e-05 8.115e-07 1.5709e-05
2.8653e-06 1.307e-06 -3.4232e-05 0.16511 -0.00016782 -8.4257e-05 -2.7827e-05 -1.5142e-05 -9.5804e-05 0.062169 -1.8101e-05 -1.1704e-05 8.202e-08 -2.5187e-06 -1.5959e-05 1.5806e-05 -1.4038e-06 -0.14044 4.6543e-06 2.2057e-06 2.5829e-06 2.241e-05 -7.8679e-06 7.4781e-06 8.9116e-06 -8.6324e-05 -5.9013e-05 0.00025029 0.00018547 -3.9461e-06 2.1838e-06 9.1405e-06 0.20541 0.53621 3.9061e-05 -5.5509e-06 9.4175e-06 1.7401e-05 -0.00012979 6.6855e-05 -3.9342e-05 1.3984e-05 0.40499 2.8797e-05 0.28281 7.6843e-06 0.00013836 4.1265e-05 -0.00024331 1.3895e-05 -0.00039009 -2.9043e-05 3.9886e-05 -1.5296e-05 1.151e-05 1.6367e-05 1.5911e-05 -3.2325e-05 -1.8972e-05 0.20406 -0.00049651 5.0372e-06 0.00019774 5.2923e-05 0.0001994 -3.2731e-05 -1.9879e-06 -0.00056349 -3.2295e-05 9.4093e-05
-4.7558e-06 -8.9489e-07 0.19217 7.013e-06 0.075857 0.1591 5.3466e-07 -3.6521e-06 0.01719 -1.1094e-05 -5.5099e-05 1.7672e-06 1.2441e-05 -2.7765e-06 1.2281e-05 1.4865e-05 3.336e-07 4.3234e-05 1.9165e-05 -1.5956e-05 0.39617 0.39178 0.18652 7.6408e-06 0.11724 0.007376 -4.8531e-05 0.26208 -7.1475e-06 0.00013097 2.7391e-06 1.131e-06 0.12418 -8.5523e-07 0.32978 8.4238e-06 -9.4704e-05 -1.6723e-05 -0.00020087 2.032e-05 0.10094 -9.5344e-05 0.23954 -4.4425e-05 -2.2058e-05 -2.1312e-06 7.9657e-05 0.32983 -0.00020908 -1.0185e-05 0.1798 -1.0308e-05 0.1996 6.447e-06 -2.824e-06 -2.9492e-05 -9.754e-06 1.6805e-05 -1.1796e-06 0.12442 0.00014245 4.2801e-05 2.7132e-05 0.27573 0.00011492 -1.7051e-05 -3.0465e-05 0.32197 3.8165e-07 -2.0454e-05
4.6785e-06 2.4023e-06 6.0146e-06 -1.5241e-05 7.5181e-05 -2.7922e-06 0.14159 0.00064387 -8.4627e-05 1.1337e-05 -1.4813e-05 -6.3337e-07 1.7011e-05 6.9142e-08 0.00011118 0.38107 -2.7311e-05 -7.4676e-05 -9.1237e-06 1.4075e-05 -2.3344e-05 -1.5345e-05 0.00025742 -7.0423e-06 0.11764 0.00016163 0.26735 0.00013325 -1.3475e-05 -3.1644e-05 1.3867e-05 -0.00085966 0.12488 0.00019711 -0.00015196 -3.0479e-06 -1.0059e-05 7.8344e-05 -0.00016968 -8.2464e-05 6.2765e-06 0.00032422 -0.00010515 -3.3596e-05 0.00073915 2.3825e-05 0.33345 -0.00010609 -0.00015473 0.00062309 2.1526e-05 -1.1647e-05 -1.7646e-07 0.00017167 -4.9565e-05 0.30113 8.3816e-06 4.1986e-05 -3.1532e-05 0.12548 -1.7007e-05 -7.1113e-05 -0.00039218 0.0029856 -0.0002584 0.083444 0.00011322 0.00012901 -9.6218e-06 1.5838e-05
-2.1618e-06 4.0784e-07 1.7938e-06 4.578e-06 2.4423e-06 -4.1456e-06 -5.7073e-05 5.1137e-07 2.6782e-06 -2.4432e-06 5.309e-06 -1.4094e-05 1.0003e-07 -4.8544e-08 1.3641e-05 -3.4226e-05 -4.2506e-05 7.4139e-06 5.8773e-07 0.32869 2.3846e-06 9.7564e-07 -3.5477e-06 -1.6522e-07 -0.00018155 -1.3839e-06 2.1055e-06 9.3467e-07 1.0206e-06 2.2863e-06 -7.8902e-07 0.00035969 -4.2844e-05 2.057e-06 1.6982e-05 -2.6941e-06 2.9724e-06 -0.0001674 -2.1574e-05 5.0021e-06 -1.047e-05 -3.1052e-05 3.3163e-05 3.5192e-05 6.4618e-06 4.4511e-08 -1.1073e-05 4.393e-06 1.0043e-06 6.9641e-05 5.952e-06 -2.969e-05 2.454e-05 -0.00018181 2.425e-05 9.1981e-05 -2.5636e-07 -5.9053e-06 0.00022267 -2.5444e-05 -6.9418e-05 -3.2856e-06 2.9911e-05 1.0879e-05 8.7711e-07 -1.3407e-06 -1.015e-05 8.0135e-06 2.5145e-07 9.7693e-06
-1.6885e-06 -4.0867e-07 -1.2801e-07 -3.4842e-06 -1.4971e-06 5.63e-07 -2.1855e-05 0.00018999 -6.5517e-06 4.8462e-06 6.9569e-07 -1.929e-06 -9.8662e-06 -6.2596e-06 2.6853e-07 2.4488e-07 -3.9292e-07 -1.7608e-05 -1.3885e-05 -2.8317e-05 9.7432e-07 5.6329e-08 -7.96e-07 -8.8004e-07 -4.6427e-07 -5.9759e-06 2.1799e-08 -1.17e-05 -7.123e-06 8.5811e-05 1.4613e-06 -2.4432e-07 1.1746e-05 -8.6499e-06 1.3491e-06 4.639e-05 -0.00010011 0.00018532 -2.6399e-06 6.9996e-05 2.2959e-05 3.5196e-06 5.82e-05 7.7756e-06 -0.00016436 3.5345e-06 -1.2349e-05 1.0745e-07 -1.2814e-05 5.8508e-06 -2.5254e-06 5.5506e-06 -2.9868e-05 2.8747e-05 1.3094e-06 -6.914e-06 3.1681e-05 0.0005772 0.92497 -1.2207e-06 -1.5943e-05 -1.512e-07 -2.2119e-05 -2.7641e-06 -0.00030918 1.1324e-06 -3.3304e-05 -1.5975e-05 6.4437e-07 0.00023202
-3.0442e-07 -1.0762e-08 0.010708 0.15833 0.20851 1.2142e-05 2.4361e-05 1.0152e-06 0.23032 0.0597 7.0741e-06 0.26487 1.9455e-07 0.51082 0.20945 -1.5442e-06 0.33801 -0.13467 1.2988e-05 7.7256e-06 4.4673e-06 1.4107e-06 -2.3398e-06 0.37862 0.18594 0.059429 -7.4174e-06 -0.00012036 -4.1031e-07 -1.118e-05 1.2585e-07 7.0526e-06 2.8228e-05 3.7948e-08 4.0888e-05 2.2573e-06 -3.6244e-05 1.9944e-05 -2.0949e-05 0.00038195 0.15987 -2.2301e-05 3.1202e-05 6.5286e-05 1.278e-05 4.5865e-07 -5.2842e-06 8.6651e-06 -8.6804e-06 0.25845 -0.11413 6.2522e-06 1.5789e-05 -3.5056e-05 5.29e-06 -6.8163e-07 -1.1125e-06 0.00072832 7.8897e-06 -6.8652e-06 2.4063e-05 4.2707e-05 5.9927e-05 -8.8636e-05 8.1717e-06 3.7006e-05 -2.6892e-06 2.5288e-05 2.5154e-06 0.46469
4.8399e-05 -4.3233e-08 -1.542e-05 3.0471e-05 -4.6137e-06 -1.2179e-05 1.5504e-05 0.00010884 3.8468e-06 4.8999e-06 0.00042921 -1.2088e-05 1.1771e-06 1.0333e-07 5.5872e-06 -1.9959e-05 -1.521e-06 -2.3974e-06 2.5116e-05 -1.7967e-06 1.1839e-06 9.2575e-08 4.4378e-05 -1.4055e-06 -0.00019022 -2.969e-05 -7.7645e-05 1.0598e-05 0.00013052 0.3396 0.57735 -4.3867e-06 0.16476 -2.1732e-06 -9.0244e-05 3.9058e-06 5.168e-06 -1.1467e-05 0.00055951 -1.4529e-05 -6.7568e-06 7.6224e-07 0.00050529 1.5614e-05 0.00098254 8.5124e-06 -0.00016486 -4.7483e-05 0.0040666 3.7113e-05 3.4777e-05 -4.6776e-05 0.26261 0.00043633 -2.1805e-05 0.00088478 1.1034e-05 -7.5322e-06 -0.00013338 0.1672 0.0004346 1.0835e-05 -0.00013687 -0.00044293 0.00097645 -0.00027504 0.00012853 -0.00022611 -9.8893e-07 -1.1894e-05
-3.4284e-07 2.1941e-07 0.011055 0.16343 0.21524 1.2339e-05 -2.7596e-05 2.1452e-07 0.23774 0.061621 -2.4127e-05 0.2734 -5.7426e-07 3.4775e-08 0.21619 -1.0744e-06 0.34891 -0.13901 1.1129e-05 -4.4453e-07 2.5613e-06 1.9364e-06 -1.5596e-06 0.39083 0.19192 0.061322 -7.2401e-06 -0.00010781 -3.0442e-06 -1.1037e-05 -1.3793e-07 7.7458e-06 3.1516e-05 1.4989e-06 4.1774e-05 -1.4179e-06 -3.9595e-05 2.1337e-05 3.4777e-06 0.51246 0.165 -2.3511e-05 6.6822e-05 7.1992e-05 1.7509e-05 -2.0374e-06 8.3738e-06 8.9897e-06 1.3782e-05 0.26679 -0.11781 8.1462e-06 1.564e-05 -3.534e-05 1.3719e-05 2.8969e-06 -1.7221e-06 0.031315 3.318e-05 -1.2395e-05 2.4474e-05 5.0369e-05 0.00014474 -8.6196e-05 -0.0003143 3.6744e-05 -5.664e-06 2.2803e-05 1.0241e-05 8.9256e-05
-1.9127e-05 -1.6789e-06 -2.0319e-05 1.7089e-06 -1.7535e-05 -2.1623e-05 4.7858e-06 3.0121e-05 6.6783e-06 2.1831e-07 -6.8976e-06 -7.2495e-05 2.8487e-07 -1.5244e-07 -9.7363e-06 4.8108e-06 1.2582e-05 1.3566e-07 -4.5622e-07 -0.00029329 -3.7295e-05 3.8684e-06 6.4831e-05 3.8883e-06 5.0485e-05 -3.1979e-05 1.2567e-05 2.3205e-05 -5.1967e-06 -4.3605e-05 -2.3805e-07 -3.9796e-06 5.5338e-05 4.9991e-06 1.9092e-05 1.7678e-05 3.9439e-05 0.63722 -3.3713e-05 1.3171e-06 -8.8103e-06 -0.00047097 -0.00016196 7.7446e-06 -1.2519e-05 -1.7528e-06 -0.00056344 -7.2487e-06 -6.4687e-05 -2.1588e-05 -9.2508e-06 6.1386e-06 0.4051 0.0082753 -1.1706e-05 1.355e-05 -4.8099e-05 -1.7177e-05 -0.00040572 0.00013386 -2.1572e-05 6.7876e-06 4.4832e-06 -3.5244e-05 -0.00012574 3.8481e-06 3.6058e-05 -0.0003725 1.1657e-07 -3.6428e-06
2.3855e-06 2.3394e-07 0.23344 1.168e-06 0.092174 6.7425e-06 4.3349e-06 -1.1462e-06 0.020851 -3.1417e-06 -7.0253e-05 -3.113e-06 1.844e-05 -1.0502e-05 -1.3453e-05 4.9333e-06 4.4644e-07 9.4269e-06 1.895e-05 3.4078e-06 0.48132 0.47556 0.22637 6.3319e-06 0.14255 0.0089229 -9.6176e-07 0.31794 2.1553e-06 0.000182 1.2929e-06 -1.2873e-06 9.7911e-05 -5.524e-06 0.0002328 1.4198e-06 -6.8978e-05 -4.0948e-06 -0.00024194 1.8066e-05 0.1231 1.5026e-05 0.289 1.9251e-05 -3.4842e-05 4.4024e-07 0.00011318 0.00016951 -0.0002579 -5.5246e-05 0.21871 3.7892e-06 0.24055 -3.7169e-06 -3.4197e-05 -5.082e-05 -2.6584e-05 1.5277e-05 -4.2485e-06 7.2435e-05 0.00017567 -3.1015e-05 1.7965e-05 0.00068058 0.00025083 -2.1073e-05 -2.5419e-05 -7.0727e-05 3.8355e-07 -4.9121e-05
2.0789e-06 4.855e-07 -6.068e-07 0.17103 -4.5368e-05 -0.00017595 1.5869e-05 2.5597e-07 -2.209e-06 0.064473 7.8289e-06 1.0727e-05 -3.7857e-07 -1.0019e-05 -5.233e-05 6.9516e-05 4.3498e-05 -0.14544 3.3681e-06 -7.3727e-05 -1.1381e-06 -5.766e-06 1.6952e-05 3.3199e-06 0.20095 -9.5489e-06 -4.3464e-06 1.0085e-05 -9.3442e-07 -4.1535e-06 3.0404e-07 7.8763e-06 4.8723e-05 8.7126e-08 2.6802e-05 0.66003 -9.4421e-06 -0.00044897 1.1724e-06 -2.0272e-06 0.17267 0.57707 1.9816e-05 -6.6586e-06 1.2249e-05 4.8801e-05 -7.5426e-07 -2.3392e-05 -3.9093e-06 -0.00024034 1.8285e-06 1.7214e-06 -5.1974e-06 -0.0001635 0.53343 1.4051e-05 -9.0448e-06 4.3991e-05 7.9066e-05 0.00010098 2.7345e-05 8.3726e-05 9.9054e-06 -3.8444e-05 -1.3412e-06 4.9854e-06 -2.2581e-05 2.5537e-05 8.2534e-07 -3.7592e-05
-1.7305e-06 -1.1804e-06 0.26234 0.13167 0.27404 5.9811e-05 1.6792e-05 3.7055e-06 0.2161 0.049533 1.7173e-05 -0.00013645 -0.00015023 3.1514e-05 -4.0047e-05 2.9726e-05 5.8415e-05 -0.11179 6.7556e-05 2.0684e-06 -0.00026882 0.00016382 0.24594 1.9362e-05 1.197e-05 0.058564 4.6512e-06 0.37354 -3.5202e-06 0.00018019 -7.9605e-07 9.5268e-06 1.15e-05 1.1499e-05 -0.0004329 5.7743e-06 0.37753 2.4894e-05 -0.0006281 -0.00014957 0.00010273 9.781e-06 -0.001357 0.00019016 -3.1419e-05 -9.8204e-09 -0.0022397 -0.0001381 4.1968e-05 -0.00051535 0.14447 4.1e-05 0.26334 0.00035483 -3.4802e-06 0.00016833 -5.6514e-05 0.00011628 1.8501e-05 0.001345 -0.00038978 -8.2705e-05 -2.3845e-05 0.0010698 3.7792e-05 -1.9775e-05 -0.00030269 0.00052936 9.8508e-08 -0.0001733
-2.7613e-06 -1.2926e-06 0.26235 0.13167 0.27416 5.3224e-05 1.7568e-05 3.7009e-06 0.21612 0.049534 1.6722e-05 -0.00014647 -0.0001491 2.508e-05 -8.4008e-05 3.0659e-05 5.9604e-05 -0.11179 6.6394e-05 6.018e-06 -0.00022181 -7.546e-05 0.24598 2.7049e-05 0.00025358 0.058581 2.3863e-06 0.37336 -6.3495e-07 0.00019683 -2.9702e-06 1.7633e-06 3.4085e-05 1.2096e-05 -0.00048533 4.9128e-06 0.37753 2.5561e-05 -0.00062701 -0.00015789 0.00093931 1.1035e-05 -0.0017104 0.0001889 -3.5881e-05 -2.4517e-06 -0.0022415 -0.00037075 4.1307e-05 -0.00058058 0.1448 3.9239e-05 0.26128 0.00035559 -4.3852e-05 0.00016993 -6.5509e-05 0.000114 1.6948e-05 0.0012886 -0.00039273 -0.000146 -3.6845e-05 0.0010685 4.5474e-05 -3.9137e-05 -0.00028842 -0.00048844 8.0649e-08 -0.00019876
-1.998e-07 1.6322e-07 2.2279e-07 1.6791e-05 -1.3294e-05 4.323e-06 1.4461e-06 6.0774e-07 2.5408e-05 -6.5264e-06 1.8145e-06 0.35954 -1.1775e-06 1.9417e-06 0.28435 -4.238e-06 3.786e-05 1.1014e-05 1.7121e-05 -9.3113e-06 -3.5393e-06 6.4871e-06 -3.9983e-06 1.5973e-05 0.25243 -3.2667e-05 -6.4695e-06 3.3017e-05 -4.8895e-07 -7.0438e-06 -5.7826e-08 1.1434e-05 3.4871e-05 -1.1379e-06 1.5306e-05 8.5141e-08 5.7557e-05 3.4956e-05 -7.6744e-06 6.6212e-05 0.21701 -4.3973e-05 -1.0243e-05 -5.9937e-07 1.0816e-05 -1.0111e-06 -7.9739e-06 8.7955e-06 2.4474e-06 0.35093 -1.2617e-05 2.67e-06 1.7962e-05 -5.2532e-05 9.3747e-06 -3.8164e-06 -2.5712e-06 0.00021936 8.7747e-06 -1.2417e-05 -1.2799e-06 6.5503e-05 3.1561e-05 -7.391e-06 -4.2653e-06 2.4959e-05 3.6189e-06 2.7774e-05 2.3172e-07 1.1272e-05
-4.5572e-07 1.0038e-07 0.010915 0.16136 0.21254 1.2978e-05 -2.819e-05 1.2638e-07 0.23474 0.060842 -2.5811e-05 0.26995 -6.9343e-07 5.5979e-07 0.21346 -1.6506e-06 0.3445 -0.13726 1.0638e-05 -4.1444e-06 2.5004e-06 5.406e-07 -2.0119e-06 0.38592 -3.5638e-05 0.060544 1.0241e-06 -0.00011806 -2.3959e-06 -1.3082e-05 -2.5559e-07 2.5176e-06 -4.8049e-06 2.1817e-06 3.3076e-05 -2.6865e-07 -3.7081e-05 2.4325e-05 2.2521e-06 0.50602 0.16294 -1.6794e-05 5.6434e-05 6.6322e-05 1.8833e-05 -1.977e-06 7.5955e-06 7.71e-06 1.3286e-05 0.26344 -0.11629 6.8343e-06 -1.0959e-06 -2.8032e-05 9.6571e-06 -1.9464e-05 -7.1276e-07 0.031176 3.2163e-05 -3.9986e-05 2.3229e-05 0.51544 0.00014246 -7.2733e-05 -0.00030834 3.6938e-05 -8.5429e-06 2.6713e-05 1.0335e-05 8.5111e-05
-1.777e-06 2.4857e-07 -4.8898e-05 0.20801 -9.0249e-05 1.3082e-05 -1.9655e-05 5.2603e-06 -4.7653e-05 0.078371 -1.8525e-05 -1.6594e-05 -3.1292e-07 5.2634e-06 -5.5705e-05 4.0656e-06 4.8979e-06 -0.17678 -2.648e-06 -4.3204e-05 1.367e-06 8.9107e-06 -2.109e-06 1.7663e-05 0.24958 -4.0023e-05 8.0295e-06 2.6729e-05 -4.0795e-07 7.9851e-06 3.338e-07 -6.7465e-05 -0.00035698 -1.4877e-06 -0.00017176 -5.6742e-06 1.1864e-05 6.1921e-06 -2.288e-05 1.3694e-05 -8.8376e-05 -2.5216e-05 -0.00015857 -8.8985e-06 2.3375e-06 2.5993e-06 1.7415e-06 -5.1615e-05 6.4018e-06 -9.8867e-05 -8.9197e-05 1.4271e-06 -6.8548e-05 8.1631e-06 -6.5348e-05 -0.00010756 5.7094e-06 -1.6781e-05 2.1512e-05 -0.00020528 2.5201e-05 0.00023097 -0.00010658 -3.6025e-05 -6.8585e-05 -1.1846e-06 -5.9352e-05 -1.854e-05 -3.5765e-07 -6.2885e-05
-1.6805e-06 6.8779e-07 -2.3307e-06 3.9636e-05 -2.2496e-05 1.866e-05 2.4205e-05 1.1537e-06 1.94e-05 -2.0352e-05 -2.2138e-06 -9.4805e-06 -2.2029e-05 -8.2133e-07 0.16503 2.453e-05 1.1056e-05 5.5975e-05 1.3059e-07 -4.9936e-06 1.0114e-06 1.1062e-05 1.0732e-05 -2.8416e-05 -0.00037262 -3.987e-05 0.68136 -1.3202e-06 -1.2189e-05 5.9189e-06 1.3647e-05 1.0744e-05 0.15754 6.1375e-06 -0.0001366 -2.3937e-07 4.7368e-06 2.5088e-06 3.2486e-05 -2.525e-06 0.12649 -1.8982e-05 2.2434e-05 -0.0011336 6.873e-06 1.744e-05 -1.0525e-05 4.5937e-05 -5.5555e-06 -0.00020027 -3.919e-05 -9.6607e-05 -0.00012092 -7.6126e-06 -4.8103e-05 -0.00016731 -4.927e-06 3.2723e-05 4.9255e-06 0.15711 -5.3432e-06 -0.00032916 -2.0132e-05 0.00048926 1.3955e-05 0.70464 -2.7614e-05 -0.00033768 5.1628e-07 -3.4787e-06
-2.5523e-06 0.58553 2.4994e-06 3.2019e-06 3.9487e-05 0.00019836 5.2769e-06 0.35036 -4.0481e-05 -2.8474e-06 -0.0001626 -4.8925e-06 -2.1072e-05 6.4572e-07 5.0909e-05 0.00051868 7.3598e-06 7.196e-06 -2.1443e-05 -7.1526e-06 1.7059e-06 2.6061e-05 -9.0503e-06 4.0115e-06 0.20177 0.00013313 -6.5023e-05 -2.6181e-05 1.5014e-05 8.9137e-07 -4.3483e-07 -9.5137e-05 0.21319 1.0061e-05 6.2128e-05 -3.3446e-06 0.00050802 -1.3801e-06 3.5179e-05 9.5359e-05 -3.1047e-05 1.0182e-05 5.149e-05 -0.0024199 0.29427 -6.7408e-05 -8.5911e-05 9.1036e-05 -0.00014388 2.8874e-05 -6.9178e-06 -2.6247e-05 -2.7021e-05 -2.6034e-05 1.0265e-05 0.00010236 5.5488e-05 -5.8472e-06 -0.00027106 0.21293 -0.000529 4.1823e-05 0.7728 -1.3555e-05 -0.00066638 -8.2266e-05 1.5896e-05 4.6021e-05 -3.7753e-05 -8.1704e-05
1.6164e-05 -3.5742e-07 5.4279e-06 0.16811 -3.1396e-05 0.27035 3.2759e-05 0.17121 -0.00018882 0.062842 -0.00013845 -2.6911e-05 -6.0206e-05 3.3608e-06 -0.00013748 1.5741e-05 -5.4519e-05 -0.14176 0.2711 -2.2047e-05 -4.3994e-05 -7.91e-05 0.00011346 2.1894e-05 5.3195e-05 -9.5757e-05 -4.8443e-07 4.7505e-05 -3.7368e-06 9.9377e-05 3.5753e-05 -3.7169e-05 6.3879e-05 -3.0055e-05 -0.00010033 1.362e-07 -0.00059591 -1.7881e-05 0.20394 1.5911e-05 1.0461e-05 -0.00052578 -0.00026828 4.3972e-05 -9.7782e-05 -3.7415e-05 6.9416e-06 4.7011e-05 -0.0005887 -9.2766e-05 -1.0081e-05 -7.9312e-06 0.00021152 0.00021908 0.00021288 -0.00022868 -1.4588e-05 -9.5631e-06 -7.5512e-05 0.0011947 -0.00038766 3.6644e-05 0.00011289 0.000742 3.099e-05 2.1935e-05 -0.00045583 -0.00011222 -3.7309e-06 -9.3368e-06
6.2096e-05 -3.8252e-07 1.3886e-05 -3.9446e-05 4.4557e-05 0.0020148 -5.4375e-05 3.4433e-05 -3.4844e-05 2.9394e-05 -2.5435e-05 -3.7797e-05 -2.5551e-07 -7.5032e-06 0.00043336 -1.6196e-05 4.4298e-05 -0.00013425 -2.1315e-05 0.32972 8.8202e-05 1.5794e-05 -3.6358e-06 -3.8841e-07 0.00017748 1.3289e-05 -7.03e-06 1.574e-06 -1.1639e-05 6.0054e-05 4.6599e-07 -3.6641e-06 0.00056243 -8.4404e-06 -0.00024741 -0.00072735 5.1106e-07 0.42473 0.00039949 1.8709e-05 -9.0467e-05 0.013569 -0.00013065 4.3728e-05 0.00085729 -1.6054e-05 0.00014857 -0.00017428 -0.00012373 0.00039375 0.00014334 -3.5983e-05 0.00028151 0.39172 2.3583e-05 -0.0002459 0.00010104 -9.5316e-06 -0.00020477 0.00115 0.001673 -0.00011673 6.0394e-06 -8.3327e-05 -0.00015508 -4.6614e-05 -4.1012e-05 -0.00035036 5.7627e-07 5.0719e-05
4.4249e-05 1.5263e-08 -5.2588e-06 0.14138 -3.6492e-05 1.4402e-05 0.00057037 -3.8826e-05 -5.5267e-05 0.053311 -2.6056e-07 -4.095e-06 1.455e-06 8.5125e-07 -1.4796e-05 6.7319e-07 -1.6882e-05 -0.12035 -2.2795e-05 -4.9584e-06 -2.1501e-06 1.3648e-05 5.5049e-06 -1.2955e-06 -1.5359e-05 -1.8266e-05 1.5285e-06 -1.2123e-05 1.7381e-05 0.00029431 -4.9901e-07 -1.1843e-05 -8.6672e-07 3.7679e-06 5.9049e-06 -1.0213e-06 -0.00022658 3.2652e-06 0.00041699 0.039517 -3.6707e-05 -6.9926e-06 -7.4679e-05 -6.6914e-05 0.0024253 -6.7213e-05 1.3575e-05 6.9121e-06 -1.8908e-05 -8.6724e-06 -5.9268e-05 -1.9829e-05 0.00098634 -4.3295e-05 -6.4767e-06 -7.9879e-05 4.6055e-06 -0.99424 0.0042921 2.9023e-05 0.010594 -1.1848e-05 -4.8453e-05 -1.2621e-05 -0.0004112 -4.4147e-06 -0.0011218 -4.6455e-05 2.7489e-05 -0.0001367
2.3855e-06 2.3394e-07 0.23344 1.168e-06 0.092174 6.7425e-06 4.3349e-06 -1.1462e-06 0.020851 -3.1417e-06 -7.0253e-05 -3.113e-06 1.844e-05 -1.0502e-05 -1.3453e-05 4.9333e-06 4.4644e-07 9.4269e-06 1.895e-05 3.4078e-06 0.48132 0.47556 0.22637 6.3319e-06 0.14255 0.0089229 -9.6176e-07 0.31794 2.1553e-06 0.000182 1.2929e-06 -1.2873e-06 9.7911e-05 -5.524e-06 0.0002328 1.4198e-06 -6.8978e-05 -4.0948e-06 -0.00024194 1.8066e-05 0.1231 1.5026e-05 0.289 1.9251e-05 -3.4842e-05 4.4024e-07 0.00011318 0.00016951 -0.0002579 -5.5246e-05 0.21871 3.7892e-06 0.24055 -3.7169e-06 -3.4197e-05 -5.082e-05 -2.6584e-05 1.5277e-05 -4.2485e-06 7.2435e-05 0.00017567 -3.1015e-05 1.7965e-05 0.00068058 0.00025083 -2.1073e-05 -2.5419e-05 -7.0727e-05 3.8355e-07 -4.9121e-05
-8.5745e-09 -1.933e-06 -0.0062942 8.729e-05 -0.17524 2.2426e-05 2.343e-05 1.6143e-06 0.22512 1.3593e-05 0.00014624 -7.8364e-05 -0.00014106 2.379e-05 5.8752e-05 -3.5885e-05 6.3885e-05 -7.2786e-05 -8.0709e-07 1.0657e-06 0.00011427 0.000212 0.0001027 1.0543e-05 -3.4682e-05 -0.68285 0.0033457 -7.6705e-05 -5.4053e-06 7.8685e-06 1.2071e-06 3.2569e-05 0.00021526 1.3945e-05 -7.0535e-05 0.00040249 3.074e-05 8.6306e-05 -0.00020201 0.00010903 0.00042456 -2.0402e-05 -6.9155e-06 -0.52158 -6.6181e-05 1.4346e-05 2.9502e-05 0.00022271 -7.9156e-06 -0.00026188 0.06382 -0.00057812 0.00027855 0.00023508 0.00068233 -0.00015523 -6.0163e-06 5.0729e-05 7.5915e-05 0.0030071 3.6428e-05 -1.9174e-05 -6.5796e-05 0.28234 3.3878e-05 0.00076685 -0.00015755 -0.00033489 6.1617e-07 0.00014358
0.37613 5.7505e-06 4.4902e-07 1.8296e-05 -1.377e-05 1.6853e-05 2.8768e-05 0.15656 1.2638e-05 -6.4183e-06 0.00028406 2.885e-05 -3.0768e-06 -1.2193e-06 -7.0102e-06 -2.0563e-06 -3.5372e-06 -2.9869e-06 8.6883e-06 7.5504e-05 -3.0007e-07 -4.2852e-06 4.7402e-06 -6.9378e-07 1.3382e-05 -3.2736e-05 1.9768e-07 -6.3033e-06 5.4144e-05 0.00064102 8.9219e-05 -4.6708e-06 4.4398e-05 -1.8047e-05 1.9743e-05 5.8765e-06 -0.00013524 0.2415 0.00035327 -1.0894e-05 8.3367e-05 -0.00020845 0.00031806 -1.3576e-05 0.00060798 -2.8108e-05 0.00080966 -4.5706e-06 0.0022382 -3.6173e-05 3.9361e-06 -1.1896e-06 0.00040116 0.22536 -6.75e-06 0.00058144 0.00041325 1.0506e-05 0.00046075 0.0010284 0.00028279 9.5512e-06 -0.00012968 -8.6299e-05 0.0020673 2.1232e-05 -2.3218e-05 -9.4442e-05 -2.8137e-06 3.8448e-05
0.24756 1.7352e-06 2.144e-05 -2.3405e-05 0.00012572 1.082e-06 8.5944e-05 -3.7403e-06 -9.0896e-06 1.9268e-05 -3.0952e-05 -5.2283e-06 2.1136e-06 -4.2515e-06 0.0002403 0.00014524 -3.3567e-05 -8.7403e-05 -1.5942e-06 1.0346e-05 -0.00017584 1.3149e-05 0.28312 -4.3192e-05 -7.0584e-05 1.9472e-05 -1.2368e-05 -2.5082e-05 1.7682e-07 7.7331e-06 3.0205e-07 -5.1137e-05 8.1868e-06 4.8792e-05 -3.7044e-05 -8.9602e-06 -2.9972e-05 2.0097e-05 0.00076789 -4.2057e-06 0.15297 0.00050071 1.9649e-05 -0.00013679 0.00010868 2.0483e-06 0.00010199 -1.7295e-05 -0.0001213 0.00068895 0.00033644 1.6152e-05 -0.00030807 0.00041654 -0.00010393 0.0010237 -6.9198e-05 4.888e-05 7.0709e-06 0.0002186 3.0596e-05 -0.00015572 -1.4516e-05 0.00074924 -2.3775e-05 -3.2829e-05 -0.00012903 -0.00012901 -2.5323e-07 -5.7188e-05
-1.0483e-07 -7.1956e-07 5.4752e-08 1.2941e-05 -1.2804e-05 4.814e-06 0.00016281 -5.4973e-06 1.4791e-06 -1.675e-06 0.00253 -5.6514e-06 -4.0621e-06 8.2586e-07 -2.2624e-07 -7.2225e-06 1.564e-06 4.9876e-06 -6.34e-06 -4.4315e-06 0.00017309 0.002018 -0.00010428 1.8322e-06 0.00010288 -2.3855e-05 -2.6787e-05 -3.8455e-05 -2.1661e-05 -8.2715e-06 5.2113e-07 1.0168e-05 0.00068344 4.0463e-05 -5.9639e-05 1.7886e-07 -4.9385e-05 9.0971e-06 0.015053 -1.6039e-05 -3.4415e-05 7.4294e-07 7.2475e-08 5.641e-05 0.0016417 -1.7979e-05 -8.0776e-06 -8.6205e-05 0.0079614 6.8723e-06 -1.2295e-05 -9.5599e-05 6.9995e-05 -3.7242e-05 -8.4528e-06 2.0648e-05 4.3876e-06 -5.1369e-06 4.1061e-06 4.9825e-05 0.00022877 1.5074e-05 -0.00025838 0.00013078 -0.00030112 -1.2858e-05 -0.00086902 -8.8823e-05 -1.624e-06 -2.6723e-05
-4.0146e-07 -1.1948e-07 0.010249 0.15154 0.19959 1.2368e-05 2.2432e-05 8.9143e-07 0.22045 0.057141 4.9033e-06 0.25352 6.7487e-08 0.48893 0.20047 -2.0319e-06 0.32353 -0.1289 1.2102e-05 3.9146e-06 4.2491e-06 6.2325e-08 -2.6829e-06 0.36242 -2.7432e-05 0.056878 5.7577e-07 -0.00012611 1.7995e-07 -1.2752e-05 8.3299e-09 1.9323e-06 -6.7178e-06 6.9541e-07 3.1462e-05 3.223e-06 -3.2799e-05 2.2148e-05 -2.1161e-05 0.00040107 0.15303 -1.5316e-05 2.0902e-05 5.8018e-05 1.3684e-05 4.7159e-07 -5.6893e-06 7.1985e-06 -8.6108e-06 0.24738 -0.10921 4.8489e-06 -4.1927e-07 -2.711e-05 1.4113e-06 -2.1618e-05 -1.3737e-07 0.00093843 6.9907e-06 -3.2629e-05 2.2152e-05 0.48406 5.6932e-05 -7.3216e-05 9.6915e-06 3.6038e-05 -5.3448e-06 2.8147e-05 2.6175e-06 0.44477
-1.4767e-06 0.00016782 3.5492e-06 8.957e-06 1.2229e-05 0.00010891 0.00011325 0.00062626 -2.9231e-05 -1.9286e-06 0.0016813 -2.5063e-06 -1.6276e-05 -1.8955e-06 2.0616e-05 0.00041987 3.6193e-06 7.7191e-06 -1.8461e-05 1.9115e-05 0.0001149 0.0013484 -7.566e-05 -3.9596e-09 0.00014162 6.793e-05 -2.5243e-05 -5.1915e-05 -1.2845e-05 -8.8157e-06 -4.472e-07 0.00019983 0.0004757 2.5456e-05 -3.8951e-05 -6.7754e-07 0.00029895 7.0725e-06 0.010166 -9.8153e-06 -3.2943e-05 1.581e-06 3.281e-06 -0.0014568 0.0009766 -1.3462e-05 -6.0205e-05 -6.4783e-05 0.005199 -8.519e-07 -2.5772e-05 -6.8727e-05 1.2983e-05 -5.1711e-05 -5.4933e-06 7.9476e-06 -5.1684e-05 -0.00010019 -2.6947e-05 0.00049756 3.5916e-05 7.3369e-06 0.0020419 9.7417e-05 -0.00035092 -5.3682e-05 -0.00061358 -0.00010124 6.2317e-05 -9.409e-05
-1.0473e-06 2.137e-07 3.0401e-06 -1.3412e-06 -8.7475e-07 -7.0999e-07 -3.8467e-05 3.629e-05 2.8676e-06 1.7968e-06 0.28158 0.00011628 1.86e-06 -1.7017e-06 4.6223e-06 -7.726e-08 -2.2431e-05 -2.3522e-06 -3.0781e-06 -4.668e-05 -2.4739e-06 -2.8673e-05 1.066e-05 2.492e-06 -0.00011077 -3.7608e-06 -5.3485e-05 4.5723e-06 2.5472e-07 0.00010928 1.6062e-05 6.9609e-06 0.15295 8.0864e-06 -4.8033e-07 -5.6374e-06 -1.0423e-05 -0.00016262 -0.00036517 -4.6735e-05 -6.874e-05 2.7423e-06 1.2149e-05 1.0285e-05 4.5617e-05 2.2421e-05 2.4313e-05 4.5746e-05 -8.0262e-05 6.2863e-06 7.2534e-07 -1.2853e-05 -8.7341e-05 0.015407 -2.9976e-05 3.2914e-05 0.00057293 -3.4697e-06 2.5033e-05 0.15455 0.00018401 1.1787e-05 -0.00032393 -0.00012096 -1.0759e-05 -9.5956e-05 3.5993e-05 -2.4638e-05 7.6754e-07 -4.5516e-06
-3.0442e-07 -1.0762e-08 0.010708 0.15833 0.20851 1.2142e-05 2.4361e-05 1.0152e-06 0.23032 0.0597 7.0741e-06 0.26487 1.9455e-07 0.51082 0.20945 -1.5442e-06 0.33801 -0.13467 1.2988e-05 7.7256e-06 4.4673e-06 1.4107e-06 -2.3398e-06 0.37862 0.18594 0.059429 -7.4174e-06 -0.00012036 -4.1031e-07 -1.118e-05 1.2585e-07 7.0526e-06 2.8228e-05 3.7948e-08 4.0888e-05 2.2573e-06 -3.6244e-05 1.9944e-05 -2.0949e-05 0.00038195 0.15987 -2.2301e-05 3.1202e-05 6.5286e-05 1.278e-05 4.5865e-07 -5.2842e-06 8.6651e-06 -8.6804e-06 0.25845 -0.11413 6.2522e-06 1.5789e-05 -3.5056e-05 5.29e-06 -6.8163e-07 -1.1125e-06 0.00072832 7.8897e-06 -6.8652e-06 2.4063e-05 4.2707e-05 5.9927e-05 -8.8636e-05 8.1717e-06 3.7006e-05 -2.6892e-06 2.5288e-05 2.5154e-06 0.46469
4.3072e-06 5.8128e-07 -3.7372e-06 8.0705e-06 -5.9828e-05 -1.6366e-05 -8.4302e-05 -3.0336e-06 2.8766e-06 -1.0997e-06 6.4942e-06 0.35628 1.31e-06 -2.1133e-05 4.494e-05 2.2981e-06 0.4506 4.6191e-06 -1.2474e-05 0.50379 -1.7243e-06 1.3003e-06 2.8632e-06 8.354e-05 0.24799 -1.8084e-05 -6.3342e-06 2.9084e-05 -4.5996e-06 -3.2661e-05 1.8208e-06 3.22e-05 0.00058843 2.7741e-06 -3.4977e-05 -1.045e-05 4.6659e-05 2.0944e-05 -0.00012878 2.4709e-05 0.21321 -3.6155e-05 -1.056e-05 3.1333e-05 1.3946e-05 -1.5318e-07 -2.4878e-05 -0.00010248 3.4924e-06 -0.00063055 -8.1309e-05 2.036e-05 9.5562e-05 -0.00013636 3.6724e-05 0.00046445 -1.935e-05 0.00019964 0.00046187 0.0032739 -6.8637e-06 -1.6192e-06 -7.3895e-06 -9.8762e-05 -2.2033e-05 -0.0002763 -1.5479e-06 -0.00046472 -2.7259e-07 6.9494e-05
0.41633 7.9367e-08 7.1334e-07 -4.5844e-06 1.9532e-05 -2.3964e-06 0.089864 -1.7487e-06 -2.7902e-05 -1.6239e-06 -1.5167e-05 3.1147e-06 1.4341e-07 -2.3919e-06 8.6981e-06 -1.0022e-05 -1.8041e-06 -6.2167e-05 1.1491e-06 1.5379e-05 4.2937e-06 1.213e-05 -2.711e-06 -1.1819e-06 -0.00025575 6.9914e-06 1.477e-05 6.4678e-06 1.3366e-05 -7.3279e-05 4.4318e-07 -3.2691e-06 0.0010025 8.8565e-06 -7.6278e-05 -1.5802e-06 -2.2251e-07 -4.5562e-06 -3.594e-05 0.0043297 -2.167e-05 -4.2101e-06 -8.4045e-05 -3.0985e-06 -1.4456e-05 8.1127e-07 9.0805e-07 -5.8697e-05 -7.1211e-06 2.3461e-05 1.4525e-05 -1.0353e-05 -3.4527e-05 -1.1571e-05 3.5859e-05 0.0024017 2.9187e-07 -0.087786 2.8039e-05 0.0032009 -1.3471e-05 7.6322e-06 9.1289e-06 -0.00020558 -6.1608e-05 -0.00013685 1.0195e-05 -8.4138e-05 -5.6449e-06 -5.4668e-05
-1.2009e-06 -6.804e-07 -1.1177e-05 9.5321e-06 -3.7973e-05 1.0237e-05 0.39673 -1.9986e-05 -0.00024118 2.7318e-06 0.32198 -7.5118e-06 8.9316e-06 0.0010691 3.2837e-05 -0.00021534 -1.6827e-05 -5.5397e-07 1.9686e-06 4.9969e-05 -1.4323e-05 -5.6925e-05 -2.4832e-06 -3.7178e-05 0.16413 0.00010231 8.0463e-06 7.755e-05 -3.7424e-05 -0.00011453 4.4859e-06 -4.4286e-05 4.4039e-05 3.1367e-05 3.6975e-05 -3.73e-06 -4.3813e-05 -3.6004e-05 -0.0018124 0.0035968 0.14129 9.4754e-06 -0.00054566 7.7761e-05 -0.00051392 9.8878e-06 -0.00092127 2.4156e-05 -0.00063921 -0.00036374 -0.00010072 -7.3098e-05 1.1708e-05 -1.3466e-05 -5.2971e-05 -0.00026291 -9.9664e-06 0.00078738 -5.6385e-05 4.1742e-05 -1.1445e-06 1.1497e-05 0.63456 4.0707e-05 0.45583 2.563e-06 0.00016328 1.8799e-05 -1.9386e-05 0.41532
-4.7558e-06 -8.9489e-07 0.19217 7.013e-06 0.075857 0.1591 5.3466e-07 -3.6521e-06 0.01719 -1.1094e-05 -5.5099e-05 1.7672e-06 1.2441e-05 -2.7765e-06 1.2281e-05 1.4865e-05 3.336e-07 4.3234e-05 1.9165e-05 -1.5956e-05 0.39617 0.39178 0.18652 7.6408e-06 0.11724 0.007376 -4.8531e-05 0.26208 -7.1475e-06 0.00013097 2.7391e-06 1.131e-06 0.12418 -8.5523e-07 0.32978 8.4238e-06 -9.4704e-05 -1.6723e-05 -0.00020087 2.032e-05 0.10094 -9.5344e-05 0.23954 -4.4425e-05 -2.2058e-05 -2.1312e-06 7.9657e-05 0.32983 -0.00020908 -1.0185e-05 0.1798 -1.0308e-05 0.1996 6.447e-06 -2.824e-06 -2.9492e-05 -9.754e-06 1.6805e-05 -1.1796e-06 0.12442 0.00014245 4.2801e-05 2.7132e-05 0.27573 0.00011492 -1.7051e-05 -3.0465e-05 0.32197 3.8165e-07 -2.0454e-05
0.28301 6.3965e-07 8.5454e-06 0.015894 8.2899e-05 2.6745e-06 9.1154e-06 -1.5005e-05 4.3251e-05 0.55236 1.2128e-05 -5.4415e-06 6.2671e-06 2.4525e-06 -1.1687e-05 0.00010933 1.9058e-06 0.43708 -2.331e-05 -3.8933e-06 -4.5977e-06 -0.00018777 -1.6108e-05 2.0118e-06 5.3418e-06 4.8208e-05 2.1935e-05 0.00020423 5.9881e-05 -5.6285e-05 1.829e-05 1.5071e-05 0.21591 0.56073 9.0523e-05 3.3917e-06 0.00013504 0.00018828 6.4973e-05 1.2316e-05 3.4649e-05 -7.1977e-07 5.951e-05 -7.3802e-06 -4.2911e-08 7.1358e-07 0.57165 9.1892e-05 2.8259e-05 -1.4032e-05 5.6374e-05 -4.5413e-05 -0.00018207 -0.00014901 -3.7795e-05 9.8632e-06 7.8415e-06 1.222e-05 -2.6104e-05 0.21596 0.00026415 1.1436e-06 1.3266e-05 0.00015225 0.00077751 0.00065669 0.0010478 5.0626e-05 1.5251e-07 2.4524e-05
-1.6948e-06 -2.042e-07 5.4885e-07 -1.8765e-05 1.4083e-05 1.7487e-05 0.00013597 -3.2429e-06 -2.6329e-05 2.8773e-06 -0.00010597 9.3675e-05 -2.5474e-05 -2.2069e-06 -1.0903e-05 0.00014878 -1.5942e-07 -1.9528e-06 -2.2002e-06 7.0553e-06 1.2321e-06 -1.1085e-05 -3.901e-06 -3.6945e-06 9.0782e-05 0.00012635 -3.887e-05 -4.5059e-06 -1.2766e-06 -2.2201e-05 3.1197e-06 -9.1111e-05 7.7575e-05 7.699e-06 0.00073367 3.5981e-06 0.00024723 -1.7756e-05 0.0042023 1.0591e-05 1.8425e-06 -9.8371e-06 -5.4076e-05 -0.00067819 -2.8463e-05 5.2022e-06 -0.00016452 0.00042196 -6.7195e-05 -2.3631e-05 -0.00014638 -1.2547e-05 -2.008e-05 -3.0135e-05 4.2537e-06 0.33097 6.1986e-07 -3.3996e-06 -4.2391e-06 0.00043774 -3.7506e-05 2.3734e-05 5.4257e-05 0.31558 -9.9125e-05 0.0022787 -0.0002322 0.00029387 1.6679e-06 5.0303e-06
1.5931e-05 2.6343e-07 0.43838 -1.8586e-06 0.17289 -7.5152e-06 -5.4797e-06 -1.5142e-06 0.039271 -1.4516e-06 -6.8722e-06 6.1085e-06 -9.9247e-07 -7.2703e-07 -2.591e-06 -3.6471e-06 3.6947e-06 -6.7158e-06 2.5124e-06 0.00018673 -8.6053e-05 1.0203e-05 0.42549 3.5213e-06 5.4902e-05 0.016729 -4.1647e-06 -9.7964e-05 -8.2004e-08 4.0209e-06 -4.9568e-06 1.9997e-06 7.3687e-05 -7.8994e-06 1.1446e-05 -1.4811e-06 -6.6369e-05 -8.0735e-06 6.5413e-06 2.6674e-05 -0.0001086 4.6822e-06 9.229e-05 9.6621e-06 8.1869e-06 -2.873e-07 -1.6574e-05 2.2453e-05 -2.4567e-06 -5.1835e-06 0.41013 6.9532e-07 0.00067674 -2.7945e-06 -6.3677e-06 -4.0678e-05 -3.1668e-05 4.5979e-05 -4.559e-06 1.5244e-05 3.9114e-05 1.4159e-05 -1.4042e-06 -1.1277e-05 2.0998e-06 -3.3374e-06 -3.975e-06 -6.3458e-06 -6.4509e-08 5.8046e-07
-1.2457e-06 -9.2192e-07 -6.8553e-07 0.32636 -5.1997e-05 0.52003 -1.0631e-06 -7.4237e-06 -4.5509e-05 0.12301 4.304e-06 -2.0857e-05 4.8169e-07 -1.0486e-06 9.871e-07 3.7834e-05 3.4312e-06 -0.27746 2.8618e-07 -6.6622e-05 -3.8245e-06 4.1153e-05 -9.0284e-06 2.3233e-06 8.8195e-05 -2.5915e-05 -8.9786e-05 4.1043e-06 -2.535e-06 -1.8238e-05 1.7272e-06 1.3354e-05 0.40513 7.1109e-06 0.00010536 7.4005e-06 -3.6243e-05 -2.9495e-05 -9.5873e-05 8.8052e-06 -7.4238e-05 -0.00024354 0.00010452 4.0901e-05 1.2464e-05 -1.1706e-05 -6.5188e-06 0.00019458 -7.5654e-07 3.5534e-05 2.5901e-05 -3.5386e-05 -7.7753e-05 -7.5204e-05 9.6052e-06 0.00013784 1.9259e-05 -1.0336e-05 2.8276e-05 0.40333 1.03e-05 2.5507e-05 5.897e-05 -3.961e-05 -1.1617e-05 8.5249e-06 9.1418e-06 0.00023432 4.3718e-07 -9.9106e-06
-2.1343e-08 5.7629e-08 -1.1166e-07 1.1526e-07 -3.6384e-07 4.0843e-07 3.0109e-05 -3.2355e-06 1.0144e-06 -1.0173e-07 -1.9345e-06 -1.1136e-07 3.041e-08 3.7801e-07 -5.2337e-08 4.5549e-07 2.2113e-07 2.7285e-07 1.8951e-07 -5.1849e-08 -1.4619e-07 4.3362e-08 6.8929e-07 2.2234e-07 -8.7985e-07 -1.0919e-06 2.8831e-08 3.1134e-07 1.2517e-06 -2.2628e-07 3.447e-08 -3.3003e-06 -8.1608e-08 3.8548e-07 9.9493e-07 1.9322e-07 5.4295e-07 3.6097e-07 -6.3774e-06 8.1964e-06 -1.4215e-06 -1.9572e-08 -2.8189e-06 -2.1529e-06 0.0001091 -1.8879e-05 -1.1655e-07 5.0912e-07 1.7637e-06 1.3962e-06 -6.0616e-07 -6.1708e-06 4.9743e-07 -1.9144e-06 -1.1419e-06 -7.8375e-06 3.9718e-07 3.7269e-06 -3.757e-08 -6.7485e-07 -2.0711e-05 9.8714e-07 -2.4616e-05 8.7982e-09 -2.0556e-05 1.6432e-07 3.6297e-06 8.721e-07 0.9999 1.0225e-05
4.8399e-05 -4.3233e-08 -1.542e-05 3.0471e-05 -4.6137e-06 -1.2179e-05 1.5504e-05 0.00010884 3.8468e-06 4.8999e-06 0.00042921 -1.2088e-05 1.1771e-06 1.0333e-07 5.5872e-06 -1.9959e-05 -1.521e-06 -2.3974e-06 2.5116e-05 -1.7967e-06 1.1839e-06 9.2575e-08 4.4378e-05 -1.4055e-06 -0.00019022 -2.969e-05 -7.7645e-05 1.0598e-05 0.00013052 0.3396 0.57735 -4.3867e-06 0.16476 -2.1732e-06 -9.0244e-05 3.9058e-06 5.168e-06 -1.1467e-05 0.00055951 -1.4529e-05 -6.7568e-06 7.6224e-07 0.00050529 1.5614e-05 0.00098254 8.5124e-06 -0.00016486 -4.7483e-05 0.0040666 3.7113e-05 3.4777e-05 -4.6776e-05 0.26261 0.00043633 -2.1805e-05 0.00088478 1.1034e-05 -7.5322e-06 -0.00013338 0.1672 0.0004346 1.0835e-05 -0.00013687 -0.00044293 0.00097645 -0.00027504 0.00012853 -0.00022611 -9.8893e-07 -1.1894e-05
0.38548 1.17e-06 -1.1918e-06 2.5902e-05 5.8483e-06 2.9716e-06 -4.5544e-07 1.0524e-05 2.6785e-05 -2.3395e-05 0.00033626 -8.7494e-07 -2.6709e-06 -5.3355e-06 -6.7228e-06 -2.1231e-06 -1.0007e-06 -1.9657e-05 2.3545e-06 5.6069e-07 -2.1068e-06 1.9347e-06 4.4831e-06 3.7843e-06 0.00010642 -7.8752e-06 5.1978e-06 0.00021786 0.70711 0.25618 9.2171e-05 -8.0945e-06 0.00011452 0.38135 -4.1965e-06 -9.0985e-08 4.0822e-06 0.00022239 0.0004006 -0.00016461 0.11872 1.1125e-05 0.28024 1.6246e-05 0.40342 2.2484e-05 0.00010314 -2.096e-06 0.0029819 -3.7414e-05 1.424e-05 -5.7125e-06 0.00030957 0.00047916 1.4696e-06 0.00086802 7.1808e-06 8.8729e-05 -9.1816e-06 0.00040301 -0.00036196 7.7717e-06 -9.6914e-05 -5.8034e-05 0.37292 2.3545e-05 -7.7645e-05 -0.00010292 -4.3249e-05 -4.137e-05
-4.5572e-07 1.0038e-07 0.010915 0.16136 0.21254 1.2978e-05 -2.819e-05 1.2638e-07 0.23474 0.060842 -2.5811e-05 0.26995 -6.9343e-07 5.5979e-07 0.21346 -1.6506e-06 0.3445 -0.13726 1.0638e-05 -4.1444e-06 2.5004e-06 5.406e-07 -2.0119e-06 0.38592 -3.5638e-05 0.060544 1.0241e-06 -0.00011806 -2.3959e-06 -1.3082e-05 -2.5559e-07 2.5176e-06 -4.8049e-06 2.1817e-06 3.3076e-05 -2.6865e-07 -3.7081e-05 2.4325e-05 2.2521e-06 0.50602 0.16294 -1.6794e-05 5.6434e-05 6.6322e-05 1.8833e-05 -1.977e-06 7.5955e-06 7.71e-06 1.3286e-05 0.26344 -0.11629 6.8343e-06 -1.0959e-06 -2.8032e-05 9.6571e-06 -1.9464e-05 -7.1276e-07 0.031176 3.2163e-05 -3.9986e-05 2.3229e-05 0.51544 0.00014246 -7.2733e-05 -0.00030834 3.6938e-05 -8.5429e-06 2.6713e-05 1.0335e-05 8.5111e-05
1.8674e-05 -1.1052e-06 9.3764e-06 0.098372 9.765e-05 3.962e-05 2.2349e-05 0.00029496 -7.7441e-05 0.036904 0.00046414 -2.0993e-06 6.2077e-05 -3.5515e-06 -6.2056e-05 1.0933e-05 -6.4714e-05 -0.083147 -8.4202e-05 1.5922e-05 0.00074108 0.0018492 -0.00025579 7.6603e-06 4.5865e-05 5.3716e-05 5.6498e-06 0.00074118 0.00013449 0.00085527 7.8671e-05 -5.0475e-05 0.00013864 -4.4831e-06 7.2388e-05 0.00040188 0.00094725 0.0001957 0.00065995 3.0302e-05 -0.00012106 -3.4773e-05 0.00036586 -0.001473 0.34935 -0.00014227 -0.00019963 1.5098e-05 0.0026983 6.787e-05 0.00013433 -6.1722e-05 0.19625 0.0002549 0.00076098 0.00085293 1.6547e-05 -0.0012354 0.0027948 0.00043719 0.27232 4.0008e-05 -0.00052729 2.9232e-05 0.00061585 1.7735e-05 -0.00054689 -0.00012348 -4.7322e-05 3.7796e-05
7.5816e-06 -1.7872e-06 -7.7991e-06 0.08565 -1.9473e-05 0.13744 8.7918e-05 0.00011826 -7.9139e-05 0.032215 0.0015287 -1.4602e-05 -4.5686e-06 -8.5973e-06 0.00027419 1.0135e-05 8.7571e-06 -0.07272 -1.4983e-05 0.00013426 0.17553 0.17029 -0.00067509 -7.736e-06 8.3443e-05 -3.186e-05 -7.6929e-05 -8.1237e-06 -1.3137e-05 -2.3483e-05 8.5923e-06 -1.0482e-05 0.21306 2.5998e-05 -2.4933e-05 -0.00010103 -2.7406e-05 0.0012115 0.0084032 -5.8634e-06 -0.00013293 0.0085169 2.1762e-05 -1.5366e-05 0.00077816 0.00089316 -2.3221e-05 -0.00010608 0.0043149 0.00032405 4.1757e-05 -8.0883e-05 0.00020667 0.00013086 0.00067211 0.00013846 1.4067e-05 -2.2758e-06 2.2416e-05 0.21163 0.00040973 -5.9147e-05 -0.00012267 0.00015926 -0.00011348 7.206e-06 -0.00054062 -0.00014551 -3.0326e-07 3.2466e-06
1.6921e-05 -2.4366e-06 -2.7674e-06 -1.1969e-05 4.3338e-05 5.9226e-05 0.26183 -1.9008e-06 -6.0134e-05 9.6108e-06 0.0001654 6.0936e-05 -1.7725e-05 2.7564e-06 -6.9603e-06 5.3049e-05 -2.2743e-05 -4.1137e-05 0.00032974 0.0027701 8.9428e-05 4.4279e-05 -3.6908e-06 1.0913e-06 0.0012225 0.0001905 5.6721e-06 5.3436e-05 -4.4066e-06 -6.5493e-05 -1.1492e-06 -4.4027e-05 0.11668 -1.0866e-05 -0.00011046 0.00035256 -8.626e-05 0.00025847 0.43991 -0.00026644 -9.545e-05 -6.3528e-06 -0.0002243 -0.0028533 -0.00021218 0.00030209 7.5496e-05 -3.4335e-05 -0.00042717 -1.8882e-05 -2.464e-06 0.0015835 5.1875e-05 0.00031758 0.29067 -0.00023895 3.6978e-06 8.2751e-05 5.4461e-05 0.11819 0.00025106 7.6484e-05 0.0001159 -3.2744e-05 -0.00030162 -8.0385e-05 -0.00032439 -0.00021501 0.00010862 -0.00026882
-1.8766e-07 -2.4961e-06 -6.623e-06 -5.2847e-06 -7.9444e-05 1.5049e-05 -6.8895e-06 -2.2613e-06 -0.00021063 -3.5271e-06 2.854e-06 3.1614e-05 0.37598 -8.7631e-06 1.6184e-06 2.843e-06 -2.7356e-06 2.2858e-05 0.59301 4.7069e-06 0.00010097 1.1834e-05 2.856e-06 -2.7158e-06 4.6442e-05 -8.5374e-06 3.5612e-06 0.48748 -1.7516e-06 -0.00014519 6.4091e-07 -9.8754e-06 2.0204e-05 -6.3931e-06 0.00038754 7.0507e-06 0.51722 -2.9996e-06 2.6439e-05 -2.0268e-06 4.8042e-05 4.1686e-06 0.0007248 -8.8075e-05 -0.00076921 -9.4348e-07 -0.00057276 0.00025251 1.5794e-05 2.4001e-05 -7.4606e-05 -2.1604e-06 5.4886e-05 -3.0834e-05 1.8249e-06 -4.6597e-05 1.3684e-05 5.0729e-05 -0.00032875 9.5705e-06 0.49139 2.8e-05 2.5531e-05 0.00093612 3.8254e-06 -8.1352e-06 0.00010374 -3.1714e-05 1.783e-06 -8.8759e-06
6.4e-06 -6.5077e-07 -2.2142e-06 -2.8503e-05 1.7038e-05 1.8139e-05 0.25053 -1.9173e-06 -8.4046e-05 9.6008e-06 -7.5336e-05 0.0015687 -4.8599e-05 -1.414e-05 5.935e-05 0.00048003 3.4484e-05 -1.3958e-05 -8.2308e-06 2.5164e-05 1.1304e-05 1.0718e-05 6.9455e-06 -3.8793e-05 -0.00022083 0.00020897 0.0029587 -7.0904e-05 5.0831e-06 -5.0379e-05 7.0426e-06 -0.00016016 0.22297 2.1575e-05 -6.7559e-05 1.256e-07 0.00044064 -3.6494e-06 0.0020953 -0.00011147 0.00040188 -7.2034e-06 7.2426e-06 -0.0017625 -4.3317e-05 -1.4403e-05 -0.0002911 -6.7085e-05 -0.00010226 -0.00022204 -6.6936e-05 -0.00011289 -0.00015297 -6.437e-05 6.6215e-05 0.25993 6.4494e-06 7.8236e-05 1.564e-05 0.22467 -5.3007e-05 -5.5075e-05 -8.1493e-05 0.0011211 -0.00033796 0.00038948 -1.1776e-05 -0.00042075 -1.3215e-05 3.5821e-05
