ScoreType,Option,Medication Details,Confirm Disease Was Checked,Rule of N,Use Distinct Dates,Level of Evidence,Credentials of the Actor,Where Did It Happen?,Check For Negation
best roc_auc score for cross_validation,baseline,0.93074980575,0.664475524476,0.927777777778,0.843375168968,0.969531625782,0.959207459207,0.961079545455,0.881538461538
best roc_auc score for cross_validation,site,0.884453509454,0.684125874126,0.886426767677,0.809269288024,0.841645622896,0.884542540793,0.953409090909,0.773155594406
best roc_auc score for cross_validation,algorithm,0.858067858068,0.717027972028,0.903598484848,0.782754136509,0.960370069745,0.954472610723,0.923295454545,0.720236013986
best roc_auc score for cross_validation,CUI,0.949494949495,0.723706293706,0.941919191919,0.853376366716,0.969546657047,0.935314685315,0.961079545455,0.878295454545
best roc_auc score for cross_validation,st,0.956779331779,0.654519230769,0.903598484848,0.801092517496,0.957371332371,0.88090034965,0.973181818182,0.881695804196
"
"
roc_auc of prediction,baseline,0.985294,0.927273,0.942761,0.975,0.87619,1.0,0.718182,0.963636
roc_auc of prediction,site,0.985294,0.818182,0.878788,0.985714,0.819048,0.92381,0.830303,0.963636
roc_auc of prediction,algorithm,0.977941,0.824242,0.905724,0.989286,0.914286,0.971429,0.818182,0.939394
roc_auc of prediction,CUI,0.992647,0.89697,0.929293,0.985714,0.885714,0.990476,0.930303,0.927273
roc_auc of prediction,st,0.985294,0.763636,0.905724,0.982143,0.742857,1.0,0.963636,0.921212
"
"
precision,baseline,0.75,0.5,0.42,0.45,0.0,0.27,1.0,0.75
precision,site,0.75,0.75,0.67,0.83,0.0,0.27,1.0,0.75
precision,algorithm,1.0,0.67,0.52,0.4,0.27,1.0,1.0,0.75
precision,CUI,0.8,0.75,0.77,0.9,0.33,0.67,1.0,1.0
precision,st,1.0,0.31,0.52,0.37,0.0,0.27,1.0,1.0
"
"
recall,baseline,0.75,0.6,1.0,1.0,0.0,1.0,0.2,0.6
recall,site,0.75,0.6,0.73,1.0,0.0,1.0,0.4,0.6
recall,algorithm,0.25,0.4,1.0,1.0,1.0,0.67,0.4,0.6
recall,CUI,1.0,0.6,0.91,0.9,0.67,0.67,0.4,0.6
recall,st,0.75,0.8,1.0,1.0,0.0,1.0,0.4,0.4
"
"
f1,baseline,0.75,0.55,0.59,0.62,0.0,0.43,0.33,0.67
f1,site,0.75,0.67,0.7,0.91,0.0,0.43,0.57,0.67
f1,algorithm,0.4,0.5,0.69,0.57,0.43,0.8,0.57,0.67
f1,CUI,0.89,0.67,0.83,0.9,0.44,0.67,0.57,0.75
f1,st,0.86,0.44,0.69,0.54,0.0,0.43,0.57,0.57
"
"
"
"
