"","Medication Details","Confirm Disease Was Checked","Rule of N","Use Distinct Dates","Level of Evidence","Credentialso of the Actor","Where Did It Happen?","Check For Negation"
"1",0.210526315789474,0.222222222222222,0.333333333333333,0.181818181818182,0.666666666666667,0.434782608695652,0.538461538461538,0.833333333333333
"2",0.157894736842105,0.0555555555555556,0.833333333333333,0.363636363636364,0.333333333333333,0.173913043478261,0.538461538461538,0.166666666666667
"3",0.631578947368421,0.388888888888889,0.25,0.272727272727273,0.333333333333333,0.130434782608696,0.538461538461538,0.333333333333333
"4",0.736842105263158,0.111111111111111,0.5,0.0909090909090909,0.583333333333333,0.478260869565217,0.538461538461538,0.666666666666667
"5",0.105263157894737,0.222222222222222,0.333333333333333,0.272727272727273,0.25,0.347826086956522,0.538461538461538,0.277777777777778
"6",0.368421052631579,0.166666666666667,0.5,0.363636363636364,0.5,0.260869565217391,0.538461538461538,0.222222222222222
"7",0.0526315789473684,0.111111111111111,0.416666666666667,0.363636363636364,0.5,0.173913043478261,0.538461538461538,0.166666666666667
"8",0.684210526315789,0.111111111111111,0.333333333333333,0.272727272727273,0.333333333333333,0.0434782608695652,0.538461538461538,0.277777777777778
"9",0.526315789473684,0.111111111111111,0.333333333333333,0.363636363636364,0.75,0.130434782608696,0.461538461538462,0.166666666666667
"10",0.684210526315789,0.222222222222222,0.25,0.272727272727273,0.0833333333333333,0.304347826086957,0.461538461538462,0.388888888888889
