ScoreType,Option,Medication Details,Confirm Disease Was Checked,Rule of N,Use Distinct Dates,Level of Evidence,Credentials of the Actor,Where Did It Happen?,Check For Negation
roc_auc of prediction,none,0.963235,0.927273,0.891705,0.930303,0.82381,0.985294,0.939394,0.845455
roc_auc of prediction,site,1.0,0.963636,0.808756,0.936364,0.871429,0.8125,0.933333,0.745455
roc_auc of prediction,algorithm,0.926471,0.8,0.896313,0.766667,0.942857,0.852941,0.909091,0.815152
"
"
precision,none,1.0,0.56,0.5,0.43,0.0,0.67,0.67,0.67
precision,site,0.44,0.56,0.46,0.5,0.5,0.38,0.67,0.22
precision,algorithm,0.38,0.36,0.4,0.43,0.4,0.43,0.67,0.43
"
"
recall,none,0.75,1.0,0.86,0.6,0.0,1.0,0.8,0.4
recall,site,1.0,1.0,0.86,0.8,0.67,0.75,0.8,0.4
recall,algorithm,0.75,1.0,0.86,0.6,0.67,0.75,0.8,0.6
"
"
f1,none,0.86,0.71,0.63,0.5,0.0,0.8,0.73,0.5
f1,site,0.62,0.71,0.6,0.62,0.57,0.5,0.73,0.29
f1,algorithm,0.5,0.53,0.55,0.5,0.5,0.55,0.73,0.5
"
"
