,Medication Details,Confirm Disease Was Checked,Rule of N,Use Distinct Dates,Level of Evidence,Credentials of the Actor,Where Did It Happen?,Check For Negation,macro_f1
BOG,0.473684211,0.333333333,0.5,0.272727273,0.666666667,0.434782609,0.615384615,0,0.434
BOG+SITE,0.315789474,0.388888889,0.083333333,0.181818182,0.333333333,0.217391304,0.230769231,0.166666667,0.2613
BOG+ALGO,0.421052632,0.222222222,0.583333333,0.272727273,0.5,0.130434783,0.538461538,0.333333333,0.4005
BOG+CUI,0.578947368,0.222222222,0.333333333,0.090909091,0.166666667,0.043478261,0,0,0.2577
BOG+ST,0.315789474,0.388888889,0.333333333,0.363636364,0.166666667,0.043478261,0,0.277777778,0.279
EM+BOG,0.631578947,0.444444444,0,0,0,0,0,0,0.2298
EM+SITE,0.315789474,0.333333333,0.583333333,0.181818182,0.166666667,0.304347826,0.230769231,0.166666667,0.2996
EM+ALGO,0.526315789,0.222222222,0.25,0.272727273,0.166666667,0.043478261,0.538461538,0.333333333,0.3383
EM+CUI,0.421052632,0.388888889,0.333333333,0.363636364,0.166666667,0.47826087,0.230769231,0.333333333,0.3618
EM=ST,0.421052632,0.166666667,0.333333333,0.727272727,0.166666667,0.304347826,0.153846154,0.055555556,0.2827